Title,Advertiser/Client,Product/Service,Entrant Company,Country
A01 Savoury Foods,
CUT INTO FINEST SLICES,GIUSEPPE,PARMA HAM,"ADVICO Y&R, Zürich",SWITZERLAND
,CITTERIO
A02 Sweet Foods & Snacks,
PEACH,LC LÜSCHER CAKE,JELLY BELLY,"SERVICEPLAN, Munich",GERMANY
,,LOLLIBEANS
CHERRY,LC LÜSCHER CAKE,JELLY BELLY,"SERVICEPLAN, Munich",GERMANY
,,LOLLIBEANS
ACTION MAN,PERFETTI VAN,MINI CHUPA CHUPS,DDB PARIS,FRANCE
,MELLE
SINDY,PERFETTI VAN,MINI CHUPA CHUPS,DDB PARIS,FRANCE
,MELLE
SNICKERS,MARS CHOCOLATE,SNICKERS ICE,"CLM BBDO,",FRANCE
,FRANCE,CREAM,Boulogne-Billancourt
MARS,MARS CHOCOLATE,MARS ICE CREAM,"CLM BBDO,",FRANCE
,FRANCE,,Boulogne-Billancourt
BODY BUILDER,MARS CHOCOLATE,SNICKERS,"CLM BBDO,",FRANCE
,FRANCE,,Boulogne-Billancourt
NERD,MARS CHOCOLATE,SNICKERS,"CLM BBDO,",FRANCE
,FRANCE,,Boulogne-Billancourt
BLIND MAN,MARS CHOCOLATE,SNICKERS,"CLM BBDO,",FRANCE
,FRANCE,,Boulogne-Billancourt
A03 Alcoholic Drinks,
MOLASSES,DIAGEO,BUNDABERG RUM,,LEO BURNETT SYDNEY  AUSTRALIA
,AUSTRALIA
A04 Non-Alcoholic Drinks,
CASTAWAY,AGRO FOOD,CAFÉ TAINÁ,"GIOVANNI+DRAFTFCB,",BRAZIL
,,,Rio de Janeiro
PRISIONER,AGRO FOOD,CAFÉ TAINÁ,"GIOVANNI+DRAFTFCB,",BRAZIL
,,,Rio de Janeiro
A05 Household: Cleaning Products,
LORD'S DOG,PROCTER &,FEBREZE PET,GREY PARIS,FRANCE
,GAMBLE,ODOUR ELIMINATOR
GRANDMA'S DOG,PROCTER &,FEBREZE PET,GREY PARIS,FRANCE
,GAMBLE,ODOUR ELIMINATOR
CELEBRITY'S DOG,PROCTER &,FEBREZE PET,GREY PARIS,FRANCE
,GAMBLE,ODOUR ELIMINATOR
A06 Household: Other,
WITH 10 YEARS OF LIFE,TOSHIBA,LED BULBS,"DENTSU, Tokyo",JAPAN
,CORPORATION
MARIO GALAXY 2,ENERGIZER,LITHIUM BATTERIES,DDB MEXICO,MEXICO
CORNFLAKES,,FRESHLOCK CHINA  FRESHLOCK CLIPS,DDB GROUP HONG,HONG KONG
,,,KONG
RAISINS,,FRESHLOCK CHINA  FRESHLOCK CLIPS,DDB GROUP HONG,HONG KONG
,,,KONG
CRACKERS,,FRESHLOCK CHINA  FRESHLOCK CLIPS,DDB GROUP HONG,HONG KONG
,,,KONG
A07 Home Appliances & Furnishings,
VIKINGS,STIHL,CHAINSAW MS 880,SCHOLZ & FRIENDS,GERMANY
,,,BERLIN
SAMURAI,STIHL,CHAINSAW MS 261,SCHOLZ & FRIENDS,GERMANY
,,,BERLIN
BIRDS,STIHL/VIKING,BLOWER,"PUBLICIS CONSEIL,",FRANCE
,,,Paris
APOLLO 13 SUCCESS,DANK,SECOND HAND,"DDB&CO., Istanbul",TURKEY
,,FURNITURE
BERLIN WALL,DANK,SECOND HAND,"DDB&CO., Istanbul",TURKEY
,,FURNITURE
OBAMA ADDRESS,DANK,SECOND HAND,"DDB&CO., Istanbul",TURKEY
FURNITURE,
A08 Home Electronics &,
Audio-Visual,
MOZART,THINKING GROUP,WESTONE,DDB GROUP HONG,HONG KONG
,,EARPHONES,KONG
BEETHOVEN,THINKING GROUP,WESTONE,DDB GROUP HONG,HONG KONG
,,EARPHONES,KONG
TCHAIKOVSKY,THINKING GROUP,WESTONE,DDB GROUP HONG,HONG KONG
,,EARPHONES,KONG
A09 Cosmetics & Beauty,
KITCHEN,LABORATORIOS,BRONZING LOTION,"DDB CHILE, Santiago",CHILE
,MAVER
GARAGE,LABORATORIOS,BRONZING LOTION,"DDB CHILE, Santiago",CHILE
,MAVER
WORLD CUP ENGLAND,LYNX,LYNX DEODORANT,"BBH, London",UNITED
,,,,KINGDOM
WORLD CUP ARGENTINA,AXE,AXE DEODORANT,"BBH, London",UNITED
,,,,KINGDOM
A10 Toiletries,
KEBAB,JOHNSON &,LISTERINE,"JWT LONDON, London",UNITED
,JOHNSON,,,KINGDOM
PIZZA,JOHNSON &,LISTERINE,"JWT LONDON, London",UNITED
,JOHNSON,,,KINGDOM
BURGER,JOHNSON &,LISTERINE,"JWT LONDON, London",UNITED
,JOHNSON,,,KINGDOM
SUNDAE,JOHNSON &,LISTERINE,"JWT LONDON, London",UNITED
,JOHNSON,,,KINGDOM
A11 Pharmacy,
HEADLEG,LABORATORIOS,ACETAMINODOL,PUBLICUATRO,PANAMA
,PALM,PAIN RELIEF,"OGILVY, Panama City"
HEADARM,LABORATORIOS,ACETAMINODOL,PUBLICUATRO,PANAMA
,PALM,PAIN RELIEF,"OGILVY, Panama City"
CLUB CRUSHER,SSL HEALTHCARE,DUREX LUBRICANT,McCANN ERICKSON,ITALY
,ITALY,,"ITALIA, Milan"
NOISY NEIGHBOURS,GLAXOSMITHKLINE,PANADOL EXTRA,"OGILVY MALAYSIA,",MALAYSIA
,,,Kuala Lumpur
TRAFFIC BLUES,GLAXOSMITHKLINE,PANADOL EXTRA,"OGILVY MALAYSIA,",MALAYSIA
,,,Kuala Lumpur
"A12 Clothing, Footwear & Accessories",
REEBEAUTIFY FOOTBALL,REEBOK,SPORTSWEAR,DDB MEXICO,MEXICO
LEOPARD,WASHIN OPTICAL,BIFOCAL GLASSES,GREY TOKYO,JAPAN
,CO.
H2,VF EUROPE,WRANGLER,FRED & FARID PARIS,FRANCE
H5,VF EUROPE,WRANGLER,FRED & FARID PARIS,FRANCE
H8,VF EUROPE,WRANGLER,FRED & FARID PARIS,FRANCE
MOTION 2,VF EUROPE,WRANGLER,FRED & FARID PARIS,FRANCE
HEAVEN AND HELL,SAMSONITE,SUITCASES,JWT SHANGHAI,CHINA
GLENN HALL,SOORUZ,SURFWEAR,"PUBLICIS CONSEIL,",FRANCE
,,,Paris
CAMP,ODIS,TRAVEL LOCKS,OGILVY & MATHER,CHILE
,,,"CHILE, Santiago"
UNIVERSITY,ODIS,TRAVEL LOCKS,OGILVY & MATHER,CHILE
,,,"CHILE, Santiago"
AIRPORT,ODIS,TRAVEL LOCKS,OGILVY & MATHER,CHILE
,,,"CHILE, Santiago"
A13 Miscellaneous,
,,,AGENTA
CHECK IN AND SNACK OUT,GRANATAPET,PET FOOD,"WERBEAGENTUR,",GERMANY
,,,Berlin
FIRE TRUCK,FABER-CASTELL,COLOURED PENCILS,"SERVICEPLAN, Munich",GERMANY
DOG,CV GOLD ELITE,BUBBLES PET,GREY GROUP,INDONESIA
,INDUSTRIES,COLOGNE,"INDONESIA, Jakarta"
,CV GOLD ELITE,BUBBLES PET,"GREY GROUP,"
CAT,,,,SINGAPORE
,INDUSTRIES,COLOGNE,Singapore
A14 Cars & Automotive Services,
USA,DAIMLER,MERCEDES-BENZ,"JUNG von MATT,",GERMANY
,,,Stuttgart
UK,DAIMLER,MERCEDES-BENZ,"JUNG von MATT,",GERMANY
,,,Stuttgart
SOUTH AFRICA,DAIMLER,MERCEDES-BENZ,"JUNG von MATT,",GERMANY
,,,Stuttgart
GRETA,MERCEDES-BENZ,BRAKE ASSIST PLUS,JUNG von,SWITZERLAND
,,,"MATT/LIMMAT, Zürich"
WOLFGANG,MERCEDES-BENZ,BRAKE ASSIST PLUS,JUNG von,SWITZERLAND
,,,"MATT/LIMMAT, Zürich"
WIEBKE,MERCEDES-BENZ,BRAKE ASSIST PLUS,JUNG von,SWITZERLAND
,,,"MATT/LIMMAT, Zürich"
TRAFFIC SIGN SPEED,DAIMLER,MERCEDES-BENZ,SCHOLZ & FRIENDS,GERMANY
,,TRANSPORTER,BERLIN
TRAFFIC LIGHT,DAIMLER,MERCEDES-BENZ,SCHOLZ & FRIENDS,GERMANY
,,TRANSPORTER,BERLIN
FAMILY,VOLKSWAGEN,VOLKSWAGEN PARK,"GRABARZ & PARTNER,",GERMANY
,,ASSIST,Hamburg
GARDENING,VOLKSWAGEN,VOLKSWAGEN PARK,"GRABARZ & PARTNER,",GERMANY
,,ASSIST,Hamburg
SPORTS,VOLKSWAGEN,VOLKSWAGEN PARK,"GRABARZ & PARTNER,",GERMANY
,,ASSIST,Hamburg
OLD LADY,FORD MOTOR,LOBO,"JWT MEXICO, Mexico",MEXICO
,COMPANY,,City
BOY,FORD MOTOR,EXPLORER,"JWT MEXICO, Mexico",MEXICO
,COMPANY,,City
DOG,FORD MOTOR,EDGE,"JWT MEXICO, Mexico",MEXICO
,COMPANY,,City
RUGBIERS,FORD,FORD TRUCKS,"JWT ARGENTINA,",ARGENTINA
,,,Buenos Aires
MEXICAN WRESTLERS,FORD,FORD TRUCKS,"JWT ARGENTINA,",ARGENTINA
,,,Buenos Aires
WOODCUTTERS,FORD,FORD TRUCKS,"JWT ARGENTINA,",ARGENTINA
,,,Buenos Aires
TEDDIES,VOLKSWAGEN,GOLF,"DDB TRIBAL GROUP,",GERMANY
,,,Düsseldorf
ROSES,VOLKSWAGEN,GOLF,"DDB TRIBAL GROUP,",GERMANY
,,,Düsseldorf
BALLS,VOLKSWAGEN,GOLF,"DDB TRIBAL GROUP,",GERMANY
,,,Düsseldorf
A15 Retail Stores,
STORE OPENING,IKEA,IKEA,"GRABARZ & PARTNER,",GERMANY
,,,Hamburg
AIRHORN,HARVEY NICHOLS,,DEPARTMENT STORE  Y&R DUBAI,UNITED ARAB
,,,,EMIRATES
ALTITUDE SICKNESS PILLS,HARVEY NICHOLS,,DEPARTMENT STORE  Y&R DUBAI,UNITED ARAB
,,,,EMIRATES
DEFIBRILLATOR,HARVEY NICHOLS,,DEPARTMENT STORE  Y&R DUBAI,UNITED ARAB
,,,,EMIRATES
LIPSTICK STAIN REMOVER,HARVEY NICHOLS,,DEPARTMENT STORE  Y&R DUBAI,UNITED ARAB
,,,,EMIRATES
SMELLING SALTS,HARVEY NICHOLS,,DEPARTMENT STORE  Y&R DUBAI,UNITED ARAB
,,,,EMIRATES
PERSONALIZED TOWELS,HARVEY NICHOLS,,DEPARTMENT STORE  Y&R DUBAI,UNITED ARAB
,,,,EMIRATES
LITTLE BLACK BOOK,HARVEY NICHOLS,,DEPARTMENT STORE  Y&R DUBAI,UNITED ARAB
,,,,EMIRATES
A16 Restaurants & Fast Food Outlets,
FISHERMAN,LEGAL SEA FOODS,RESTAURANT,"DEVITO/VERDI, New",USA
,,,York
RESERVATIONS,LEGAL SEA FOODS,RESTAURANT,"DEVITO/VERDI, New",USA
,,,York
,,,COSSETTE
WORTH THE MESS,McDONALD'S,BIG MAC,"COMMUNICATION,",CANADA
Toronto,
"A17 Travel, Transport & Tourism",
,DEPT. OF
,,,"DDB DM9JAYMESYFU,",THE
LIMESTONE,TOURISM & SMART,TOURISM,Makati City,PHILIPPINES
,COMMUNICATIONS
MAC,MELCHERS,TRAVEL AGENCY,"BBDO TAIWAN, Taipei",CHINESE
,TRAVEL,,,TAIPEI
NUCLEAR,WHITE COLLAR,TRAVEL COMPANY,"BBDO INDIA, Mumbai",INDIA
,HIPPIES
SEA LEVEL,WHITE COLLAR,TRAVEL COMPANY,"BBDO INDIA, Mumbai",INDIA
,HIPPIES
A18 Entertainment & Leisure,
MEGAPHONE,PACIFIC NATIONAL,PLAYLAND,"RETHINK, Vancouver",CANADA
,EXHIBITION
AIRHORN,PACIFIC NATIONAL,PLAYLAND,"RETHINK, Vancouver",CANADA
,EXHIBITION
PLAYING THE UNDERGROUND,JEUDI,CLUB MUSIC EVENT,"JUNG von MATT,",GERMANY
,,,Hamburg
CROCODILE,COLEMAN,OUTDOOR,Y&R PRAGUE,CZECH
,,EQUIPMENT,,REPUBLIC
INDIAN,COLEMAN,OUTDOOR,Y&R PRAGUE,CZECH
,,EQUIPMENT,,REPUBLIC
ESCAPING THRU RIVER,MUSEUM OF,MUSEUM,Y&R PRAGUE,CZECH
,COMMUNISM,,,REPUBLIC
ESCAPING THRU WALL,MUSEUM OF,MUSEUM,Y&R PRAGUE,CZECH
,COMMUNISM,,,REPUBLIC
ESCAPING THRU FENCE,MUSEUM OF,MUSEUM,Y&R PRAGUE,CZECH
,COMMUNISM,,,REPUBLIC
BUTT BAG,PILATES WITH,PILATES COURSES,"CONCEPT, Istanbul",TURKEY
,GERDA
SNIPER BUS SHELTER,THE WAR MUSEUM,SNIPER EXHIBIT,"IRELAND DAVENPORT,",SOUTH AFRICA
,,,Johannesburg
,,,OGILVY & MATHER
JFK CONSPIRACY,TAMIYA,TOYS,"VIETNAM, Ho Chi Minh",VIETNAM
,,,City
,,,OGILVY & MATHER
ROSWELL CONSPIRACY,TAMIYA,TOYS,"VIETNAM, Ho Chi Minh",VIETNAM
,,,City
CATERPILLAR,LEGO,LEGO,"OGILVY MALAYSIA,",MALAYSIA
,,,Kuala Lumpur
MONSTER,LEGO,LEGO,"OGILVY MALAYSIA,",MALAYSIA
,,,Kuala Lumpur
WHALE,LEGO,LEGO,"OGILVY MALAYSIA,",MALAYSIA
,,,Kuala Lumpur
A19 Publications & Media,
BUSH,MTV NETWORKS,SAFE SEX MESSAGE,"GREY WORLDWIDE,",GERMANY
,,,Düsseldorf
TOILET,MTV NETWORKS,SAFE SEX MESSAGE,"GREY WORLDWIDE,",GERMANY
,,,Düsseldorf
IRON MAIDEN,BILLBOARD,MAGAZINE,"ALMAPBBDO, São Paulo  BRAZIL"
LADY GAGA,BILLBOARD,MAGAZINE,"ALMAPBBDO, São Paulo  BRAZIL"
MADONNA,BILLBOARD,MAGAZINE,"ALMAPBBDO, São Paulo  BRAZIL"
MICHAEL JACKSON,BILLBOARD,MAGAZINE,"ALMAPBBDO, São Paulo  BRAZIL"
ELEPHANT,ELEPHANT,MAGAZINE,"M&C SAATCHI, London",UNITED
,MAGAZINE,,,KINGDOM
GRANDMA,CNN TURK,WEATHER REPORT,"DDB&CO., Istanbul",TURKEY
HIPPIE,CNN TURK,WEATHER REPORT,"DDB&CO., Istanbul",TURKEY
NERD,CNN TURK,WEATHER REPORT,"DDB&CO., Istanbul",TURKEY
OBAMA,CNN TURK,WORLD NEWS,"DDB&CO., Istanbul",TURKEY
MERKEL,CNN TURK,WORLD NEWS,"DDB&CO., Istanbul",TURKEY
PUTIN,CNN TURK,WORLD NEWS,"DDB&CO., Istanbul",TURKEY
SARKOZY,CNN TURK,WORLD NEWS,"DDB&CO., Istanbul",TURKEY
"A20 Banking, Investment & Insurance",
"MEDINA TURGUL DDB,",
HAND TO HAND MONEY,IS BANKASI,MONEY TRANSFER,,TURKEY
,,,Istanbul
A21 Business Equipment & Services,
MALE STRIPPER,INTERBEST,OUTDOOR,"Y&R NOT JUST FILM,",THE
,,ADVERTISING,Amsterdam,NETHERLANDS
BALLOONS,GETTY IMAGES,IMAGE LIBRARY,"DDB&CO., Istanbul",TURKEY
,TURKEY
A22 Commercial Public Services,
HUNGRY BOY,ACERCA,NUTRITIONAL,"GIOVANNI+DRAFTFCB,",BRAZIL
,,CONSULTING,Rio de Janeiro
DIRTY GARAGE,ACERCA,NUTRITIONAL,"GIOVANNI+DRAFTFCB,",BRAZIL
,,CONSULTING,Rio de Janeiro
PICADILLY CIRCUS,GOOGLE,GOOGLE VOICE,"BBH, London",UNITED
,,SEARCH MOBILE APP,,KINGDOM
LEICESTER SQUARE,GOOGLE,GOOGLE VOICE,"BBH, London",UNITED
,,SEARCH MOBILE APP,,KINGDOM
COVENT GARDEN,GOOGLE,GOOGLE VOICE,"BBH, London",UNITED
,,SEARCH MOBILE APP,,KINGDOM
OXFORD CIRCUS,GOOGLE,GOOGLE VOICE,"BBH, London",UNITED
,,SEARCH MOBILE APP,,KINGDOM
MARYLEBONE,GOOGLE,GOOGLE VOICE,"BBH, London",UNITED
,,SEARCH MOBILE APP,,KINGDOM
TAXI NUMBERS,GOOGLE,GOOGLE VOICE,"BBH, London",UNITED
,,SEARCH MOBILE APP,,KINGDOM
LATEST SCORES,GOOGLE,GOOGLE VOICE,"BBH, London",UNITED
,,SEARCH MOBILE APP,,KINGDOM
RESTAURANT REVIEWS,GOOGLE,GOOGLE VOICE,"BBH, London",UNITED
,,SEARCH MOBILE APP,,KINGDOM
CINEMA TIMES,GOOGLE,GOOGLE VOICE,"BBH, London",UNITED
,,SEARCH MOBILE APP,,KINGDOM
FTSE 100,GOOGLE,GOOGLE VOICE,"BBH, London",UNITED
,,SEARCH MOBILE APP,,KINGDOM
EXCHANGE RATES,GOOGLE,GOOGLE VOICE,"BBH, London",UNITED
,,SEARCH MOBILE APP,,KINGDOM
TICKET RESERVATIONS,GOOGLE,GOOGLE VOICE,"BBH, London",UNITED
,,SEARCH MOBILE APP,,KINGDOM
TRAVEL UPDATES,GOOGLE,GOOGLE VOICE,"BBH, London",UNITED
,,SEARCH MOBILE APP,,KINGDOM
DECODE JAY-Z WITH BING,BING/JAY-Z,DECODE JAY-Z WITH,"DROGA5, New York",USA
,,BING
A23 Corporate Image,
,,CONSUMER,SHALMOR AVNON
ALL NAMES IN THE COUNTRY SHARE THE LOGO,STRAUSS GROUP,INVOLVEMENT,AMICHAY/Y&R,ISRAEL
,,PLATFORM,INTERACTIVE TEL AVIV
,VIRGIN ATLANTIC,,RAINEY KELLY,UNITED
VIRGIN ATLANTIC WORLD CUP SPONSORSHIP,AIRWAYS,AIRLINE,CAMPBELL,KINGDOM
"ROALFE/Y&R, London",
A24 Public Health & Safety,
FOUNDATION,ANTIDRUGS
COCAINE,AGAINST DRUG,FOUNDATION,"DDB SPAIN, Madrid",SPAIN
,CONSUMPTION
NISSBARU,ROAD SAFE,ROAD SAFETY,OGILVY NEW,NEW ZEALAND
,HAWKE'S BAY,,"ZEALAND, Auckland"
TOYAZDA,ROAD SAFE,ROAD SAFETY,OGILVY NEW,NEW ZEALAND
,HAWKE'S BAY,,"ZEALAND, Auckland"
PIMPLE,BREAST CANCER,BREAST CANCER,DDB SINGAPORE,SINGAPORE
,FOUNDATION,AWARENESS
BIG BOTTOM,BREAST CANCER,BREAST CANCER,DDB SINGAPORE,SINGAPORE
,FOUNDATION,AWARENESS
BAD HAIR DAY,BREAST CANCER,BREAST CANCER,DDB SINGAPORE,SINGAPORE
,FOUNDATION,AWARENESS
BOYS,TOWER HAMLETS,ROAD SAFETY,ABBOTT MEAD,UNITED
,,,"VICKERS BBDO, London",KINGDOM
GIRLS,TOWER HAMLETS,ROAD SAFETY,ABBOTT MEAD,UNITED
,,,"VICKERS BBDO, London",KINGDOM
A25 Public Awareness Messages,
NATIONAL,
HANDS,AGENCY FOR,PUBLIC HEALTH,"LG2, Québec",CANADA
,HEALTH AND,CAREERS
,SOCIAL SERVICES
,PEOPLE FOR THE
,ETHICAL,ANIMAL CRUELTY,McCANN
BELTS,TREATMENT OF,CHARITY,WORLDGROUP,SINGAPORE
,ANIMALS ASIA,,SINGAPORE
,PACIFIC
,PEOPLE FOR THE
,ETHICAL,ANIMAL CRUELTY,McCANN
SHOES,TREATMENT OF,CHARITY,WORLDGROUP,SINGAPORE
,ANIMALS ASIA,,SINGAPORE
,PACIFIC
MAP,ENDANGERED,WILDLIFE CHARITY,"GREY SOUTH AFRICA,",SOUTH AFRICA
,WILDLIFE TRUST,,Johannesburg
,NATIONAL CENTRE,DOMESTIC,,UNITED
HANDS,FOR DOMESTIC,VIOLENCE,"JWT LONDON, London",KINGDOM
,VIOLENCE,AWARENESS
50 CM2,FUNDAÇÃO SOS,ENVIRONMENTAL,"LEW'LARA\TBWA, São",BRAZIL
,MATA ATLÂNTICA,AWARENESS,Paulo
,SURFRIDER,ENVIRONMENTAL
WHALE,FOUNDATION,AWARENESS,Y&R PARIS,FRANCE
,EUROPE
CIRCLE OF LIFE,WWF,WWF INDONESIA,"GREY GROUP,",SINGAPORE
,,,Singapore
,,PEOPLE FOR THE
BABY,PETA,ETHICAL,Y&R CHICAGO,USA
TREATMENT OF,
ANIMALS,
PEOPLE FOR THE,
PASSION,PETA,ETHICAL,Y&R CHICAGO,USA
,,TREATMENT OF
,,ANIMALS
A26 Fundraising & Appeals,
EXECUTION,AMNESTY,AMNESTY,AIR BRUSSELS,BELGIUM
,INTERNATIONAL,INTERNATIONAL
WOMEN,AMNESTY,AMNESTY,AIR BRUSSELS,BELGIUM
,INTERNATIONAL,INTERNATIONAL
CHILDSOLDIERS,AMNESTY,AMNESTY,AIR BRUSSELS,BELGIUM
,INTERNATIONAL,INTERNATIONAL
MELT,GREENPEACE,CAR FREE DAY,"LEO BURNETT, Hong",HONG KONG
,,,Kong
DROUGHT,GREENPEACE,CAR FREE DAY,"LEO BURNETT, Hong",HONG KONG
,,,Kong
FLOOD,GREENPEACE,CAR FREE DAY,"LEO BURNETT, Hong",HONG KONG
,,,Kong
BOTANIMAL,WWF,DEFORESTATION,"MARCEL, Paris",FRANCE
,,AWARENESS
B01 Food & Drink,
VANILLA,FLUFF AND STUFF,COOKIES,GREY GROUP KUALA,MALAYSIA
,,,LUMPUR
STRAWBERRY,FLUFF AND STUFF,COOKIES,GREY GROUP KUALA,MALAYSIA
,,,LUMPUR
PEANUT BUTTER,FLUFF AND STUFF,COOKIES,GREY GROUP KUALA,MALAYSIA
,,,LUMPUR
CHOCOLATE,,WALL´S ICE CREAM  MAGNUM ICE CREAM,"LOLA, Madrid",SPAIN
FRUIT,,WALL´S ICE CREAM  MAGNUM ICE CREAM,"LOLA, Madrid",SPAIN
ORANGE,,WALL´S ICE CREAM  MAGNUM ICE CREAM,"LOLA, Madrid",SPAIN
CAR,NESTLÉ WATERS,PERRIER,"OGILVY FRANCE, Paris",FRANCE
PRISON,CASA LUKER,LUKAFÉ COFFEE,"SANCHO BBDO, Bogotá",COLOMBIA
VOYEUR,CASA LUKER,LUKAFÉ COFFEE,"SANCHO BBDO, Bogotá",COLOMBIA
,SHANGHAI DAI ZHI
OFFICE WORKER,MEN FOOD &,DIAMOND COFFEE,"LEO BURNETT, Hong",HONG KONG
,BEVERAGE,,Kong
MANAGEMENT,
SHANGHAI DAI ZHI,
SCHOOL BUS DRIVER,MEN FOOD &,DIAMOND COFFEE,"LEO BURNETT, Hong",HONG KONG
BEVERAGE,,,Kong
MANAGEMENT,
BLUE PATTERN,ECUSA CHILE,PEPSI LIGHT,"BBDO CHILE, Santiago",CHILE
PINK PATTERN,ECUSA CHILE,PEPSI LIGHT,"BBDO CHILE, Santiago",CHILE
YELLOW PATTERN,ECUSA CHILE,PEPSI LIGHT,"BBDO CHILE, Santiago",CHILE
"B02 Cosmetics & Beauty, Toiletries & Pharmacy",
,,HAWAIIAN TROPIC
OCEAN,ENERGIZER CHILE,WATERPROOF SUN,"GREY CHILE, Santiago",CHILE
,,SCREEN
ELVIS,ENERGIZER UK,WILKINSON SWORD,"JWT LONDON, London",UNITED
,,,,KINGDOM
AFRO,ENERGIZER UK,WILKINSON SWORD,"JWT LONDON, London",UNITED
,,,,KINGDOM
,,,SORENTO
OSAMA/BUSH,WOCKHARDT,OSTEOARTHRITIS,HEALTHCARE,INDIA
,,THERAPY,"COMMUNICATIONS,"
,,,Mumbai
,,,SORENTO
BATMAN/JOKER,WOCKHARDT,OSTEOARTHRITIS,HEALTHCARE,INDIA
,,THERAPY,"COMMUNICATIONS,"
,,,Mumbai
KONIMEX,,,"OGILVY INDONESIA,"
STUDENT,PHARMACEUTICAL,FEMINAX,Jakarta,INDONESIA
LABORATORIES,
KONIMEX,"OGILVY INDONESIA,"
HOUSEWIFE,PHARMACEUTICAL,FEMINAX,Jakarta,INDONESIA
LABORATORIES,
KONIMEX,"OGILVY INDONESIA,"
SECRETARY,PHARMACEUTICAL,FEMINAX,Jakarta,INDONESIA
LABORATORIES,
PORCUPINE,UNITED PHARMA,DECOLGEN FORTE,"JWT VIETNAM, Ho Chi",VIETNAM
,,PE FLU REMEDY,Minh City
TORTOISE,UNITED PHARMA,DECOLGEN FORTE,"JWT VIETNAM, Ho Chi",VIETNAM
,,PE FLU REMEDY,Minh City
CHEETAH,UNITED PHARMA,DECOLGEN FORTE,"JWT VIETNAM, Ho Chi",VIETNAM
,,PE FLU REMEDY,Minh City
FISH,BARUEL,TENYS PÉ FEET,"Z+, Sao Paulo",BRAZIL
,,DEODORANT
MAN,MINI BRANDS,HEARING AID,"MONDAY, Bangkok",THAILAND
VASE,BAYER,ASPIRIN,"ALMAPBBDO, São Paulo  BRAZIL"
BUTCHER,BAYER,SARIDON,"BBDO GUERRERO,",THE
PHILIPPINES,,,Makati City,PHILIPPINES
LAUNDRY,BAYER,SARIDON,"BBDO GUERRERO,",THE
PHILIPPINES,,,Makati City,PHILIPPINES
CARPENTER,BAYER,SARIDON,"BBDO GUERRERO,",THE
PHILIPPINES,,,Makati City,PHILIPPINES
B03 Household,
,,,HAKUHODO ASIA
OFFICE,IT WORKS,SECURITY SYSTEMS,"PACIFIC/SPICY H,",THAILAND
,,,Bangkok
,,,HAKUHODO ASIA
HOUSE,IT WORKS,SECURITY SYSTEMS,"PACIFIC/SPICY H,",THAILAND
,,,Bangkok
,,,HAKUHODO ASIA
LABORATORY,IT WORKS,SECURITY SYSTEMS,"PACIFIC/SPICY H,",THAILAND
,,,Bangkok
,,RINSO COLOUR
BLUE,UNILEVER,WASHING,LOWE SINGAPORE,SINGAPORE
,,DETERGENT
,,RINSO COLOUR
RED,UNILEVER,WASHING,LOWE SINGAPORE,SINGAPORE
,,DETERGENT
,,RINSO COLOUR
PINK,UNILEVER,WASHING,LOWE SINGAPORE,SINGAPORE
,,DETERGENT
CAR,DIA SUPERMARKET  CAT FOOD,,"Z+, Sao Paulo",BRAZIL
REFRIGERATOR,DIA SUPERMARKET  CAT FOOD,,"Z+, Sao Paulo",BRAZIL
KNIVES,DIA SUPERMARKET  CAT FOOD,,"Z+, Sao Paulo",BRAZIL
LIFE RUINER,GAMERAMA,CALL OF DUTY:,"JOHN ST, Toronto",CANADA
,,BLACK OPS
LIFE SAVER,GAMERAMA,EA ACTIVE 2,"JOHN ST, Toronto",CANADA
,,,TBWA\SANTIAGO,THE
JELLY FISH,PACIFIC PAINT,BOYSEN PAINTS,"MANGADA PUNO,",PHILIPPINES
Makati City,
TBWA\SANTIAGO,THE
SNAIL,PACIFIC PAINT,BOYSEN PAINTS,"MANGADA PUNO,",PHILIPPINES
Makati City,
3M,SCOTCH SUPER 77
NAILS,TECHNOLOGIES,MULTI-PURPOSE,DDB SINGAPORE,SINGAPORE
,ADHESIVE
RAISINS,FRESHLOCK CHINA  FRESHLOCK CLIPS,DDB GROUP HONG,HONG KONG
,,KONG
,MMP,CREATIVE
FISH,CORPORATION,M WRAP,JUICE\BANGKOK,THAILAND
"(TBWA), Bangkok",
MMP,CREATIVE
CHICKEN,CORPORATION,M WRAP,JUICE\BANGKOK,THAILAND
"(TBWA), Bangkok",
MMP,CREATIVE
PORK,CORPORATION,M WRAP,JUICE\BANGKOK,THAILAND
,,,"(TBWA), Bangkok"
CHAMELEON,RECKITT,SHIELDTOX,EURO RSCG BANGKOK,THAILAND
,BENCKISER,NATURGARD
FROG,RECKITT,SHIELDTOX,EURO RSCG BANGKOK,THAILAND
,BENCKISER,NATURGARD
MOUSE,DIY LIVING,DIY FURNITURE,PUBLICIS SINGAPORE,SINGAPORE
HIDE & SEEK,DIY LIVING,DIY FURNITURE,PUBLICIS SINGAPORE,SINGAPORE
HANDY MAN,DIY LIVING,DIY FURNITURE,PUBLICIS SINGAPORE,SINGAPORE
DON QUIJOTE,ASSENDA,OFIXPRES,"Y&R COLOMBIA, Bogotá",COLOMBIA
,,HIGHLIGHTER
LE PETIT PRINCE,ASSENDA,OFIXPRES,"Y&R COLOMBIA, Bogotá",COLOMBIA
,,HIGHLIGHTER
MOBY DICK,ASSENDA,OFIXPRES,"Y&R COLOMBIA, Bogotá",COLOMBIA
,,HIGHLIGHTER
B04 Cars & Automotives,
GARDENING,VOLKSWAGEN,VOLKSWAGEN PARK,"GRABARZ & PARTNER,",GERMANY
,,ASSIST,Hamburg
TIGUAN MAGIC,VOLKSWAGEN,TIGUAN,"ALMAPBBDO, São Paulo  BRAZIL"
PUPPETS,VOLKSWAGEN,TIGUAN,"ALMAPBBDO, São Paulo  BRAZIL"
ORIGAMI,VOLKSWAGEN,TIGUAN,"ALMAPBBDO, São Paulo  BRAZIL"
MILK,VOLKSWAGEN,TRUCKS,"ALMAPBBDO, São Paulo  BRAZIL"
BEER,VOLKSWAGEN,TRUCKS,"ALMAPBBDO, São Paulo  BRAZIL"
EGGS,VOLKSWAGEN,TRUCKS,"ALMAPBBDO, São Paulo  BRAZIL"
PAPER,VOLKSWAGEN,TRUCKS,"ALMAPBBDO, São Paulo  BRAZIL"
PRICE,CITROËN,CIRTOËN JUMPER,"NEW360, Belo Horizonte",BRAZIL
,CHEVERNY
"B05 Clothing, Footwear & Accessories",
MOUNTAIN,PRINGLE OF,KNITWEAR,FISCHER APPELT,GERMANY
,SCOTLAND,,"FURORE, Hamburg"
RIVER,PRINGLE OF,KNITWEAR,FISCHER APPELT,GERMANY
,SCOTLAND,,"FURORE, Hamburg"
,,PETA ANTI-LEATHER,JOSHBRO
CROCODILES,SHOE BAZAR,FOOTWEAR,"COMMUNICATIONS,",INDIA
Mumbai,
PETA ANTI-LEATHER,JOSHBRO
KANGAROOS,SHOE BAZAR,FOOTWEAR,"COMMUNICATIONS,",INDIA
Mumbai,
JOSHBRO,
PETA ANTI-LEATHER,
SNAKES,SHOE BAZAR,FOOTWEAR,"COMMUNICATIONS,",INDIA
,,,Mumbai
PANTS,PENALTY,RUNNING SHOES,"Z+, Sao Paulo",BRAZIL
T-SHIRT,PENALTY,RUNNING SHOES,"Z+, Sao Paulo",BRAZIL
SHIRT,PENALTY,RUNNING SHOES,"Z+, Sao Paulo",BRAZIL
MORNING,NOKIA INDONESIA,NOKIA GPS,"JWT, Jakarta",INDONESIA
DAY,NOKIA INDONESIA,NOKIA GPS,"JWT, Jakarta",INDONESIA
NIGHT,NOKIA INDONESIA,NOKIA GPS,"JWT, Jakarta",INDONESIA
HEAVEN AND HELL,SAMSONITE,SUITCASES,JWT SHANGHAI,CHINA
,LEICA,,"DEMNER, MERLICEK &"
NEW YORK,SHOP/COELN,CAMERA,"BERGMANN, Vienna",AUSTRIA
,PETER
ROBERTO CARLOS,NIKE,CORINTHIANS,F/NAZCA SAATCHI &,BRAZIL
,,,"SAATCHI, São Paulo"
DENTINHO,NIKE,CORINTHIANS,F/NAZCA SAATCHI &,BRAZIL
,,,"SAATCHI, São Paulo"
WAVE SOUND LONDON,3M DO BRASIL,NOISE CANCELLING,"GREY BRASIL, São",BRAZIL
,,HEADPHONES,Paulo
"B06 Entertainment, Retail, Restaurants, Publications",
RIOT,NEW STRAITS,NEWSPAPER,McCANN ERICKSON,MALAYSIA
,TIMES PRESS,,"MALAYSIA, Petaling Jaya"
SMUGGLING,NEW STRAITS,NEWSPAPER,McCANN ERICKSON,MALAYSIA
,TIMES PRESS,,"MALAYSIA, Petaling Jaya"
EXPLOITATION,NEW STRAITS,NEWSPAPER,McCANN ERICKSON,MALAYSIA
,TIMES PRESS,,"MALAYSIA, Petaling Jaya"
,QUICK & EASY,CONVENIENCE,GREY GROUP KUALA
CHIP,CONVENIENCE,STORE,LUMPUR,MALAYSIA
,STORE
,QUICK & EASY,CONVENIENCE,GREY GROUP KUALA
INSECT REPELLENT,CONVENIENCE,STORE,LUMPUR,MALAYSIA
,STORE
TUBERCULATA JELLYFISH,VIAJES CENTURY,TRAVEL AGENCY,"JWT SPAIN, Barcelona",SPAIN
TIGER MOSQUITO,VIAJES CENTURY,TRAVEL AGENCY,"JWT SPAIN, Barcelona",SPAIN
STINK BUG,VIAJES CENTURY,TRAVEL AGENCY,"JWT SPAIN, Barcelona",SPAIN
ELIZABETH,OPERAMUNDI,ECONOMIC NEWS,"Z+, Sao Paulo",BRAZIL
,,WEBSITE
MAO TSE TUNG,OPERAMUNDI,ECONOMIC NEWS,"Z+, Sao Paulo",BRAZIL
,,WEBSITE
ROAD CROSSING,ROLLING STONE,INITIATIVE MONEY,OGILVY FRANKFURT,GERMANY
,MAGAZINE,FOR MUSIC
BABY,ROLLING STONE,INITIATIVE MONEY,OGILVY FRANKFURT,GERMANY
,MAGAZINE,FOR MUSIC
AIRCRAFT,ROLLING STONE,INITIATIVE MONEY,OGILVY FRANKFURT,GERMANY
,MAGAZINE,FOR MUSIC
PRISM,ROLLING STONE,INITIATIVE MONEY,OGILVY FRANKFURT,GERMANY
,MAGAZINE,FOR MUSIC
ROBOTS,MINT MUSEUM OF,MUSEUM,"Y&R, Singapore",SINGAPORE
,TOYS
,GUSTAVO BORGES
PIE,SWIMMING,FITNESS CENTRE,"JWT BRAZIL, São Paulo",BRAZIL
,SCHOOL
,GUSTAVO BORGES
HAMBURGER,SWIMMING,FITNESS CENTRE,"JWT BRAZIL, São Paulo",BRAZIL
,SCHOOL
,GUSTAVO BORGES
ICE CREAM,SWIMMING,FITNESS CENTRE,"JWT BRAZIL, São Paulo",BRAZIL
,SCHOOL
YELLOW POSTER,SONY,DC UNIVERSE ON,"LEO BURNETT IBERIA,",SPAIN
,PLAYSTATION,LINE,Madrid
BLUE POSTER,SONY,DC UNIVERSE ON,"LEO BURNETT IBERIA,",SPAIN
,PLAYSTATION,LINE,Madrid
BIRTHDAY,BANDSPORTS,SPORTS CHANNEL,"OGILVY BRASIL, São",BRAZIL
Paulo,
"OGILVY BRASIL, São",
FAMILY PORTRAIT,BANDSPORTS,SPORTS CHANNEL,,BRAZIL
,,,Paulo
GRANDPA,BANDSPORTS,SPORTS CHANNEL,"OGILVY BRASIL, São",BRAZIL
,,,Paulo
THE PIED PIPER OF HAMELIN,PENGUIN BOOKS,PENGUIN,"Y&R MALAYSIA, Kuala",MALAYSIA
,MALAYSIA,AUDIOBOOKS,Lumpur
THE JUNGLE BOOK,PENGUIN BOOKS,PENGUIN,"Y&R MALAYSIA, Kuala",MALAYSIA
,MALAYSIA,AUDIOBOOKS,Lumpur
THE WIZARD OF OZ,PENGUIN BOOKS,PENGUIN,"Y&R MALAYSIA, Kuala",MALAYSIA
,MALAYSIA,AUDIOBOOKS,Lumpur
HORROR,CANAL +,TV CHANNEL,"BETC EURO RSCG,",FRANCE
,,,Paris
PORN,CANAL +,TV CHANNEL,"BETC EURO RSCG,",FRANCE
,,,Paris
COFFEE TABLE,IKEA,FURNITURE & HOME,TBWA\ISTANBUL,TURKEY
,,ACCESSORIES
CHAIR,IKEA,FURNITURE & HOME,TBWA\ISTANBUL,TURKEY
,,ACCESSORIES
FRAME,IKEA,FURNITURE & HOME,TBWA\ISTANBUL,TURKEY
,,ACCESSORIES
,,,OGILVY & MATHER
MOON CONSPIRACY,TAMIYA,TOYS,"VIETNAM, Ho Chi Minh",VIETNAM
,,,City
,,,OGILVY & MATHER
ELVIS CONSPIRACY,TAMIYA,TOYS,"VIETNAM, Ho Chi Minh",VIETNAM
,,,City
,,,OGILVY & MATHER
JFK CONSPIRACY,TAMIYA,TOYS,"VIETNAM, Ho Chi Minh",VIETNAM
,,,City
,,,OGILVY & MATHER
ROSWELL CONSPIRACY,TAMIYA,TOYS,"VIETNAM, Ho Chi Minh",VIETNAM
,,,City
,,,OGILVY & MATHER
MARILYN CONSPIRACY,TAMIYA,TOYS,"VIETNAM, Ho Chi Minh",VIETNAM
,,,City
MILK AND COOKIES,LA JUGUETERÍA,HOTWHEELS,OGILVY GUATEMALA,GUATEMALA
LEMONADE AND CANDIES,LA JUGUETERÍA,HOTWHEELS,OGILVY GUATEMALA,GUATEMALA
DALAI LAMA,AUDIO BOOK INDIA,AUDIO BOOKS,"TAPROOT INDIA,",INDIA
,,,Mumbai
NELSON MANDELA,AUDIO BOOK INDIA,AUDIO BOOKS,"TAPROOT INDIA,",INDIA
,,,Mumbai
HITLER,AUDIO BOOK INDIA,AUDIO BOOKS,"TAPROOT INDIA,",INDIA
,,,Mumbai
SPACESHIP,LEGO,LEGO,LEO BURNETT,RUSSIA
,,,"MOSCOW, Moscow"
BEETLE,LEGO,LEGO,LEO BURNETT,RUSSIA
,,,"MOSCOW, Moscow"
DEEP OCEAN EXPLORER,LEGO,LEGO,LEO BURNETT,RUSSIA
,,,"MOSCOW, Moscow"
B07 Financial & Commercial Public Services,
LONDON BUS,BERLITZ,LANGUAGE SCHOOL,"FP7/BAH, Manama",BAHRAIN
NEW YORK TAXI,BERLITZ,LANGUAGE SCHOOL,"FP7/BAH, Manama",BAHRAIN
PINHOLE CAMERA POSTER,SÃO PAULO,PHOTOGRAPHY,"DENTSU BRASIL, São",BRAZIL
,SCHOOL,COURSES,Paulo
ARGENTINA,CASA DO SABER,EDUCATION,"LODUCCA, Sao Paulo",BRAZIL
,,COURSES
ENGLAND,CASA DO SABER,EDUCATION,"LODUCCA, Sao Paulo",BRAZIL
,,COURSES
COINCIDENCE 1,EPA,SCHOOL OF ART AND,,"ALMAPBBDO, São Paulo  BRAZIL"
,,DESIGN
COINCIDENCE 2,EPA,SCHOOL OF ART AND,,"ALMAPBBDO, São Paulo  BRAZIL"
,,DESIGN
COINCIDENCE 3,EPA,SCHOOL OF ART AND,,"ALMAPBBDO, São Paulo  BRAZIL"
,,DESIGN
COINCIDENCE 4,EPA,SCHOOL OF ART AND,,"ALMAPBBDO, São Paulo  BRAZIL"
,,DESIGN
CAR,HSBC,INSURANCE,"JWT BRAZIL, São Paulo",BRAZIL
HOUSE,HSBC,INSURANCE,"JWT BRAZIL, São Paulo",BRAZIL
HAND,ABRA ART,DRAWING CLASSES,"DDB BRASIL, São Paulo",BRAZIL
,ACADEMY
EAR,ABRA ART,DRAWING CLASSES,"DDB BRASIL, São Paulo",BRAZIL
,ACADEMY
"B08 Business Equipment, Products & Services and Corporate Image",
WAR,JAMUTE AUDIO,,"AUDIO PRODUCTION   Z+, Sao Paulo",BRAZIL
,STUDIO
DINOSAUR,JAMUTE AUDIO,,"AUDIO PRODUCTION   Z+, Sao Paulo",BRAZIL
,STUDIO
KURT,MONKEY WEEK,MUSIC FESTIVAL,"LEO BURNETT IBERIA,",SPAIN
,,,Madrid
DAFT,MONKEY WEEK,MUSIC FESTIVAL,"LEO BURNETT IBERIA,",SPAIN
,,,Madrid
EMINEM,MONKEY WEEK,MUSIC FESTIVAL,"LEO BURNETT IBERIA,",SPAIN
,,,Madrid
MADONNA,MONKEY WEEK,MUSIC FESTIVAL,"LEO BURNETT IBERIA,",SPAIN
,,,Madrid
TWITTER,,MEIO & MENSAGEM MAXIMIDIA SEMINARS,"MOMA PROPAGANDA,",BRAZIL
,,,Sao Paulo
SKYPE,,MEIO & MENSAGEM MAXIMIDIA SEMINARS,"MOMA PROPAGANDA,",BRAZIL
,,,Sao Paulo
FACEBOOK,,MEIO & MENSAGEM MAXIMIDIA SEMINARS,"MOMA PROPAGANDA,",BRAZIL
,,,Sao Paulo
YOUTUBE,,MEIO & MENSAGEM MAXIMIDIA SEMINARS,"MOMA PROPAGANDA,",BRAZIL
,,,Sao Paulo
,"B09 Fundraising, Charities, Appeals, Non-Profit Organisations, Public Health & Safety, Public Awareness"
FAMILY,UNICEF,UNICEF,LOWE INDONESIA,INDONESIA
KIDS,UNICEF,UNICEF,LOWE INDONESIA,INDONESIA
KITCHEN,UNICEF,UNICEF,LOWE INDONESIA,INDONESIA
SOCKS,UNICEF,UNICEF,"CHEIL WORLDWIDE,",KOREA
,,,Seoul
VEST,UNICEF,UNICEF,"CHEIL WORLDWIDE,",KOREA
Seoul,
ACRES: ANIMAL,
CONCERNS,WILDLIFE
TREE RINGS,RESEARCH &,PRESERVATION,DDB SINGAPORE,SINGAPORE
,EDUCATION
,SOCIETY
PETER PAN,LIVE AND LET LIVE,CHILDREN'S CHARITY,"Z+, Sao Paulo",BRAZIL
LITTLE RED HIDING HOOD,LIVE AND LET LIVE,CHILDREN'S CHARITY,"Z+, Sao Paulo",BRAZIL
MULTIPLE,MULTIPLE,"COLENSO BBDO,"
COMMUTER,SCLEROSIS,SCLEROSIS,Auckland,NEW ZEALAND
,WAIKATO,AWARENESS
,MULTIPLE,MULTIPLE,"COLENSO BBDO,"
OFFICE WORKER,SCLEROSIS,SCLEROSIS,Auckland,NEW ZEALAND
,WAIKATO,AWARENESS
,MULTIPLE,MULTIPLE,"COLENSO BBDO,"
RUNNER,SCLEROSIS,SCLEROSIS,Auckland,NEW ZEALAND
,WAIKATO,AWARENESS
,REPORTERS,,MEMAC OGILVY &,UNITED ARAB
OBAMA/CLINTON,WITHOUT,PRESS FREEDOM,"MATHER, Dubai",EMIRATES
,BORDERS
,REPORTERS,,MEMAC OGILVY &,UNITED ARAB
CAMERON,WITHOUT,PRESS FREEDOM,"MATHER, Dubai",EMIRATES
,BORDERS
,REPORTERS,,MEMAC OGILVY &,UNITED ARAB
PUTIN,WITHOUT,PRESS FREEDOM,"MATHER, Dubai",EMIRATES
,BORDERS
,,ORGAN
LARVA,ABTO,TRANSPLANT,"DDB BRASIL, São Paulo",BRAZIL
,,ASSOCIATION
,,ORGAN
FLY,ABTO,TRANSPLANT,"DDB BRASIL, São Paulo",BRAZIL
,,ASSOCIATION
SWING,VOLKSWAGEN,RESPONSIBLE,"DDB ARGENTINA,",ARGENTINA
,,DRIVING,Buenos Aires
,,RESPONSIBLE,"DDB ARGENTINA,"
POOL,VOLKSWAGEN,,,ARGENTINA
,,DRIVING,Buenos Aires
STAIRS,VOLKSWAGEN,RESPONSIBLE,"DDB ARGENTINA,",ARGENTINA
,,DRIVING,Buenos Aires
THIAGO,UNICEF,UNICEF,"OGILVY BRASIL, São",BRAZIL
,,,Paulo
,ENDANGERED,WILDLIFE,TBWA\HUNT\LASCARIS
WILD DOG,WILDLIFE TRUST,PROTECTION,JOHANNESBURG,SOUTH AFRICA
,,PROGRAMME
,ENDANGERED,WILDLIFE,TBWA\HUNT\LASCARIS
WATTLED CRANE,WILDLIFE TRUST,PROTECTION,JOHANNESBURG,SOUTH AFRICA
,,PROGRAMME
,ENDANGERED,WILDLIFE,TBWA\HUNT\LASCARIS
DUGONG,WILDLIFE TRUST,PROTECTION,JOHANNESBURG,SOUTH AFRICA
,,PROGRAMME
,ENDANGERED,WILDLIFE,TBWA\HUNT\LASCARIS
RIVERINE RABBIT,WILDLIFE TRUST,PROTECTION,JOHANNESBURG,SOUTH AFRICA
,,PROGRAMME
,ENDANGERED,WILDLIFE,TBWA\HUNT\LASCARIS
NORTHERN WHITE RHINO,WILDLIFE TRUST,PROTECTION,JOHANNESBURG,SOUTH AFRICA
,,PROGRAMME
MUGSHOT 1,AMNESTY,AMNESTY,FUEL LISBOA,PORTUGAL
,INTERNATIONAL,INTERNATIONAL
MUGSHOT 2,AMNESTY,AMNESTY,FUEL LISBOA,PORTUGAL
,INTERNATIONAL,INTERNATIONAL
MUGSHOT 3,AMNESTY,AMNESTY,FUEL LISBOA,PORTUGAL
,INTERNATIONAL,INTERNATIONAL
"C01 Bars, Restaurants & Stores, etc.",
,JAPAN
SUSHI TRAIN,EARTHQUAKE,DONATION APPEAL,"JWT SYDNEY, Sydney",AUSTRALIA
,APPEAL
,MEXICAN,ANONYMOUS
MIRRORS,MINISTRY OF,DENUNCIATION,DRAFTFCB MEXICO,MEXICO
,PUBLIC SAFETY
THE BICYCLE CAP,PESETA,BICYCLE,"LEO BURNETT IBERIA,",SPAIN
,,ACCESSORIES,Madrid
TANG ZHENGDONG,ANTA SPORTS,SPORTSWEAR,JWT SHANGHAI,CHINA
,PRODUCT
LI XIAOXU,ANTA SPORTS,SPORTSWEAR,JWT SHANGHAI,CHINA
,PRODUCT
ZHOU PENG,ANTA SPORTS,SPORTSWEAR,JWT SHANGHAI,CHINA
,PRODUCT
UNTOASTED,SUNSENSE,SUNBLOCK OIL,"LEO BURNETT, Hong",HONG KONG
,,,Kong
DECODE JAY-Z WITH BING,BING/JAY-Z,DECODE JAY-Z WITH,"DROGA5, New York",USA
,,BING
C02 Small Scale Special Solutions,
THE ONE REAL PIGGY BANK,HEBARA,LOTTERY,"ARTPLAN, Rio de",BRAZIL
,,,Janeiro
,,EXTRA,"BBDO GERMANY,"
MINT PARKING TICKET,WRIGLEY,PROFESSIONAL,Düsseldorf,GERMANY
,,POLAR-FRISCH
THE MUSIC NEVER STOPS,MTV,MTV,"LODUCCA, Sao Paulo",BRAZIL
INSTANT PACKAGE,DEPPON EXPRESS,DELIVERY SERVICE,CC&E SHANGHAI,CHINA
UNCONSCIOUS RUNNERS,NIKE,SPORTSWEAR/NIKE,SANTA MARTA,SPAIN
,,RUNNING,"PUBLICIDAD, Barcelona"
,SONY PICTURE,,"PUBLICIS BRASIL, Sao"
AXN TV BOXES,RELEASING OF,TV CHANNEL,Paulo,BRAZIL
,BRASIL
TRACKTAPE,MATTEL MÉXICO,HOT WHEELS,OGILVY MEXICO,MEXICO
BOOKS FRESHENERS,100 000 BOOKS,CHAIN OF,"VOSKHOD,",RUSSIA
,,BOOKSTORES,Yekaterinburg
C03 Special Build,
,JARINGAN,ANNIVERSARY OF,"PUBLICIS INDONESIA,"
MUD-FLOW,ADVOKASI,MUD-FLOW DISASTER Jakarta,,INDONESIA
,TAMBANG (JATAM)
NIKE AIR LIVE SHOW,NIKE,SPORTSWEAR,"+CASTRO, Buenos Aires",ARGENTINA
MARIO GALAXY 2,ENERGIZER,LITHIUM BATTERIES,DDB MEXICO,MEXICO
WALL STREET,
ASK FOR IT IN ENGLISH,,LANGUAGE SCHOOL,"JWT, Madrid",SPAIN
,INSTITUTE
MAGNATRON,FOSTERS GROUP,CARLTON DRAUGHT,CLEMENGER BBDO,AUSTRALIA
,,,MELBOURNE
BIT.CODE,SAP,BUSINESS,OGILVY FRANKFURT,GERMANY
,,SOFTWARE
ADIDAS SKYCOMIC,ADIDAS,ADIDAS FOOTBALL,"TBWA\HAKUHODO,",JAPAN
,,,Tokyo
DISPOSABLE FOREST,GREENPEACE,GREENPEACE,OGILVY BEIJING,CHINA
,MINISTERIO DE,GUERRILLA
OPERATION CHRISTMAS,DEFENSA,DEMOBILIZATION,"LOWE-SSP3, Bogotá",COLOMBIA
,NACIONAL,CAMPAIGN
SEAFOOD AQUARIUM,LG ELECTRONICS,SOLAR DOME,"Y&R THAILAND,",THAILAND
,,MICROWAVE,Bangkok
SILHOUETTES IN MEMORIAM,AMIA,JEWISH COMMUNITY,"OGILVY ARGENTINA,",ARGENTINA
,,CENTRE,Buenos Aires
THE FRIENDSHIP MACHINE,COCA-COLA,COCA-COLA,"OGILVY ARGENTINA,",ARGENTINA
,,,Buenos Aires
NATIONAL FLAG,NIKE,CORINTHIANS,F/NAZCA SAATCHI &,BRAZIL
,,,"SAATCHI, São Paulo"
THE CASCADE OF BOOKS,VIDEOCON,EBOOK READER,McCANN,INDIA
,,PHONES,"WORLDGROUP, Mumbai"
SPEEDWAY,MATTEL MÉXICO,HOT WHEELS,OGILVY MEXICO,MEXICO
BILLBOARD POWERED BY ORANGES,PEPSICO,TROPICANA,DDB PARIS,FRANCE
VENDING MACHINE,WORLD KITCHEN,CORELLE,"GREY GROUP CHINA,",CHINA
,,DINNERWARE,Beijing
GEGENPOL,FC ST. PAULI,FOOTBALL CLUB,"INTERPOL+-, Berlin",GERMANY
WALT DISNEY,ALICE IN,"AUGE HEADQUARTER,"
BIG ALICE,STUDIOS MOTION,WONDERLAND 3D,Milan,ITALY
,"PICTURES, ITALIA",MOVIE
THE HONEST STORE,HONEST TEA,ICED TEA,"SS+K, New York",USA
C04 Stunts & Live Advertising,
PIE CANNON,NORTHERN FOODS,MCDOUGALLS,"MOTHER, London",UNITED
,,UPPERCRUST PIES,,KINGDOM
,HIROSHIMA PEACE,NUCLEAR WEAPONS
PEACE SHADOW PROJECT,MEMORIAL,AWARENESS,"HAKUHODO, Tokyo",JAPAN
,MUSEUM
THE NIGHT CHAUFFEUR,ANHEUSER-BUSCH,STELLA ARTOIS,"MOTHER, London",UNITED
,INBEV,BLACK,,KINGDOM
CAR FOR SALE,WAITAKERE,ROAD SAFETY,OGILVY NEW,NEW ZEALAND
,COUNCIL,,"ZEALAND, Auckland"
,INTERNATIONAL,HUMAN RIGHTS,"JUNG von MATT,"
THE PIRATE RADIO EXPERIMENT,SOCIETY FOR,AWARENESS,Hamburg,GERMANY
,HUMAN RIGHTS
,DIAGEO,,THE MARKETING
BUNDY SKYCOUCH,AUSTRALIA,RUM,"STORE SYDNEY,",AUSTRALIA
,,,Sydney
THE WORLD'S LARGEST CUCKOO CLOCK,KELLOGG'S,CRUNCHY NUT,LEO BURNETT,USA
,,,CHICAGO
SAVE THE BEACH HOTEL,,GMODELO EUROPA CORONA BEER,"JWT, Madrid",SPAIN
BURMA,HUMAN RIGHTS,PETITION,JWT NEW YORK,USA
,WATCH
,MISSING,GERMANY WILL FIND,"KEMPERTRAUTMANN,"
THE MISSING CHILD,CHILDREN'S,YOU CAMPAIGN,Hamburg,GERMANY
,INITIATIVE
,UNIVERSAL,KING KONG 360 3D,"DAVIDANDGOLIATH, El"
FOOTPRINTS,STUDIOS,RIDE,Segundo,USA
,HOLLYWOOD
THE 250KM WAVE,KYUSHU RAILWAY,BULLET TRAIN,"DENTSU, Tokyo",JAPAN
,COMPANY
KICK ASS HALL,DIESEL,CLOTHING,GREY TOKYO,JAPAN
ONLINE SCAMS TAKEN OFFLINE,MICROSOFT,INTERNET,CRISPIN PORTER +,USA
,,EXPLORER 8,"BOGUSKY, Boulder"
,,,DEL CAMPO NAZCA
BIG NOSES,BGH,AIR CONDITIONERS,"SAATCHI & SAATCHI,",ARGENTINA
Buenos Aires,
BLUEMOTION,
THE SPEED CAMERA LOTTERY,VOLKSWAGEN,,DDB STOCKHOLM,SWEDEN
,,TECHNOLOGIES
CANAL BIKE,GO FAST!,ENERGY DRINK,"Y&R NOT JUST FILM,",THE
,,,Amsterdam,NETHERLANDS
SURPRISE CATWALK,FRETEX,SALAVATION ARMY,KITCHEN LEO,NORWAY
,,SECOND HAND SHOP,"BURNETT, Oslo"
,ASSOCIAÇÃO
SHARE WITH THOSE WHO NEED...,EDUCACIONAL E,CHILDREN'S CHARITY,"ALMAPBBDO, São Paulo  BRAZIL"
,ASSISTENCIAL
,CASA DO ZEZINHO
BLOCK PROJECT,MATTEL FRANCE,SCRABBLE,"OGILVY FRANCE, Paris",FRANCE
DRUNK VALET,BAR AURORA &,CHAIN OF BARS,"OGILVY BRASIL, São",BRAZIL
,BOTECO FERRAZ,,Paulo
SANTA'S FORGOTTEN LETTERS,COCA-COLA,CHRISTMAS,"OGILVY BRASIL, São",BRAZIL
,,MESSAGE,Paulo
THE SKATE WASH DENIM,METERS\BONWE,FASHION &,"ALWAYS, Shanghai",CHINA
,,ACCESSORIES
THE FILM ROOM,NIKE,APPAREL,"R/GA, New York",USA
,,,"TELECOMMUNICATIO- SAATCHI & SAATCHI,",UNITED
WELCOME BACK,T-MOBILE,NS,London,KINGDOM
,TRANSPERUANA,,QUORUM/NAZCA
THE REFEREE´S SUPPORTERS,INSURANCE,MICRO INSURANCE,"SAATCHI & SAATCHI,",PERU
,COMPANY,,Lima
UNEXPECTED LUGGAGE,SPANAIR,CHRISTMAS,"SHACKLETON, Madrid",SPAIN
,,CAMPAIGN
TARGET KALEIDOSCOPIC FASHION SPECTACULAR,TARGET,TARGET RETAIL,MOTHER NEW YORK,USA
DECODE JAY-Z WITH BING,BING/JAY-Z,DECODE JAY-Z WITH,"DROGA5, New York",USA
,,BING
C05 Transit,
LITTLE ACCIDENT,ALLSECUR,CAR INSURANCE,OGILVY AMSTERDAM,THE
,,,,NETHERLANDS
FLASH SALE RUNNING,CASA & VÍDEO,RETAIL STORE,"ARTPLAN, Rio de",BRAZIL
,,,Janeiro
CURL,MATTEL,HOT WHEELS,OGILVY & MATHER,COLOMBIA
,,,"COLOMBIA, Bogotá"
FOX IN CRAFTER,VOLKSWAGEN,VOLKSWAGEN,"DDB TRIBAL GROUP,",GERMANY
,,CRAFTER & FOX,Berlin
ZAFIRA ECHOES,GENERAL MOTORS,CHEVROLET ZAFIRA,"SALLES CHEMISTRI,",BRAZIL
,BRASIL,,Sao Paulo
C06 Digital Outdoor,
THE WORLD'S BIGGEST HUG,CONSELHO,TRUE AFFECTION,"MONUMENTA, Brasília",BRAZIL
,NACIONAL DO SESI,CAMPAIGN
VIRTUAL STORE,TESCO,HOMEPLUS,"CHEIL WORLDWIDE,",KOREA
,,,Seoul
TRANSPARENT WALLS,DAIMLER,CAR SAFETY SYSTEM,"JUNG von MATT,",GERMANY
,,,Hamburg
12 SECOND STRIP,RENAULT,WIND ROADSTER,PUBLICIS LONDON,UNITED
,,,,KINGDOM
ANGEL AMBUSH,UNILEVER,LYNX EXCITE,"MINDSHARE, London",UNITED
,,,,KINGDOM
,ANHEUSER-BUSCH,,DEL CAMPO NAZCA
ANDES FRIEND RECOVERY,INBEV,BEER,"SAATCHI & SAATCHI,",ARGENTINA
,,,Buenos Aires
LOTUS T5,IBM,LOTUSLIVE,OGILVYONE,UNITED
,,,"WORLDWIDE, London",KINGDOM
,,,SAATCHI & SAATCHI
BIG STAIN,PROCTER &,ARIEL,GREAT WALL,CHINA
,GAMBLE,,"ADVERTISING,"
,,,Guangzhou
TAKE A STAND,ABOLITION.FR,DEATH PENALTY,"MARCEL, Paris",FRANCE
AWARENESS,
