TITLE,ADVERTISER,PRODUCT,ENTRANT COMPANY,COUNTRY
GRAND PRIX,
02 Alcoholic Drinks,
MR PARANOID OF THE OCEAN GUY,ANHEUSER-BUSCH,BUD LIGHT BEER,DDB CHICAGO,USA
MR 80 SPF SUNBLOCK WEARER,ANHEUSER-BUSCH,BUD LIGHT BEER,DDB CHICAGO,USA
MR BACKYARD BUG ZAPPER INVENTOR,ANHEUSER-BUSCH,BUD LIGHT BEER,DDB CHICAGO,USA
MR GASOLINE BBQ STARTER,ANHEUSER-BUSCH,BUD LIGHT BEER,DDB CHICAGO,USA
MR ELECTRIC CARVING KNIFE INVENTOR,ANHEUSER-BUSCH,BUD LIGHT BEER,DDB CHICAGO,USA
MR NOSEBLEED SECTION FAN,ANHEUSER-BUSCH,BUD LIGHT BEER,DDB CHICAGO,USA
MR JEAN SHORTS WEARER,ANHEUSER-BUSCH,BUD LIGHT BEER,DDB CHICAGO,USA
,MR HUMONGOUS PUMPKIN GROWER GUY   ANHEUSER-BUSCH,BUD LIGHT BEER,DDB CHICAGO,USA
GOLD LION,
03 Non-Alcoholic Drinks,
BUTTERCUP,COCA-COLA,TWIST LEMON SOFT DRINK,LOBEDU LEO BURNETT,SOUTH AFRICA
PIETER KRUGER,COCA-COLA,TWIST LEMON SOFT DRINK,LOBEDU LEO BURNETT,SOUTH AFRICA
ALTHEA,COCA-COLA,TWIST LEMON SOFT DRINK,LOBEDU LEO BURNETT,SOUTH AFRICA
ROOIBANK,COCA-COLA,TWIST LEMON SOFT DRINK,LOBEDU LEO BURNETT,SOUTH AFRICA
,"05 Home Appliances, Furnishings, Electronics & Audio Visual"
GOLF,PIONEER,WIDE SCREEN TV,McCANN NORWAY,NORWAY
"06 Cosmetics & Beauty, Toiletries",
BURP,UNILEVER SA HOME & PERSONAL CARE,AXE DEODORANT,LOWE BULL,SOUTH AFRICA
FIGURINE,UNILEVER SA HOME & PERSONAL CARE,AXE DEODORANT,LOWE BULL,SOUTH AFRICA
COUNT,UNILEVER SA HOME & PERSONAL CARE,AXE DEODORANT,LOWE BULL,SOUTH AFRICA
10 Cars & Automotive Services,
DOCTOR,DAIMLERCHRYSLER,MERCEDES-BENZ SMART FORFOUR,CONTRAPUNTO,SPAIN
LOVER,DAIMLERCHRYSLER,MERCEDES-BENZ SMART FORFOUR,CONTRAPUNTO,SPAIN
"11 Retail Stores, Restaurants & Fast Food Outlets",
LOCATION,SOLEIL FACTORY,CLOTHING FACTORY OUTLET,SAVAGLIO\TBWA,ARGENTINA
"12 Travel, Entertainment & Leisure",
BACKYARD BBQ,NATIONAL THOROUGHBRED RACING ASSOCIATION,HORSE RACING,DEVITO/VERDI,USA
SUSHI,NATIONAL THOROUGHBRED RACING ASSOCIATION,HORSE RACING,DEVITO/VERDI,USA
FIRST CLASS,JETBLUE,AIRLINE,JWT,USA
DIRECT TV,JETBLUE,AIRLINE,JWT,USA
13 Publications & Media,
SHORTEST,SCHIBSTEDT FORLAGENE,GUINESS BOOK OF RECORDS,BBDO OSLO,NORWAY
16 Commercial Public Services,
SLOW,PT PRIME,TELECOMMUNICATION SERVICES,MSTF PARTNERS,PORTUGAL
FADO,PT PRIME,TELECOMMUNICATION SERVICES,MSTF PARTNERS,PORTUGAL
SPANISH,PT PRIME,TELECOMMUNICATION SERVICES,MSTF PARTNERS,PORTUGAL
,"18 Charities, Public Health & Safety, Public Awareness Messages"
CHECK UP,THE PROSTATE CANCER CHARITY,PROSTATE CANCER AWARENESS,PUBLICIS,UNITED KINGDOM
FERNANDO,FIAT,ROAD SAFETY,VITRUVIO LEO BURNETT,SPAIN
MARTHA,FIAT,ROAD SAFETY,VITRUVIO LEO BURNETT,SPAIN
CAR WRECK,THE NORWEGIAN COUNCIL FOR ROAD SAFETY,ROAD SAFETY AWARENESS,SHNEL & MELNYCHUCK,NORWAY
SILVER LION,
01 Foods,
VAN,MASTERFOODS,MARS MIDNIGHT ICE CREAM,ABBOTT MEAD VICKERS.BBDO,UNITED KINGDOM
,"05 Home Appliances, Furnishings, Electronics & Audio Visual"
DUCK & PIG,ELECTROLUX,REVOLUX DOUBLE OVEN,FISCHER AMERICA COMUNICACAO TOTAL,BRAZIL
07 Pharmacy,
UNICORN,PFIZER,CALPOL CHILDREN'S PAINKILLERS,JWT,UNITED KINGDOM
SANTA,PFIZER,CALPOL CHILDREN'S PAINKILERS,JWT,UNITED KINGDOM
09 Miscellaneous,
VALENTINE'S DAY,MASTERFOODS ARGENTINA,PEDIGREE PET FOOD,SAVAGLIO\TBWA,ARGENTINA
"11 Retail Stores, Restaurants & Fast Food Outlets",
SOCCER,SONY ARGENTINA,SONY STYLE STORE,EURO RSCG BUENOS AIRES,ARGENTINA
13 Publications & Media,
NAMES,PRETESA,LOCALIA TV CHANNEL,SHACKLETON,SPAIN
BORN TO BE WILD,91 RADIO ROCK,RADIO STATION,JWT BRAZIL,BRAZIL
IT´S ONLY ROCK´N ROLL,91 RADIO ROCK,RADIO STATION,JWT BRAZIL,BRAZIL
WE WILL ROCK YOU,91 RADIO ROCK,RADIO STATION,JWT BRAZIL,BRAZIL
SAVIOUR,RADIO TELEVISYEN MALAYSIA,TRAXX FM RADIO STATION,NAGA DDB MALAYSIA,MALAYSIA
15 Business Equipment & Services,
WALRUS,MONSTER.CO.UK,RECRUITMENT WEBSITE,LEO BURNETT,UNITED KINGDOM
17 Corporate Image,
MUSIC,ADIDAS,ADIDAS,TBWA\LONDON,UNITED KINGDOM
MORNING,ADIDAS,ADIDAS,TBWA\LONDON,UNITED KINGDOM
THE GUY,TELMEX,ATP TOUR BUENOS AIRES 2006,EURO RSCG BUENOS AIRES,ARGENTINA
,"18 Charities, Public Health & Safety, Public Awareness Messages"
THE AD WITHOUT PAPER,GREENPEACE,ENVIRONMENTAL AWARENESS,LG&F AMSTERDAM,THE NETHERLANDS
BRONZE LION,
01 Foods,
GPS,SØRLANDSCHIPS,POTATO CRISPS,McCANN NORWAY,NORWAY
COUNT,NESTLÉ,SUPER CHIQUITÍN CHILDREN'S FRUIT YOGHURT,OGILVY & MATHER SANTIAGO,CHILE
02 Alcoholic Drinks,
VOICE MESSAGE,CADBURY SCHWEPPES COMPANY,MOTT'S CLAMATO CEASAR READY MIXED COCKTAIL,DDB CANADA TORONTO,CANADA
FIFTY WONDERFUL,INDUSTRIAS MULLER,CANINHA 51 SUGARCANE SPIRIT,MCR RECORDS,BRAZIL
04 Household,
POO POURRI,ECOMIST,ODOUR NEUTRALISER,THE DUKES OF URBINO.COM,WORLDWIDE
WILD FLATULENCE,ECOMIST,ODOUR NEUTRALISER,THE DUKES OF URBINO.COM,WORLDWIDE
DUCK,UNILEVER FABERGE HOME CARE DIVISION,SVELTO PIU DISH WASHING LIQUID,JWT ITALIA,ITALY
"05 Home Appliances, Furnishings, Electronics & Audio Visual",
ROMANCE,PIONEER,WIDE SCREEN TV,McCANN NORWAY,NORWAY
"06 Cosmetics & Beauty, Toiletries",
500 SHEETS,NAMPAK,TWINSAVER TOILET ROLLS,TBWA\HUNT\LASCARIS,SOUTH AFRICA
07 Pharmacy,
HEADACHE,BAYER,ASPIRIN PAINKILLERS,ECCETERA PRODUZIONI AUDIO,ITALY
09 Miscellaneous,
REQUESTS,TORTUGA,AGRICULTURAL TECHNOLOGY,FISCHER AMERICA COMUNICACAO TOTAL,BRAZIL
10 Cars & Automotive Services,
DRUNK GUY,MIDAS,CAR SERVICING,SHACKLETON,SPAIN
WAKE UP,BMW,BMW CABRIOLET,DDB CANADA VANCOUVER,CANADA
PARKING SYSTEM,D'IETEREN,AUDI A4 GPS,DDB,BELGIUM
COUNTRY ROADS,BP AUSTRIA,MODEL TRUCK PROMOTION,OGILVY & MATHER,AUSTRIA
SIX DAYS ON THE ROAD,BP AUSTRIA,MODEL TRUCK PROMOTION,OGILVY & MATHER,AUSTRIA
"11 Retail Stores, Restaurants & Fast Food Outlets",
VACUUM,RICHMOND CENTRE,SHOPPING CENTRE,DDB CANADA VANCOUVER,CANADA
ROCK,THAT OTHER MUSIC STORE,TOMS GUITARS,THE DUKES OF URBINO.COM,WORLDWIDE
COUNTRY & WESTERN,THAT OTHER MUSIC STORE,TOMS GUITARS,THE DUKES OF URBINO.COM,WORLDWIDE
"12 Travel, Entertainment & Leisure",
FANTASY,LEGO,LEGO,FCB JOHANNESBURG,SOUTH AFRICA
MOSQUITO,LOTTO,LOTTERY,SAVAGLIO\TBWA,ARGENTINA
DEATH SCENE,CANADIAN FILM CENTRE,WORLDWIDE SHORT FILM FESTIVAL,TAXI CANADA,CANADA
ACCEPTANCE SPEECH,CANADIAN FILM CENTRE,WORLDWIDE SHORT FILM FESTIVAL,TAXI CANADA,CANADA
13 Publications & Media,
SPEECH,MULTICHOICE,PARLIAMENTARY CHANNEL,OGILVY SOUTH AFRICA,SOUTH AFRICA
DINNER'S READY,DE MORGEN,NEWSPAPER,DUVAL GUILLAUME BRUSSELS,BELGIUM
"14 Banking, Investment & Insurance",
WINE,HSBC,SOLIDARITY CREDIT CARD,JWT BRAZIL,BRAZIL
OLD DJ,HSBC,RETIREMENT PLANS,JWT BRAZIL,BRAZIL
15 Business Equipment & Services,
THE DELIVERY,FEDEX,COURIER,BBDO GUERRERO ORTEGA,THE PHILIPPINES
16 Commercial Public Services,
RABBIT,COMCAST,HIGH SPEED INTERNET SERVICE PROVIDER,GOODBY SILVERSTEIN & PARTNERS,USA
VOICE,HOSPITAL ALEMÁN,CANCER SEMINAR,DEL CAMPO NAZCA SAATCHI & SAATCHI,ARGENTINA
ARCHITECT,CUATRO CABEZAS,INTERNET PROVIDER,WM UNITED,ARGENTINA
AGENT,CUATRO CABEZAS,INTERNET PROVIDER,WM UNITED,ARGENTINA
,"18 Charities, Public Health & Safety, Public Awareness Messages"
NEW WORD,AUTO CRIME POLICE,AUTO CRIME ENFORCEMENT AWARENESS,DDB CANADA VANCOUVER,CANADA
CAN'T LIGHT UP,COI,ANTI-SMOKING MESSAGE,ABBOTT MEAD VICKERS.BBDO,UNITED KINGDOM
HIV IS GREAT,NATIONAL AIDS TRUST,HIV PREJUDICE,SAATCHI & SAATCHI,UNITED KINGDOM
