Title,Advertiser/Client,Product/Service,Entrant Company,Country
,A01 Corporate Identity Schemes - Large scale
ASWAAQ SUPERMARKETS,ASWAAQ,ASWAAQ SUPERMARKETS,"LANDOR ASSOCIATES, Dubai",UNITED ARAB
BRAND IDENTITY,,,,EMIRATES
KMS TEAM CORPORATE,KMS TEAM,DESIGN COMPANY,"KMS TEAM, Munich",GERMANY
IDENTITY,
SWISSCOM CORPORATE,SWISSCOM,TELECOMMUNICATIONS,"MOVING BRANDS, London",UNITED
IDENTITY SCHEME,,,,KINGDOM
SYMBIAN,SYMBIAN FOUNDATION,OPEN SOURCE TECHNOLOGY,"LANDOR ASSOCIATES,",UNITED
,,PLATFORM,London,KINGDOM
WE CAMPAIGN DESIGN,THE ALLIANCE FOR,ENVIRONMENTAL AWARENESS,"COLLINS:, New York",USA
,CLIMATE PROTECTION
BLACK & WHITE,NESTLÉ,DANKY ICE CREAM,"JWT CHILE, Santiago",CHILE
SIZE MATTERS,LUKAS LINDEMANN,ADVERTISING AGENCY,LUKAS LINDEMANN,GERMANY
,ROSINKSI,,"ROSINSKI, Hamburg"
GLOBAL HANDWASHING DAY,PROCTER & GAMBLE,GLOBAL HANDWASHING DAY,"LANDOR ASSOCIATES,",USA
IDENTITY,,,Cincinnati
EARTH HOUR - VOTE EARTH,WORLD WIDE FUND FOR,ENVIRONMENTAL CHARITY,LEO BURNETT SYDNEY,AUSTRALIA
DESIGN,NATURE
CLARO IDENTITY,CLARO,CLARO TELECOMMUNICATIONS,"GAD, Sao Paulo",BRAZIL
MERGE OF GYTTORP,GYTTORP,HUNTING PRODUCTS,"NEUMEISTER, Stockholm",SWEDEN
CARTRIDGE AND HDF,
HAVAIANAS IDENTITY,SÃO PAULO ALPARGATAS,HAVAIANAS FOOTWEAR,"ALMAPBBDO, São Paulo",BRAZIL
,,,RODNAYA RECH LEO
THE WAY WE DO IT,GROSS,SLAVYANSKAYA RUSSIAN VODKA,"BURNETT GROUP RUSSIA,",RUSSIA
,,,Moscow
VINE,NOKIA,NSERIES,"R/GA, New York",USA
,A02 Corporate Identity Schemes - Small scale
JAMIE OLIVER RECIPEASE,JAMIE OLIVER,RETAIL STORE,"WILLIAMS MURRAY HAMM,",UNITED
FOOD KITS,,,London,KINGDOM
DEATH MAGNETIC IDENTITY,METALLICA,CD ALBUM,"TURNER DUCKWORTH,",UNITED
,,,London,KINGDOM
OFFICE GAMES,RICHARD HOUSE,CHILDREN'S HOSPICE,"THE PARTNERS, London",UNITED
,,,,KINGDOM
LOSE FOR GOOD,WEIGHT WATCHERS,WEIGHT WATCHERS,"McCANN ERICKSON, New",USA
,,,York
LA BELLE EXCUSE,OLIVERAIES,OLIVE OIL,"ORANGETANGO, Montréal",CANADA
,STAVROPOULOS
THE DESIGN WHERE,URBAN TREE SALVAGE,UNIQUE FURNITURE CREATION,LEO BURNETT TORONTO,CANADA
NOTHING GOES TO WASTE,
HUDSON GAVIN MARTIN,HUDSON GAVIN MARTIN,BOUTIQUE LEGAL PRACTICE,"ALT GROUP, Auckland",NEW ZEALAND
IDENTITY,
,,,INDUSTRIA NACIONAL &
NO HOMOPHOBIA IDENTITY,ARCO-IRIS,NO HOMOPHOBIA CAMPAIGN,"DIALOGO DESIGN, Rio de",BRAZIL
,,,Janeiro
GOOD MOOD FABRIC,ATRIA,ATRIA FOOD PRODUCTION &,"TAIVAS, Helsinki",FINLAND
,,PROCESSING COMPANY
BROKEN WINDOW,SULAKSHAN KULKARNI,CRICKET ACADEMY,"RED LION PUBLICIS, Mumbai",INDIA
,CRICKET ACADEMY
MURRAY PIANO SERVICES,MURRAY PIANO SERVICES,PIANO SALES & SERVICES,MacLAREN McCANN,CANADA
LOGO,,,CALGARY
COFFEE HEROES,KIDUK REUS & YUMI CHOI,BONANZA COFFEE HEROES,"TBWA\GERMANY, Berlin",GERMANY
CONSERVATION,CONSERVATION
INTERNATIONAL IDENTITY &,INTERNATIONAL,CONSERVATION INTERNATIONAL,BBDO NEW YORK,USA
APPAREL,
A03 Posters,
PAPER BATTLEFIELD,NIKE HONG KONG LTD,NIKE BASKETBALL LEAGUE,"McCANN WORLDGROUP,",HONG KONG
,,,Hong Kong
COMING MOON,MITSUBISHI ESTATE & IDEE,HAIKU EVENT,"DENTSU KANSAI, Osaka",JAPAN
LUKAS LINDEMANN,
THE LEGO CODES,MYTOYS.DE,LEGO BRICK BOXES,,GERMANY
,,,"ROSINSKI, Hamburg"
,,,INDUSTRIA NACIONAL &
NO HOMOPHOBIA,ARCO-IRIS,NO HOMOPHOBIA CAMPAIGN,"DIALOGO DESIGN, Rio de",BRAZIL
,,,Janeiro
,,,THE JUPITER DRAWING
GLOW POSTER,INTERACTIVE AFRICA,DESIGN CONFERENCE,"ROOM SOUTH AFRICA, Cape",SOUTH AFRICA
,,,Town
HANDS,JOHNSON & JOHNSON,PURELL ANTIBACTERIAL INSTANT,JWT SYDNEY,AUSTRALIA
,,HAND SANITIZER
IMAGINATION,STEPPENWOLF,THEATRE,"OGILVY & MATHER, Chicago",USA
LIFE'S A PLAYLIST,SAMSUNG INDIA,MP3 PLAYERS,"CHEIL WORLDWIDE, New",INDIA
,,,Delhi
DIY POSTER,CREATIVE GUILD OF THE,INDUSTRY ASSOCIATIONS,"BBDO GUERRERO, Makati City",THE
,PHILIPPINES,,,PHILIPPINES
BALL POINT / FELT TIP /,AMNESTY INTERNATIONAL,LETTER WRITING CAMPAIGN,"SAATCHI & SAATCHI, Petaling",MALAYSIA
FOUNTAIN PEN,MALAYSIA,,Jaya
BLEEDING BILLBOARD,PAPAKURA & FRANKLIN,ROAD SAFETY,"COLENSO BBDO, Auckland",NEW ZEALAND
,DISTRICT COUNCIL
,KINOKUNIYA SEEK CAMPAIGN  KINOKUNIYA BOOK STORES,KINOKUNIYA BOOK STORES,LEO BURNETT,MALAYSIA
,,,"ADVERTISING, Kuala Lumpur"
WEAVE/ZIGZAG/LOOP,GARMIN GPS,GARMIN GPS,OGILVY SHANGHAI,CHINA
HAVAIANAS NEST,SÃO PAULO ALPARGATAS,HAVAIANAS FOOTWEAR,"ALMAPBBDO, São Paulo",BRAZIL
CHEAPER THAN PAPER,THE ZIMBABWEAN,"THEZIMBABWEAN NEWSPAPER,",TBWA\HUNT\LASCARIS,SOUTH AFRICA
,,THEZIMBABWEAN.CO.UK,JOHANNESBURG
THE KAKA AFRICAN,ADIDAS,THE,TBWA\HUNT\LASCARIS,SOUTH AFRICA
BARBERSHOP SIGNAGE,,,PREDATOR/CONFEDERATIONS CUP  JOHANNESBURG
"A04 Flyers, Tickets, Invitations & Cards",
MOVED,SITEVISION,CHANGE OF ADDRESS CARD,"OGILVY MALAYSIA, Kuala",MALAYSIA
,,,Lumpur
NATURAL MEDIUM,TATIL DESIGN,CANNES 2008 WORKSHOP,"TATIL DESIGN, Rio de Janeiro",BRAZIL
,,“DESIGNING NATURALLY”
TOP TO TOE BOOK,MUSEUM OF CHILDHOOD,MUSEUM,ABBOTT MEAD VICKERS,UNITED
,,,"BBDO, London",KINGDOM
SPFW INVITATION TO,SÃO PAULO ALPARGATAS,HAVAIANAS FOOTWEAR,"ALMAPBBDO, São Paulo",BRAZIL
HAVAIANAS,
A05 Calendars,
FAILSAFE CALENDAR,VOSKHOD,ADVERTISING AGENCY,"VOSKHOD, Yekaterinburg",RUSSIA
ONION CALENDAR,WÜSTHOF,KNIVES,"SERVICEPLAN, Munich",GERMANY
3M EARPLUGS PLUG IN,3M GERMANY,3M EARPLUGS,"BUTTER., Düsseldorf",GERMANY
THE ALPINA WALL CALENDAR,ALPINA FARBEN,ALPINA PAINT,SCHOLZ & FRIENDS,GERMANY
2009.00000000,,,HAMBURG
NEVER FORGET A FACE,BBC WILDLIFE FUND,WILDLIFE FUND,THE CHASE CREATIVE,UNITED
,,,"CONSULTANTS, Manchester",KINGDOM
,LERCHE
SILHOUETTE CALENDAR,"BUEROSTAHLWAREN, PET.",LERCHE SCISSORS,"SCHOLZ & FRIENDS, Berlin",GERMANY
,DAN. BAUS KG
A06 Stationery,
ION EGLIN SMALL PRINTED,ION EGLIN,LAWYER,"RUF LANZ, Zurich",SWITZERLAND
DESIGN,
"SHARK, CALF AND",WWF,ENVIRONMENTAL CHARITY,JWT SINGAPORE,SINGAPORE
CROCODILE,
BUSINESS CARDS,DE LIJN,PUBLIC TRANSPORT COMPANY,DUVAL GUILLAUME,BELGIUM
,,,BRUSSELS
LET'S START,GLAMMER EDUCATION,GLAMMER EDUCATION INSTITUTE,"Y&R THAILAND, Bangkok",THAILAND
,,OF HAIR DESIGN
SHORT STORIES,T. C. GHAI,AUTHOR,"BATES141, Mumbai",INDIA
SOAP CARDS,THE BACKPACKER,TRAVEL & LEISURE,"KARIGARI DESIGN, Mumbai",INDIA
,COMPANY
ALZHEIMER'S PEN,ALZHEIMER'S NEW ZEALAND,ALZHEIMER'S CHARITY,"COLENSO BBDO, Auckland",NEW ZEALAND
ART RESTORATION,NALINI PRABHAKAR,ART RESTORER,"OGILVY & MATHER, Mumbai",INDIA
A07 Books,
UNITED,
THE BOOK OF PENGUIN,PENGUIN,PUBLISHING COMPANY,"RADLEY YELDAR, London"
,,,,KINGDOM
SEEMED LIKE A GOOD IDEA,WILLIAMS MURRAY HAMM,DESIGN AGENCY,"WILLIAMS MURRAY HAMM,",UNITED
AT THE TIME,,,London,KINGDOM
CHILDREN'S BOOKS FOR THE,GREGOR AIGNER BOOKS,PIGGYBOOKS,"GREGOR AIGNER, Frankfurt",GERMANY
FINANCIAL CRISIS,
~LEVI’S® BRAND BOOK 09 S/S,
COLLECTION ~ JOURNEY TO,LEVI STRAUSS,LEVI’S® JEANS,"ADK, Tokyo",JAPAN
SOUTH,
PAPER MYSTERIES,SÖDRA CELL,PAPER PULP,"GARBERGS REKLAMBYRÅ,",SWEDEN
,,,Stockholm
ECO DIARY,CELL C,CELLULAR OPERATOR,NET#WORK BBDO,SOUTH AFRICA
,,,JOHANNESBURG
FACES OF EVIL,DAS COMITEE,PUBLISHING COMPANY,"DAS COMITEE, Hamburg",GERMANY
A08 Publications,
FACES,ADRIS GROUP,TOBACCO & TOURISM COMPANY,"BRUKETA&ZINIC, Zagreb",CROATIA
PIGLET,AGENCIA REGIONAL DE,REGIONAL TAX COLLECTION,"F33, Murcia",SPAIN
,RECAUDACION,AGENCY
THE WAY THINGS ARE,INSINGER DE BEAUFORT,BANKING & INVESTMENT COMPANY,DIETWEE ONTWERP EN,THE
,,,"COMMUNICATIE, Utrecht",NETHERLANDS
HIGH 5,ENABLIS,CHARITABLE ORGANISATION,"COSSETTE, Montréal",CANADA
COMING MOON,MITSUBISHI ESTATE CO &,HAIKU EVENT,"DENTSU KANSAI, Osaka",JAPAN
,IDEE CO
SONY BRAND BOOK,SONY AUSTRALIA,ELECTRONICS MANUFACTURERS,SAATCHI & SAATCHI,AUSTRALIA
,,,"AUSTRALIA, Sydney"
MANCHESTER & CHESHIRE,MANCHESTER & CHESHIRE,DOGS HOME,THE CHASE CREATIVE,UNITED
DOGS HOME BROCHURE,DOGS HOME,,"CONSULTANTS, Manchester",KINGDOM
BUICK STYLE GUIDE,GENERAL MOTORS,BUICK,"LEO BURNETT USA, Chicago",USA
A09 Self Promotion,
THE BOOK OF OREGON,TRAVEL OREGON,SELF PROMOTION BOOK,"WIEDEN+KENNEDY, Portland",USA
,PROCTER & GAMBLE &,PROCTER & GAMBLE/WORLDWIDE,DEL CAMPO NAZCA
RECYCLING,UNICEF,CHARITY,"SAATCHI & SAATCHI, Buenos",ARGENTINA
,,,Aires
CREATURE HISTORY BOOK,CREATURE,DESIGN AGENCY,"CREATURE, Seattle",USA
BRANDING SID LEE,SID LEE,DESIGN AGENCY,"SID LEE, Montréal",CANADA
COAL GLOBE,GREENPEACE CHINA,ENVIRONMENTAL CHARITY,OGILVY BEIJING,CHINA
T-SHIRT,ROLAND SEMPRIE,PERSONAL TRAINER,GJP ADVERTISING +,CANADA
,,,"DESIGN, Toronto"
FEEL CAMPAIGN: BUBBLE,
"WRAP, DRIFTWOOD,",KIMBERLY CLARK,KLEENEX LOTION TISSUES,"JWT, New York",USA
"FEATHER, LEATHER, STONE",
THE CHASE CHRISTMAS GIFT,THE CHASE CREATIVE,DESIGN AGENCY,THE CHASE CREATIVE,UNITED
,CONSULTANTS,,"CONSULTANTS, Manchester",KINGDOM
CREATIVE COLLECTIVE,MCCANN WORLDGROUP,ADVERTISING AGENCY,"McCANN ERICKSON, New",USA
STATUE,,,York
EVERY STORY HAS A,ROLAND BERGER,RECRUITING OF STRATEGY
BEGINNING,STRATEGY CONSULTANTS,CONSULTANTS,"gürtlerbachmann, Hamburg",GERMANY
,HOLDING GMBH
SIT SHIT ON MUSIC FESTIVALS,RADIO STATION STUDIO,RADIO STATION,"MORTIERBRIGADE, Brussels",BELGIUM
,BRUSSELS
SKIMMER,FALLON,ADVERTISING AGENCY,"FALLON WORLDWIDE,",USA
,,,Minneapolis
EVERY IMAGE HAS A SOUND,SAXSOFUNNY,SOUND PRODUCTION COMPANY,"DDB BRASIL, São Paulo",BRAZIL
A10 Point of Sale,
STAINBROIDERY,PROCTER & GAMBLE,TIDE DETERGENTS,"LEO BURNETT INDIA, Mumbai",INDIA
"IKEA SALE: FRUIT PEELER,",IKEA MALAYSIA,IKEA,"LOWE & PARTNERS, Petaling",MALAYSIA
POTATO PEELER & GRATER,,,Jaya
DIRTY LAUNDRY,PLEATS QUALITY DRY,DRY CLEANING,"RODGERS TOWNSEND, St",USA
,CLEANING,,Louis
HANDWRITTEN NEWSPAPER,SCHWAN-STABILO,STABILO MARATHON PEN,NAGA DDB/RAPP MALAYSIA,MALAYSIA
,MARKETING,,SELANGOR
PUBLICIS,
ORGANISE YOUR HEAD,VISION ART,3M POST-IT STICKY NOTES,COMMUNICATIONS,MALAYSIA
,,,"MALAYSIA, Petaling Jaya"
,MULTI-MEDIA COKE MACHINE  THE COCA-COLA COMPANY,COCA-COLA,,"SAPIENT INTERACTIVE, Miami USA"
NATURE TRAYS,MCDONALD'S AUSTRALIA,MCDONALD'S,LEO BURNETT SYDNEY,AUSTRALIA
A11 Broadcast Design & Graphics,
NICK IDENTS,MTV NETWORKS GERMANY,NICK GERMANY,"dyrdee Media, Berlin",GERMANY
MICROSOFT PEOPLE READY,MICROSOFT,MICROSOFT PEOPLE READY,"JWT, New York",USA
ENTERPRISE SOLUTIONS,,ENTERPRISE SOLUTIONS
ALL AGAINST EACH OTHER,AMNESTY INTERNATIONAL,HUMAN RIGHTS ORGANISATION,LEO BURNETT LISBOA,PORTUGAL
A12 Digital Design,
X FACTOR,CARPHONE WAREHOUSE,MOBILE PHONE SHOP,"CHI & PARTNERS, London",UNITED
,,,,KINGDOM
COTO-TAMA,"NHK ENTERPRISES, INC",DIGITAL ART FESTIVAL TOKYO 2008,"HAKUHODO, Tokyo",JAPAN
GENIUS TOWN,NESTLÉ,FOOD PRODUCERS,"GIOVANNI+DRAFTFCB, Rio",BRAZIL
,,,de Janeiro
MISS DIOR CHÉRIE,DIOR,MISS DIOR CHÉRIE,"PUBLICIS NET, Paris",FRANCE
SEE FURTHER,FIAT,STILO BLACKMOTION,"AGÊNCIACLICK, São Paulo",BRAZIL
THE ECO ZOO,ENJIN / McCANN ERICKSON,SELF PROMOTION,"McCANN ERICKSON JAPAN,",JAPAN
,JAPAN,,Tokyo
ARJUNA THE ARCHER,SULEKHA.COM,YELLOW PAGES ONLINE,"JWT INDIA, Mumbai",INDIA
,,DIRECTORY
INTERACTIVE CAMPAIGN,HEWLETT-PACKARD ASIA,HP TOUCHSMART HOME DESKTOP,"XM ASIA PACIFIC, Singapore",SINGAPORE
,PACIFIC,PCS
THAT'S NOT COOL,AD COUNCIL,AD COUNCIL,"R/GA, New York",USA
NIKEiD,NIKE,NIKEiD,"R/GA, New York",USA
,B01 Environmental Design: Semi-Permanent
ONE SHOW 2008 EXHIBITION,YOSHIDA HIDEO MEMORIAL,ONE SHOW 2008 EXHIBITION,"DENTSU, Tokyo",JAPAN
,FOUNDATION
SONY @ IFA 2008,SONY EUROPE,SONY ELECTRONICS &,"FREESTATE, London",UNITED
,,ENTERTAINMENT,,KINGDOM
THEATRE IN THE AIR,TOYOTA,IQ COMPACT CAR,"DENTSU, Tokyo",JAPAN
HUMAN VENDING MACHINE,UNIQLO,HEATTECH SPECIALIST,"DENTSU, Tokyo",JAPAN
WORLD TOUR,,EXOTHERMIC WEAR
PROCONTRA,LEADACADEMY,LEAD ACADEMY,"SERVICEPLAN, Hamburg",GERMANY
"THANKS, HAMBURG",BIONADE,ORGANICALLY BREWED SOFT,"KOLLE REBBE, Hamburg",GERMANY
,,DRINK
LOUNGE HAVAIANAS SPFW,ALPARGATAS,FOOTWEAR,CRIACITTA MARKETING,BRAZIL
,,,"CENOGRAFICO, São Paulo"
,REVERSE GRAFFITI PROJECT  THE CLOROX COMPANY,CLOROX BLEACH,"DDB WEST, San Francisco",USA
ONOVALOV'S STATUE,JELFA,HANGOVER TABLETS,"CHANGE INTEGRATED,",POLAND
,,,Warsaw
LG FIVE,H.Y. GROUP,LG SCREENS,SHIMONI FINKELSTEIN,ISRAEL
,,,"DRAFTFCB, Tel Aviv"
IKEA HOME FURNISHING,IKEA JAPAN,IKEA STORE LAUNCH,"ADK, Tokyo",JAPAN
LINER,
WIMBLEDON GRASS ART,HSBC,HSBC BANK,JWT LONDON,UNITED
,,,,KINGDOM
STREET TO SCHOOL,MAHARASHTRA JANAVIKAS,BALWADI NIGHT SCHOOL,"JWT INDIA, Mumbai",INDIA
,KENDRA
B02 Environmental Design: Permanent,
THE KINETIC SCULPTURE,BMW GROUP,MECHATRONICAL INSTALLATION,"ART+COM, Berlin",GERMANY
FOR THE BMW MUSEUM,
MEDIATECTURE,BMW GROUP,BMW,"ART+COM, Berlin",GERMANY
QUOTE-UNQUOTE,OGILVY & MATHER DELHI,OGILVY DELHI INTERIORS,"OGILVY & MATHER, Gurgaon",INDIA
SPIT STAIN GRAFFITI,CANCER PATIENTS AID,CANCER CHARITY,"PUBLICIS AMBIENCE, Mumbai",INDIA
ASSOCIATION,
NETWORK MANAGING BRAND,
,AEROPORTS DE PARIS,PARISIAN AIRPORT,"W&CIE, Paris",FRANCE
TO A SERVICES BRAND,
McCANN ERICKSON LONDON,,McCANN ERICKSON LONDON ADVERTISING AGENCY,McCANN ERICKSON LONDON,UNITED
AGENCY BRANDING,,,,KINGDOM
ST.PAULI CHAPEL,FC ST.PAULI SOCCER CLUB,FC ST.PAULI SOCCER CLUB,"JUNG von MATT, Hamburg",GERMANY
WORLD'S FIRST EPHEMERAL,DIAGEO PORTUGAL,PAMPERO RUM,LEO BURNETT LISBOA,PORTUGAL
MUSEUM,
C01 Foods,
SUPREME CACAO,EL TESORO LTD,DARK CHOCOLATE,"TAXI STUDIO, Bristol",UNITED
,,,,KINGDOM
NEWSPAPER TO NEW PAPER,ICHIDA GARDEN,FRUIT AND VEGATABLES,"DENTSU, Tokyo",JAPAN
PROJECT,
JME FOOD RANGE,JAMIE OLIVER,JAMIE OLIVER'S LIFESTYLE RANGE,"PEARLFISHER, London",UNITED
,,,,KINGDOM
RECIPEASE FOOD KIT,RECIPEASE FOOD KIT,RETAIL STORE FOOD ASSEMBLY,"WILLIAMS MURRAY HAMM,",UNITED
,,KITS,London,KINGDOM
OILCHANGE,ANTHONYS GARAGE,DELICATESSEN FOOD,"KOLLE REBBE, Hamburg",GERMANY
,WINERY
HONEYTUBE,ANTHONY`S GARAGE,FOOD,"KOLLE REBBE, Hamburg",GERMANY
,WINERY
CHOCOLATE WITH A FUTURE!,TCHO,CHOCOLATE,EDENSPIEKERMANN,GERMANY
,,,"BERLIN, Berlin"
MR SINGH'S BANGRAS,MR SINGH'S BANGRAS,SAUSAGES,"THE PARTNERS, London",UNITED
,,,,KINGDOM
CADBURY'S CHRISTMAS,,CADBURY CELEBRATIONS,"CONTRACT ADVERTISING,"
CELEBRATIONS FOR THE,CADBURY INDIA,CHOCOLATE,Mumbai,INDIA
BLIND,
SOSO,SOSOFACTORY,SOSO SALT,"EDUARDO DEL FRAILE,",SPAIN
,,,Murcia
SILVER HILLS BAKERY,SILVER HILLS BAKERY,BAKERY,DDB CANADA/VANCOUVER,CANADA
PACKAGING,
C02 Alcoholic Drinks,
TED696 PROJECT,LION NATHAN AUSTRALIA,TOOHEYS EXTRA DRY,"BMF, Sydney",AUSTRALIA
KARLSSON'S GOLD,THE SPIRITS OF GOLD,KARLSSON'S GOLD VODKA,"THE BRAND UNION,",SWEDEN
,,,Stockholm
TRILLIUM - ABSINTHE,INTEGRITY SPIRITS,DISTILLERY,"ID BRANDING, Portland",USA
SUPERIEURE,
GUT OGGAU WINE BOTTLES,EDUARD TSCHEPPE,WINE GROWING ESTATE,"JUNG von MATT, Vienna",AUSTRIA
& WINE BOX,
"STAG BEETLE, DRAGON FLY",WEINGUT ANDREAS,TSCHEPPE WINES,DEMNER MERLICEK &,AUSTRIA
& FIRE SALAMANDER,TSCHEPPE,,"BERGMANN, Vienna"
LINKWOOD 26-YEAR OLD,DIAGEO,LINKWOOD SINGLE MALT SCOTCH,"THE BRAND UNION, London",UNITED
,,WHISKEY,,KINGDOM
DR. MOELLER’S QUINCE,SCHNAPSBRENNEREI DR.,DR. MOELLER'S QUINCE BRANDY,"SERVICEPLAN, Munich",GERMANY
,THORSTEN MOELLER
MASQUERADE,THE ABSOLUT COMPANY,"ABSOLUT VODKA, WORLDWIDE","FAMILY BUSINESS, Stockholm",SWEDEN
C03 Non-Alcoholic Drinks,
PUCKO,ARLA,CHOCOLATE DRINK,"NEUMEISTER, Stockholm",SWEDEN
WATER OF PATAGONIA,CREVASSE,MINERAL WATER,"BBDO CHILE, Santiago",CHILE
GOTTA,HVA LANKA EXPORTS,HELADIV TEA,"TRIAD, Colombo",SRI LANKA
FROM THE COUNTRY OF,NICHIREI FOODS,ACEROLA FRUIT DRINK,"DRILL, Tokyo",JAPAN
PASSION,
C04 Cosmetics & Beauty,
COFFRE FORT VIKTOR&ROLF,L'ORÉAL,PERFUME,RAISON PURE DESIGN,FRANCE
,,,"GROUP, Paris"
SIX SCENTS FRAGRANCE,SYMRISE,FRAGRANCE RANGE,"METAPROJECT, New York",USA
INITIATIVE,
"C09 Clothing, Sports, Leisure & Recreation",
RELLANA WOOLLY HEADS,FRIEDRICH-WILHELM UND,RELLANA WOOL,OGILVY FRANKFURT,GERMANY
,KARIN RELLER
C10 Other,
"STORE+, THE STORE THAT",PORTUGUESE RED CROSS,HOPE STORE+,LEO BURNETT LISBOA,PORTUGAL
SELLS HOPE,
PACKED WORDS,RUIZ NICOLI LÍNEAS,ADVERTISING AGENCY,"RUIZ NICOLI LINEAS, Madrid   SPAIN"
EPOS: 100 DESIGN CARDS,"EPOS CARD CO.,LTD.",CREDIT CARD,"DRILL, Tokyo",JAPAN
