Title,Advertiser/Client,Product/Service,Entrant Company,Country
A01 Savoury Foods,
CHILLI HOT DOG,HEINZ,KETCHUP,ABBOTT MEAD VICKERS,UNITED
,,,"BBDO, London",KINGDOM
A02 Sweet Foods & Snacks,
CLOCK,KELLOGG COMPANY MEXICO,ALL-BRAN,LEO BURNETT MEXICO,MEXICO
BOY,LEAF NETHERLANDS,CHEWING GUM,"UBACHSWISBRUN/JWT,",THE
,,,Amsterdam,NETHERLANDS
GIRL,LEAF NETHERLANDS,CHEWING GUM,"UBACHSWISBRUN/JWT,",THE
,,,Amsterdam,NETHERLANDS
SEND & RECEIVE,CADBURY ADAMS,DENTYNE,"McCANN ERICKSON, New",USA
,,,York
NOUGAPLEX,MARS,SNICKERS,"TBWA\CHIAT\DAY, New",USA
,,,York
PATRICK CHEWING,MARS,SNICKERS,"TBWA\CHIAT\DAY, New",USA
,,,York
SNICKERSPEAK SUBWAY CAMPAIGN,MARS,SNICKERS,"TBWA\CHIAT\DAY, New",USA
,,,York
SNACKANOMICS,MARS,SNICKERS,"TBWA\CHIAT\DAY, New",USA
,,,York
ANTIHUNGERESTABLISHMENTARIANISM  MARS,,SNICKERS,"TBWA\CHIAT\DAY, New",USA
,,,York
A03 Alcoholic Drinks,
SHARE OUR BILLBOARD 1,JAMES READY,JAMES READY BEER,LEO BURNETT TORONTO,CANADA
SHARE OUR BILLBOARD 2,JAMES READY,JAMES READY BEER,LEO BURNETT TORONTO,CANADA
SHARE OUR BILLBOARD 3,JAMES READY,JAMES READY BEER,LEO BURNETT TORONTO,CANADA
ROLLER BLADER,DB BREWERIES,SOL BEER,"SAATCHI & SAATCHI NZ,",NEW ZEALAND
,,,Auckland
GANGSTER,DB BREWERIES,SOL BEER,"SAATCHI & SAATCHI NZ,",NEW ZEALAND
,,,Auckland
HOCKEY PLAYER,DB BREWERIES,SOL BEER,"SAATCHI & SAATCHI NZ,",NEW ZEALAND
,,,Auckland
A04 Non-Alcoholic Drinks,
BEACH,NESTLÉ WATERS,PERRIER,"OGILVY & MATHER, Paris",FRANCE
NIGHTCLUB,NESTLÉ WATERS,PERRIER,"OGILVY & MATHER, Paris",FRANCE
TENNIS,NESTLÉ WATERS,PERRIER,"OGILVY & MATHER, Paris",FRANCE
TENANT,MILK PROCESSORS,BODY BY MILK,LOWE NEW YORK,USA
,CORPORATE
WEST SIDER,MILK PROCESSORS,BODY BY MILK,LOWE NEW YORK,USA
,CORPORATE
A05 Household: Cleaning Products,
FOOTBALL FIELD,UNILEVER CHINA,OMO LAUNDRY,"LOWE, Shanghai",CHINA
,,DETERGENT
SKI,UNILEVER CHINA,OMO LAUNDRY,"LOWE, Shanghai",CHINA
,,DETERGENT
DESERT,UNILEVER CHINA,OMO LAUNDRY,"LOWE, Shanghai",CHINA
,,DETERGENT
DOGHOUSE,PROCTER & GAMBLE,FEBREZE,GREY PARIS,FRANCE
,,,LEO BURNETT & ARC
SHOES,JUMP DISTRIBUTORS,SWASH,"WORLDWIDE THAILAND,",THAILAND
,,,Bangkok
,,,LEO BURNETT & ARC
TRAIN,JUMP DISTRIBUTORS,SWASH,"WORLDWIDE THAILAND,",THAILAND
,,,Bangkok
COLA,DABUR INDIA,DAZZL DISH CLEANER,"OGILVY & MATHER,",INDIA
,,,Gurgaon
GIN,DABUR INDIA,DAZZL DISH CLEANER,"OGILVY & MATHER,",INDIA
Gurgaon,
"SAATCHI & SAATCHI, New",
CHECK MARKS,PROCTER & GAMBLE,TIDE TO GO,,USA
,,,York
GIRL,PROCTER & GAMBLE,MAESTRO LIMPIO,"GREY ARGENTINA, Buenos",ARGENTINA
,,,Aires
A06 Household: Other,
ENERGY SAVER,OSRAM,ENERGY SAVING LIGHT,SAATCHI & SAATCHI,SOUTH AFRICA
,,BULBS,"SOUTH AFRICA, Cape Town"
TALL TREE,SCOTTS NORDIC,SUBSTRAL FERTILIZER,BARK COPENHAGEN,DENMARK
ELK,COFRESCO,TOPPITS ZIPLOC MAXI,"GREY/G2 GROUP,",GERMANY
,FRISCHHALTEPRODUKTE,FREEZER BAGS,Düsseldorf
WOOD,HENKEL,LOCTITE SUPER ATTAK,"DDB, Milan",ITALY
PLASTIC,HENKEL,LOCTITE SUPER ATTAK,"DDB, Milan",ITALY
NATURAL FINISH,BERGER PAINTS,NATURAL FINISH COLOURS,"JWT INDIA, Mumbai",INDIA
,"A07 Home Appliances, Furnishings, Electronics & Audio-Visual"
,,,GUANGZHOU
COFFEE,HUAWEI,WATERPROOF MOBILE,NEWSUN/JWT,CHINA
,,,"ADVERTISING, Guangzhou"
AMERICAN FOOTBALL,SONY AUSTRALIA,SONY BRAVIA,SAATCHI & SAATCHI,AUSTRALIA
,,,"AUSTRALIA, Sydney"
CRICKET,SONY AUSTRALIA,SONY BRAVIA,SAATCHI & SAATCHI,AUSTRALIA
,,,"AUSTRALIA, Sydney"
FOOTBALL,SONY AUSTRALIA,SONY BRAVIA,SAATCHI & SAATCHI,AUSTRALIA
,,,"AUSTRALIA, Sydney"
MAPS LONDON,SONY AUSTRALIA,SONY WALKMAN,SAATCHI & SAATCHI,AUSTRALIA
,,,"AUSTRALIA, Sydney"
MAPS NEW YORK,SONY AUSTRALIA,SONY WALKMAN,SAATCHI & SAATCHI,AUSTRALIA
,,,"AUSTRALIA, Sydney"
MAPS SYDNEY,SONY AUSTRALIA,SONY WALKMAN,SAATCHI & SAATCHI,AUSTRALIA
,,,"AUSTRALIA, Sydney"
TOYBEAST,IKEA,IKEA STORAGE SOLUTIONS,DDB GERMANY,GERMANY
,,,DÜSSELDORF
CLOTHESBEAST,IKEA,IKEA STORAGE SOLUTIONS,DDB GERMANY,GERMANY
,,,DÜSSELDORF
BOOKBEAST,IKEA,IKEA STORAGE SOLUTIONS,DDB GERMANY,GERMANY
,,,DÜSSELDORF
,,"MEGAPHONE,",CREATIVE
WHITE HOUSE,YUGO INDUSTRIAL,MICROPHONE AND SOUND,"JUICE\BANGKOK (TBWA),",THAILAND
,,SYSTEM,Bangkok
,,"MEGAPHONE,",CREATIVE
WHALING SHIP,YUGO INDUSTRIAL,MICROPHONE AND SOUND,"JUICE\BANGKOK (TBWA),",THAILAND
,,SYSTEM,Bangkok
,,"MEGAPHONE,",CREATIVE
FACTORY,YUGO INDUSTRIAL,MICROPHONE AND SOUND,"JUICE\BANGKOK (TBWA),",THAILAND
,,SYSTEM,Bangkok
LOO,BAJAJ ELECTRICALS,BAJAJ EXHAUST FANS,"LEO BURNETT INDIA,",INDIA
,,,Mumbai
KITCHEN,BAJAJ ELECTRICALS,BAJAJ EXHAUST FANS,"LEO BURNETT INDIA,",INDIA
,,,Mumbai
BABY ROOM,BAJAJ ELECTRICALS,BAJAJ EXHAUST FANS,"LEO BURNETT INDIA,",INDIA
,,,Mumbai
A08 Cosmetics & Beauty,
BABY,UNILEVER JM,AXE,"LOWE ATIVISM, Lisboa",PORTUGAL
PUPPY,UNILEVER JM,AXE,"LOWE ATIVISM, Lisboa",PORTUGAL
SAMPLES,UNILEVER,REXONA FRAGRANCE,"LOWE GINKGO, Montevideo",URUGUAY
,,COLLECTION
KOBE,SCHERING-PLOUGH,,"COPPERTONE SUNSCREEN  DDB DM9 JAYMESYFU,",THE
,,LOTION,Makati City,PHILIPPINES
SHADE,POND'S,SUN SHIELD,OGILVY BEIJING,CHINA
,,GARNIER SUN CONTROL,PUBLICIS
SHADE,L’ORÉAL INDIA,DAILY MOISTURIZER,"COMMUNICATIONS,",INDIA
Mumbai,
A09 Toiletries,
STRETCH,NAMPAK CUDDLERS,NAPPIES,"GREY SOUTH AFRICA,",SOUTH AFRICA
Johannesburg,
COW,JOHNSON & JOHNSON,REACH DENTAL FLOSS,"JWT, São Paulo",BRAZIL
PIG,JOHNSON & JOHNSON,REACH DENTAL FLOSS,"JWT, São Paulo",BRAZIL
CHICKEN,JOHNSON & JOHNSON,REACH DENTAL FLOSS,"JWT, São Paulo",BRAZIL
FIREFIGHTER,PROCTER & GAMBLE,ORAL-B TOOTHBRUSH,PUBLICIS NEW YORK,USA
POLITICIAN,PROCTER & GAMBLE,ORAL-B TOOTHBRUSH,PUBLICIS NEW YORK,USA
A10 Pharmacy,
BEAR,BAYER,ALKA SELTZER,"CLM BBDO,",FRANCE
,,,Boulogne-Billancourt
PAPARAZZI,BAYER,ALKA SELTZER,"CLM BBDO,",FRANCE
,,,Boulogne-Billancourt
MAGICIAN,BAYER,ALKA SELTZER,"CLM BBDO,",FRANCE
,,,Boulogne-Billancourt
MAFIA,BAYER,ALKA SELTZER,"CLM BBDO,",FRANCE
,,,Boulogne-Billancourt
PRISON,BAYER,ALKA SELTZER,"CLM BBDO,",FRANCE
,,,Boulogne-Billancourt
SADDAM,NOBITE - PROTECT,NOBITE - PROTECT,"SERVICEPLAN, Hamburg",GERMANY
,YOURSELF,YOURSELF
MAO,NOBITE - PROTECT,NOBITE - PROTECT,"SERVICEPLAN, Hamburg",GERMANY
,YOURSELF,YOURSELF
WRECKING BALL,JOHNSON & JOHNSON,TYLENOL,JWT TORONTO,CANADA
LAKE,PRIME,PRIME CONDOMS,DRAFTFCB BUENOS AIRES ARGENTINA
MEDALS,JOHNSON & JOHNSON,BAND-AID,JWT DUBAI,UNITED ARAB
,,,,EMIRATES
,,,PUBLICIS
SAVINGS OF A LIFETIME,CUPID CONDOMS,CUPID CONDOMS,"COMMUNICATIONS,",INDIA
,,,Mumbai
CHICKEN - GOAT,"GLAXOSMITHKLINE, INDIA",ENO,"OGILVY & MATHER,",INDIA
,,,Gurgaon
DUCK - HOG,GLAXOSMITHKLINE,ENO,"OGILVY & MATHER,",INDIA
,,,Gurgaon
SEAHORSE - CRANE,"GLAXOSMITHKLINE, INDIA",ENO,"OGILVY & MATHER,",INDIA
,,,Gurgaon
FINGERS,JOHNSON & JOHNSON,NICORETTE PATCHES,BBDO PROXIMITY,SINGAPORE
,,,SINGAPORE
NEEDLE,ESSILOR,LECT-UP VISION LENSES,GREY PARIS,FRANCE
NAILS,ESSILOR,LECT-UP VISION LENSES,GREY PARIS,FRANCE
BED,JOHNSON & JOHNSON,VISINE,"JWT, New York",USA
FILM,JOHNSON & JOHNSON,VISINE,"JWT, New York",USA
"A11 Clothing, Footwear & Accessories",
THE KAKA,ADIDAS,ADIDAS,TBWA\HUNT\LASCARIS,SOUTH AFRICA
,,,JOHANNESBURG
THE PIENAAR,ADIDAS,ADIDAS,TBWA\HUNT\LASCARIS,SOUTH AFRICA
,,,JOHANNESBURG
THE MESSI,ADIDAS,ADIDAS,TBWA\HUNT\LASCARIS,SOUTH AFRICA
,,,JOHANNESBURG
THE FANTENI,ADIDAS,ADIDAS,TBWA\HUNT\LASCARIS,SOUTH AFRICA
,,,JOHANNESBURG
THE GERRARD & THE XAVI,ADIDAS,ADIDAS,TBWA\HUNT\LASCARIS,SOUTH AFRICA
,,,JOHANNESBURG
THE MORRIS,ADIDAS,ADIDAS,TBWA\HUNT\LASCARIS,SOUTH AFRICA
,,,JOHANNESBURG
THE GERRARD,ADIDAS,ADIDAS,TBWA\HUNT\LASCARIS,SOUTH AFRICA
,,,JOHANNESBURG
THE MORRIS & THE KAKA,ADIDAS,ADIDAS,TBWA\HUNT\LASCARIS,SOUTH AFRICA
,,,JOHANNESBURG
"THE MORRIS, THE PIENAAR & THE",ADIDAS,ADIDAS,TBWA\HUNT\LASCARIS,SOUTH AFRICA
FANTENI,,,JOHANNESBURG
NOAH'S ARK,ADIDAS,ADIDAS,"TBWA\ESPAÑA, Madrid",SPAIN
UNITED NATIONS,SÃO PAULO ALPARGATAS,HAVAIANAS,"ALMAPBBDO, São Paulo",BRAZIL
PAINTBALL,SÃO PAULO ALPARGATAS,HAVAIANAS,"ALMAPBBDO, São Paulo",BRAZIL
CONVERTIBLE,SÃO PAULO ALPARGATAS,HAVAIANAS,"ALMAPBBDO, São Paulo",BRAZIL
ATTRACTION,WONDERBRA,FASHION & APPAREL,"PUBLICIS CONSEIL, Paris",FRANCE
SAFARI GIRL,SASCH SPA,SHS TEEN CLOTHES,GREY PARIS,FRANCE
A12 Miscellaneous,
BROWN,WITTE MOLEN,BIRDSEED,"DDB&CO., Istanbul",TURKEY
BLACK,WITTE MOLEN,BIRDSEED,"DDB&CO., Istanbul",TURKEY
BLACK&WHITE,WITTE MOLEN,BIRDSEED,"DDB&CO., Istanbul",TURKEY
PISSOIR,COMERCIAL ARGE,PILOT WATER RESISTANT,"GREY ESPAÑA, Barcelona",SPAIN
,,PEN
BUILDING,COMERCIAL ARGE,PILOT EXTRA FINE PEN,"GREY ESPAÑA, Barcelona",SPAIN
SUBMARINE,COMERCIAL ARGE,PILOT LIGHT HIGHLIGHTER,"GREY ESPAÑA, Barcelona",SPAIN
HAND,NUTRIPRO,NUTRIBALANCE,"PROLAM Y&R, Santiago",CHILE
HUSBAND,NUTRIPRO,NUTRIBALANCE,"PROLAM Y&R, Santiago",CHILE
A13 Cars & Automotive Services,
,AMAG AUTOMOBIL- UND,,KRIEG SCHLUPP
SWISS NATIONAL PARK,MOTOREN,VOLKSWAGEN 4MOTION,BÜRGE/SPRINGER &,SWITZERLAND
"JACOBY, Zürich",
AMAG AUTOMOBIL- UND,KRIEG SCHLUPP
VIAMALA,MOTOREN,VOLKSWAGEN 4MOTION,BÜRGE/SPRINGER &,SWITZERLAND
"JACOBY, Zürich",
AMAG AUTOMOBIL- UND,KRIEG SCHLUPP
SAN BERNARDINO,MOTOREN,VOLKSWAGEN 4MOTION,BÜRGE/SPRINGER &,SWITZERLAND
"JACOBY, Zürich",
AMAG AUTOMOBIL- UND,KRIEG SCHLUPP
FLIMS,MOTOREN,VOLKSWAGEN 4MOTION,BÜRGE/SPRINGER &,SWITZERLAND
,,,"JACOBY, Zürich"
BALLS,CITROËN,BERLINGO COMMERCIAL,"H, Suresnes",FRANCE
,,VEHICLE
ATTENTION,MERCEDES-BENZ,VITO VANS,"ZAPPING/M&C SAATCHI,",SPAIN
,INDUSTRIAL VEHICLES,,Madrid
TRUCK,MERCEDES-BENZ,B-CLASS,"CONTRAPUNTO, Madrid",SPAIN
CITY,MERCEDES-BENZ,B-CLASS,"CONTRAPUNTO, Madrid",SPAIN
TREES,MERCEDES-BENZ,B-CLASS,"CONTRAPUNTO, Madrid",SPAIN
2-3,VOLKSWAGEN,DSG,"DDB, Brussels",BELGIUM
4-5,VOLKSWAGEN,DSG,"DDB, Brussels",BELGIUM
7-6,VOLKSWAGEN,DSG,"DDB, Brussels",BELGIUM
MOUNTAINS,MERCEDES-BENZ,G55 AMG,"JUNG von MATT, Hamburg",GERMANY
CHEVR,MERCEDES-BENZ,CARS & AUTOMOTIVE,"JUNG von MATT, Hamburg",GERMANY
,ÖSTERREICH,SERVICES
NEWSPAPER,LANCIA,LANCIA DELTA,MARCEL PARIS,FRANCE
,,AUTOPARKING SYSTEM
RELAY DRIVER,LANCIA,LANCIA MUSA,MARCEL PARIS,FRANCE
PANDA,FIAT,FIAT,MARCEL PARIS,FRANCE
WALRUS,FIAT,FIAT,MARCEL PARIS,FRANCE
PENGUINS,FIAT,FIAT,MARCEL PARIS,FRANCE
SKYWINDOW NUMBERS,FIAT,STILO SKYWINDOW,"LEO BURNETT BRAZIL,",BRAZIL
,,,São Paulo
SKYWINDOW WINDOWS,FIAT,STILO SKYWINDOW,"LEO BURNETT BRAZIL,",BRAZIL
,,,São Paulo
MOTORBIKE,KTM - SPORMOTO,MOTORBIKE,"DDB&CO., Istanbul",TURKEY
A14 Retail Stores,
IRON,ÅHLÉNS,DEPARTMENT STORE,"KING SOLUTIONS,",SWEDEN
Stockholm,
"KING SOLUTIONS,",
STAPLER,ÅHLÉNS,DEPARTMENT STORE,,SWEDEN
,,,Stockholm
CURTAIN RAIL,ÅHLÉNS,DEPARTMENT STORE,"KING SOLUTIONS,",SWEDEN
,,,Stockholm
DUSTER,ÅHLÉNS,DEPARTMENT STORE,"KING SOLUTIONS,",SWEDEN
,,,Stockholm
TAPE,ÅHLÉNS,DEPARTMENT STORE,"KING SOLUTIONS,",SWEDEN
,,,Stockholm
BED,IKEA AUSTRIA,IKEA,DDB GERMANY BERLIN,GERMANY
WARDROBE,IKEA AUSTRIA,IKEA,DDB GERMANY BERLIN,GERMANY
SOFA,IKEA AUSTRIA,IKEA,DDB GERMANY BERLIN,GERMANY
INTERPRETATION OF DREAMS,PÓ DOS LIVROS,BOOKSTORE,"FISCHER PORTUGAL,",PORTUGAL
,,,Lisbon
PSYCHEDELIC EXPERIENCE,PÓ DOS LIVROS,BOOKSTORE,"FISCHER PORTUGAL,",PORTUGAL
,,,Lisbon
GOD,GANDHI BOOKSTORES,GANDHI BOOKSTORES,OGILVY MEXICO,MEXICO
TABLE,DANK,SECOND HAND FURNITURE,"DDB&CO., Istanbul",TURKEY
,,STORE
SOFA,DANK,SECOND HAND FURNITURE,"DDB&CO., Istanbul",TURKEY
,,STORE
CHAIR,DANK,SECOND HAND FURNITURE,"DDB&CO., Istanbul",TURKEY
,,STORE
DRAWER,DANK,SECOND HAND FURNITURE,"DDB&CO., Istanbul",TURKEY
,,STORE
MATCHSTICK MODEL,123FLEURS.COM,ONLINE FLOWER DELIVERY,GREY PARIS,FRANCE
DOGS,HARVEY NICHOLS,DEPARTMENT STORE,Y&R DUBAI,UNITED ARAB
,,,,EMIRATES
FIRE EXTINGUISHERS,HARVEY NICHOLS,DEPARTMENT STORE,Y&R DUBAI,UNITED ARAB
,,,,EMIRATES
STOP,HARVEY NICHOLS,DEPARTMENT STORE,Y&R DUBAI,UNITED ARAB
,,,,EMIRATES
ALEXANDER MCQUEEN/PAUL SMITH,HARVEY NICHOLS,HARVEY NICHOLS BRISTOL,DDB LONDON,UNITED
,,STORE,,KINGDOM
PAUL SMITH/DUCHAMP,HARVEY NICHOLS,HARVEY NICHOLS BRISTOL,DDB LONDON,UNITED
,,STORE,,KINGDOM
ALEXANDER MCQUEEN,HARVEY NICHOLS,HARVEY NICHOLS BRISTOL,DDB LONDON,UNITED
,,STORE,,KINGDOM
A15 Restaurants & Fast Food Outlets,
ADOPTED,PIZZETTA,PIZZA RESTAURANT,OGILVY DURBAN,SOUTH AFRICA
PAINTBALL,PIZZETTA,PIZZA RESTAURANT,OGILVY DURBAN,SOUTH AFRICA
THE LIVING POSTER,FISCH FRANKE,FISH RESTAURANT,PUBLICIS FRANKFURT,GERMANY
INDIA STREET 2,CAFE COFFEE DAY,CAFE COFFEE DAY,"CREATIVELAND ASIA,",INDIA
,,COFFEE SHOP,Mumbai
"A16 Travel, Transport & Tourism",
BANGALORE - DUBAI,AIR INDIA,AIRLINE,"DDB MUDRA INDIA,",INDIA
,,,Bangalore
MUMBAI - NEW YORK,AIR INDIA,AIRLINE,"DDB MUDRA INDIA,",INDIA
,,,Bangalore
UNDRESSED,FIJIREISER (FIJITRAVEL),TRAVEL COMPANY,TBWA\OSLO,NORWAY
GREAT DANE,EUROCAMP,EUROCAMP HOLIDAYS,"BJL, Manchester",UNITED
,,,,KINGDOM
WHIPPET,EUROCAMP,EUROCAMP HOLIDAYS,"BJL, Manchester",UNITED
,,,,KINGDOM
GORILLA,ZOO SAFARI,ZOO SAFARI,"DDB BRASIL, São Paulo",BRAZIL
LIONESS,ZOO SAFARI,ZOO SAFARI,"DDB BRASIL, São Paulo",BRAZIL
BEACH/SNOW,TERRA,TERRA TRAVEL,"DDB BRASIL, São Paulo",BRAZIL
CITY/COUNTRY,TERRA,TERRA TRAVEL,"DDB BRASIL, São Paulo",BRAZIL
A17 Entertainment & Leisure,
THIS HUMAN WORLD - 1ST,
FILM FESTIVAL OF HUMAN,
EYES WIDE OPEN,AUSTRIAN FILM FESTIVAL OF,RIGHTS,"WIEN NORD, Vienna",AUSTRIA
,HUMAN RIGHTS
INSTANT CRITIC COLLECTION,TATE,TATE BRITAIN,FALLON LONDON,UNITED
,,,,KINGDOM
,THE YOSHIDA HIDEO
D&AD 2008-PENCIL,MEMORIAL FOUNDATION /,EXHIBITION OF CREATIVE,"DENTSU KANSAI, Osaka",JAPAN
,ADVERTISING MUSEUM,AWARDS
,TOKYO
,THE YOSHIDA HIDEO
D&AD 2008-HEXAGON,MEMORIAL FOUNDATION /,EXHIBITION OF CREATIVE,"DENTSU KANSAI, Osaka",JAPAN
,ADVERTISING MUSEUM,AWARDS
,TOKYO
INNER CHILD,MUSEUM OF CHILDHOOD,MUSEUM,ABBOTT MEAD VICKERS,UNITED
,,,"BBDO, London",KINGDOM
PLAYING,MUSEUM OF CHILDHOOD,MUSEUM,ABBOTT MEAD VICKERS,UNITED
,,,"BBDO, London",KINGDOM
MEMORY BACK GUARANTEE,MUSEUM OF CHILDHOOD,MUSEUM,ABBOTT MEAD VICKERS,UNITED
,,,"BBDO, London",KINGDOM
ELEPHANT,MATTEL CHILE,SCRABBLE,"JWT CHILE, Santiago",CHILE
GUITAR,MATTEL CHILE,SCRABBLE,"JWT CHILE, Santiago",CHILE
SUBMARINE,MATTEL CHILE,SCRABBLE,"JWT CHILE, Santiago",CHILE
THE BILL,MUF - MUSEO NAZIONALE,COMICS NATIONAL,"JWT ITALIA, Milan",ITALY
,DEL FUMETTO,MUSEUM
THE WAKING UP,MUF - MUSEO NAZIONALE,COMICS NATIONAL,"JWT ITALIA, Milan",ITALY
,DEL FUMETTO,MUSEUM
THE SHOT,MUF - MUSEO NAZIONALE,COMICS NATIONAL,"JWT ITALIA, Milan",ITALY
,DEL FUMETTO,MUSEUM
CUT HOARDINGS,CARTIK THE CONJUROR,MAGIA 2009,"BATES141, Mumbai",INDIA
BOY MEETS GIRL,CHICAGO INTERNATIONAL,CHICAGO INTERNATIONAL,"DDB, Chicago",USA
,FILM FESTIVAL,FILM FESTIVAL
CRIME FAMILY GETS REVENGE,CHICAGO INTERNATIONAL,CHICAGO INTERNATIONAL,"DDB, Chicago",USA
,FILM FESTIVAL,FILM FESTIVAL
A18 Publications & Media,
ELEPHANT,MTV NETWORKS,COMEDY CENTRAL,"KEMPERTRAUTMANN,",GERMANY
,,,Hamburg
FLIES,MTV NETWORKS,COMEDY CENTRAL,"KEMPERTRAUTMANN,",GERMANY
,,,Hamburg
,,THEZIMBABWEAN,TBWA\HUNT\LASCARIS
FIGHT THE REGIME,THEZIMBABWEAN,"NEWSPAPER,",JOHANNESBURG,SOUTH AFRICA
THEZIMBABWEAN.CO.UK,
THEZIMBABWEAN,TBWA\HUNT\LASCARIS
CHEAPER THAN MONEY,THEZIMBABWEAN,"NEWSPAPER,",JOHANNESBURG,SOUTH AFRICA
THEZIMBABWEAN.CO.UK,
THEZIMBABWEAN,TBWA\HUNT\LASCARIS
TRILLION DOLLAR BILLBOARD,THEZIMBABWEAN,"NEWSPAPER,",JOHANNESBURG,SOUTH AFRICA
THEZIMBABWEAN.CO.UK,
THEZIMBABWEAN,TBWA\HUNT\LASCARIS
Z$250 000 000,THEZIMBABWEAN,"NEWSPAPER,",JOHANNESBURG,SOUTH AFRICA
THEZIMBABWEAN.CO.UK,
THEZIMBABWEAN,TBWA\HUNT\LASCARIS
WALLPAPER,THEZIMBABWEAN,"NEWSPAPER,",JOHANNESBURG,SOUTH AFRICA
,,THEZIMBABWEAN.CO.UK
OSTRICH,The Economist,The Economist,"BBDO, New York",USA
GLOBAL DOWNTURN,FINANCIAL TIMES,FINANCIAL TIMES,DDB LONDON,UNITED
,,,,KINGDOM
,,FRANCE 24
COPS,FRANCE 24,INTERNATIONAL NEWS,MARCEL PARIS,FRANCE
,,CHANNEL
,,FRANCE 24
COUPLE,FRANCE 24,INTERNATIONAL NEWS,MARCEL PARIS,FRANCE
,,CHANNEL
DELIVERY,Infrarouge,FREE NIGHT-OUT GUIDE,"PUBLICIS CONSEIL, Paris",FRANCE
HARLEY/IKEA/GOOGLE,THE DAILY TELEGRAPH,NEWSPAPER,"ADAM & EVE, London",UNITED
,,,,KINGDOM
HENDRIX/OBAMA/BRANSON,THE DAILY TELEGRAPH,NEWSPAPER,"ADAM & EVE, London",UNITED
,,,,KINGDOM
IBM/LAMBORGHINI/NOKIA,THE DAILY TELEGRAPH,NEWSPAPER,"ADAM & EVE, London",UNITED
KINGDOM,
UNITED,
LENNON/WARHOL/CLINTON,THE DAILY TELEGRAPH,NEWSPAPER,"ADAM & EVE, London"
,,,,KINGDOM
LIGHTNING,CNN TURK,TV CHANNEL,"DDB&CO., Istanbul",TURKEY
MEADOW,CNN TURK,TV CHANNEL,"DDB&CO., Istanbul",TURKEY
TREE,CNN TURK,TV CHANNEL,"DDB&CO., Istanbul",TURKEY
BUBBLES,8 INK MEDIA,NATIONAL GEOGRAPHIC,"FoxP2, Cape Town",SOUTH AFRICA
,,KIDS MAGAZINE
PATHFINDER,8 INK MEDIA,NATIONAL GEOGRAPHIC,"FoxP2, Cape Town",SOUTH AFRICA
,,KIDS MAGAZINE
WAVE,ESPN STAR SPORTS,CABLE CHANNELS,"SAATCHI & SAATCHI,",SINGAPORE
,,,Singapore
"A19 Banking, Investment & Insurance",
PONY,BANK NORWEGIAN,BANK NORWEGIAN,"KITCHEN LEO BURNETT,",NORWAY
,,,Oslo
HANGLIDER,BANK NORWEGIAN,BANK NORWEGIAN,"KITCHEN LEO BURNETT,",NORWAY
,,,Oslo
WATER JET,BANK NORWEGIAN,BANK NORWEGIAN,"KITCHEN LEO BURNETT,",NORWAY
,,,Oslo
RECYCLED BILLBOARD,NEDBANK,NEDBANK,NET#WORK BBDO,SOUTH AFRICA
,,,JOHANNESBURG
UNCONDITIONAL LOVE,NUVEEN,FINANCIAL SERVICE,"FALLON WORLDWIDE,",USA
,,,Minneapolis
A20 Business Equipment & Services,
,COMMERCIAL FILM
AFFAIR,PRODUCERS OF EUROPE &,YOUNG DIRECTOR AWARD,TBWA\PHS HELSINKI,FINLAND
,SHOTS
LONELY,PHOTOLIBRARY,STOCK IMAGE LIBRARY,TBWA\TEQUILA,SINGAPORE
,,,SINGAPORE
EMERGENCY,PHOTOLIBRARY,STOCK IMAGE LIBRARY,TBWA\TEQUILA,SINGAPORE
,,,SINGAPORE
SANCTUARY,PHOTOLIBRARY,STOCK IMAGE LIBRARY,TBWA\TEQUILA,SINGAPORE
,,,SINGAPORE
OIL REFINERY,SAP GERMANY,SAP CONSULTING,OGILVY FRANKFURT,GERMANY
POWER STATION,SAP GERMANY,SAP CONSULTING,OGILVY FRANKFURT,GERMANY
PULP MILL,SAP GERMANY,SAP CONSULTING,OGILVY FRANKFURT,GERMANY
VASE,FEDEX,COURIER SERVICES,"DDB BRASIL, São Paulo",BRAZIL
A21 Commercial Public Services,
GLASSES,INLINGUA HAMBURG,INLINGUA BUSINESS,"KOLLE REBBE, Hamburg",GERMANY
,,ENGLISH
FLY,CHARITYSA,CHARITY WEBSITE,"LOWE BULL, Cape Town",SOUTH AFRICA
,,HOSPITAL ALEMAN -,DEL CAMPO NAZCA
TREE,HOSPITAL ALEMAN,KINDER PLAN,"SAATCHI & SAATCHI,",ARGENTINA
Buenos Aires,
HOSPITAL ALEMAN -,DEL CAMPO NAZCA
COOKIES,HOSPITAL ALEMAN,KINDER PLAN,"SAATCHI & SAATCHI,",ARGENTINA
Buenos Aires,
HOSPITAL ALEMAN -,DEL CAMPO NAZCA
STAIRS,HOSPITAL ALEMAN,KINDER PLAN,"SAATCHI & SAATCHI,",ARGENTINA
,,,Buenos Aires
TERMINATOR,CITY VARSITY,CITY VARSITY,NET#WORK BBDO CAPE,SOUTH AFRICA
,,,TOWN
ALIEN,CITY VARSITY,CITY VARSITY,NET#WORK BBDO CAPE,SOUTH AFRICA
,,,TOWN
GANGSTER,KASETSART UNIVERSITY,KARATE SCHOOL,"MONDAY, Bangkok",THAILAND
MAD DOG,KASETSART UNIVERSITY,KARATE SCHOOL,"MONDAY, Bangkok",THAILAND
ROBBER,KASETSART UNIVERSITY,KARATE SCHOOL,"MONDAY, Bangkok",THAILAND
DANIEL,TERRA PORTAL,TERRA SONORA/ MUSIC,"DDB BRASIL, São Paulo",BRAZIL
,,CHANNEL
DING DONG,TERRA PORTAL,TERRA SONORA/ MUSIC,"DDB BRASIL, São Paulo",BRAZIL
,,CHANNEL
CIRCLES,EPA,ART SCHOOL,"ALMAPBBDO, São Paulo",BRAZIL
LINES,EPA,ART SCHOOL,"ALMAPBBDO, São Paulo",BRAZIL
CROSSES,EPA,ART SCHOOL,"ALMAPBBDO, São Paulo",BRAZIL
A22 Corporate Image,
,BLUE OCEAN PAPER,BLUE OCEAN PAPER
BUSH,RECYCLING TECHNOLOGY,RECYCLING TECHNOLOGY,"GREY GROUP, Beijing",CHINA
,CO.,CO.
STAMPS,INDIA POSTS,"DEPARTMENT OF POSTS,","OGILVY & MATHER,",INDIA
,,INDIA,Gurgaon
PAPER BATTLEFIELD,NIKE HONG KONG LTD.,NIKE BASKETBALL LEAGUE,"McCANN WORLDGROUP,",HONG KONG
,,,Hong Kong
PAPER BATTLEFIELD,NIKE HONG KONG LTD.,NIKE BASKETBALL LEAGUE,"McCANN WORLDGROUP,",HONG KONG
,,,Hong Kong
PAPER BATTLEFIELD,NIKE HONG KONG LTD.,NIKE BASKETBALL LEAGUE,"McCANN WORLDGROUP,",HONG KONG
,,,Hong Kong
A23 Public Health & Safety,
GIRL,MINISTÈRE DE LA SANTÉ ET,PUBLIC SERVICES,"LG2, Québec",CANADA
,DES SERVICES SOCIAUX
BOY,MINISTÈRE DE LA SANTÉ ET,PUBLIC SERVICES,"LG2, Québec",CANADA
,DES SERVICES SOCIAUX
OUT OF REACH,NEW ZEALAND FIRE SERVICE,PUBLIC AWARENESS,"M&C SAATCHI, Auckland",NEW ZEALAND
,,CAMPAIGN
ILL CAPITANO,MUENCHNER AIDSHILFE,AIDS AWARENESS,".START, Munich",GERMANY
,,CAMPAIGN
KIM ILL III,MUENCHNER AIDSHILFE,AIDS AWARENESS,".START, Munich",GERMANY
,,CAMPAIGN
COMMANDER CONTROL,MUENCHNER AIDSHILFE,AIDS AWARENESS,".START, Munich",GERMANY
,,CAMPAIGN
MATCH,MAKATI CITY FIRE STATION,FIRE PREVENTION MONTH,"DDB DM9 JAYMESYFU,",THE
,,,Makati City,PHILIPPINES
,RED CROSS,HIV FOUNDATION/FINNISH
"EXPLORE SAFELY, GIRL!",FINLAND/MINISTRY OF,AIDS COUNCIL,"TAIVAS, Helsinki",FINLAND
SOCIAL AFFAIRS AND HEALTH,
RED CROSS,HIV FOUNDATION/FINNISH
EXPLORE SAFELY GAY!,FINLAND/MINISTRY OF,AIDS COUNCIL,"TAIVAS, Helsinki",FINLAND
,SOCIAL AFFAIRS AND HEALTH
SOAP PAPER,THE WORLD BANK MINISTRY,PERSONAL HYGIENE,"GREY GROUP VIETNAM,",VIETNAM
,OF HEALTH,CAMPAIGN,Ho Chi Minh City
ASPHALT,HONDA,MOTORCYCLES,"DDB BRASIL, São Paulo",BRAZIL
A24 Public Awareness Messages,
AHMADINEJAD,INTERNATIONAL SOCIETY,INTERNATIONAL SOCIETY,OGILVY FRANKFURT,GERMANY
,FOR HUMAN RIGHTS (ISHR),FOR HUMAN RIGHTS (ISHR)
RAUL CASTRO,INTERNATIONAL SOCIETY,INTERNATIONAL SOCIETY,OGILVY FRANKFURT,GERMANY
,FOR HUMAN RIGHTS (ISHR),FOR HUMAN RIGHTS (ISHR)
CIRCLE OF LIFE,WWF INDIA,WWF,"OGILVY & MATHER,",INDIA
,,,Mumbai
LION,SANCTUARY ASIA,SANCTUARY ASIA,"OGILVY & MATHER,",INDIA
,,,Mumbai
POLAR BEAR,SANCTUARY ASIA,SANCTUARY ASIA,"OGILVY & MATHER,",INDIA
,,,Mumbai
SHARK,WWF,WWF,JWT SINGAPORE,SINGAPORE
CALF,WWF,WWF,JWT SINGAPORE,SINGAPORE
CROCODILE,WWF,WWF,JWT SINGAPORE,SINGAPORE
NUCLEAR,GREENPEACE,GREENPEACE,DDB PARIS,FRANCE
GM FOODS,GREENPEACE,GREENPEACE,DDB PARIS,FRANCE
ECONOMIC CRISES,GREENPEACE,GREENPEACE,DDB PARIS,FRANCE
SUBWAY,GREENPEACE,GREENPEACE,DDB PARIS,FRANCE
COMPUTER,GREENPEACE,GREENPEACE,DDB PARIS,FRANCE
CAR WASH,GREENPEACE,GREENPEACE,DDB PARIS,FRANCE
BUS STOP,TURCEK,TURKISH ENVIRONMENTAL,"DDB&CO., Istanbul",TURKEY
,,& WOODLANDS SOCIETY
REAL SIZE HOME,ABBE PIERRE FOUNDATION,ANNUAL DECENT HOUSING,"BDDP & FILS, Paris",FRANCE
CAMPAIGN,
ANNUAL DECENT HOUSING,
SHELTER HOME,ABBE PIERRE FOUNDATION,,"BDDP & FILS, Paris",FRANCE
,,CAMPAIGN
CROWDED,ABBE PIERRE FOUNDATION,ANNUAL DECENT HOUSING,"BDDP & FILS, Paris",FRANCE
,,CAMPAIGN
THE AD SQUATTER,ABBE PIERRE FOUNDATION,ANNUAL DECENT HOUSING,"BDDP & FILS, Paris",FRANCE
,,CAMPAIGN
PARKING,ABBE PIERRE FOUNDATION,ANNUAL DECENT HOUSING,"BDDP & FILS, Paris",FRANCE
,,CAMPAIGN
USE BOTH SIDES,JWT LONDON,RECYCLE PAPER,JWT LONDON,UNITED
,,CAMPAIGN,,KINGDOM
SECOND CHANCE,JWT LONDON,RECYCLE PAPER,JWT LONDON,UNITED
,,CAMPAIGN,,KINGDOM
THE OTHER SIDE,JWT LONDON,RECYCLE PAPER,JWT LONDON,UNITED
,,CAMPAIGN,,KINGDOM
TWO SIDES,JWT LONDON,RECYCLE PAPER,JWT LONDON,UNITED
,,CAMPAIGN,,KINGDOM
INDUSTRIAL POLLUTION,CEPF,CEPF,JWT SHANGHAI,CHINA
GLOBAL WARMING,CEPF,CEPF,JWT SHANGHAI,CHINA
AUTOMOTIVE POLLUTION,CEPF,CEPF,JWT SHANGHAI,CHINA
OBAMCCAIN,VOTE AMERICA,VOTE AMERICA,GREY NEW YORK,USA
MISSILES,GLOBAL COALITION FOR,GLOBAL COALITION FOR,"BIG ANT INTERNATIONAL,",USA
,PEACE,PEACE,New York
HAND GRENADE,GLOBAL COALITION FOR,GLOBAL COALITION FOR,"BIG ANT INTERNATIONAL,",USA
,PEACE,PEACE,New York
MACHINE GUN,GLOBAL COALITION FOR,GLOBAL COALITION FOR,"BIG ANT INTERNATIONAL,",USA
,PEACE,PEACE,New York
TANK,GLOBAL COALITION FOR,GLOBAL COALITION FOR,"BIG ANT INTERNATIONAL,",USA
,PEACE,PEACE,New York
CITYMAP,FOSTPLUS VLAANDEREN,ANTI-LITTER CAMPAIGN,SAATCHI & SAATCHI,BELGIUM
,,,BRUSSELS
TRAIN SCHEDULE,FOSTPLUS VLAANDEREN,ANTI-LITTER CAMPAIGN,SAATCHI & SAATCHI,BELGIUM
,,,BRUSSELS
A25 Fundraising & Appeals,
CHILDREN WAITING IN LINE,PLAN INTERNATIONAL,SPONSOR A CHILD,PUBLICIS HAMBURG,GERMANY
,DEUTSCHLAND,CAMPAIGN
,UNA SWEDEN (UNITED,FUNDRAISING TO
PAIR OF JEANS,NATIONS),SUPPORT THE WAR,OGILVY STOCKHOLM,SWEDEN
VICTIMS OF GEORGIA,
UNA SWEDEN (UNITED,FUNDRAISING TO
DRESS,NATIONS),SUPPORT THE WAR,OGILVY STOCKHOLM,SWEDEN
VICTIMS OF GEORGIA,
UNA SWEDEN (UNITED,FUNDRAISING TO
CAR,NATIONS),SUPPORT THE WAR,OGILVY STOCKHOLM,SWEDEN
VICTIMS OF GEORGIA,
UNA SWEDEN (UNITED,FUNDRAISING TO
DOLL,NATIONS),SUPPORT THE WAR,OGILVY STOCKHOLM,SWEDEN
VICTIMS OF GEORGIA,
UNA SWEDEN (UNITED,FUNDRAISING TO
VEST,NATIONS),SUPPORT THE WAR,OGILVY STOCKHOLM,SWEDEN
VICTIMS OF GEORGIA,
UNA SWEDEN (UNITED,FUNDRAISING TO
SHOES,NATIONS),SUPPORT THE WAR,OGILVY STOCKHOLM,SWEDEN
VICTIMS OF GEORGIA,
UNA SWEDEN (UNITED,FUNDRAISING TO
SWEATER,NATIONS),SUPPORT THE WAR,OGILVY STOCKHOLM,SWEDEN
VICTIMS OF GEORGIA,
UNA SWEDEN (UNITED,FUNDRAISING TO
KINDERGARTEN,NATIONS),SUPPORT THE WAR,OGILVY STOCKHOLM,SWEDEN
VICTIMS OF GEORGIA,
UNA SWEDEN (UNITED,FUNDRAISING TO
SHEET,NATIONS),SUPPORT THE WAR,OGILVY STOCKHOLM,SWEDEN
VICTIMS OF GEORGIA,
UNA SWEDEN (UNITED,FUNDRAISING TO
APARTMENT,NATIONS),SUPPORT THE WAR,OGILVY STOCKHOLM,SWEDEN
,,VICTIMS OF GEORGIA
BATMAN,CHILEAN RED CROSS,RED CROSS,"JWT CHILE, Santiago",CHILE
SPIDERMAN,CHILEAN RED CROSS,RED CROSS,"JWT CHILE, Santiago",CHILE
FOLDERS YELLOW,UNICEF,UNICEF,"OGILVY CHILE, Santiago",CHILE
FOLDERS BLUE,UNICEF,UNICEF,"OGILVY CHILE, Santiago",CHILE
FOLDERS ORANGE,UNICEF,UNICEF,"OGILVY CHILE, Santiago",CHILE
B01 Point of Purchase: Small Scale,
COMPUTER SPECIALISTS RECRUITING,MCKINSEY & COMPANY,MANAGEMENT,"RUF LANZ, Zurich",SWITZERLAND
,,CONSULTANCY
HADACHE,GLAXOSMITHKLINE,PANADOL ACTIFAST,"OGILVY MALAYSIA, Kuala",MALAYSIA
,,,Lumpur
VIOLENCE,AREA 51 TOYS,LEGO,NAGA DDB/RAPP,MALAYSIA
,,,MALAYSIA SELANGOR
DRUGS,AREA 51 TOYS,LEGO,NAGA DDB/RAPP,MALAYSIA
,,,MALAYSIA SELANGOR
BALL,VOLKSWAGEN,GTI R32,OGILVY CAPE TOWN,SOUTH AFRICA
LIZ,NETFLORIST,ONLINE FLORIST,DRAFTFCB,SOUTH AFRICA
,,,JOHANNESBURG
BRITNEY,NETFLORIST,ONLINE FLORIST,DRAFTFCB,SOUTH AFRICA
,,,JOHANNESBURG
FISH POSTER,SURFRIDER FOUNDATION,ONG SURFRIDER,"SCRIPT COMUNICAÇÃO,",BRAZIL
,BRASIL,FOUNDATION BRASIL,Rio de Janeiro
,AFRICA HEALTH,,NET#WORK BBDO
ELEPHANT,PLACEMENTS - RURAL,DOCTOR RECRUITMENT,JOHANNESBURG,SOUTH AFRICA
,HEALTH INITIATIVE
CHICKEN,PROCTER & GAMBLE,ORAL-B DENTAL FLOSS,"PUBLICIS BRASIL, Sao",BRAZIL
,,,Paulo
PIG,PROCTER & GAMBLE,ORAL-B DENTAL FLOSS,"PUBLICIS BRASIL, Sao",BRAZIL
,,,Paulo
FISH,PROCTER & GAMBLE,ORAL-B DENTAL FLOSS,"PUBLICIS BRASIL, Sao",BRAZIL
,,,Paulo
EXPLORER,NIKON SINGAPORE,NIKON S60 CAMERA,EURO RSCG SINGAPORE,SINGAPORE
VOYEURS,NIKON SINGAPORE,NIKON S60 CAMERA,EURO RSCG SINGAPORE,SINGAPORE
HOTEL,NIKON SINGAPORE,NIKON S60 CAMERA,EURO RSCG SINGAPORE,SINGAPORE
HIKING & ICE BOOTS,CHRYSLER KOREA,JEEP,BBDO/PROXIMITY,MALAYSIA
,,,"MALAYSIA, Kuala Lumpur"
MOUNTAIN GOAT & CROCODILE,CHRYSLER KOREA,JEEP,BBDO/PROXIMITY,MALAYSIA
,,,"MALAYSIA, Kuala Lumpur"
CAVE-MAN,PERFETTI VAN MELLE,SOUR MARBELS CANDIES,"OGILVY & MATHER,",INDIA
,,,Mumbai
DIVER,PERFETTI VAN MELLE,SOUR MARBELS CANDIES,"OGILVY & MATHER,",INDIA
,,,Mumbai
TOURIST,PERFETTI VAN MELLE,SOUR MARBELS CANDIES,"OGILVY & MATHER,",INDIA
,,,Mumbai
ALCOHOLIC,STICHTING GEHEIM GEWELD,CHARITY,SAATCHI & SAATCHI,THE
,,,AMSTERDAM,NETHERLANDS
ADDICT,STICHTING GEHEIM GEWELD,CHARITY,SAATCHI & SAATCHI,THE
,,,AMSTERDAM,NETHERLANDS
SUICIDE,STICHTING GEHEIM GEWELD,CHARITY,SAATCHI & SAATCHI,THE
,,,AMSTERDAM,NETHERLANDS
OBESITY,STICHTING GEHEIM GEWELD,CHARITY,SAATCHI & SAATCHI,THE
,,,AMSTERDAM,NETHERLANDS
SQUALID,PURELL,PURELL ANTIBACTERIAL,JWT SYDNEY,AUSTRALIA
,,INSTANT HAND SANITIZER
DECAY,PURELL,PURELL ANTIBACTERIAL,JWT SYDNEY,AUSTRALIA
,,INSTANT HAND SANITIZER
PLAQUE,PURELL,PURELL ANTIBACTERIAL,JWT SYDNEY,AUSTRALIA
,,INSTANT HAND SANITIZER
FOOT & HAND,PLANET YOGA,PLANET YOGA,"LEO BURNETT, Hong Kong",HONG KONG
FOOT IN POCKET,PLANET YOGA,PLANET YOGA,"LEO BURNETT, Hong Kong",HONG KONG
FISH,3M THAILAND,POST-IT FLAG,"EURO RSCG FLAGSHIP,",THAILAND
,,,Bangkok
STEPS,NIKE,NIKE,OGILVY JOHANNESBURG,SOUTH AFRICA
BENCH,NIKE,NIKE,OGILVY JOHANNESBURG,SOUTH AFRICA
BUS STOP,NIKE,NIKE,OGILVY JOHANNESBURG,SOUTH AFRICA
MILKMAN,PFIZER,VIAGRA,OGILVY JOHANNESBURG,SOUTH AFRICA
POOLBOY,PFIZER,VIAGRA,OGILVY JOHANNESBURG,SOUTH AFRICA
POSTMAN,PFIZER,VIAGRA,OGILVY JOHANNESBURG,SOUTH AFRICA
PRAM,DAIMLER SINGAPORE,BRAKE-ASSIST PLUS,BBDO PROXIMITY,SINGAPORE
,,FEATURE,SINGAPORE
KIDS,DAIMLER SINGAPORE,BRAKE-ASSIST PLUS,BBDO PROXIMITY,SINGAPORE
,,FEATURE,SINGAPORE
DOG,DAIMLER SINGAPORE,BRAKE-ASSIST PLUS,BBDO PROXIMITY,SINGAPORE
,,FEATURE,SINGAPORE
ONION,WRIGLEY'S,MOUTH FRESHENING,BBDO PROXIMITY,SINGAPORE
,,MINTS,SINGAPORE
BRITISHNESS CORRECTOR,MILLER BREWING COMPANY/,BEER,"SAATCHI & SAATCHI, New",USA
,MILLER HIGH LIFE,,York
COLLAR CLIPS,MILLER BREWING COMPANY/,BEER,"SAATCHI & SAATCHI, New",USA
,MILLER HIGH LIFE,,York
PINKY RESTRAINT,MILLER BREWING COMPANY/,BEER,"SAATCHI & SAATCHI, New",USA
,MILLER HIGH LIFE,,York
HOT DOG SMUGGLER,MILLER BREWING COMPANY/,BEER,"SAATCHI & SAATCHI, New",USA
,MILLER HIGH LIFE,,York
DECROSSIFIER,MILLER BREWING COMPANY/,BEER,"SAATCHI & SAATCHI, New",USA
,MILLER HIGH LIFE,,York
ICE CREAM,GLAXOSMITHKLINE,SENSODYNE,"MATOSGREY, São Paulo",BRAZIL
COFFEE,GLAXOSMITHKLINE,SENSODYNE,"MATOSGREY, São Paulo",BRAZIL
GIVE BACK,STARBUCKS CANADA,EARTH DAY EVENT,"BBDO CANADA, Toronto",CANADA
GREENER,STARBUCKS CANADA,EARTH DAY EVENT,"BBDO CANADA, Toronto",CANADA
PLANT,STARBUCKS CANADA,EARTH DAY EVENT,"BBDO CANADA, Toronto",CANADA
DORETOS,NAM NGAI HONG,ANYLOCK,"OGILVY & MATHER,",THAILAND
,,,Bangkok
ORIO,NAM NGAI HONG,ANYLOCK,"OGILVY & MATHER,",THAILAND
,,,Bangkok
LOCKER,NAM NGAI HONG,ANYLOCK,"OGILVY & MATHER,",THAILAND
,,,Bangkok
STICKS FAST,BOSTIK GLUE,GLUE,"DDB SOUTH AFRICA,",SOUTH AFRICA
,,,Johannesburg
ROOF,COLGATE,AJAX FRESH,"Y&R, São Paulo",BRAZIL
WALL,COLGATE,AJAX FRESH,"Y&R, São Paulo",BRAZIL
KNEE,BEIERSDORF MIDDLE EAST,HANSAPLAST,"TBWA\RAAD, Dubai",UNITED ARAB
,,,,EMIRATES
DESERT,NISSAN MIDDLE EAST,NISSAN XTERRA,"TBWA\RAAD, Dubai",UNITED ARAB
,,,,EMIRATES
CRAB,PROCTER & GAMBLE,ARIEL,SAATCHI & SAATCHI,CHINA
,,,GUANGZHOU
SPAGHETTI,PROCTER & GAMBLE,ARIEL,SAATCHI & SAATCHI,CHINA
,,,GUANGZHOU
HOTDOG,PROCTER & GAMBLE,ARIEL,SAATCHI & SAATCHI,CHINA
,,,GUANGZHOU
HAMBURGER,PROCTER & GAMBLE,ARIEL,SAATCHI & SAATCHI,CHINA
,,,GUANGZHOU
BLOWER,STIHL,GARDENING TOOLS,"PUBLICIS CONSEIL, Paris",FRANCE
HEDGE TRIMMER,STIHL,GARDENING TOOLS,"PUBLICIS CONSEIL, Paris",FRANCE
CRAB IN THE WATER,EKCHAI DISTRIBUTION,TESCO LOTUS,BBDO BANGKOK,THAILAND
,SYSTEMS
FISH IN THE WATER,EKCHAI DISTRIBUTION,TESCO LOTUS,BBDO BANGKOK,THAILAND
,SYSTEMS
PRAWN IN THE WATER,EKCHAI DISTRIBUTION,TESCO LOTUS,BBDO BANGKOK,THAILAND
,SYSTEMS
PUNK,EASTPAK,EASTPAK BACKPACKS,GREY BUCHAREST,ROMANIA
GRAFFITI,EASTPAK,EASTPAK BACKPACKS,GREY BUCHAREST,ROMANIA
B02 Point of Purchase: Large Scale,
MOSQUITO,CITROËN AUSTRALIA,DEALERSHIP POSTER,BELGIOVANE WILLIAMS,AUSTRALIA
"MACKAY, Sydney",
,CHRYSLER JEEP DODGE
DESERT MAP,,JEEP,"BBDO CANADA, Toronto",CANADA
,RETAILERS OF ONTARIO
JUNGLE MAP,CHRYSLER JEEP DODGE,JEEP,"BBDO CANADA, Toronto",CANADA
,RETAILERS OF ONTARIO
SNOW MAP,CHRYSLER JEEP DODGE,JEEP,"BBDO CANADA, Toronto",CANADA
,RETAILERS OF ONTARIO
SPOON,MAO BAO LIQUID DISHWASH,MAO BAO LIQUID,"BATES TAIWAN, Taipei",CHINESE TAIPEI
,,DISHWASH
HUNGRY,BURGER KING,BURGER KING,".START, Munich",GERMANY
NAME CARDS,CENTURY FIESTA COSTUME,COSTUME SHOP,BBDO/PROXIMITY,MALAYSIA
,SHOP,,"MALAYSIA, Kuala Lumpur"
SAMURAI,MATTEL CHILE,SCRABBLE,"JWT CHILE, Santiago",CHILE
HEIGHT,JOHNSON & JOHNSON,BAND-AID,"JWT, São Paulo",BRAZIL
WEIGHT,JOHNSON & JOHNSON,BAND-AID,"JWT, São Paulo",BRAZIL
TIME,JOHNSON & JOHNSON,BAND-AID,"JWT, São Paulo",BRAZIL
JOAN OF ARC,SONY,PLAYSTATION 3,"BBDO CHILE, Santiago",CHILE
ROMMEL,SONY,PLAYSTATION 3,"BBDO CHILE, Santiago",CHILE
FUR,SHERWIN WILLIAMS,METALATEX ECO PAINT,"MOHALLEM MEIRELLES,",BRAZIL
,,,São Paulo
COAL,SHERWIN WILLIAMS,METALATEX ECO PAINT,"MOHALLEM MEIRELLES,",BRAZIL
,,,São Paulo
INDIA,LONELY PLANET,LONELY PLANET,"OGILVY & MATHER,",THAILAND
,PUBLICATIONS,,Bangkok
HEARTBEAT,ZÜRCHER,CLASSICAL MUSIC,EURO RSCG GROUP,SWITZERLAND
,KAMMERORCHESTER,,"SWITZERLAND, Zurich"
TEAR,ZÜRCHER,CLASSICAL MUSIC,EURO RSCG GROUP,SWITZERLAND
,KAMMERORCHESTER,,"SWITZERLAND, Zurich"
BRUNI,KENNEL1,LAXATIVE,"PUBLICIS INDIA, Gurgaon",INDIA
TOTO,KENNEL1,LAXATIVE,"PUBLICIS INDIA, Gurgaon",INDIA
DIRTYWHITE MAN,OMAX,CAMERAS,"PUBLICIS INDIA, Gurgaon",INDIA
JAPANESE TOURIST,OMAX,CAMERAS,"PUBLICIS INDIA, Gurgaon",INDIA
BEACH BUM,OMAX,CAMERAS,"PUBLICIS INDIA, Gurgaon",INDIA
BOY,GOODYEAR,EXCELLENCE,Y&R MEXICO,MEXICO
DOG,GOODYEAR,EXCELLENCE,Y&R MEXICO,MEXICO
SKATE,GOODYEAR,EXCELLENCE,Y&R MEXICO,MEXICO
MEMORY STICK,3M INDIA,SCOTCH MAGIC TAPE,"GREY WORLDWIDE INDIA,",INDIA
,,,Mumbai
VAN,JOHNSON & JOHNSON,LISTERINE ANTISEPTIC,JWT KUALA LUMPUR,MALAYSIA
,,MOUTHWASH
PICNIC,JOHNSON & JOHNSON,LISTERINE ANTISEPTIC,JWT KUALA LUMPUR,MALAYSIA
,,MOUTHWASH
FIREMAN,DIFERENCAS,CENTRE FOR CHILD,"BBDO PORTUGAL, Lisbon",PORTUGAL
,,DEVELOPMENT
SOCCER PLAYER,DIFERENCAS,CENTRE FOR CHILD,"BBDO PORTUGAL, Lisbon",PORTUGAL
,,DEVELOPMENT
DANCER,DIFERENCAS,CENTRE FOR CHILD,"BBDO PORTUGAL, Lisbon",PORTUGAL
,,DEVELOPMENT
ENGINEER,BHARTI AIRTEL,AIRTEL MOBILE PHONE,"REDIFFUSION Y&R,",INDIA
,,DATA BACKUP SERVICE,Gurgaon
HOUSEWIFE,BHARTI AIRTEL,AIRTEL MOBILE PHONE,"REDIFFUSION Y&R,",INDIA
,,DATA BACKUP SERVICE,Gurgaon
TOURIST,BHARTI AIRTEL,AIRTEL MOBILE PHONE,"REDIFFUSION Y&R,",INDIA
,,DATA BACKUP SERVICE,Gurgaon
INDOOR PANEL,EPA,EPA,"ALMAPBBDO, São Paulo",BRAZIL
WOMAN,BAYER,BAYER,"ALMAPBBDO, São Paulo",BRAZIL
MAN,BAYER,BAYER,"ALMAPBBDO, São Paulo",BRAZIL
FELT TIP,AMNESTY INTERNATIONAL,LETTER WRITING,"SAATCHI & SAATCHI,",MALAYSIA
,MALAYSIA,CAMPAIGN,Petaling Jaya
,AMNESTY INTERNATIONAL,LETTER WRITING,"SAATCHI & SAATCHI,"
FOUNTAIN PEN,,,,MALAYSIA
,MALAYSIA,CAMPAIGN,Petaling Jaya
RAILWAY CHILDREN,PENGUIN BOOKS MALAYSIA,BOOKS,"SAATCHI & SAATCHI,",MALAYSIA
,,,Petaling Jaya
CANNERY ROW,PENGUIN BOOKS MALAYSIA,BOOKS,"SAATCHI & SAATCHI,",MALAYSIA
,,,Petaling Jaya
THE HOUND OF THE BASKERVILLES,PENGUIN BOOKS MALAYSIA,BOOKS,"SAATCHI & SAATCHI,",MALAYSIA
,,,Petaling Jaya
CITY ARACHNI,THE NORTH FACE/PRIMER,THE NORTH FACE,"ACE SAATCHI & SAATCHI,",THE
,GROUP,OUTDOOR GEAR,Makati City,PHILIPPINES
YOU AND ME AGAINST,VESPA/2211 WORKS,VESPA,"ACE SAATCHI & SAATCHI,",THE
,,,Makati City,PHILIPPINES
SECRETARY,TIME DECO CORPERATION,TIME DECO WATCH SHOP,BBDO BANGKOK,THAILAND
WEDDING,TIME DECO CORPERATION,TIME DECO WATCH SHOP,BBDO BANGKOK,THAILAND
BEAR,TIME DECO CORPERATION,TIME DECO WATCH SHOP,BBDO BANGKOK,THAILAND
HIGHWAY,MATTEL MÉXICO,TOY CARS,OGILVY MEXICO,MEXICO
GARAGE,MATTEL MÉXICO,TOY CARS,OGILVY MEXICO,MEXICO
CROUCHING,HARVEY NICHOLS,HARVEY NICHOLS WINTER,DDB LONDON,UNITED
,,SALE,,KINGDOM
LYING,HARVEY NICHOLS,HARVEY NICHOLS WINTER,DDB LONDON,UNITED
,,SALE,,KINGDOM
KNEELING,HARVEY NICHOLS,HARVEY NICHOLS WINTER,DDB LONDON,UNITED
,,SALE,,KINGDOM
PICTURE,MASP MUSEUM,SCHOOL OF ART,"DDB BRASIL, São Paulo",BRAZIL
SOFT BREAD,STANSON MARKETING,HIGH 5 BREAD,JWT KUALA LUMPUR,MALAYSIA
"C01 Ambient: Bars, Restaurants & Stores, etc.",
CELLULAR ALCOHOL TEST,KEYS PLEASE,DRINKING & DRIVING,"RETHINK, Vancouver",CANADA
,,AWARENESS
LEMON,HENKEL,BREF WC GEL,TBWA\ISTANBUL,TURKEY
APPLE,HENKEL,BREF WC GEL,TBWA\ISTANBUL,TURKEY
OCEAN,HENKEL,BREF WC GEL,TBWA\ISTANBUL,TURKEY
THE ELUSIVE COASTER,SAB MILLER INDIA,DON'T DRINK & DRIVE BY,"OGILVY & MATHER,",INDIA
,,FOSTER'S,Bangalore
GLACIEL,TURCEK,ENVIRONMENTAL &,"DDB&CO., Istanbul",TURKEY
,,WOODLANDS SOCIETY
STAINBROIDERY,PROCTER & GAMBLE,TIDE,"LEO BURNETT INDIA,",INDIA
,,,Mumbai
INK,PROCTER & GAMBLE,TIDE,"LEO BURNETT INDIA,",INDIA
,,,Mumbai
KETCHUP,PROCTER & GAMBLE,TIDE,"LEO BURNETT INDIA,",INDIA
,,,Mumbai
OIL,PROCTER & GAMBLE,TIDE,"LEO BURNETT INDIA,",INDIA
,,,Mumbai
OLD CHILD 1,UNICEF,UNICEF 60TH BIRTHDAY,PUBLICIS BRUSSELS,BELGIUM
OLD CHILD 2,UNICEF,UNICEF 60TH BIRTHDAY,PUBLICIS BRUSSELS,BELGIUM
OLD CHILD 3,UNICEF,UNICEF 60TH BIRTHDAY,PUBLICIS BRUSSELS,BELGIUM
C02 Ambient: Small Scale Special Solutions,
NATURE ITEM PROMOTION,FLORA PLANNING,BONMAISON,"DENTSU, Tokyo",JAPAN
GUERILLA GARBAGE,IKEA,2009 IKEA CATALOGUE,"303 ADVERTISING, Perth",AUSTRALIA
FLIP-FLOPS,TOURISM AUTHORITY OF,TRAVEL & TOURISM,McCANN ERICKSON,THAILAND
,THAILAND,,"THAILAND, Bangkok"
,,SEATTLE NON-PROFIT
CHILOE,THE SERVICE BOARD,ORGINIZATION FOR AT,"CREATURE, Seattle",USA
,,RISK TEENS
,,SEATTLE NON-PROFIT
ELLA,THE SERVICE BOARD,ORGINIZATION FOR AT,"CREATURE, Seattle",USA
,,RISK TEENS
IAMS,PROCTER & GAMBLE,IAMS PET FOOD,SAATCHI & SAATCHI,AUSTRALIA
,AUSTRALIA,,"AUSTRALIA, Sydney"
THEZIMBABWEAN,
TBWA\HUNT\LASCARIS,
TRILLION DOLLAR FLYERS,THEZIMBABWEAN,"NEWSPAPER,",JOHANNESBURG,SOUTH AFRICA
,,THEZIMBABWEAN.CO.UK
HAUNTING GIRL,RODNEY DISTRICT COUNCIL,ROAD SAFETY,"COLENSO BBDO, Auckland",NEW ZEALAND
DOOR HANGER,The Economist,The Economist,"BBDO, New York",USA
SOCKETS,DAIMLER,SMART,"PONTO DE CRIAÇÃO, São",BRAZIL
,,,Paulo
REMIND - ICE CREAM,COLGATE-PALMOLIVE,COLGATE TOOTHBRUSH,"Y&R THAILAND, Bangkok",THAILAND
REMIND - COTTON CANDY,COLGATE-PALMOLIVE,COLGATE TOOTHBRUSH,"Y&R THAILAND, Bangkok",THAILAND
REMIND - LOLLYPOP,COLGATE-PALMOLIVE,COLGATE TOOTHBRUSH,"Y&R THAILAND, Bangkok",THAILAND
CURRENCY NOTE,IN GANDHI'S SHOES,IN GANDHI'S SHOES,"PUBLICIS INDIA, Gurgaon",INDIA
T-SHIRT,EPA,EPA,"ALMAPBBDO, São Paulo",BRAZIL
WORLD'S FIRST EPHEMERAL MUSEUM,DIAGEO PORTUGAL,PAMPERO RUM,LEO BURNETT LISBOA,PORTUGAL
TREE SHIRT,WORLD WIDE FUND FOR,EARTH HOUR,LEO BURNETT SYDNEY,AUSTRALIA
,NATURE
C03 Ambient: Special Build,
IKEA STAIRCASE DRAWER,IKEA MALAYSIA,STORAGE PRODUCTS,"LOWE & PARTNERS,",MALAYSIA
,,,Petaling Jaya
CRAWLING,JAKPETZ JAKARTA,PET SERVICE AND,SAATCHI & SAATCHI,INDONESIA
,,SUPPLIES,JAKARTA
VODANOVICH ROAD,WAITAKERE CITY COUNCIL,ROAD SAFETY AWARENESS,"JWT NEW ZEALAND,",NEW ZEALAND
,,,Auckland
THE WEIGHT MEASURING BUS STOP,FITNESS FIRST,HEALTH CLUB,"N=5, Amsterdam",THE
,,,,NETHERLANDS
MELODY ROAD,DUNLOP FALKEN TYRES,SAFETY AWARENESS,"DENTSU RAZORFISH,",JAPAN
,,CAMPAIGN,Tokyo
THE GREAT TASMANIAN PIPELINE,LION NATHAN,JAMES BOAGS DRAUGHT,"PUBLICIS MOJO, Sydney",AUSTRALIA
,,PIPELINE
GLASS,NEW CITIZEN PROGRAM,NEW CITIZEN PROGRAM,OGILVY BEIJING,CHINA
BARBED WIRE,NEW CITIZEN PROGRAM,NEW CITIZEN PROGRAM,OGILVY BEIJING,CHINA
INGRES' BATHER 2009,ANAD,EATING DISORDER,OGILVY FRANKFURT,GERMANY
,,CHARITY
BOUCHER'S NUDE 2009,ANAD,EATING DISORDER,OGILVY FRANKFURT,GERMANY
,,CHARITY
MANET'S OLYMPIA 2009,ANAD,EATING DISORDER,OGILVY FRANKFURT,GERMANY
,,CHARITY
MILLION DOLLAR PAINTING,KLARA/VRT,KLARA.BE,"FAMOUS, Brussels",BELGIUM
IMPOSSIBLE GOALKEEPER,ADIDAS,ADIDAS FOOTBALL,"TBWA\GERMANY, Berlin",GERMANY
IMPOSSIBLE HUDDLE,ADIDAS,ADIDAS FOOTBALL,"TBWA\GERMANY, Berlin",GERMANY
CYBERCENSORSHIP,REPORTERS WITHOUT,FREEDOM OF THE PRESS,,SAATCHI & SAATCHI PARIS FRANCE
,BORDERS
THE REVERSE GRAFFITI PROJECT,THE CLOROX COMPANY,GREEN WORKS,"DDB WEST, San Francisco",USA
WHEN WILL THE FRUIT BURST,PASCALL,FRUIT BURST SWEETS,"DDB NEW ZEALAND,",NEW ZEALAND
,,,Auckland
LISTEN,KADOKAWA GROUP,KADOKAWA TSUBASA,"DENTSU, Tokyo",JAPAN
,PUBLISHING,JUVENILE BOOKS
HATE YOUR TEACHER,KADOKAWA GROUP,KADOKAWA TSUBASA,"DENTSU, Tokyo",JAPAN
,PUBLISHING,JUVENILE BOOKS
STUDY MORE,KADOKAWA GROUP,KADOKAWA TSUBASA,"DENTSU, Tokyo",JAPAN
,PUBLISHING,JUVENILE BOOKS
GRENADE,RODNEY DISTRICT COUNCIL,ANTI SPEEDING,"SAATCHI & SAATCHI NZ,",NEW ZEALAND
,,,Auckland
BOX POSTER,HOME PRODUCT,HOMEPRO SALE,BBDO BANGKOK,THAILAND
DEER,WWF,WWF,"DDB BRASIL, São Paulo",BRAZIL
TURTLE,WWF,WWF,"DDB BRASIL, São Paulo",BRAZIL
TOUCAN,WWF,WWF,"DDB BRASIL, São Paulo",BRAZIL
C04 Ambient: Stunts & Live Advertising,
SOUND CANNON PROJECT,CORUS ENTERTAINMENT,SCREAM TV,"zig, Toronto",CANADA
BALLOON,CHUBB NORD-ALARM,SECURITY SYSTEMS,"PHILIPP UND KEUNTJE,",GERMANY
,,COMPANY,Hamburg
WHAT’S ALL THE FUSS ABOUT?,MTV NETWORKS,GLOBAL CLIMATE CHANGE,OGILVY AMSTERDAM,THE
,INTERNATIONAL,CAMPAIGN,,NETHERLANDS
ART AGAINST DRINK DRIVING - PHASE 2,HELP,ANTI-DRINK DRIVING,BBDO/PROXIMITY,MALAYSIA
,,AWARENESS CAMPAIGN,"MALAYSIA, Kuala Lumpur"
,,,DEL CAMPO NAZCA
MARATHON,DHL,DHL EXPRESS,"SAATCHI & SAATCHI,",ARGENTINA
,,,Buenos Aires
AXE RUNNING,UNILEVER,AXE,"UNCLE GREY, Århus",DENMARK
,,WESPRO DIGITAL,PUBLICIS
SPORTS CAPTURE,WESPRO DIGITAL PVT. LTD.,CAMERAS,"COMMUNICATIONS,",INDIA
,,,Mumbai
HUMAN STATUES,CANON,POWERSHOT CAMERA,"DDB SOUTH AFRICA,",SOUTH AFRICA
,,,Johannesburg
BARRIER,SOORUZ,SKATEWEAR,"PUBLICIS CONSEIL, Paris",FRANCE
HANDRAIL,SOORUZ,SKATEWEAR,"PUBLICIS CONSEIL, Paris",FRANCE
BENCHES,SOORUZ,SKATEWEAR,"PUBLICIS CONSEIL, Paris",FRANCE
BACKPOCKETING,MUMBAI RAILWAY POLICE,PICKPOCKET AWARENESS,"LEO BURNETT INDIA,",INDIA
,,CAMPAIGN,Mumbai
MONUMENTS,WORLD WIDE FUND FOR,EARTH HOUR,LEO BURNETT SYDNEY,AUSTRALIA
,NATURE
OASIS DIG OUT YOUR SOUL,NYC & WARNER BROTHERS,IN THE STREETS,"BBH, New York",USA
C05 Ambient: Transit,
SMALL,GEBR. MÄRKLIN & CIE,MODEL RAILROAD,"SERVICEPLAN, Munich",GERMANY
,,PRODUCTS
DIRT,GREENPEACE POLSKA,PUBLIC AWARENESS,McCANN ERICKSON,POLAND
,,CAMPAIGN,"POLSKA, Warsaw"
GARBAGE BUS,KEEP HOLLAND CLEAN,PUBLIC TRANSPORT,GREY AMSTERDAM,THE
,FOUNDATION,,,NETHERLANDS
FINGERPRINT,MATTEL CHILE,MATCHBOX,"JWT CHILE, Santiago",CHILE
HELP CHILDREN OFF THE STREET,UNICEF,UNICEF,"CHEIL WORLDWIDE, Seoul",KOREA
HOME FURNISHING LINER,IKEA JAPAN,IKEA STORE LAUNCH IN,"ADK, Tokyo",JAPAN
,,KANSAI
THE WORLD'S BIGGEST RACK,IKEA AUSTRIA,IKEA,DDB GERMANY BERLIN,GERMANY
STEEL SPAN WIRE,ALTECO,SUPE GLUE,"DDB CHINA GROUP,",CHINA
,,,Shanghai
IMPOSSIBLE POSTCARD,ADIDAS,ADIDAS FOOTBALL,"TBWA\GERMANY, Berlin",GERMANY
TWISTER: PEACE,The Economist,The Economist,"BBDO, New York",USA
TWISTER: ANARCHY,The Economist,The Economist,"BBDO, New York",USA
TWISTER: MUHAMMAD,The Economist,The Economist,"BBDO, New York",USA
WHEN THE FLIGHT'S OVER,O BOTICÁRIO,ANTI-DANDRUFF SHAMPOO,"ALMAPBBDO, São Paulo",BRAZIL
C06 Ambient: Digital Outdoor,
THE LEGO CODES,MYTOYS.DE,LEGO BRICK BOXES,LUKAS LINDEMANN,GERMANY
,,,"ROSINSKI, Hamburg"
UNDERWATER,WWF,CLIMATE CHANGE,OGILVY & MATHER ASIA,SINGAPORE
,,AWARENESS,"PACIFIC, Singapore"
EYE TRACKING,AMNESTY INTERNATIONAL,AMNESTY INTERNATIONAL,"JUNG von MATT, Hamburg",GERMANY
PICCADILLY SIGN,McDONALD'S,McDONALD'S,"LEO BURNETT, London",UNITED
,,,,KINGDOM
HBO AUDIO MURAL INSTALLATIONS,HBO,Big Love,"BBDO, New York",USA
THAT'S NOT COOL,AD COUNCIL,AD COUNCIL,"R/GA, New York",USA
IF WALLS COULD TALK,PERNOD RICARD,JAMESON,"TBWA\CHIAT\DAY, New",USA
,,,York
FAN-O-METER,COORS BREWERS,CARLING CUP FINAL,BEATTIE McGUINNESS,UNITED
,,,"BUNGAY, London",KINGDOM
EL LABORATORIO,
REAL MADRID-,
GO TO LA PORRA,BWIN,BARCELONA DERBY,"SPRINGER & JACOBY,",SPAIN
,,Madrid
LIVE TEXT INTERACTIVE POSTER,VIRGIN TRAINS,VIRGIN TRAINS,"ELVIS COMMUNICATIONS,  UNITED"
,,London,KINGDOM
