Title,Advertiser/Client,Product/Service,Advertising Agency,Country,,Production Company Country
A01 Foods,,,,,,* indicates Entrant Company
RAPPER,CADBURY SOUTH,CLORETS,OGILVY CAPE TOWN *,SOUTH AFRICA,"B&S STUDIOS, Cape",SOUTH AFRICA
,AFRICA,BREATH MINTS,,,Town
URL,I&J,OMEGA 3 FISH,NET#WORK BBDO,SOUTH AFRICA,"THE WORK ROOM,",SOUTH AFRICA
,,FINGERS,CAPE TOWN *,,Cape Town
,CRY-LAUGHTER   WRIGLEY,STARBURST,"LATINWORKS, Austin *",USA,AZ LOS ANGELES,USA
,,SWEETS
TAMPON,ALIMENTOS,ALL BRAN,LEO BURNETT,VENEZUELA,"SONICA STUDIOS,",VENEZUELA
,KELLOGG'S,CEREAL,"VENEZUELA, Caracas *",,Caracas
SOCK DRAWER,CADBURY,CLUSTERS,"SAATCHI & SAATCHI,",UNITED,"RADIOVILLE, London",UNITED
,,CONFECTIONERY,London *,KINGDOM,,KINGDOM
PUB,CADBURY,CLUSTERS,"SAATCHI & SAATCHI,",UNITED,"RADIOVILLE, London",UNITED
,,CONFECTIONERY,London *,KINGDOM,,KINGDOM
OFFICE,CADBURY,CLUSTERS,"SAATCHI & SAATCHI,",UNITED,"RADIOVILLE, London",UNITED
,,CONFECTIONERY,London *,KINGDOM,,KINGDOM
A02 Alcoholic Drinks,,,,,,* indicates Entrant Company
,,,EURO RSCG,,"BERWYN EDITORIAL,"
CINCO,HEINEKEN,DOS EQUIS BEER,"WORLDWIDE, New York",USA,New York,USA
*,
EURO RSCG,"POMANN SOUND, New"
HALLOWEEN,HEINEKEN,DOS EQUIS BEER,"WORLDWIDE, New York",USA,York,USA
*,
EURO RSCG,"POMANN SOUND, New"
STANDARD,HEINEKEN,DOS EQUIS BEER,"WORLDWIDE, New York",USA,York,USA
*,
EURO RSCG,"BERWYN EDITORIAL,"
SIGNS,HEINEKEN,DOS EQUIS BEER,"WORLDWIDE, New York",USA,New York,USA
,,,*
A03 Non-Alcoholic Drinks,,,,,,* indicates Entrant Company
,OVERPROMISING  SEATTLE'S BEST,ICED LATTES,"CREATURE, Seattle *",USA,"BARTRADIO, Seattle",USA
GUY,COFFEE
KEEPS YOU,LAVAZZA,DECAFFEINATED,"DDB&CO., Istanbul *",TURKEY,"PROFILM, Istanbul",TURKEY
ASLEEP,,COFFEE
A04 Household,,,,,,* indicates Entrant Company
,,,,,RAYA
,,BOUNTY PAPER,,,"PRODUCCIONES,",ARGENTINA /
BATTLE,PROCTER & GAMBLE,TOWEL,"LAPIZ, Chicago *",USA,Buenos Aires / JIRA,USA
,,,,,"PRODUCTIONS,"
,,,,,Chicago
,,BOUNTY PAPER,LEO BURNETT,,"ALTAMAR MUSIC, San"
SKA,PROCTER & GAMBLE,TOWEL,"PUERTO RICO, San",PUERTO RICO,Juan,PUERTO RICO
,,,Juan *
,"A05 Home Appliances, Furnishings, Electronics & Audio Visual",,,,,* indicates Entrant Company
A SALARYMAN'S,PANASONIC,COMBINATION,"DAIKO ADVERTISING,",JAPAN,"BIG FACE, Osaka",JAPAN
LIFE,,STEAM OVEN,Osaka *
LETTER,PANASONIC,ECO CUTE,"DAIKO ADVERTISING,",JAPAN,"BIG FACE, Osaka",JAPAN
,,WATER HEATER,Osaka *
FAMILY,PANASONIC GOBEL,,PT PERWANAL
PORTRAIT,INDONESIA,LUMIX CAMERA,"SAATCHI & SAATCHI,",INDONESIA,"SWANTEN, Jakarta",INDONESIA
,,,Jakarta *
BOTTOMLESS PIT  SEARS,,CRAFTSMAN,"Y&R, New York *",USA,"SONIC UNION, New",USA
,,TOOLS,,,York
GARY'S LADDER   SEARS,,CRAFTSMAN,"Y&R, New York *",USA,"SONIC UNION, New",USA
,,TOOLS,,,York
KNOWLEDGE,SEARS,CRAFTSMAN,"Y&R, New York *",USA,"SONIC UNION, New",USA
SHELF,,TOOLS,,,York
UNIVERSE,SEARS,CRAFTSMAN,"Y&R, New York *",USA,"SONIC UNION, New",USA
DIORAMA,,TOOLS,,,York
"C'MON, WHAT'S",MOTOROLA,MOTO ID MUSIC,"OGILVY BRASIL, São",BRAZIL,"SATELITE AUDIO, São",BRAZIL
THIS SONG?,,IDENTIFICATION,Paulo *,,Paulo
I CAN'T,,MOTO ID MUSIC,"OGILVY BRASIL, São",,"SATELITE AUDIO, São"
REMEMBER THIS,MOTOROLA,IDENTIFICATION,Paulo *,BRAZIL,Paulo,BRAZIL
TUNE,
,"A06 Cosmetics & Beauty, Toiletries",,,,,* indicates Entrant Company
OLAY,
OLAY,PROCTER & GAMBLE,ANTI-AGING,DDB OSLO *,NORWAY,"BÅDE OG, Oslo",NORWAY
,,CREAM
,,,"OGILVY FRANCE, Paris",,"ELEVEN SOUND, West"
YOU'RE A MAN,UNILEVER,DOVE MEN+CARE,*,FRANCE,Hollywood / EYE,USA
,,,,,"PATCH, New York"
A07 Pharmacy,,,,,,* indicates Entrant Company
,QUEISSER PHARMA,DOPPELHERZ,"SCHOLZ & FRIENDS,",,"TONSCHNEIDREI,"
SPIDER,GmbH & Co. KG,CALMING,Hamburg *,GERMANY,Hamburg,GERMANY
,,TABLETS
,QUEISSER PHARMA,DOPPELHERZ,"SCHOLZ & FRIENDS,",,"TONSCHNEIDREI,"
TATTOO,GmbH & Co. KG,CALMING,Hamburg *,GERMANY,Hamburg,GERMANY
,,TABLETS
CITY STREET,NOVARTIS,OTRIVIN NASAL,"SAATCHI & SAATCHI,",SWITZERLAND,JEFF WAYNE MUSIC,UNITED
,CONSUMER HEALTH,SPRAY,Carouge *,,"GROUP, London",KINGDOM
OFFICE,NOVARTIS,OTRIVIN NASAL,"SAATCHI & SAATCHI,",SWITZERLAND,JEFF WAYNE MUSIC,UNITED
,CONSUMER HEALTH,SPRAY,Carouge *,,"GROUP, London",KINGDOM
PARK,NOVARTIS,OTRIVIN NASAL,"SAATCHI & SAATCHI,",SWITZERLAND,JEFF WAYNE MUSIC,UNITED
,CONSUMER HEALTH,SPRAY,Carouge *,,"GROUP, London",KINGDOM
,"A08 Clothing, Footwear & Accessories",,,,,* indicates Entrant Company
LIFEGUARD,SCHILLING OPTICS,SPECTACLE,"UNITAS/RNL, Santiago *",CHILE,PLATAFORMA,CHILE
,,CASES,,,"DIGITAL, Santiago"
A09 Miscellaneous,,,,,,* indicates Entrant Company
CAR RIDE,MARS PET CARE,CHUM DOG FOOD,CLEMENGER BBDO,AUSTRALIA,"FLAGSTAFF, Melbourne  AUSTRALIA"
,,,MELBOURNE *
FETCH,MARS PET CARE,CHUM DOG FOOD,CLEMENGER BBDO,AUSTRALIA,"FLAGSTAFF, Melbourne  AUSTRALIA"
,,,MELBOURNE *
MAIL MAN,MARS PET CARE,CHUM DOG FOOD,CLEMENGER BBDO,AUSTRALIA,"FLAGSTAFF, Melbourne  AUSTRALIA"
,,,MELBOURNE *
DOG RADIO,GALAXXY PET FOOD,NATURIA DOG,"GRABARZ & PARTNER,",GERMANY,"STUDIO FUNK,",GERMANY
,,FOOD,Hamburg *,,Hamburg
,A10 Cars & Automotive Services,,,,,* indicates Entrant Company
THE WORLD'S,,VEHICLE
MOST,ACDELCO,SERVICE,MEMAC OGILVY &,UNITED ARAB,"BKP, Dubai",UNITED ARAB
TRUSTWORTHY,,CENTRES,"MATHER, Dubai *",EMIRATES,,EMIRATES
RADIO AD,
TRUNK,RENAULT,RENAULT,"LOWE GINKGO,",URUGUAY,"REC, Montevideo",URUGUAY
RECORDING,,SYMBOL,Montevideo *
EMOTIONAL,LEXUS,MARK LEVINSON,DRAFTFCB,SOUTH AFRICA,"FREQ'NCY,",SOUTH AFRICA
SATNAV,,SOUND SYSTEM,JOHANNESBURG *,,Johannesburg
,,GENUINE,DRAFTFCB,,SONOVISION
EL LOCO,TOYOTA,TOYOTA PARTS,JOHANNESBURG *,"SOUTH AFRICA STUDIOS,",,SOUTH AFRICA
,,,,,Johannesburg
,,GENUINE,DRAFTFCB,,SONOVISION
CREEPER TARTS,TOYOTA,TOYOTA PARTS,JOHANNESBURG *,"SOUTH AFRICA STUDIOS,",,SOUTH AFRICA
,,,,,Johannesburg
STOP,MERCEDES-BENZ,BRAKE ASSIST,"LOWE, Bangkok *",THAILAND,"STERLING SOUND,",SOUTH AFRICA
,(THAILAND) LIMITED,,,,Johannesburg
FRIENDS,VOLKSWAGEN,VW SAVEIRO,"ALMAPBBDO, São",BRAZIL,"A VOZ DO BRASIL, São",BRAZIL
,,,Paulo *,Paulo
COUPLE,VOLKSWAGEN,VW SAVEIRO,"ALMAPBBDO, São",BRAZIL,"A VOZ DO BRASIL, São",BRAZIL
,,,Paulo *,Paulo
HUMAN,VOLKSWAGEN,VW PASSAT,DDB STOCKHOLM *,SWEDEN,"FLICKORNA LARSSON,",SWEDEN
EMISSIONS,SWEDEN,ECOFUEL,,,Stockholm
CAR CHASE,VOLKSWAGEN,VW GOLF 6,DDB GERMANY,GERMANY,"STUDIO FUNK, Berlin",GERMANY
,,,BERLIN *
,BAYERISCHE
GUNSHOT,MOTOREN WERKE,BMW S1000 RR,"SERVICEPLAN, Munich * GERMANY",,TONHAUS HAMBURG,GERMANY
,AKTIENGESELLSCHA-,MOTORCYCLE
,FT
HORSE,SUBARU CANADA,SUBARU WRX,DDB,CANADA,PIRATE RADIO &,CANADA
,,,CANADA/TORONTO *,,"TELEVISION, Toronto"
SPRINT,SUBARU CANADA,SUBARU WRX,DDB,CANADA,PIRATE RADIO &,CANADA
,,,CANADA/TORONTO *,,"TELEVISION, Toronto"
AMSTERDAM,MERCEDES-BENZ,LINGUATRONIC,JUNG von,SWITZERLAND,"JINGLE JUNGLE, Zürich",SWITZERLAND
,SCHWEIZ,VOICE CONTROL,"MATT/LIMMAT, Zürich *"
ATHENS,MERCEDES-BENZ,LINGUATRONIC,JUNG von,SWITZERLAND,"JINGLE JUNGLE, Zürich",SWITZERLAND
,SCHWEIZ,VOICE CONTROL,"MATT/LIMMAT, Zürich *"
AMARILLO,MERCEDES-BENZ,LINGUATRONIC,JUNG von,SWITZERLAND,"JINGLE JUNGLE, Zürich",SWITZERLAND
,SCHWEIZ,VOICE CONTROL,"MATT/LIMMAT, Zürich *"
,MERCEDES-BENZ,LINGUATRONIC,JUNG von
MOSKOW,,,,SWITZERLAND,,"JINGLE JUNGLE, Zürich  SWITZERLAND"
,SCHWEIZ,VOICE CONTROL,"MATT/LIMMAT, Zürich *"
A11 Retail Stores,,,,,,* indicates Entrant Company
BBQ,CANAC-MARQUIS,RETAIL STORE,"LG2, Québec *",CANADA,"BOOGIE STUDIO,",CANADA
,HARDWARE,,,,Montréal
CERAMIC,CANAC-MARQUIS,RETAIL STORE,"LG2, Québec *",CANADA,"BOOGIE STUDIO,",CANADA
,HARDWARE,,,,Montréal
LIGHT BULBS,CANAC-MARQUIS,RETAIL STORE,"LG2, Québec *",CANADA,"BOOGIE STUDIO,",CANADA
,HARDWARE,,,,Montréal
AWKWARD,QUIKTRIP,FRESH DONUTS,THE RICHARDS,USA,CHARLIE UNIFORM,USA
HEALTH FILMS,,,"GROUP, Dallas *",,"TANGO, Dallas"
HIM & HER,GANDHI,BOOKSTORES,OGILVY MEXICO *,MEXICO,"LOOKAS AUDIO,",MEXICO
,,,,,Mexico City
ROCKING CHAIR   GANDHI,,BOOKSTORES,OGILVY MEXICO *,MEXICO,"LOOKAS AUDIO,",MEXICO
,,,,,Mexico City
JACK,GANDHI,BOOKSTORES,OGILVY MEXICO *,MEXICO,"LOOKAS AUDIO,",MEXICO
,,,,,Mexico City
,A12 Restaurants & Fast Food Outlets,,,,,* indicates Entrant Company
,,McMINI,"COSSETTE WEST,"
LUNCH,McDONALD'S,SANDWICH,Vancouver *,CANADA,"GGRP, Vancouver",CANADA
LAUNCH,
McMINI,"COSSETTE WEST,"
TRY,McDONALD'S,SANDWICH,Vancouver *,CANADA,"GGRP, Vancouver",CANADA
LAUNCH,
McMINI,"COSSETTE WEST,"
NAME,McDONALD'S,SANDWICH,Vancouver *,CANADA,"GGRP, Vancouver",CANADA
LAUNCH,
McMINI,"COSSETTE WEST,"
TWEET,McDONALD'S,SANDWICH,Vancouver *,CANADA,"GGRP, Vancouver",CANADA
,,LAUNCH
,PHONE-DIALLING  AMSTERDAM,HOTEL ARENA,"THEY, Amsterdam *",THE,"STUDIO DE KEUKEN,",THE
RADIO SPOT,VILLAGE COMPANY,RESTAURANT,,NETHERLANDS Amsterdam,,NETHERLANDS
BUSES,McDONALD'S,GRAND ANGUS,DDB SYDNEY *,AUSTRALIA,DDB SYDNEY,AUSTRALIA
,,BURGER
WAITRESS,McDONALD'S,GRAND ANGUS,DDB SYDNEY *,AUSTRALIA,DDB SYDNEY,AUSTRALIA
,,BURGER
VALET,McDONALD'S,GRAND ANGUS,DDB SYDNEY *,AUSTRALIA,DDB SYDNEY,AUSTRALIA
,,BURGER
,"A13 Travel, Transport & Tourism",,,,,* indicates Entrant Company
MOIRA,VIRGIN ATLANTIC,UPPER CLASS,"NET#WORK BBDO,",SOUTH AFRICA,"FIRST#LEFT,",SOUTH AFRICA
,AIRLINES,,Johannesburg *,,Johannesburg
BARRY,VIRGIN ATLANTIC,UPPER CLASS,"NET#WORK BBDO,",SOUTH AFRICA,"FIRST#LEFT,",SOUTH AFRICA
,AIRLINES,,Johannesburg *,,Johannesburg
NEVILLE,VIRGIN ATLANTIC,UPPER CLASS,"NET#WORK BBDO,",SOUTH AFRICA,"FIRST#LEFT,",SOUTH AFRICA
,AIRLINES,,Johannesburg *,,Johannesburg
MARIACHIS,VOLARIS,AIRLINE,"TERAN\TBWA, Mexico",MEXICO,"JARPA, Mexico City",MEXICO
,,,City *
COMPADRES,VOLARIS,AIRLINE,"TERAN\TBWA, Mexico",MEXICO,"JARPA, Mexico City",MEXICO
,,,City *
LOS ANGELES,RESTPLASS,TRAVEL AGENCY,"BTS UNITED, Oslo *",NORWAY,"SAGVEIEN RESORT,",NORWAY
,,,,,Oslo
KNOXVILLE,RESTPLASS,TRAVEL AGENCY,"BTS UNITED, Oslo *",NORWAY,"SAGVEIEN RESORT,",NORWAY
,,,,,Oslo
,A14 Entertainment & Leisure,,,,,* indicates Entrant Company
LONE RANGER,CARTAGENA MUSIC,INTERNATIONAL,"Y&R COLOMBIA,",COLOMBIA,"REAL MUSIC, Bogotá",COLOMBIA
,FESTIVAL,MUSIC EVENT,Bogotá *
LIONS VS.,LUXBET,FOOTY TIPPING,"US, Sydney *",AUSTRALIA,"NYLON STUDIOS,",AUSTRALIA
KANGAROOS,,COMPETITION,,,Sydney
,EVERLAST SOUTH,BOXING,,,SONOVISION
BANKS,AFRICA,EQUIPMENT,,"JWT JOHANNESBURG *  SOUTH AFRICA STUDIOS,",,SOUTH AFRICA
,,,,,Johannesburg
PHONE,EVERLAST SOUTH,BOXING,,,SONOVISION
COMPANIES,AFRICA,EQUIPMENT,,"JWT JOHANNESBURG *  SOUTH AFRICA STUDIOS,",,SOUTH AFRICA
,,,,,Johannesburg
G.I. JOE,ISTANBUL TOY,TOY MUSEUM,LEO BURNETT,TURKEY,"MELODIKA, Istanbul",TURKEY
,MUSEUM,,ISTANBUL *
PREGNANT,CINE LAS AMERICAS,INTERNATIONAL,"LATINWORKS, Austin *",USA,"PERSONAL MUSIC,",USA
,,FILM FESTIVAL,,,Miami
EUPHORIC,BONGO,EXPERIENCE,"DUVAL GUILLAUME,",BELGIUM,"SONICVILLE, Brussels",BELGIUM
,,GIFT VOUCHERS,Brussels *
,,BASKETBALL,"McCANN ERICKSON,"
,PANCHO JASEN    ASEFA ESTUDIANTES,,,SPAIN,"MEDIA SOUND, Madrid   SPAIN"
,,CLUB,Madrid *
,NACHO AZOFRA   ASEFA ESTUDIANTES,BASKETBALL,"McCANN ERICKSON,",SPAIN,"MEDIA SOUND, Madrid   SPAIN"
,,CLUB,Madrid *
,CARLOS SUAREZ  ASEFA ESTUDIANTES,BASKETBALL,"McCANN ERICKSON,",SPAIN,"MEDIA SOUND, Madrid   SPAIN"
,,CLUB,Madrid *
A15 Publications & Media,,,,,,* indicates Entrant Company
BEARS,CHICAGO TRIBUNE,NEWSPAPER,"JUNIPER PARK, Toronto",CANADA,CHICAGO TRIBUNE,USA
,,,*
PIGEON,DSTV,SATELLITE TV,OGILVY,SOUTH AFRICA,"STERLING SOUND,",SOUTH AFRICA
,,NETWORK,JOHANNESBURG *,,Johannesburg
NO AIR,MOTOR PRESSE,AUTO MOTOR &,LEAGAS DELANEY,GERMANY,HASTINGS AUDIO,GERMANY
,STUTTGART,SPORT MAGAZINE HAMBURG *,,,"NETWORK, Hamburg"
REACH FOR ME,MOTOR PRESSE,AUTO MOTOR &,LEAGAS DELANEY,GERMANY,HASTINGS AUDIO,GERMANY
,STUTTGART,SPORT MAGAZINE HAMBURG *,,,"NETWORK, Hamburg"
VAN GOGH,SKY TELEVISION,ARTS CHANNEL,"DDB NEW ZEALAND,",NEW ZEALAND,"LIQUID STUDIOS,",NEW ZEALAND
,,,Auckland *,,Auckland
POLLOCK,SKY TELEVISION,ARTS CHANNEL,"DDB NEW ZEALAND,",NEW ZEALAND,"LIQUID STUDIOS,",NEW ZEALAND
,,,Auckland *,,Auckland
ROTHKO,SKY TELEVISION,ARTS CHANNEL,"DDB NEW ZEALAND,",NEW ZEALAND,"LIQUID STUDIOS,",NEW ZEALAND
,,,Auckland *,,Auckland
THE OTHER,YTN,KOREAN NEWS,"CHEIL WORLDWIDE,",KOREA,LIMELIGHT MUSIC,KOREA
VOICE,,NETWORK,Seoul *,,"CONSULTING, Seoul"
RUNNING &,LYDBOKFORLAGET,AUDIO BOOKS,McCANN OSLO *,NORWAY,VERDENS STERKESTE,NORWAY
READING,,,,,"MANN, Oslo"
,"A16 Banking, Investment & Insurance",,,,,* indicates Entrant Company
CHAOS,HBF,HEALTH,"MEERKATS, Perth *",AUSTRALIA,"EARDRUM, Sydney",AUSTRALIA
,,INSURANCE
SOUND OF,HBF,HEALTH,"MEERKATS, Perth *",AUSTRALIA,"EARDRUM, Sydney",AUSTRALIA
NOTHING,,INSURANCE
YOUR,HBF,HEALTH,"MEERKATS, Perth *",AUSTRALIA,"EARDRUM, Sydney",AUSTRALIA
PASSENGER,,INSURANCE
,,HEALTH,DDB,,WAVE SOUND
EXTENSIVE,PACIFIC BLUE CROSS,INSURANCE,CANADA/VANCOUVER *,CANADA,"PRODUCTIONS,",CANADA
,,,,,Vancouver
,,HEALTH,DDB,,WAVE SOUND
CURABLE,PACIFIC BLUE CROSS,INSURANCE,CANADA/VANCOUVER *,CANADA,"PRODUCTIONS,",CANADA
,,,,,Vancouver
,A17 Business Equipment & Services,,,,,* indicates Entrant Company
HOLY WATER,SEEK,JOB SEARCH,"LEO BURNETT,",AUSTRALIA,"RISK SOUND,",AUSTRALIA
DELIVERY MAN,,WEBSITE,Melbourne *,,Melbourne
AFTER LIFE,SEEK,JOB SEARCH,"LEO BURNETT,",AUSTRALIA,"RISK SOUND,",AUSTRALIA
LAWYERS,,WEBSITE,Melbourne *,,Melbourne
,,PAPER,PUBLICIS,,SOUND STREAM
JFK,STEDFAST,SHREDDERS,"COMMUNICATIONS,",INDIA,"STUDIOS, New Delhi",INDIA
,,,Gurgaon *
,,PAPER,PUBLICIS,,SOUND STREAM
ROSWELL,STEDFAST,SHREDDERS,"COMMUNICATIONS,",INDIA,"STUDIOS, New Delhi",INDIA
,,,Gurgaon *
,FANTASY QUEST  NETSURIT,IN-OFFICE IT,TBWA\HUNT\LASCARIS,SOUTH AFRICA,"PRODUCE SOUND,",SOUTH AFRICA
,,SUPPORT,JOHANNESBURG *,,Johannesburg
,A18 Commercial Public Services,,,,,* indicates Entrant Company
CALM,KOBRAND,EHRLICH PEST,"DEVITO/VERDI, New",USA,HEADROOM DIGITAL,USA
,CORPORATION,CONTROL,York *,,"AUDIO, New York"
,ALFA FROM,EHKINEH 'CALL,LEO BURNETT BEIRUT
HIJACK,ORASCOM,ME BACK',*,LEBANON,LEO BURNETT BEIRUT   LEBANON
,,SERVICE
COINS,VIRGIN MOBILE INDIA,MOBILE PHONE,"BATES 141, Mumbai *",INDIA,"LINGO INDIA, Mumbai",INDIA
,,TARIFF
NIGERIA,NETCOM GSM,FULL CONTROL,McCANN OSLO *,NORWAY,"BÅDE OG, Oslo",NORWAY
,,MOBILE SERVICE
KOREA,NETCOM GSM,FULL CONTROL,McCANN OSLO *,NORWAY,"BÅDE OG, Oslo",NORWAY
,,MOBILE SERVICE
MAFIA,COMCAST,CABLELATINO,"GRUPO GALLEGOS,",USA,AZ LOS ANGELES,USA
,,,Long Beach *
SHAOLIN,COMCAST,CABLELATINO,"GRUPO GALLEGOS,",USA,AZ LOS ANGELES,USA
,,,Long Beach *
UFO,COMCAST,CABLELATINO,"GRUPO GALLEGOS,",USA,AZ LOS ANGELES,USA
Long Beach *,
LEO BURNETT,
GERMANY '06,DIRECTV,DIRECTV HD,,COLOMBIA,"LEO STUDIO, Bogotá",COLOMBIA
,,,"COLOMBIANA, Bogotá *"
,"A20 Public Health & Safety, Public Awareness Messages",,,,,* indicates Entrant Company
,WEST MIDLANDS,MOBILE PHONE,"GLOBAL IDEAS,",UNITED,"GLOBAL IDEAS,",UNITED
DEATH CALLING,CASUALTY,USE FOR,Birmingham *,KINGDOM,Birmingham,KINGDOM
,REDUCTION SCHEME,DRIVERS
,OFFICE OF ROAD,ANTI,"MARKETFORCE, West",,"SOUNDBYTE,"
BREATHE,SAFETY,DRINK-DRIVING,Perth *,AUSTRALIA,Leederville,AUSTRALIA
,,MESSAGE
,NORSK,NORWEGIAN
EMERGENCY,KRISESENTERFORBU-,WOMEN'S,TRY ADVERTISING,NORWAY,VERDENS STERKESTE,NORWAY
CALL,ND,SHELTER,"AGENCY, Oslo *",,"MANN, Oslo"
,,ASSOCIATION
BABY,LEAGUE AGAINST,BREAST CANCER,"Y&R, Lima *",PERU,"VINYLO SOUND, Lima",PERU
,CANCER,AWARENESS
LOSE YOUR,OFFICE OF ROAD,SPEED LIMIT,,,"SOUNDBYTE,"
LICENCE IN A,SAFETY,AWARENESS,303 SYDNEY *,AUSTRALIA,Leederville,AUSTRALIA
FLASH,
,,HELPING,"BLONDE NYC, New",,"AUDIORUCKUS,"
TELEPHONE,GLOBAL GREEN,REVERSE,York *,USA,Minneapolis,USA
,,CLIMATE CHANGE
SECONDS,CHILEAN RED CROSS,FIRST AID,"JWT CHILE, Santiago *",CHILE,"SONICA, Santiago",CHILE
,,COURSES
,MOTOITALIA,HELMET USE,"DDB DM9JAYMESYFU,",THE,"SOUNDESIGN, Makati",THE
HEAR,PHILIPPINES,FOR,Makati City *,PHILIPPINES,City,PHILIPPINES
,,MOTORCYCLISTS
COUPLE,SOCIÉTÉ WALLONE,HAND WASHING,LEO BURNETT,BELGIUM,COBRA RADIO,BELGIUM
,DE EAUX,AWARENESS,BRUSSELS *,,"BREWERY, Brussels"
BABY,SOCIÉTÉ WALLONE,HAND WASHING,LEO BURNETT,BELGIUM,COBRA RADIO,BELGIUM
,DE EAUX,AWARENESS,BRUSSELS *,,"BREWERY, Brussels"
WE BET YOU,THE NORWEGIAN,GAMBLING,KITCHEN LEO,NORWAY,"BÅDE OG, Oslo",NORWAY
WON'T CALL,GAMING AUTHORITY,HELPLINE,"BURNETT, Oslo *"
,,HOMETOWN,DDB,,"SONG & PATTER,"
CARL,EARTH DAY CANADA,HEROES,CANADA/TORONTO *,CANADA,Toronto,CANADA
,,CONTEST
DON DIABLO,DANCE4LIFE,,"AIDS AWARENESS INDIE, Amsterdam *",THE,"FC WALVISCH,",THE
,,,,NETHERLANDS Amsterdam,,NETHERLANDS
,GOLDEN SILVERS  DANCE4LIFE,,"AIDS AWARENESS INDIE, Amsterdam *",THE,"FC WALVISCH,",THE
,,,,NETHERLANDS Amsterdam,,NETHERLANDS
BELLX 1,DANCE4LIFE,,"AIDS AWARENESS INDIE, Amsterdam *",THE,"FC WALVISCH,",THE
,,,,NETHERLANDS Amsterdam,,NETHERLANDS
,A21 Fundraising & Appeals,,,,,* indicates Entrant Company
,FEDERATION OF
WHEN THE,QUEBEC'S,MEMORY WALK,MARKETEL/McCANN,CANADA,"SONART, Montreal",CANADA
SPOTLIGHT HITS,ALZHEIMER,,"ERICKSON, Montreal *"
,SOCIETIES
JEN JEN,KYTHE FOUNDATION,BIRTHDAY,JWT MANILA *,THE,"HIT PRODUCTIONS,",THE
,,PROGRAM,,PHILIPPINES,Makati City,PHILIPPINES
JUN JUN,KYTHE FOUNDATION,BIRTHDAY,JWT MANILA *,THE,"HIT PRODUCTIONS,",THE
,,PROGRAM,,PHILIPPINES,Makati City,PHILIPPINES
,CHRISTOFFEL,MISSION FOR,"BBDO GERMANY,",,"STUDIO FUNK,"
DONATE,BLINDENMISSION,THE BLIND,Düsseldorf *,GERMANY,Düsseldorf,GERMANY
,DEUTSCHLAND
,B01 Best Use of Music and/or Sound Design,,,,,* indicates Entrant Company
,,,,,RAYA
,,BOUNTY PAPER,,,"PRODUCCIONES,",ARGENTINA /
BATTLE,PROCTER & GAMBLE,TOWEL,"LAPIZ, Chicago *",USA,Buenos Aires / JIRA,USA
,,,,,"PRODUCTIONS,"
,,,,,Chicago
TRIBE,LAND ROVER,LAND ROVER 2010,Y&R MEXICO,MEXICO,"SUBSUELO AUDIO,",MEXICO
,,,,,Mexico City *
PLEASURE OF,,BAJAJ ELECTRICALS   HAND BLENDERS,"LEO BURNETT INDIA,",INDIA,"LINGO INDIA, Mumbai",INDIA
MIXING,,,Mumbai *
GROCERIES,,DIAGEO AUSTRALIA    BUNDABERG RUM,LEO BURNETT,AUSTRALIA,"SOUND RESERVOIR,",AUSTRALIA
,,,SYDNEY *,,Sydney
,MICIAMICI,,D'ADDA LORENZINI,,ECCETERA
HAPPY BIRDS,ASSOCIATION,CAT ADOPTION,"VIGORELLI BBDO, Milan",ITALY,"PRODUZIONI AUDIO,",ITALY
,,,,,Milan *
CITY STREET,NOVARTIS,OTRIVIN NASAL,"SAATCHI & SAATCHI,",SWITZERLAND,JEFF WAYNE MUSIC,UNITED
,CONSUMER HEALTH,SPRAY,Carouge *,,"GROUP, London",KINGDOM
OFFICE,NOVARTIS,OTRIVIN NASAL,"SAATCHI & SAATCHI,",SWITZERLAND,JEFF WAYNE MUSIC,UNITED
,CONSUMER HEALTH,SPRAY,Carouge *,,"GROUP, London",KINGDOM
,NOVARTIS,OTRIVIN NASAL,"SAATCHI & SAATCHI,",,JEFF WAYNE MUSIC,UNITED
PARK,,,,SWITZERLAND
,CONSUMER HEALTH,SPRAY,Carouge *,,"GROUP, London",KINGDOM
,,,SHALMOR AVNON
SDIA PROJECT,AIDS TASK FORCE,NATIONAL AIDS,AMICHAY/Y&R,ISRAEL,"SHAPAM, Tel Aviv",ISRAEL
,,DAY AWARENESS,INTERACTIVE TEL AVIV
,,,*
CONCERT,GOOGLE TURKEY,SEARCH TIPS,GREY ISTANBUL *,TURKEY,"MUZIKOTEK, Istanbul",TURKEY
HELICOPTER,COLOMBIAN RED,CHARITABLE AID,LEO BURNETT,COLOMBIA,"LEO STUDIO, Bogotá",COLOMBIA
,CROSS,ORGANISATION,"COLOMBIANA, Bogotá *"
AMBULANCE,COLOMBIAN RED,CHARITABLE AID,LEO BURNETT,COLOMBIA,"LEO STUDIO, Bogotá",COLOMBIA
,CROSS,ORGANISATION,"COLOMBIANA, Bogotá *"
OPERATION,COLOMBIAN RED,CHARITABLE AID,LEO BURNETT,COLOMBIA,"LEO STUDIO, Bogotá",COLOMBIA
,CROSS,ORGANISATION,"COLOMBIANA, Bogotá *"
LET'S PEE IN THE,STUDIO BRUSSELS,'TUNE YOUR LIFE',"MORTIERBRIGADE,",BELGIUM,"VRT, Brussels",BELGIUM
CORNER,,SERIES,Brussels *
MICHAEL,CLARO,SATELLITE TV,OGILVY GUATEMALA *,GUATEMALA,"30 SEGUNDOS,",GUATEMALA
JACKSON,,,,,Guatemala City
B02 Best Scriptwriting,,,,,,* indicates Entrant Company
,,GENUINE,DRAFTFCB,,SONOVISION
EL LOCO,TOYOTA,TOYOTA PARTS,JOHANNESBURG *,"SOUTH AFRICA STUDIOS,",,SOUTH AFRICA
,,,,,Johannesburg
OVERPROMISING,SEATTLE'S BEST,ICED LATTES,"CREATURE, Seattle *",USA,"BARTRADIO, Seattle",USA
GUY,COFFEE
MOIRA,VIRGIN ATLANTIC,UPPER CLASS,"NET#WORK BBDO,",SOUTH AFRICA,"FIRST#LEFT,",SOUTH AFRICA
,AIRLINES,,Johannesburg *,,Johannesburg
BARRY,VIRGIN ATLANTIC,UPPER CLASS,"NET#WORK BBDO,",SOUTH AFRICA,"FIRST#LEFT,",SOUTH AFRICA
,AIRLINES,,Johannesburg *,,Johannesburg
NEVILLE,VIRGIN ATLANTIC,UPPER CLASS,"NET#WORK BBDO,",SOUTH AFRICA,"FIRST#LEFT,",SOUTH AFRICA
,AIRLINES,,Johannesburg *,,Johannesburg
CRUISE SHIP,ORF & RMS,ADVERTISING ON,"JUNG von MATT, Vienna",AUSTRIA,"MARX PRODUCTIONS,",AUSTRIA
,,RADIO,*,,Vienna
POLLOCK,SKY TELEVISION,ARTS CHANNEL,"DDB NEW ZEALAND,",NEW ZEALAND,"LIQUID STUDIOS,",NEW ZEALAND
,,,Auckland *,,Auckland
ROTHKO,SKY TELEVISION,ARTS CHANNEL,"DDB NEW ZEALAND,",NEW ZEALAND,"LIQUID STUDIOS,",NEW ZEALAND
,,,Auckland *,,Auckland
VAN GOGH,SKY TELEVISION,ARTS CHANNEL,"DDB NEW ZEALAND,",NEW ZEALAND,"LIQUID STUDIOS,",NEW ZEALAND
,,,Auckland *,,Auckland
,,GAIN LAUNDRY,LEO BURNETT,,EGGPLANT
SPANISH,PROCTER & GAMBLE,DETERGENT,TORONTO *,CANADA,"PRODUCTIONS,",CANADA
,,,,,Toronto
,,GAIN LAUNDRY,LEO BURNETT,,EGGPLANT
MORNING,PROCTER & GAMBLE,DETERGENT,TORONTO *,CANADA,"PRODUCTIONS,",CANADA
,,,,,Toronto
DON'T DO,,,LEO BURNETT,,EGGPLANT
LAUNDRY,PROCTER & GAMBLE,ERA DETERGENT,TORONTO *,CANADA,"PRODUCTIONS,",CANADA
,,,,,Toronto
,,,LEO BURNETT,,EGGPLANT
TOO RICH,PROCTER & GAMBLE,ERA DETERGENT,TORONTO *,CANADA,"PRODUCTIONS,",CANADA
,,,,,Toronto
,,GAIN LAUNDRY,LEO BURNETT,,EGGPLANT
MILES,PROCTER & GAMBLE,DETERGENT,TORONTO *,CANADA,"PRODUCTIONS,",CANADA
,,,,,Toronto
BOTTOMLESS PIT,SEARS,CRAFTSMAN,"Y&R, New York *",USA,"SONIC UNION, New",USA
,,TOOLS,,,York
GARY'S LADDER,SEARS,CRAFTMAN,"Y&R, New York *",USA,"SONIC UNION, New",USA
,,TOOLS,,,York
KNOWLEDGE,SEARS,CRAFTSMAN,"Y&R, New York *",USA,"SONIC UNION, New",USA
SHELF,,TOOLS,,,York
UNIVERSE,SEARS,CRAFTSMAN,"Y&R, New York *",USA,"SONIC UNION, New",USA
DIORAMA,,TOOLS,,,York
GOURMET ZOO,SEEK,JOB SEARCH,"LEO BURNETT,",AUSTRALIA,"RISK SOUND,",AUSTRALIA
CHEF,,WEBSITE,Melbourne *,,Melbourne
FANTASY QUEST,NETSURIT,IN-OFFICE IT,TBWA\HUNT\LASCARIS,SOUTH AFRICA,"PRODUCE SOUND,",SOUTH AFRICA
,,SUPPORT,JOHANNESBURG *,,Johannesburg
,B04 Best Use of Radio as a Medium,,,,,* indicates Entrant Company
,BISCHOEFLICHES,APPEAL FOR,"KOLLE REBBE,"
TRAFFIC NEWS,HILFSWERK,AFRICAN VICTIMS,Hamburg *,GERMANY,"RSH RADIO, Hamburg",GERMANY
,MISEREOR e.V.,OF CIVIL WAR
TRUNK,RENAULT,RENAULT,"LOWE GINKGO,",URUGUAY,"REC, Montevideo",URUGUAY
RECORDING,,SYMBOL,Montevideo *
PHONE-DIALLING  AMSTERDAM,,HOTEL ARENA,,THE,"STUDIO DE KEUKEN,",THE
,,,"THEY, Amsterdam *"
RADIO SPOT,VILLAGE COMPANY,RESTAURANT,,NETHERLANDS Amsterdam,,NETHERLANDS
PLEASURE OF,,BAJAJ ELECTRICALS   HAND BLENDERS,"LEO BURNETT INDIA,",INDIA,"LINGO INDIA, Mumbai",INDIA
MIXING,,,Mumbai *
RUNNING,NIKE,NIKE+ HUMAN,"JWT INDIA, Bangalore *   INDIA",,RAVEOLUTIONS,INDIA
JOCKEYS,,RACE,,,"STUDIO, Bangalore"
,,CLIMATE,LEO BURNETT,,"SOUND RESERVOIR,"
EARTH FM,WWF,CHANGE,SYDNEY *,AUSTRALIA,Sydney,AUSTRALIA
,,CAMPAIGN
,,CRIMESTOPPERS,ABBOTT MEAD
VOICE MESSAGE,METROPOLITAN,ANONYMOUS,"VICKERS BBDO,",UNITED,"750MPH, London",UNITED
,POLICE,CRIME,London *,KINGDOM,,KINGDOM
,,REPORTING
DIAL,CULTURA INGLESA,LANGUAGE,"LEW'LARA\TBWA, São",BRAZIL,"LEW'LARA\TBWA, São",BRAZIL
,,SCHOOL,Paulo *,Paulo
,,,SHALMOR AVNON
SDIA PROJECT,AIDS TASK FORCE,NATIONAL AIDS,AMICHAY/Y&R,ISRAEL,"SHAPAM, Tel Aviv",ISRAEL
,,,DAY AWARENESS  INTERACTIVE TEL AVIV
,,,*
CONCERT,GOOGLE TURKEY,SEARCH TIPS,GREY ISTANBUL *,TURKEY,"MUZIKOTEK, Istanbul",TURKEY
DOG RADIO,GALAXXY PET FOOD,NATURIA DOG,"GRABARZ & PARTNER,",GERMANY,"STUDIO FUNK,",GERMANY
,,FOOD,Hamburg *,Hamburg
