TITLE,ADVERTISER,PRODUCT,ENTRANT COMPANY,COUNTRY
GRAND PRIX,
A19 Entertainment & Leisure,
PERISCOPE,LEGO,LEGO CONSTRUCTION BLOCKS,FCB JOHANNESBURG,SOUTH AFRICA
GOLD LION,
A03 Alcoholic Drinks,
BAREBACK MOUNTAIN,42BELOW,VODKA,SAATCHI & SAATCHI,USA
DO IT YOURSELF,42BELOW,VODKA,SAATCHI & SAATCHI,USA
TRANSVESTITE,42BELOW,VODKA,SAATCHI & SAATCHI,USA
CASINO,42BELOW,VODKA,SAATCHI & SAATCHI,USA
GOVERNMENT,42BELOW,VODKA,SAATCHI & SAATCHI,USA
EAVESDROPPING,
OFFICE PARTY BLACKOUT,42BELOW,VODKA,SAATCHI & SAATCHI,USA
A05 Household: Cleaning Products,
THE STALLION,MAPA SPONTEX,PROTECTIVE GLOVES,TBWA\PARIS,FRANCE
BILL PLEASE,MAPA SPONTEX,PROTECTIVE GLOVES,TBWA\PARIS,FRANCE
ISSUE,MAPA SPONTEX,PROTECTIVE GLOVES,TBWA\PARIS,FRANCE
BAD HAIR DAY,MAPA SPONTEX,PROTECTIVE GLOVES,TBWA\PARIS,FRANCE
A09 Toiletries,
BROCCOLI,SANOFI AVENTIS,CEPACOL DENTAL FLOSS,PUBLICIS BRASIL,BRAZIL
CHICKEN,SANOFI AVENTIS,CEPACOL DENTAL FLOSS,PUBLICIS BRASIL,BRAZIL
MEAT,SANOFI AVENTIS,CEPACOL DENTAL FLOSS,PUBLICIS BRASIL,BRAZIL
A10 OTC Pharmacy,
BUCKET,DISPOLAB,PHOTODERM KID SUNSCREEN,OGILVY & MATHER SANTIAGO,CHILE
SUNSHADE,DISPOLAB,PHOTODERM KID SUNSCREEN,OGILVY & MATHER SANTIAGO,CHILE
BALL,DISPOLAB,PHOTODERM KID SUNSCREEN,OGILVY & MATHER SANTIAGO,CHILE
"A11 Clothing, Footwear & Accessories",
SLIM FIGURES 1,LEVI STRAUSS & CO. INDIA,LEVI'S SLIM JEANS,JWT INDIA,INDIA
SLIM FIGURES 2,LEVI STRAUSS & CO. INDIA,LEVI'S SLIM JEANS,JWT INDIA,INDIA
SLIM FIGURES 3,LEVI STRAUSS & CO. INDIA,LEVI'S SLIM JEANS,JWT INDIA,INDIA
SLIM FIGURES 4,LEVI STRAUSS & CO. INDIA,LEVI'S SLIM JEANS,JWT INDIA,INDIA
SLIM FIGURES 5,LEVI STRAUSS & CO. INDIA,LEVI'S SLIM JEANS,JWT INDIA,INDIA
A13 Cars,
COACH,VOLKSWAGEN,VW GOLF R32,DDB DUSSELDORF,GERMANY
FIRE ENGINE,VOLKSWAGEN,VW GOLF R32,DDB DUSSELDORF,GERMANY
CONCRETE,VOLKSWAGEN,VW GOLF R32,DDB DUSSELDORF,GERMANY
LOGGING,VOLKSWAGEN,VW GOLF R32,DDB DUSSELDORF,GERMANY
CAR TRANSPORTER,VOLKSWAGEN,VW GOLF R32,DDB DUSSELDORF,GERMANY
A15 Home Electronics & Audio-Visual,
PANTY,KODAK (THAILAND),KODAK SD CARD,OGILVY & MATHER THAILAND,THAILAND
PRISONER,KODAK (THAILAND),KODAK SD CARD,OGILVY & MATHER THAILAND,THAILAND
BEAUTY QUEEN,KODAK (THAILAND),KODAK SD CARD,OGILVY & MATHER THAILAND,THAILAND
"A18 Travel, Transport & Tourism",
NUNS,TOUCH COMMUNITY SERVICE,EAST TIMOR TOURISM,OGILVY & MATHER,SINGAPORE
TURTLES,TOUCH COMMUNITY SERVICE,EAST TIMOR TOURISM,OGILVY & MATHER,SINGAPORE
CHICKENS,TOUCH COMMUNITY SERVICE,EAST TIMOR TOURISM,OGILVY & MATHER,SINGAPORE
ROAD,TOUCH COMMUNITY SERVICE,EAST TIMOR TOURISM,OGILVY & MATHER,SINGAPORE
JESUS,TOUCH COMMUNITY SERVICE,EAST TIMOR TOURISM,OGILVY & MATHER,SINGAPORE
PAPERS,TOUCH COMMUNITY SERVICE,EAST TIMOR TOURISM,OGILVY & MATHER,SINGAPORE
A19 Entertainment & Leisure,
HEAD,SONY,PLAYSTATION2,TBWA\PARIS,FRANCE
A23 Advertising & Media,
FULL PAGE,NATIONAL NEWSPAPERS OF IRELAND,POWER OF PRESS,CHEMISTRY,IRELAND
SINGLE COLUMN,NATIONAL NEWSPAPERS OF IRELAND,POWER OF PRESS,CHEMISTRY,IRELAND
PAGE KILLER,NATIONAL NEWSPAPERS OF IRELAND,POWER OF PRESS,CHEMISTRY,IRELAND
L-SHAPE,NATIONAL NEWSPAPERS OF IRELAND,POWER OF PRESS,CHEMISTRY,IRELAND
20 X 3,NATIONAL NEWSPAPERS OF IRELAND,POWER OF PRESS,CHEMISTRY,IRELAND
A30 Fundraising & Appeals,
KETCHUP SACHET,CAMPAIGN AGAINST LANDMINES,LANDMINE AWARENESS,PUBLICIS MOJO,NEW ZEALAND
SILVER LION,
A01 Savoury Foods,
GEORGE BUSH,UNILEVER BESTFOODS,MARMITE SQUEEZY SPREAD,DDB LONDON,UNITED KINGDOM
MR BEAN,UNILEVER BESTFOODS,MARMITE SQUEEZY SPREAD,DDB LONDON,UNITED KINGDOM
BULL FIGHTING,UNILEVER BESTFOODS,MARMITE SQUEEZY SPREAD,DDB LONDON,UNITED KINGDOM
FRANCE,UNILEVER BESTFOODS,MARMITE SQUEEZY SPREAD,DDB LONDON,UNITED KINGDOM
CRAZY FROG,UNILEVER BESTFOODS,MARMITE SQUEEZY SPREAD,DDB LONDON,UNITED KINGDOM
JOSE MOURINHO,UNILEVER BESTFOODS,MARMITE SQUEEZY SPREAD,DDB LONDON,UNITED KINGDOM
A02 Sweet Foods & Snacks,
SANDWICH,HARRY'S,BREAD,TBWA\PARIS,FRANCE
A04 Non-Alcoholic Drinks,
TO DO LIST,GSK,LUCOZADE ENERGY DRINK,OGILVY & MATHER,UNITED KINGDOM
A06 Household: Other,
BLISTER,ENERGIZER,BATTERIES,DDB MEXICO,MEXICO
A07 Home Appliances & Furnishings,
OPERA,BOSCH UND SIEMENS HAUSGERAETE,TECHNOPOWER SOUND & SILENCE VACUUM,SCHOLZ & FRIENDS,GERMANY
CLEANER,
CHESS-WORLD,BOSCH UND SIEMENS HAUSGERAETE,TECHNOPOWER SOUND & SILENCE VACUUM,SCHOLZ & FRIENDS,GERMANY
CHAMPIONSHIP,,CLEANER
A08 Cosmetics & Beauty,
TREE,PROCTER & GAMBLE,OLAY SKIN CARE,SAATCHI & SAATCHI,AUSTRALIA
CURTAIN,PROCTER & GAMBLE,OLAY SKIN CARE,SAATCHI & SAATCHI,AUSTRALIA
CUPBOARD,PROCTER & GAMBLE,OLAY SKIN CARE,SAATCHI & SAATCHI,AUSTRALIA
FROG JUMP,UNILEVER SA HOME & PERSONAL CARE,AXE DEODORANT,LOWE BULL,SOUTH AFRICA
LEGO,UNILEVER SA HOME & PERSONAL CARE,AXE DEODORANT,LOWE BULL,SOUTH AFRICA
ARCADE,UNILEVER SA HOME & PERSONAL CARE,AXE DEODORANT,LOWE BULL,SOUTH AFRICA
SCOUT,UNILEVER SA HOME & PERSONAL CARE,AXE DEODORANT,LOWE BULL,SOUTH AFRICA
A13 Cars,
CROSSWORDS,VOLKSWAGEN,VW,DDB LONDON,UNITED KINGDOM
,"A14 Other Vehicles, Auto Products & Services"
GLASSES,VOLKSWAGEN COMMERCIAL VEHICLES,SECURITY & SAFETY FEATURES,DDB PARIS,FRANCE
MONOCYCLE,VOLKSWAGEN COMMERCIAL VEHICLES,SECURITY & SAFETY FEATURES,DDB PARIS,FRANCE
COMPACTOR,VOLKSWAGEN COMMERCIAL VEHICLES,SECURITY & SAFETY FEATURES,DDB PARIS,FRANCE
AQUARIUM,VOLKSWAGEN COMMERCIAL VEHICLES,SECURITY & SAFETY FEATURES,DDB PARIS,FRANCE
A16 Retail Stores,
STITCH THAT,HARRODS,BRITISH TAILORING ROOM,OGILVY & MATHER,UNITED KINGDOM
A17 Restaurants & Fast Food Outlets,
FRIES,McDONALD'S RESTAURANTS OF CANADA,DRIVE-THRU,COSSETTE ATLANTIC,CANADA
A19 Entertainment & Leisure,
TRAIN-STATION,LEGO SINGAPORE,LEGO,SAATCHI & SAATCHI SINGAPORE,SINGAPORE
HANGAR,LEGO SINGAPORE,LEGO,SAATCHI & SAATCHI SINGAPORE,SINGAPORE
FIRE-STATION,LEGO SINGAPORE,LEGO,SAATCHI & SAATCHI SINGAPORE,SINGAPORE
"A21 Banking, Investment & Insurance",
TV,HSBC LA BUENOS AIRES INSURANCE,INSURANCE,JWT ARGENTINA,ARGENTINA
MICROWAVE,HSBC LA BUENOS AIRES INSURANCE,INSURANCE,JWT ARGENTINA,ARGENTINA
CAR,HSBC LA BUENOS AIRES INSURANCE,INSURANCE,JWT ARGENTINA,ARGENTINA
A29 Public Awareness Messages,
BED,THE INDIAN ASSOCIATION FOR PROMOTION OF ADOPTION & CHILD WELFARE,ADOPTION AWARENESS,OGILVY & MATHER,INDIA
,(IAPA)
BOOK,THE INDIAN ASSOCIATION FOR PROMOTION OF ADOPTION & CHILD WELFARE,ADOPTION AWARENESS,OGILVY & MATHER,INDIA
,(IAPA)
BELIZE,WORLD WILDLIFE FUND,FOREST CONSERVATION,SAATCHI & SAATCHI,NEW ZEALAND
DAINTREE,WORLD WILDLIFE FUND,FOREST CONSERVATION,SAATCHI & SAATCHI,NEW ZEALAND
AMAZON,WORLD WILDLIFE FUND,FOREST CONSERVATION,SAATCHI & SAATCHI,NEW ZEALAND
A30 Fundraising & Appeals,
YANOMAMI,SURVIVAL INTERNATIONAL,TRIBAL PEOPLES RIGHTS,PUBLICIS COMUNICACION ESPANA,SPAIN
BUSHMAN,SURVIVAL INTERNATIONAL,TRIBAL PEOPLES RIGHTS,PUBLICIS COMUNICACION ESPANA,SPAIN
ABORIGINE,SURVIVAL INTERNATIONAL,TRIBAL PEOPLES RIGHTS,PUBLICIS COMUNICACION ESPANA,SPAIN
BRONZE LION,
A01 Savoury Foods,
KNIFE,COLUN,SOFT SPREADABLE BUTTER,PROLAM Y&R,CHILE
A02 Sweet Foods & Snacks,
LITTLE GIRL,HARRY'S,BREAD,TBWA\PARIS,FRANCE
BALL,MASTERFOODS,BOUNTY CHOCOLATE,TIEMPO BBDO,SPAIN
LEAN BACK,MASTERFOODS,BOUNTY CHOCOLATE,TIEMPO BBDO,SPAIN
BACK,MASTERFOODS,BOUNTY CHOCOLATE,TIEMPO BBDO,SPAIN
TOASTER,WALKERS,FRAZZLES POTATO CRISPS,ABBOTT MEAD VICKERS.BBDO,UNITED KINGDOM
IRON,WALKERS,FRAZZLES POTATO CRISPS,ABBOTT MEAD VICKERS.BBDO,UNITED KINGDOM
A03 Alcoholic Drinks,
PARK,INBEV UK,STELLA ARTOIS,LOWE LONDON,UNITED KINGDOM
BEACH,INBEV UK,STELLA ARTOIS,LOWE LONDON,UNITED KINGDOM
TOWN,INBEV UK,STELLA ARTOIS,LOWE LONDON,UNITED KINGDOM
PINT,INBEV UK,MURPHY'S FAST FLOW BEER,BBH,UNITED KINGDOM
A04 Non-Alcoholic Drinks,
AQUARIUM,PEPSI COLA,GATORADE,DDB BERLIN,GERMANY
BIN,PEPSI COLA,GATORADE,DDB BERLIN,GERMANY
WASHING MACHINE,PEPSI COLA,GATORADE,DDB BERLIN,GERMANY
A05 Household: Cleaning Products,
POCKET,PROCTER & GAMBLE,TIDE-TO-GO STAIN REMOVAL PEN,SAATCHI & SAATCHI,USA
A06 Household: Other,
CEILING LAMP,KM CASA,FLOOR WAX EASY SHINE,LODUCCA PUBLICIDADE,BRAZIL
EXPRESS WAY,IONIQUE,IONIQUE FERTILIZER,OGILVY & MATHER THAILAND,THAILAND
BUILDING,IONIQUE,IONIQUE FERTILIZER,OGILVY & MATHER THAILAND,THAILAND
CITY,IONIQUE,IONIQUE FERTILIZER,OGILVY & MATHER THAILAND,THAILAND
A07 Home Appliances & Furnishings,
TABLE,NOBLE OBJECTS,ANTIQUITIES,DUVAL GUILLAUME BRUSSELS,BELGIUM
CHAIR,NOBLE OBJECTS,ANTIQUITIES,DUVAL GUILLAUME BRUSSELS,BELGIUM
PILLAR,NOBLE OBJECTS,ANTIQUITIES,DUVAL GUILLAUME BRUSSELS,BELGIUM
ANACONDA,INDOTHAI SPORTS,INOVA OUTDOOR TORCH,OGILVY & MATHER THAILAND,THAILAND
CROCODILE,INDOTHAI SPORTS,INOVA OUTDOOR TORCH,OGILVY & MATHER THAILAND,THAILAND
TIGER,INDOTHAI SPORTS,INOVA OUTDOOR TORCH,OGILVY & MATHER THAILAND,THAILAND
A08 Cosmetics & Beauty,
CLASSROOM,NAILZ WORLD,OPI NAIL STRENGTHENER,LOWE & PARTNERS KUALA,MALAYSIA
,,,LUMPUR
SHOE,UNILEVER,SUNSILK SHAMPOO & CONDITIONER,JWT WARSAW,POLAND
A09 Toiletries,
ORANGES,ORAL B,ORAL HEALTHCARE,OGILVY & MATHER ARGENTINA,ARGENTINA
TOMATOES,ORAL B,ORAL HEALTHCARE,OGILVY & MATHER ARGENTINA,ARGENTINA
PASTA,ORAL B,ORAL HEALTHCARE,OGILVY & MATHER ARGENTINA,ARGENTINA
A10 OTC Pharmacy,
GIRL,LEGENDS CONDOMS,CONDOMS,CLEMENGER BBDO SYDNEY,AUSTRALIA
TWINS,LEGENDS CONDOMS,CONDOMS,CLEMENGER BBDO SYDNEY,AUSTRALIA
BEAR,LEGENDS CONDOMS,CONDOMS,CLEMENGER BBDO SYDNEY,AUSTRALIA
BABY,BAYER,ACTRON PEDIATRICS ANALGESIC,Y&R BUENOS AIRES,ARGENTINA
CAR,BAYER,ACTRON PEDIATRICS ANALGESIC,Y&R BUENOS AIRES,ARGENTINA
LOVE AFFAIR,BAYER,ACTRON PEDIATRICS ANALGESIC,Y&R BUENOS AIRES,ARGENTINA
DRESS,BAYER,ACTRON PEDIATRICS ANALGESIC,Y&R BUENOS AIRES,ARGENTINA
CONFIRMED BACHELOR,GENERAL NUTRITION CENTRE,SLEEP AID,McCANN ERICKSON SINGAPORE,SINGAPORE
"A11 Clothing, Footwear & Accessories",
BAR,WONDERBRA,WONDERBRA,PUBLICIS CONSEIL,FRANCE
ESCALATOR,WONDERBRA,WONDERBRA,PUBLICIS CONSEIL,FRANCE
RESTAURANT,WONDERBRA,WONDERBRA,PUBLICIS CONSEIL,FRANCE
YUCCA,SARA LEE BRANDED APPAREL GERMANY,NUR DIE TIGHTS,OGILVY FRANKFURT,GERMANY
WASTE BIN,SARA LEE BRANDED APPAREL GERMANY,NUR DIE TIGHTS,OGILVY FRANKFURT,GERMANY
A12 Miscellaneous,
WRINKLED DOG,MASTERFOODS,PEDIGREE WEIGHT LOSS DIET FOR DOGS,TBWA\HUNT\LASCARIS,SOUTH AFRICA
A13 Cars,
SLIDING DOORS,PEUGEOT NEDERLAND,PEUGEOT 1007,EURO RSCG AMSTERDAM,THE
,,,,NETHERLANDS
FLIP,TOYOTA MOTOR CORPORATION AUSTRALIA,TOYOTA POD CONCEPT CAR,PUBLICIS MOJO AUSTRALIA,AUSTRALIA
COW,DAIMLERCHRYSLER - SMART,SMART CAR,CONTRAPUNTO,SPAIN
STONES,DAIMLERCHRYSLER - SMART,SMART CAR,CONTRAPUNTO,SPAIN
LORRY,DAIMLERCHRYSLER - SMART,SMART CAR,CONTRAPUNTO,SPAIN
,"A14 Other Vehicles, Auto Products & Services"
SHOPPING,HARLEY DAVIDSON,MOTORBIKES,OGILVY SOUTH AFRICA,SOUTH AFRICA
DINNER,HARLEY DAVIDSON,MOTORBIKES,OGILVY SOUTH AFRICA,SOUTH AFRICA
PRUNER,VOLKSWAGEN COMMERCIAL VEHICLES,4 MOTION ALL WHEEL DRIVE,DDB PARIS,FRANCE
SPREADERS,VOLKSWAGEN COMMERCIAL VEHICLES,4 MOTION ALL WHEEL DRIVE,DDB PARIS,FRANCE
ELECTRICIANS,VOLKSWAGEN COMMERCIAL VEHICLES,4 MOTION ALL WHEEL DRIVE,DDB PARIS,FRANCE
PAINTERS,VOLKSWAGEN COMMERCIAL VEHICLES,4 MOTION ALL WHEEL DRIVE,DDB PARIS,FRANCE
NIGHT,AUTOMOBILES PEUGEOT,PEUGEOT GPS,BETC EURO RSCG,FRANCE
DAY,AUTOMOBILES PEUGEOT,PEUGEOT GPS,BETC EURO RSCG,FRANCE
SNOW,AUTOMOBILES PEUGEOT,PEUGEOT GPS,BETC EURO RSCG,FRANCE
ERIC BLACK,HARLEY DAVIDSON PARTS & ACCESSORIES,GENUINE MOTOR ACCESSORIES,CARMICHAEL LYNCH,USA
KEITH RED,HARLEY DAVIDSON PARTS & ACCESSORIES,GENUINE MOTOR ACCESSORIES,CARMICHAEL LYNCH,USA
JEN REDSTRIPE,HARLEY DAVIDSON PARTS & ACCESSORIES,GENUINE MOTOR ACCESSORIES,CARMICHAEL LYNCH,USA
A15 Home Electronics & Audio-Visual,
BARKING,BOSE,NOISE REDUCING HEADPHONES,SAATCHI & SAATCHI,NEW ZEALAND
SCREAMING,BOSE,NOISE REDUCING HEADPHONES,SAATCHI & SAATCHI,NEW ZEALAND
ROARING,BOSE,NOISE REDUCING HEADPHONES,SAATCHI & SAATCHI,NEW ZEALAND
A16 Retail Stores,
GOLF,NIKE TOWN BERLIN,SPORTSWEAR STORE,DDB BERLIN,GERMANY
SOCCER,NIKE TOWN BERLIN,SPORTSWEAR STORE,DDB BERLIN,GERMANY
BASEBALL,NIKE TOWN BERLIN,SPORTSWEAR STORE,DDB BERLIN,GERMANY
SILVER DRESS,HARVEY NICHOLS,WINTER SALE,DDB LONDON,UNITED KINGDOM
BLUE JACKET,HARVEY NICHOLS,WINTER SALE,DDB LONDON,UNITED KINGDOM
GOLD BAG,HARVEY NICHOLS,WINTER SALE,DDB LONDON,UNITED KINGDOM
A17 Restaurants & Fast Food Outlets,
TOMATO,RUBAIYAT STEAK HOUSE,STEAK HOUSE,DPZ PROPAGANDA,BRAZIL
CARROT,RUBAIYAT STEAK HOUSE,STEAK HOUSE,DPZ PROPAGANDA,BRAZIL
"A18 Travel, Transport & Tourism",
KOLKATA,JETSTAR ASIA,AIRLINE,OGILVY & MATHER,SINGAPORE
BALI,JETSTAR ASIA,AIRLINE,OGILVY & MATHER,SINGAPORE
HONG KONG,JETSTAR ASIA,AIRLINE,OGILVY & MATHER,SINGAPORE
PHUKET,JETSTAR ASIA,AIRLINE,OGILVY & MATHER,SINGAPORE
RECEPTIONIST,MANELAND JUNGLE LODGE,TOURIST LODGE,LEO BURNETT INDIA,INDIA
WAITER,MANELAND JUNGLE LODGE,TOURIST LODGE,LEO BURNETT INDIA,INDIA
A19 Entertainment & Leisure,
BARCELONA,HASBRO ESPANA,MONOPOLY BOARD GAME,DDB ESPANA,SPAIN
NEW YORK,HASBRO ESPAÑA,MONOPOLY BOARD GAME,DDB ESPANA,SPAIN
A20 Publications & Media,
SPACE,8 INK MEDIA,NATIONAL GEOGRAPHIC KIDS MAGAZINE,FOX P2,SOUTH AFRICA
LIONS,8 INK MEDIA,NATIONAL GEOGRAPHIC KIDS MAGAZINE,FOX P2,SOUTH AFRICA
AVALANCHE,8 INK MEDIA,NATIONAL GEOGRAPHIC KIDS MAGAZINE,FOX P2,SOUTH AFRICA
"A21 Banking, Investment & Insurance",
HOME,ACHMEA INSURANCE,INSURANCE,DDB AMSTERDAM,THE
,,,,NETHERLANDS
BUILDING,HSBC,HSBC INSURANCE,JWT BRAZIL,BRAZIL
STORE,HSBC,INSURANCE,JWT BRAZIL,BRAZIL
MOTO,HSBC,INSURANCE,JWT BRAZIL,BRAZIL
A26 Commercial Public Services,
SHOES,ELLIOT INTERNATIONAL,REMOVALS,GREY WORLDWIDE,SOUTH AFRICA
DOG,ELLIOT INTERNATIONAL,REMOVALS,GREY WORLDWIDE,SOUTH AFRICA
HAT,ELLIOT INTERNATIONAL,REMOVALS,GREY WORLDWIDE,SOUTH AFRICA
A27 Corporate Image,
GUITAR & HENDRIX,MUSIC TELEVISION,MUSIC TELEVISION,LODUCCA PUBLICIDADE,BRAZIL
SEX & JIM MORRISON,MUSIC TELEVISION,MUSIC TELEVISION,LODUCCA PUBLICIDADE,BRAZIL
VOICE & JANIS,MUSIC TELEVISION,MUSIC TELEVISION,LODUCCA PUBLICIDADE,BRAZIL
GRENADE,UNITED NATIONS,PEACE MESSAGE,SAATCHI & SAATCHI,AUSTRALIA
A28 Public Health & Safety,
PRISON,TRUTH,ANTI-SMOKING CAMPAIGN,ARNOLD WORLDWIDE,USA
CAR CRASH,TRUTH,ANTI-SMOKING CAMPAIGN,ARNOLD WORLDWIDE,USA
HOMELESS,TRUTH,ANTI-SMOKING CAMPAIGN,ARNOLD WORLDWIDE,USA
CAPE FIRES,TOBACCO ACTION GROUP,ANTI-SMOKING MESSAGE,TBWA\HUNT\LASCARIS,SOUTH AFRICA
A29 Public Awareness Messages,
WALL,AMNESTY INTERNATIONAL,HUMAN RIGHTS AWARENESS,TBWA\PARIS,FRANCE
TIGHTROPE,AMNESTY INTERNATIONAL,ANTI-TORTURE CAMPAIGN,BBDO DENMARK,DENMARK
AWAKE,AMNESTY INTERNATIONAL,ANTI-TORTURE CAMPAIGN,BBDO DENMARK,DENMARK
BREATH,AMNESTY INTERNATIONAL,ANTI-TORTURE CAMPAIGN,BBDO DENMARK,DENMARK
A30 Fundraising & Appeals,
CHILD,AKTIONSBUENDNIS LANDMINE.DE,LANDMINE AWARENESS,SCHOLZ & FRIENDS,GERMANY
WOMAN,AKTIONSBUENDNIS LANDMINE.DE,LANDMINE AWARENESS,SCHOLZ & FRIENDS,GERMANY
