A01 Fast Moving Consumer Goods,
TED ON TAP,LION NATHAN AUSTRALIA,TOOHEYS EXTRA DRY BEER,BMF,AUSTRALIA
MILKOHOLICS,NESTLÉ PURINA PETCARE,DRY CATFOOD,OGILVYONE WORLDWIDE,NEW ZEALAND
DOVE COVER PHOTO,UNILEVER,DOVE TOILETRIES,OGILVYONE WORLDWIDE,GERMANY
LYNXJET,UNILEVER AUSTRALASIA,LYNX BODY SPRAY,LOWE HUNT,AUSTRALIA
CROWN TOP,HEINEKEN SWITZERLAND,HEINEKEN,FISCH.MEIER.DIREKT,SWITZERLAND
A02 Cars & automotive services,
POLISH,REFLECTION,CAR CLEANING SERVICE,LEO BURNETT,THAILAND
JAGUAR SPA,AL TAYER MOTORS,JAGUAR XJL,BRANDCOM,UNITED ARAB EMIRATES
VOLVO INSCRIPTION,VOLVO AUTOMOBILE,VOLVO INTERIOR DESIGN,OGILVYONE WORLDWIDE,SWITZERLAND
WALLPAPER,VOLKSWAGEN,VW POLO,TRIBAL DDB,GERMANY
TORN,NISSAN NZ,NISSAN PATHFINDER/MURANO,TEQUILA\AUCKLAND,NEW ZEALAND
SHORT BUT FUN,VOLKSWAGEN,VW FOX,TRIBAL DDB,GERMANY
I AM FOR SALE,VOLKSWAGEN AUDI ESPAÑA,AUDI A4 AVANT,CP PROXIMITY,SPAIN
FIAT IDEA,FIAT AUTOMOVEIS,FIAT MINIVAN,DATAMIDIA FCBi RELATIONSHIP,BRAZIL
,,,MARKETING
ENVY,PEUGEOT,PEUGEOT 307,EHS BRANN,UNITED KINGDOM
EGGBOX,FORD OF BRITAIN,FORD TRANSIT MINIBUS,WUNDERMAN AUTOMOTIVE,UNITED KINGDOM
MAGNIFYING GLASS,FORD OF BRITAIN/FORD OF EUROPE,FORD FUSION,WUNDERMAN AUTOMOTIVE,UNITED KINGDOM
A03 Fashion & Luxury Products,
KINSEI HELSINKI,ASICS EUROPE,ASICS KINSEI TRAINERS,NORDPOL+ HAMBURG,GERMANY
A04 Information Technology,
PARTIALLY SHREDDED LETTER,SBC,DATA SECURITY SERVICES,RODGERS TOWNSEND,USA
GOTCHA!,MICROSOFT,MICROSOFT HARDWARE & SOFTWARE,WUNDERMAN ME,UNITED ARAB EMIRATES
NAPKIN,MICROSOFT,VISIO 2003 SOFTWARE,TOUCH ME WUNDERMAN,PORTUGAL
DUSTER,MICROSOFT,MANAGEMENT SOFTWARE,HARRISON TROUGHTON WUNDERMAN,UNITED KINGDOM
A05 Other Consumer Products,
GIVE AWAY,ROBERT BOSCH,CHAIN SAW,SCHOLZ & FRIENDS,GERMANY
24 THE GAME,SONY COMPUTER ENTERTAINMENT EUROPE,24 PLAYSTATION 2 GAME,20:20 LONDON,UNITED KINGDOM
TEXTUAL HARASSMENT,SONY,T7 DIGITAL CAMERA,PROXIMITY BBDO,FRANCE
A06 Financial Products and Services,
REEP,CERNO,REAL ESTATE EVALUATION PORTAL,WUNDERMAN SOUTH AFRICA,SOUTH AFRICA
BODY PARTS,BANK OF NEW ZEALAND,STUDENT BANKING SERVICES,AIM PROXIMITY,NEW ZEALAND
BOOTSCRAPER,ASB BANK,RURAL BANKING,TEQUILA\AUCKLAND,NEW ZEALAND
BIGGER IS POSSIBLE,AGUIRRE NEWMAN,REAL ESTATE,EHS BRANN,SPAIN
CALENDAR OF DREAMS,SPARKASSE,SAVINGS BANK,JUNG von MATT GERMANY,GERMANY
MATTRESS,BANCO PRIVADO,VISA CREDITCARD,CP COMUNICACION PROXIMITY,ARGENTINA
TREASURE HUNT,MASTERCARD/ARGENCARD,CREDIT CARD ACTIVATION,MRM WW ARGENTINA,ARGENTINA
WALLPAPER,IAG,LANDLORD INSURANCE,M&C SAATCHI,AUSTRALIA
A07 Commercial Public Services,
ENJOY RESPONSIBLY,VIRGIN MOBILE AUSTRALIA,MOBILE TELECOMMUNICATIONS,HOST,AUSTRALIA
EMPTYING POST BOXES,EXPRESSPOST,SWISS POST SERVICE,LANGGYSIKNOLL,SWITZERLAND
IT'S NOT FUNNY,BBC TV LICENSING,STUDENT TV LICENCE,PROXIMITY LONDON,UNITED KINGDOM
A08 Other Consumer Services,
CRASHED ICE,RED BULL,CRASHED ICE SPORTING EVENT,DIESEL,CANADA
PACK MAN POSTER,FITNESS COMPANY,LEISURE CENTRE,SCHOLZ & FRIENDS,GERMANY
BUS TOUR,L'TUR TOURIMUS,LAST MINUTE TRAVEL,OGILVYONE WORLDWIDE,GERMANY
CORPORATE SPONSOR PROGRAMME,"INTERNATIONAL WRESTLING ASSOCIATION,",WRESTLING SHOWS,LOWE,SWITZERLAND
,SWITZERLAND
FERIATICKET,FERIA DEL DISCO,ONLINE ENTERTAINMENT TICKET SALES,OGILVYONE,CHILE
INSECT,D.D. DRIN,INSECT EXTERMINATOR,MASTER COMUNICACAO,BRAZIL
A09 Publications & Media,
BOOK WITH EYES,DISNEY BUENAVISTA ESPAÑA,ANIMATED MID SUMMER DREAM,ZAPPING,SPAIN
KLARA CDS,VRT/KLARA,RADIO STATION,LG&F,BELGIUM
NEED A JOB,DE TIJD,BUSINESS NEWSPAPER,I DO,BELGIUM
SMASHED PLATE,SABC RADIO SALES,PHALAPHALA FM RADIO STATION,TEQUILA\JOHANNESBURG,SOUTH AFRICA
LONELY FINGER,SOUTH AFRICAN BROADCAST CORPORATION,5FM RADIO STATION,NET#WORK BBDO,SOUTH AFRICA
A10 Business Products & Services,
SITTING LEATHER,RÜEGG-NAEGELI,OFFICE FURNITURE,AGENTUR AM FLUGHAFEN,SWITZERLAND
SECURITY,GRUPO EULEN,SECURITY SERVICE,OGILVYONE WORLDWIDE,SPAIN
BASKETBALL,PELEPHONE,CELLULAR MODEM,GREY LEAD DIRECT ISRAEL,ISRAEL
CLAUSTROPHOBEX,JUNGKIND INTERTIOR DESIGN,INTERIOR DESIGN SERVICES,ALEX SCHMID DIRECT,SWITZERLAND
YOU'RE SACKED,ROYAL MAIL,COURIER SERVICE,PROXIMITY LONDON,UNITED KINGDOM
REPLICANT,IBM,BLADE CENTRE HS20,OGILVY & MATHER ASIA PACIFIC,AUSTRALIA
DIE CUTS MAILER,CANADA POST,NON-TRADITIONAL MAIL SERVICE,BLITZ DIRECT DATA AND PROMOTION,CANADA
BEST OF BOTH,MALAYSIA AIRLINES,FLIGHT CREW TRAINING CENTRE,ARC WORLDWIDE,MALAYSIA
AC/DC,BISLEY,OFFICE FURNITURE,KOLLE REBBE WERBEAGENTUR,GERMANY
A11 Corporate Communication,
IN THE GLITTER,GLITTER,STAFF GUIDE,GOSS,SWEDEN
CUSTOMINIZE,BMW IBERICA,BMW MINI,SHACKLETON,SPAIN
A12 B2B: Advertising & Media,
SNOWMAN,WHYBIN\TBWA & TEQUILA\,ADVERTISING AGENCY,TEQUILA\AUCKLAND,NEW ZEALAND
CALENDAR,BBDO,ADVERTISING AGENCY,TIEMPO BBDO,SPAIN
FASTER THAN ROB,I DO,DIRECT MARKETING AGENCY,I DO,BELGIUM
RUN BY MARTIANS?,LEO BURNETT ADVERTISING,ADVERTISING AGENCY,LEO BURNETT ADVERTISING,MALAYSIA
IMPROVED ACCOUNT MANAGER,MODS,GRAPHIC STUDIO,AKESTAM.HOLST,SWEDEN
TALKING PRESS AD,RADIO ADVERTISING BUREAU,RADIO ADVERTISING PROMOTION,JWT,UNITED KINGDOM
TEST THEIR RADIO-MAKING SKILLS,KAPISANAN MGA BROADKASTER PILIPINAS,RADIO ADVERTISING AWARDS,BBDO GUERRERO ORTEGA,THE PHILIPPINES
FINDING NEMO,TELEVISION NEW ZEALAND,TV2 ADVERTISING SPACE,SAATCHI & SAATCHI,NEW ZEALAND
A13 Retail Services,
NIGHTCLUB STAMP,ACCESSOIRES,JEWELLERY STORE,SCHOLZ & FRIENDS,GERMANY
WHICH BOOK,MIDLAND BOOKSHOP,BOOKSTORE,REDIFFUSION DY&R,INDIA
GLASSES,GENERAL OPTICA,OPTICIANS,WUNDERMAN,SPAIN
BABES ON CARS CALENDAR,CARS-AND-BOXES,ONLINE MODEL CAR STORE,JUNG von MATT GERMANY,GERMANY
DOOR VIEWER,PAPA JOHN´S,PIZZA DELIVERY,QUORUM/NAZCA SAATCHI & SAATCHI,PERU
A14 Healthcare and Medical,
POST IT,GILLETTE DE COLOMBIA,DENTAL EQUIPMENT,OGILVY & MATHER,COLOMBIA
HEALTHY CONSEQUENCES,PFIZER,ONLINE HEALTH INFORMATION,WUNDERMAN,USA
"A15 Charities, public health & safety",
KELI FINDER,CONSEJO DE LA JUVENTUD DE ESPAÑA,ONLINE HOUSING INFORMATION,SHACKLETON,SPAIN
BERLINER STADTMISSION DONATE,BERLINER STADTMISSION EVANGELISCHE KIRCHE,DONATIONS FOR THE HOMELESS,AIMAQ.RAPP.STOLLE,GERMANY
WARMTH,
MODERN ART,AMNESTY INTERNATIONAL MANNHEIM/GERMANY,HUMAN RIGHTS MESSAGE,OGILVY FRANKFURT,GERMANY
NAVY PAGE-TURNER,REPUBLIC OF SINGAPORE NAVY,RECRUITMENT,SAATCHI & SAATCHI SINGAPORE,SINGAPORE
HEROIN DIARY,SAPPI,ANTI-DRUGS CAMPAIGN,NET#WORK BBDO,SOUTH AFRICA
CHRISTMAS GIFT,BOLA AMIGA,ABANDONED CHILDREN AWARENESS,LEO BURNETT LISBON,PORTUGAL
RECYCLED TATTOO,MOHAN FOUNDATION,ORGAN DONATION,iCONTRACT,INDIA
BLOOD BOX,AUSTRALIAN RED CROSS BLOOD SERVICE,BLOOD DONATION,M&C SAATCHI,AUSTRALIA
KETCHUP SACHET,CAMPAIGN AGAINST LANDMINES,CAMPAIGN AGAINST LANDMINES,PUBLICIS MOJO,NEW ZEALAND
CARBON,WOMEN'S AID ORGANISATION,WOMEN AGAINST VIOLENCE MESSAGE,ARC WORLDWIDE,MALAYSIA
CAMERAPHONE,LEO BURNETT,TEENAGE ROAD SAFETY,LEO BURNETT,UNITED KINGDOM
SPEECH BUBBLE,NSPCC,ANTI-CHILD ABUSE MESSAGE,SAATCHI & SAATCHI,UNITED KINGDOM
B01 Flat Mailing,
RUN YOURSELF UGLY,NIKE AUSTRALIA,RUNNING APPAREL,PUBLICIS MOJO AUSTRALIA,AUSTRALIA
VOLVO INSCRIPTION,VOLVO AUTOMOBILE,VOLVO INTERIOR DESIGN,OGILVYONE WORLDWIDE,SWITZERLAND
CANDID CANBERRA,AUSTRALIAN CAPITAL TOURISM,CANBERRA TOURISM,LEAP,AUSTRALIA
TASTE BEFORE OPENING,DIAGEO,CLASSIC MALT WHISKY,CP PROXIMITY,SPAIN
RACE AGAINST TIME,SAAB,SAAB 9-3 SPORTSWAGON,DRAFT LONDON,UNITED KINGDOM
CROWN TOP,HEINEKEN SWITZERLAND,HEINEKEN,FISCH.MEIER.DIREKT,SWITZERLAND
CUSTOMINIZE,BMW IBERICA,BMW MINI,SHACKLETON,SPAIN
TVC LAUNCH PACK,INBEV,INTERNAL STELLA ARTOIS PROMOTION,DRAFT LONDON,UNITED KINGDOM
FASTER,XEROX,COLOUR PRINTERS,REDIFFUSION DY&R,INDIA
EMPTY ENVELOPE,CITIBANK,CREDIT CARD,WUNDERMAN,USA
DONATION CARD,KINDERNOTHILFE,CHILDREN IN NEED APPEAL,SCHOLZ & FRIENDS,GERMANY
ASIAN RICH LIST,ROLLS-ROYCE,ROLLS-ROYCE PHANTOM,HARRISON TROUGHTON WUNDERMAN,UNITED KINGDOM
TRACTOR TUNNING,CEPSA,AGRICULTURAL DIESEL OIL,SHACKLETON,SPAIN
IMPROVED ACCOUNT MANAGER,MODS,GRAPHIC STUDIO,AKESTAM.HOLST,SWEDEN
DIUSENBERG,DMR CONSULTING,TECHNOLOGICAL CONSULTANCY,SHACKLETON,SPAIN
JUST A COIN,SAVE THE CHILDREN,CHILD SPONSORSHIP,SHACKLETON,SPAIN
TEXTUAL HARASSMENT,SONY,T7 DIGITAL CAMERA,PROXIMITY BBDO,FRANCE
CARBON,WOMEN'S AID ORGANISATION,WOMEN AGAINST VIOLENCE MESSAGE,ARC WORLDWIDE,MALAYSIA
UNOPENABLE ENVELOPE,NATIONAL AIDS TRUST,AIDS AWARENESS,SAATCHI & SAATCHI,UNITED KINGDOM
B02 Dimensional Mailing,
GREETING 2006,TOKYO GREAT VISUAL,ADVERTISING AGENCY,TOKYO GREAT VISUAL,JAPAN
BERLIN RECYCLING CALENDAR,BERLIN RECYCLING,RECYCLING MANAGEMENT,OYSTERBAY WERBEAGENTUR,GERMANY
SWEET DEAL,TELECOM NEW ZEALAND,MOBILE PHONES,AIM PROXIMITY,NEW ZEALAND
NAPKIN MARKETING,DIESEL,ADVERTISING AGENCY,DIESEL,CANADA
REASSURINGLY SAFE,VOLKSWAGEN,VW POLO,TRIBAL DDB,GERMANY
FULL OF NOTHING,EHS BRANN,DIRECT MARKETING AGENCY,EHS BRANN,SPAIN
REAL ANTIQUE?,DEUTSCHE LUFTHANSA,AIRLINE,WUNDERMAN GERMANY,GERMANY
DO IT FOR MUM,HK4AS,THE 2005 KAM FAN AWARDS ENTRY KIT,LEO BURNETT GREATER CHINA,HONG KONG
SUPERHEROES,COMUNIQUE-SE,JOURNALISM AWARDS,SALEM,BRAZIL
ANXIETY AWARENESS WEEK,NATIONAL PHOBICS SOCIETY,OCD AWARENESS,HARRISON TROUGHTON WUNDERMAN,UNITED KINGDOM
CHRISTMAS GIFT,BOLA AMIGA,FUNDRAISING FOR ABANDONED,LEO BURNETT LISBON,PORTUGAL
,,CHILDREN
BEST OF BOTH,MALAYSIA AIRLINES,FLIGHT CREW TRAINING CENTRE,ARC WORLDWIDE,MALAYSIA
COMICS MONTH,KINOKUNIYA BOOKSTORES,BOOKSTORE'S COMIC MONTH,ARC WORLDWIDE,MALAYSIA
,,PROMOTION
B03 Direct Response Print,
WOMAN WITH CHILD,AKTIONSBUENDNIS LANDMINE.DE,LANDMINE AWARENESS,SCHOLZ & FRIENDS,GERMANY
MOVIE LISTINGS,FILMFOUR,FILM TELEVISION CHANNEL,CLAYDON HEELEY JONES MASON,UNITED KINGDOM
BLOOD BOX POSTER,AUSTRALIAN RED CROSS BLOOD SERVICE,BLOOD DONATION,M&C SAATCHI,AUSTRALIA
COUPONS,INBEV,STELLA ARTOIS,LOWE NEW YORK,USA
B04 Direct Response TV & infomercials,
FEATURING WORLDHITS,MUEHLEHALDE,HOME FOR THE BLIND APPEAL,RUF LANZ WERBEAGENTUR,SWITZERLAND
CHRISTMASES ARE WHITE,DEUTSCHE POST,POSTAL SERVICE,PUBLICIS HAMBURG,GERMANY
CRASH TEST,RENAULT GERMANY,CAR SAFETY,NORDPOL+ HAMBURG,GERMANY
AIR BAG,RENAULT GERMANY,CAR SAFETY,NORDPOL+ HAMBURG,GERMANY
B05 Alternative Media,
FREELANCECOPY.NL,PASCAL CONCEPT & COPY,FREELANCE COPYWRITER,PASCAL CONCEPT & COPY,THE NETHERLANDS
WINE TASTING GAME,ERNEST & JULIO GALLO WINERY,WINE,PROXIMITY CANADA,CANADA
DOGS LOVE PEDIGREE,MASTERFOOD NETHERLANDS,PEDIGREE DOG FOOD,TEQUILA\,THE NETHERLANDS
ARE YOU AROUSED...?,TWENTIETH CENTURY FOX,KINSEY MOVIE,OGILVYONE WORLDWIDE,GERMANY
WRONG WORKING ENVIRONMENT,JOBSINTOWN.DE,ONLINE RECRUITMENT SERVICE,SCHOLZ & FRIENDS,GERMANY
UNCARRIABLE CARRIER BAGS,MOTHER,ADVERTISING AGENCY,MOTHER,UNITED KINGDOM
KNIFE CITY,METROPOLITAN POLICE SERVICE,KNIFE CRIME PREVENTION,MILES CALCRAFT BRIGINSHAW DUFFY,UNITED KINGDOM
LYNXJET MOSTESSES,UNILEVER AUSTRALASIA,LYNX BODY SPRAY,LOWE HUNT,AUSTRALIA
MODERN ART,"AMNESTY INTERNATIONAL MANNHEIM, GERMANY",HUMAN RIGHTS MESSAGE,OGILVY FRANKFURT,GERMANY
TOURIST CAMPAIGN,TATE BRITAIN,GALLERY,FALLON LONDON,UNITED KINGDOM
DOOR VIEWER,PAPA JOHN´S,PIZZA DELIVERY,QUORUM/NAZCA SAATCHI & SAATCHI,PERU
EMERGENCY PAKISTAN,UNICEF BELGIUM,CHILD PROTECTION AWARENESS,PUBLICIS,BELGIUM
STUNT THAT NEVER WAS,NZGIRL,ONLINE YOUTH MAGAZINE,DDB NEW ZEALAND,NEW ZEALAND
CAMERAPHONE,LEO BURNETT,TEENAGE ROAD SAFETY,LEO BURNETT,UNITED KINGDOM
WORST F***ING IDEA,LEO BURNETT/COMIC RELIEF,ADVERTISING AGENCY,LEO BURNETT,UNITED KINGDOM
B06 Field Marketing,
CRASHED ICE,RED BULL,CRASHED ICE SPORTING EVENT,DIESEL,CANADA
BRAIN FILTERS,SHELLY'S CARD,ANTI-MARIJUANA MESSAGE,GITAM/BBDO,ISRAEL
PIRATED DVD,STERKINEKOR,ANTI-PIRACY FOUNDATION,TBWA\HUNT\LASCARIS,SOUTH AFRICA
KINSEI HELSINKI,ASICS EUROPE,ASICS KINSEI TRAINERS,NORDPOL+ HAMBURG,GERMANY
IMPROVISATION TAPE,NIKE HK,NIKE FOOTBALL,JWT HK,HONG KONG
B07 Integrated Solutions,
24 THE GAME,SONY COMPUTER ENTERTAINMENT EUROPE,24 PLAYSTATION 2 GAME,20:20 LONDON,UNITED KINGDOM
LYNXJET,UNILEVER AUSTRALASIA,LYNX BODY SPRAY,LOWE HUNT,AUSTRALIA
KELI FINDER,CONSEJO DE LA JUVENTUD DE ESPAÑA,ONLINE HOUSING INFORMATION,SHACKLETON,SPAIN
ISLAM CAMPAIGN,UNICEF AUSTRIA,EDUCATION FOR GIRLS,FCB KOBZA WERBEAGENTUR,AUSTRIA
IT'S NOT FUNNY,BBC TV LICENSING,STUDENT TV LICENCE,PROXIMITY LONDON,UNITED KINGDOM
POST CODES,DEUTSCHE POST,NEW POST CODE REGISTER,BBDO CAMPAIGN DUSSELDORF,GERMANY
BURN OUT,RAINMAKER PROPERTY INVESTMENTS,PROPERTY INVESTMENT,HARRISON TROUGHTON WUNDERMAN,UNITED KINGDOM
COLORED/WHITES,REMEMBERSEGREGATION.ORG,CIVIL RIGHTS MESSAGE,DDB SEATTLE,USA
CAMERAPHONE CAMPAIGN,LEO BURNETT,TEENAGE ROAD SAFETY,LEO BURNETT,UNITED KINGDOM
C01 Product Launches,
24 THE GAME,SONY COMPUTER ENTERTAINMENT EUROPE,24 PLAYSTATION 2 GAME,20:20 LONDON,UNITED KINGDOM
"REGARDS, YOUR ROAD",LAND ROVER DEUTSCHLAND,LAND ROVER FREELANDER,WUNDERMAN GERMANY,GERMANY
KELI FINDER,CONSEJO DE LA JUVENTUD DE ESPAÑA,HOUSING INFORMATION WEBSITE,SHACKLETON,SPAIN
KINSEI HELSINKI,ASICS EUROPE,ASICS KINSEI TRAINERS,NORDPOL+ HAMBURG,GERMANY
C02 Traffic Building,
SHORT BUT FUN,VOLKSWAGEN,VW FOX,TRIBAL DDB,GERMANY
LIPSTICK,ASSAULTED WOMEN'S HELPLINE,24 HOUR HELPLINE,LEO BURNETT CANADA,CANADA
LONELY FINGER,SOUTH AFRICAN BROADCAST CORPORATION,5FM RADIO STATION,NET#WORK BBDO,SOUTH AFRICA
ORIGINAL ART SALE,ORIGINAL ART SALE,ART SALE,DDB NEW ZEALAND,NEW ZEALAND
C03 Loyalty/Continuity Schemes,
GUINNESS INSIDER,GUINNESS ANCHOR,GUINNESS,OGILVYONE WORLDWIDE MALAYSIA,MALAYSIA
WINBACK CAMPAIGN,TESCO,SUPERMARKET,EHS BRANN,UNITED KINGDOM
CUSTOMINIZE,BMW IBERICA,BMW MINI,SHACKLETON,SPAIN
A BREAK,VIRGIN ATLANTIC,AIRLINE,NET#WORK BBDO,SOUTH AFRICA
