TITLE,CLIENT,PRODUCT,ENTRANT COMPANY,COUNTRY
A01 Logos & Trademarks - New Or Redesigned,
QANTAS IDENTITY,QANTAS AIRWAYS,AIRLINE,HULSBOSCH COMMUNICATIONS,AUSTRALIA
,,,Sydney
PARISTEXAS,MARIA LEONHART,FASHION STORE,SCANDINAVIAN DESIGNLAB,DENMARK
,,,Copenhagen
MATHIAS DAHLGREN,MATHIAS DAHLGREN GRAND,MATHIAS DAHLGREN,DOLHEM DESIGN Stockholm,SWEDEN
,HOTEL STOCKHOLM,RESTAURANT
,AN EXPLOSIVE BRAND IDENTITY  SYDNEY YOUTH ORCHESTRA,SYDNEY YOUTH ORCHESTRA,SAATCHI & SAATCHI Sydney,AUSTRALIA
THE BIG 4,CHANNEL 4,THE BIG 4,CHANNEL 4 London,UNITED KINGDOM
D&AD IDENTITY,D&AD,D&AD,ROSE London,UNITED KINGDOM
BAR POLAR BEAR,BAR POLAR BEAR,STRIP BAR,PERVIY MILLION Moscow,RUSSIA
GROCERS CORPORATE,"OLIVER, PATRICK & GLEN",GROCERY STORE,LEO BURNETT/ARC,SINGAPORE
IDENTITY,GROCERS,,WORLDWIDE SINGAPORE
FANTASIA BIKINI LOUNGE,FANTASIA BIKINI LOUNGE,FANTASIA BIKINI LOUNGE,MacLAREN McCANN CALGARY,CANADA
COCA-COLA IDENTITY,THE COCA-COLA COMPANY,COCA-COLA,TURNER DUCKWORTH: LONDON,USA
,,,& SAN FRANCISCO
AFFECTION AIDS,AFFECTION AIDS,AIDS ORGANISATION,CONTRACT ADVERTISING INDIA,INDIA
,,,New Delhi
"A02 Posters, Flyers, Tickets, Invitations, Etc.",
HÖCHST PERSÖNLICH,LIGALUX /FISCHERAPPELT,COMMUNICATIONS AGENCY,LIGALUX Hamburg,GERMANY
,KOMMUNIKATION
MAGAZINE HOLDERS,THE SWEDISH MUSEUM OF,MUSEUM,HAPPY FORSMAN &,SWEDEN
,ARCHITECTURE,,BODENFORS Gothenburg
SUSTAINABLE GOOD,OUTREACH INTERNATIONAL,CHARITABLE ORGANISATION,RODGERS TOWNSEND St. Louis,USA
SILENT GUITAR,ROCK4AIDS FOUNDATION,ROCK4AIDS 2007,JOE PUBLIC Johannesburg,SOUTH AFRICA
TREE DRAWINGS,FOREST STEWARDSHIP,TREE PROTECTION,JUNG von MATT Stuttgart,GERMANY
,COUNCIL
NEW BLOOD POSTER,D&AD,NEW BLOOD EXHIBITION,LOVE. Manchester,UNITED KINGDOM
TESA TAPE ART,TESA,ADHESIVE TAPE,JUNG von MATT Stuttgart,GERMANY
MAKE SOME NOISE,AMNESTY INTERNATIONAL,AMNESTY INTERNATIONAL,PUBLICIS MOJO Auckland,NEW ZEALAND
COOKIE CUTTER FEET,CLARKS,CLARKS CHILDREN'S SHOES,CUMMINSNITRO Melbourne,AUSTRALIA
NOTE ILLUSTRATIONS,,BERLINER PHILHARMONIE GMBH BERLIN PHILHARMONIC,SCHOLZ & FRIENDS Berlin,GERMANY
,,ORCHESTRA
ELECTIONS POSTER,HUFFINGTON POST,DEMOCRATIC PARTY,GOODBY SILVERSTEIN &,USA
,,,PARTNERS San Francisco
15 BELOW HOLIDAY CARD,TAXI TORONTO,15 BELOW,TAXI CANADA Toronto,CANADA
15 BELOW EMERGENCY,TAXI TORONTO,15 BELOW,TAXI CANADA Toronto,CANADA
BLANKET POSTER,
BEETLE,TANZQUARTIER VIENNA,A CULTURAL INSTITUTION OF,DRAFTFCB KOBZA Vienna,AUSTRIA
,,VIENNA
MOTH,TANZQUARTIER VIENNA,A CULTURAL INSTITUTION OF,DRAFTFCB KOBZA Vienna,AUSTRIA
,,VIENNA
SCORPION,TANZQUARTIER VIENNA,A CULTURAL INSTITUTION OF,DRAFTFCB KOBZA Vienna,AUSTRIA
,,VIENNA
50 CENT,MW.COM INDIA,ROLLING STONE INDIA,JWT INDIA Mumbai,INDIA
BOB MARLEY,MW.COM INDIA,ROLLING STONE INDIA,JWT INDIA Mumbai,INDIA
JIM MORRISON,MW.COM INDIA,ROLLING STONE INDIA,JWT INDIA Mumbai,INDIA
MADONNA,MW.COM INDIA,ROLLING STONE INDIA,JWT INDIA Mumbai,INDIA
GLOWING STICKER,WWF,WORLD WILDLIFE FUND,BBDO GUERRERO ORTEGA,THE PHILIPPINES
,,,Makati City
HAIKU COLLECTION,KYURYUDO ART-PUBLISHING,HAIKU COLLECTION,DENTSU Tokyo,JAPAN
PROMOTIONAL POSTERS,
WOMEN'S RIGHTS,ASW,ACTION GROUP FOR WORLD,OGILVY FRANKFURT,GERMANY
,,SOLIDARITY
LUXOR POSTERS,LUXOR WRITING INSTRUMENTS,HIGHLIGHTERS,LEO BURNETT INDIA Mumbai,INDIA
ENDANGERED COLLECTION,MALAYSIAN NATURE SOCIETY,ENVIRONMENTAL,ARC WORLDWIDE/LEO,MALAYSIA
,,ORGANISATION,BURNETT ADVERTISING Kuala
,,,Lumpur
THE BESS,THE BESSIES,THE BESSIES 2007 AWARDS,LEO BURNETT TORONTO,CANADA
SHOW,
BETTER,THE TORONTO HUMANE,TORONTO HUMANE SOCIETY,LEO BURNETT TORONTO,CANADA
,SOCIETY
GLOBAL COOLING,WWF & BANGALORE BIAS,TREE PLANTING MESSAGE,MERIDIAN COMMUNICATIONS,INDIA
,,,Bangalore
IKEA,WWF & BANGALORE BIAS,TREE PLANTING MESSAGE,MERIDIAN COMMUNICATIONS,INDIA
,,,Bangalore
MONEY TREE,WWF & BANGALORE BIAS,TREE PLANTING MESSAGE,MERIDIAN COMMUNICATIONS,INDIA
,,,Bangalore
WILD POSTINGS,KRAFT,RITZ CRACKERS,EURO RSCG WORLDWIDE New,USA
,,,York
SMOKING KILLS MORE,UNIMED,HEALTHCARE ORGANISATION,F/NAZCA SAATCHI & SAATCHI,BRAZIL
,,,Sao Paulo
CHECK YOUR NECK CAMPAIGN,LIGHT OF LIFE FOUNDATION,CANCER AWARENESS,LOWE NEW YORK,USA
TRANSPORT NETWORK,"DAS TAXI, HAMBURG",TAXI SERVICES,NORDPOL+ HAMBURG,GERMANY
ORIGAMI,THE AKATU INSTITUTE FOR,CONSCIOUS CONSUMPTION,LEO BURNETT BRASIL Sao Paulo,BRAZIL
,CONSCIOUS CONSUMPTION
PROMOTIONS FLYER,THE AKATU INSTITUTE FOR,CONSCIOUS CONSUMPTION,LEO BURNETT BRASIL Sao Paulo,BRAZIL
,CONSCIOUS CONSUMPTION
SPACE ROCKET STICKERS,MUSEUM OF CHILDHOOD,MUSEUM,ABBOTT MEAD VICKERS BBDO,UNITED KINGDOM
,,,London
SEX IN DESIGN,MUSEUM OF SEX,MUSEUM OF SEX,LOWE NEW YORK,USA
iwai,KYURYUDO ART-PUBLISHING,EVENT,DENTSU KANSAI Osaka,JAPAN
,"CO.,LTD"
A03 Calendars,
WASTE ME NOT CALENDAR,YOMIKO ADVERTISING,ADVERTISING AGENCY,YOMIKO ADVERTISING Tokyo,JAPAN
2008 'MOTTAINAI',,CALENDAR
THE FORD GEAR CALENDAR,FORD WERKE COLOGNE,FORD AUTOMOBILES,OGILVY & MATHER Duesseldorf,GERMANY
2008.00000000,
EVERLASTING CALENDAR,BELINKA,VARNISH,FUTURA DDB Ljubljana,SLOVENIA
GETTY CALENDAR,GETTY IMAGES,IMAGE LIBRARY,LEO BURNETT INDIA Mumbai,INDIA
CALENDAR SURFRIDER,SURFRIDER FOUNDATION,SURFRIDER FOUNDATION,Y&R FRANCE Boulogne Billancourt,FRANCE
A04 Stationery,
LEGENDS OF THE JUPITER,THE JUPITER DRAWING ROOM,ADVERTISING AGENCY,THE JUPITER DRAWING ROOM,SOUTH AFRICA
DRAWING ROOM,CAPE TOWN,,SOUTH AFRICA Cape Town
KARO ESTILISTA HAIR SALON,KARO ESTILISTA HAIR SALON,HAIR SALON,GRID WORLDWIDE BRANDING &,SOUTH AFRICA
,,,DESIGN Johannesburg
FREEDOM PEN,AMNESTY INTERNATIONAL,AMNESTY INTERNATIONAL,PUBLICIS MOJO Auckland,NEW ZEALAND
THE KITCHEN COLLATERAL,BBDO NEW YORK,BBDO NEW YORK,BBDO NEW YORK,USA
FRAME,GETTY IMAGES,IMAGE LIBRARY,REDIFFUSION DY&R Mumbai,INDIA
THERAPY FOR COUPLES,MARISA SCHIMDT,THERAPIST,MASTER COMUNICACAO Curitiba,BRAZIL
WET CARD,KO RATANASEVI,DIVING INSTRUCTOR,BBDO BANGKOK,THAILAND
SCRATCHIE,ACCENT PANEL & PAINT,AUTO SERVICES,COLENSO BBDO Auckland,NEW ZEALAND
A05 Publications,
SWEET DREAMS ARE MADE OF,FAIRMONT HOTEL VIER,HOTEL,GÜRTLERBACHMANN,GERMANY
THIS...,JAHRESZEITEN HAMBURG,,WERBUNG Hamburg
ONE SHOW ANNUAL BOX SET,THE ONE CLUB,THE ONE SHOW,ARNOLD Boston,USA
WELL DONE,PODRAVKA,FOOD COMPANY,BRUKETA&ZINIC Zagreb,CROATIA
WII LOVE ARTS,NINTENDO GERMANY,WII VIDEOGAMING CONSOLE,MR. WOLF Frankfurt,GERMANY
THE HEAVYWEIGHT BROCHURE,SIEGLINDE BETZLER PERSONAL,PERSONAL TRAINING,BBDO GERMANY Duesseldorf,GERMANY
,TRAINER
PRESTIGE BOOK,MANGO,MANGO PRESTIGE BOOK,BASSAT OGILVY & MATHER,SPAIN
,,,BARCELONA
SOLIDARY ROUTE TO,CONSEJERÍA DE MEDIO,SOLIDARY BOOK,DFRAILE Murcia,SPAIN
MAURITANIA,AMBIENTE MURCIA + RUTA
,MOTOR
BROCHURE,DOWN BELOW,BEAUTY,GJP ADVERTISING + DESIGN,CANADA
,,,Toronto
THE RIGHT STUFF BROCHURE,"DAIMLER AG, MBVD",MERCEDES-BENZ G-CLASS,SCHOLZ & FRIENDS Berlin,GERMANY
THE SPACE BETWEEN,BANK INSINGER DE BEAUFORT,FINANCIAL SERVICES,DIETWEE DESIGN AND,THE NETHERLANDS
,,,COMMUNICATION Utrecht
POINTS OF VIEW,CONERGY,ENERGY COMPANY,KEMPERTRAUTMANN Hamburg,GERMANY
DEATH'S MESSENGER,KOLLE REBBE,DEATH'S MESSENGER BOOK,KOLLE REBBE WERBEAGENTUR,GERMANY
,WERBEAGENTUR/ KOREFE,,Hamburg
POLYPLAYPYLENE,LEGO,LEGO,KOLLE REBBE WERBEAGENTUR,GERMANY
Hamburg,
DENTSU RECRUITMENT BOOK,DENTSU TOKYO,DENTSU RECRUITMENT BOOK,DENTSU Tokyo,JAPAN
MARU-RU,
PILLOW BOOK,DENTSU (SLEEPING CLUB),PILLOW BOOK,DENTSU Tokyo,JAPAN
FLEUROP ANNUAL REPORT,FLEUROP INTERFLORA,INTERFLORA,walker Zurich,SWITZERLAND
ADC/FOCUS BOOK HEAVEN OR,ART DIRECTORS CLUB,ADC/FOCUS BOOK,OGILVY FRANKFURT,GERMANY
HELL,GERMANY/FOCUS MAGAZINE
,GERMANY
THE HARMONY OF OPPOSITES:,ASICS EUROPE,ASICS,NORDPOL+ HAMBURG,GERMANY
THE MYSTERY OF SUCCESS,
ORIGAMI,ASICS EUROPE,ASICS CORPORATE,NORDPOL+ HAMBURG,GERMANY
PLEASE HELP,YWCA OF CALGARY,HOMELESSNESS REDUCTION,MacLAREN McCANN CALGARY,CANADA
THE BOOK,TBWA ASIA PACIFIC,10TH ANNIVERSARY,TBWA\TEQUILA SINGAPORE,SINGAPORE
A06 Self Promotion,
POWER WITHIN,180 AMSTERDAM,CAMPAIGN BOOK,180 AMSTERDAM,THE NETHERLANDS
FACE2GO,MUTABOR DESIGN,HAMBURG DESIGN FESTIVAL,MUTABOR DESIGN Hamburg,GERMANY
,,2006.00000000
MAGIC BEAN,JWT SHANGHAI,JWT NEW YEAR GIFT,JWT SHANGHAI,CHINA
LUCKY'S NEWSAGENT,MOTHER LONDON,NEWSAGENT,MOTHER London,UNITED KINGDOM
COMPUTER MONITORS,BBDO NEW YORK,BBDO NEW YORK,BBDO NEW YORK,USA
W+K BOOK TWO,WIEDEN+KENNEDY CHINA,ADVERTISING AGENCY,WIEDEN+KENNEDY Shanghai,CHINA
PEOPLE WE SLEEP WITH,WIEDEN+KENNEDY,ADVERTISING AGENCY,WIEDEN+KENNEDY Portland,USA
A07 Point Of Sale,
BAGADS,@HOME,@HOME HOMEWARE,COLEY PORTER BELL Cape Town,SOUTH AFRICA
VIRGIN MOBILE STORES,VIRGIN MOBILE,TELECOMMUNICATIONS,GRID WORLDWIDE BRANDING &,SOUTH AFRICA
,,SERVICE PROVIDER,DESIGN Johannesburg
MATCH BOX,SANJOY PROPERTIES,PROPERTY CONSULTANCY,McCANN ERICKSON INDIA New,INDIA
,,,Delhi
CAPE UNION MART,CAPE UNION MART,OUTDOOR STORE,KING JAMES RSVP Cape Town,SOUTH AFRICA
SANDCASTLE WINDOWS,
LEVI'S® ENGINEERED JEANS,LEVI STRAUSS SOUTH AFRICA,LEVI'S® ENGINEERED JEANS,KING JAMES RSVP Cape Town,SOUTH AFRICA
POS,
POINT OF SALE,DOWN BELOW,BEAUTY,GJP ADVERTISING + DESIGN,CANADA
,,,Toronto
GLOBUS CROWN CAPS,GLOBUS SUPERMARKET,GLOBUS SUPERMARKET,OGILVY FRANKFURT,GERMANY
PROMOTION,GERMANY
FRAGILE,CROWN RELOCATIONS,CROWN MOVERS,JWT SINGAPORE,SINGAPORE
A08 Broadcast Design & Graphics,
S4C INTERACTIVE VOICE-,S4C,TELEVISION BROADCASTER,MINIVEGAS London,UNITED KINGDOM
ACTIVATED IDENTS,
THE BUSINESS CHANNEL,THE BUSINESS CHANNEL,FINANCIAL/BUSINESS TV,LAMBIE-NAIRN London,UNITED KINGDOM
BROADCAST IDENTITY,,CHANNEL
TAKING THE WORD TO THE,SYDNEY WRITERS' FESTIVAL,2007 SYDNEY WRITERS',SAATCHI & SAATCHI Sydney,AUSTRALIA
STREETS,,FESTIVAL
A09 Environmental Design: Semi-Permanent,
RIPPED REALITY STANDEE,HEWLETT-PACKARD MALAYSIA,HP ADVANCED PHOTO PAPER,,PUBLICIS MALAYSIA Petaling Jaya MALAYSIA
THE ROAD TO THE FUTURE,DAIMLER AG,MERCEDES-BENZ AT THE IAA,ATELIER MARKGRAPH Frankfurt,GERMANY
,,2007.00000000
COPYCATS WELCOME!,DAIMLER AG,BIONICS EXHIBITION FOR,ATELIER MARKGRAPH Frankfurt,GERMANY
,,CHILDREN
SOUND OF SQUARES,STADTMARKETING MANNHEIM,MANNHEIM'S 400TH,ATELIER MARKGRAPH Frankfurt,GERMANY
,,ANNIVERSARY
THE NATIONAL GALLERY,THE NATIONAL GALLERY/,THE NATIONAL GALLERY,THE PARTNERS London,UNITED KINGDOM
GRAND TOUR,HEWLETT-PACKARD,GRAND TOUR
WALK OF IDEAS,,MARKETING FÜR DEUTSCHLAND  GERMANY BRANDING,SCHOLZ & FRIENDS IDENTIFY,GERMANY
,,,Berlin
THE HUMANITIES ABC OF,FEDERAL MINISTRY OF,SCIENCE YEAR 2007,SCHOLZ & FRIENDS IDENTIFY,GERMANY
HUMANKIND,EDUCATION AND RESEARCH,,Berlin
,DRUNKEN BEETLE PROMOTION  BUNDESMINISTERIUM FUER,ROAD SAFETY INITIATIVE,SCHOLZ & FRIENDS Berlin,GERMANY
,"VERKEHR, BAU UND"
,STADTENTWICKLUNG
CABLES: PROTEST,BBC WORLD NEWS,BBC WORLD NEWS,BBDO NEW YORK,USA
VOYEUR PROJECTION,HBO,HBO VOYEUR,BBDO NEW YORK,USA
INSTALLATION,
AMNESTY INTERNATIONAL,AMNESTY INTERNATIONAL,AMNESTY INTERNATIONAL,OGILVY FRANKFURT,GERMANY
TORTURE MEETS MODERN ART,GERMANY,GERMANY
SCULPTURES BEGGING FOR,GERMAN FOUNDATION FOR,GERMAN FOUNDATION FOR,OGILVY FRANKFURT,GERMANY
HISTORICAL BUILDINGS,MONUMENT PROTECTION,MONUMENT PROTECTION
IKEA BIGGER STORAGE IDEAS,IKEA GERMANY,IKEA,OGILVY FRANKFURT,GERMANY
BURDEN,CARE FOUNDATION,AGAINST CHILD LABOUR,JWT INDIA Mumbai,INDIA
A10 Environmental Design: Permanent,
ADIDAS MI INNOVATION CENTRE ADIDAS,,ADIDAS FLAGSHIP STORE,MUTABOR DESIGN Hamburg,GERMANY
HISTORY GALLERY/NATIONAL,NATIONAL MUSEUM OF,MUSEUM,GSM DESIGN EXHIBITS,CANADA
MUSEUM OF SINGAPORE,SINGAPORE
LIVING GALLERIES/NATIONAL,NATIONAL MUSEUM OF,MUSEUM,GSM DESIGN EXHIBITS,CANADA
MUSEUM OF SINGAPORE,SINGAPORE
JOHNNIE WALKER JAZZ,BRANDHOUSE,JOHNNIE WALKER® BLACK,KING JAMES RSVP Cape Town,SOUTH AFRICA
PIONEERS WALK OF FAME,,LABEL®
NEWBORN MONUMENT,GOVERNMENT OF THE,DECLARATION OF,OGILVY KOSOVA Prishtina,KOSOVO
,REPUBLIC OF KOSOVO,INDEPENDENCE
B01 Foods,
WAITROSE COOKS',WAITROSE,WAITROSE COOKS',LEWIS MOBERLY London,UNITED KINGDOM
INGREDIENTS,,INGREDIENTS FOOD PRODUCTS
READY SALAD,HORTIFRUTI,RECYCLABLE SALAD,INDUSTRIA NACIONAL &,BRAZIL
,,PACKAGING,DIALOGO DESIGN Rio de Janeiro
LULU - MADE FOR TODAY,LULU COFFEE SHOP,COFFEE SHOP,GRID WORLDWIDE BRANDING &,SOUTH AFRICA
,,,DESIGN Johannesburg
CASPER & GAMBINI,CASPER & GAMBINI,FOOD COMPANY,JWT Beirut,LEBANON
"CANNED VEGETABLES, PASTAS",WAITROSE,CANNED FOODS,TURNER DUCKWORTH: LONDON,USA
& PULSES,,,& SAN FRANCISCO
B02 Alcoholic Drinks,
AMSTEL PREMIUM QUALITY,HEINEKEN,AMSTEL PREMIUM QUALITY,VBAT Amsterdam,THE NETHERLANDS
LAGER,,LAGER
RINGNES SOMMERØL,"RINGNES, HALVOR EGGEN",SOMMERØL BEER,SCANDINAVIAN DESIGN GROUP,NORWAY
,,,Oslo
ABSOLUT DISCO,V&S ABSOLUT SPIRITS,ABSOLUTE VODKA,FAMILY BUSINESS Stockholm,SWEDEN
ROOT: 1,CLICK WINE GROUP,WINE,TURNER DUCKWORTH: LONDON,USA
,,,& SAN FRANCISCO
B03 Non-Alcoholic Drinks,
STORSKOGEN WATER,STORSKOGEN,MINERAL WATER,HAPPY FORSMAN &,SWEDEN
,,,BODENFORS Gothenburg
MANJU NO SHIZUKU (THE DEW,TROPICAL PLANT RESOURCES,MANJU NO SHIZUKU (THE DEW,DENTSU Tokyo,JAPAN
OF LONGEVITY),"RESEARCH INSTITUTE, INC.",OF LONGEVITY)
COKE CLASSIC ALUMINIUM,THE COCA-COLA COMPANY,COCA-COLA,TURNER DUCKWORTH: LONDON,USA
BOTTLE,,,& SAN FRANCISCO
B05 Toiletries & Pharmaceuticals,
CLEAN UP THE SHIT,GREEN BOWLS,PREMIUM TISSUES,LEO BURNETT INDIA Mumbai,INDIA
B06 Home Maintenance Products,
DYLON,DYLON INTERNATIONAL LTD,DYLON DYES,COLEY PORTER BELL London,UNITED KINGDOM
"B09 Electronics, Computers & Audio-Visual",
PACEMAKER PACKAGING,PACEMAKER,POCKET-SIZE DJ SYSTEM,TONIUM Stockholm,SWEDEN
"B10 Clothing, Sports, Leisure & Recreation",
NIKE STADIUM,NIKE,SPORTS SHOES,PUBLICIS SINGAPORE,SINGAPORE
