Title,Advertiser/Client,Product/Service,Entrant Company,Country
A01 Best Use of Experiential Marketing in a Promotional Campaign,
DONATED SONGS,SALVATION ARMY,CHARITY,"WIRZ/BBDO, Zürich",SWITZERLAND
SKY FOOTBALL OPERA,SKY DEUTSCHLAND,FOOTBALL LEAGUE,"SERVICEPLAN, Munich",GERMANY
,FERNSEHEN,COVERAGE
THE 250KM WAVE,KYUSHU RAILWAY,BULLET TRAIN,"DENTSU, Tokyo",JAPAN
,COMPANY
DOCTOR PROKTOR,ASCHEHOUG,PUBLISHER,TRY ADVERTISING,NORWAY
,,,"AGENCY, Oslo"
TRAMP A BENZ,DAIMLER,AUTOMOBILE,"JUNG von MATT,",GERMANY
,,,Hamburg
DRUNK VALET,BAR AURORA &,CHAIN OF BARS,"OGILVY BRASIL, São",BRAZIL
,BOTECO FERRAZ,,Paulo
SAVE THE BEACH HOTEL,GMODELO EUROPA,CORONA BEER,"JWT SPAIN, Madrid",SPAIN
THE NIGHT CHAUFFEUR,ANHEUSER-BUSCH,STELLA ARTOIS,"MOTHER, London",UNITED
,INBEV,BLACK,,KINGDOM
,,,FORSMAN &
FASHION AWARD,IKEA,,"DEPARTMENT STORE  BODENFORS,",SWEDEN
,,,Gothenburg
,CHINA
"CHOPSTICKS, NOT CHOP-TREES",ENVIRONMENTAL,ENVIRONMENTAL,"DDB CHINA GROUP,",CHINA
,PROTECTION,ACTION,Shanghai
,FOUNDATION
GREENBACKS FOR GREENBACK,H&R BLOCK,TAX SERVICES,"FALLON, Minneapolis",USA
NIGHTLIFE EXCHANGE PROJECT,DIAGEO,SMIRNOFF,JWT NEW YORK,USA
UNEXPECTED LUGGAGE,SPANAIR,AIRLINE,"SHACKLETON, Madrid",SPAIN
SHAVE SUTRA,PROCTER & GAMBLE,RAZOR,"BBDO INDIA, Mumbai",INDIA
,,,SHALMOR AVNON
WOMEN FOR SALE,ATZUM,TASK FORCE ON,AMICHAY/Y&R,ISRAEL
HUMAN TRAFFICKING  INTERACTIVE TEL,
AVIV,
ANHEUSER-BUSCH,DEL CAMPO NAZCA
ANDES FRIEND RECOVERY,INBEV,BEER,"SAATCHI & SAATCHI,",ARGENTINA
,,,Buenos Aires
THE BREATHE HAPPY SOCIAL EXPERIMENT,FEBREZE,AIR FRESHENER,GREY NEW YORK,USA
A02 Best Use of Guerilla Marketing in a Promotional Campaign,
SAW 3D CINEMA-PROMOTION-,UFA-PALAST,SAW 3D,SAATCHI & SAATCHI,GERMANY
,,,DÜSSELDORF
BAVARIA DUTCHDRESS,BAVARIA,BEER,SELMORE CREATIVE,THE
,,,"AGENCY, Amsterdam",NETHERLANDS
MINT PARKING TICKET,WRIGLEY,CHEWING GUM,"BBDO GERMANY,",GERMANY
,,,Düsseldorf
FAST FOOD,GLAXOSMITHKLINE,HEARTBURN TABLET,GREY MEXICO,MEXICO
CANAL BIKE,GO FAST!,ENERGY DRINK,"Y&R NOT JUST FILM,",THE
,,,Amsterdam,NETHERLANDS
,,VOLKSWAGEN,"DDB TRIBAL GROUP,"
FOX IN CRAFTER,VOLKSWAGEN,CRAFTER AND,Berlin,GERMANY
,,VOLKSWAGEN FOX
SPREAD THE TED,TEDX BUENOS AIRES,TEDX,"OGILVY ARGENTINA,",ARGENTINA
,,,Buenos Aires
,LEO BURNETT IBERIA,AMNESTY,LEO BURNETT
VOICES FOR FREEDOM,/ AMNESTY,INTERNATIONAL,"IBERIA, Lisbon",PORTUGAL
,INTERNATIONAL
LIFT&LAUGH,COCA-COLA,FANTA,"OGILVY BRASIL, São",BRAZIL
,,,Paulo
THE MISSING CHILD,INITIATIVE,MISSING CHILDREN,"KEMPERTRAUTMANN,",GERMANY
,VERMISSTE KINDER,AWARENESS,Hamburg
A03 Best Use of Ambient in a Promotional Campaign,
"JUNG von MATT,",
TRANSPARENT WALLS,DAIMLER,CAR SAFTEY SYSTEM,,GERMANY
,,,Hamburg
LEAKING POWER OUTLETS,RWE,ENERGY SAVING,"JUNG von MATT,",GERMANY
,,,Hamburg
THE 250KM WAVE,KYUSHU RAILWAY,BULLET TRAIN,"DENTSU, Tokyo",JAPAN
,COMPANY
VENDING MACHINE,MINI CANADA,CAR,"TAXI 2, Toronto",CANADA
ASK FOR IT IN ENGLISH,WALL STREET,LANGUAGE SCHOOL,"JWT SPAIN, Madrid",SPAIN
,INSTITUTE
LOTUS T5,IBM,LOTUSLIVE,"OGILVYONE, London",UNITED
,,,,KINGDOM
THE FUN THEORY AWARD - THE SPEED CAMERA LOTTERY  VOLKSWAGEN,,BLUEMOTION,DDB STOCKHOLM,SWEDEN
,,TECHNOLOGIES
MUSICAL FITTING ROOMS,STARHUB,ONLINE MUSIC,DDB SINGAPORE,SINGAPORE
,,STORE
THE FIRE WORKS DISCOUNT COUPON,BIGC,STORE,"LOWE, Bangkok",THAILAND
KALEIDOSCOPIC FASHION SPECTACULAR,TARGET,TARGET,MOTHER NEW YORK,USA
A04 Best Use of Shopper Marketing in a Promotional Campaign,
TARGET HEAVY FOOD,MEDICOM PHARMA,DIGESTION AID,"BBDO GERMANY,",GERMANY
,,,Düsseldorf
,,,DEL CAMPO NAZCA
BIG NOSES,BGH,AIR CONDITIONERS,"SAATCHI & SAATCHI,",ARGENTINA
,,,Buenos Aires
VACUUM SHOPPING BAG FOR TOURISTS,,LEO BURNETT IBERIA  VACUUM SHOPPING,LEO BURNETT,PORTUGAL
,/ FREEPORT,BAG,"IBERIA, Lisbon"
A05 Best New Product Launch/Re-Launch or Multi-Product Promotion at Retail,
AMERICAN ROM,KANDIA DULCE,CHOCOLATE BAR,"McCANN ERICKSON,",ROMANIA
,,,Bucharest
,,TELECOMMUNICATIO-,FORSMAN &
SINGLE SINGLE RELEASE,COMVIQ,,"BODENFORS,",SWEDEN
,,NS,Gothenburg
RIGHT AMOUNT OF WRONG,THE COSMOPOLITAN,THE COSMOPOLITAN,"FALLON, Minneapolis",USA
,OF LAS VEGAS,OF LAS VEGAS
WATER MARK,DIAGEO AUSTRALIA,BUNDABERG RUM,LEO BURNETT,AUSTRALIA
,,,SYDNEY
A06 Best Temporary In-Store Displays in a Promotional Campaign,
LISTEN TO YOUR CONSCIENCE,ALL GOOD BANANAS,BANANAS,OGILVY NEW,NEW ZEALAND
,,,"ZEALAND, Auckland"
NIKE AIR LIVE SHOW,NIKE,SPORTSWEAR,"+CASTRO, Buenos",ARGENTINA
,,,Aires
THE CANVAS EXPERIMENT,CONVERSE EMEA,SHOES,"PERFECT FOOLS,",SWEDEN
,,,Stockholm
MUSICAL FITTING ROOMS,STARHUB,ONLINE MUSIC,DDB SINGAPORE,SINGAPORE
,,STORE
WONDERBRA STRAPLESS,WONDERBRA,WONDERBRA,PUBLICIS BRUSSELS,BELGIUM
,,STRAPLESS
THE FRIENDSHIP MACHINE,COCA-COLA,COCA-COLA,"OGILVY ARGENTINA,",ARGENTINA
,,,Buenos Aires
"THE BICYCLE CAP MADE WITH LOVE, BY A BIKE.",PESETA,ACCESSORIES,LEO BURNETT,SPAIN
,,,"IBERIA, Madrid"
FASHION LAUNDRY,PROCTER & GAMBLE,ARIEL DETERGENT,ACE SAATCHI &,THE
,,,"SAATCHI, Makati City",PHILIPPINES
ZAFIRA ECHOES,GENERAL MOTORS,CHEVROLET ZAFIRA,"SALLES CHEMISTRI,",BRAZIL
,DO BRASIL,,Sao Paulo
METTLE DETECTOR,THE ECONOMIST,MAGAZINE,OGILVY SINGAPORE,SINGAPORE
A07 Best Use of Broadcast in a Promotional Campaign,
,INTERNATIONAL,HUMAN RIGHTS,"JUNG von MATT,"
THE PIRATE RADIO EXPERIMENT,SOCIETY FOR,AWARENESS,Hamburg,GERMANY
,HUMAN RIGHTS
,ANHEUSER-BUSCH,,DEL CAMPO NAZCA
THE BEST EXCUSE EVER,INBEV,NORTE BEER,"SAATCHI & SAATCHI,",ARGENTINA
Buenos Aires,
RELIANCE MEDIA,MUDRA
SILENT NATIONAL ANTHEM,WORKS,CINEMAS,"COMMUNICATIONS,",INDIA
Mumbai,
A08 Best Use of Print or Standard Outdoor in a Promotional Campaign,
TRY ADVERTISING,
TEST DRIVE,VOLKSWAGEN,VW PASSAT,,NORWAY
,,,"AGENCY, Oslo"
BOTH SIDES,XEROX,ENVIRONMENTAL,Y&R MEXICO,MEXICO
,,AWARENESS
,REPORTERS,NON
THE VOICE,WITHOUT BORDERS,GOVERNMENTAL,PUBLICIS BRUSSELS,BELGIUM
,,ORGANISATION
TROPICANA BILLBOARD POWERED BY ORANGES,PEPSICO,TROPICANA,DDB PARIS,FRANCE
A09 Best Use of Games,
M&M'S FIND RED,MARS,M&M'S,PROXIMITY CANADA,CANADA
OPTATHLON,UNITED AIRLINES,AIRLINE,MATMI NEW MEDIA,UNITED
,,,"DESIGN, Macclesfield",KINGDOM
A10 Best Sponsorship or Partnership Campaigns,
GREATEST CUP NEVER RUN,LION NATHAN,BOAG'S DRAUGHT,MOMENTUM,AUSTRALIA
,,,"WORLDWIDE, Pyrmont"
WATSON,IBM,COMPUTER,"OGILVY & MATHER,",USA
,,,New York
,VODAFONE,TELECOMMUNICATIO-
THE 3RD DRIVER,HUTCHISON,,"HOST, Sydney",AUSTRALIA
,AUSTRALIA,NS
COPS ON OATS,PEPSICO,QUAKER OATS,"BBDO INDIA, Gurgaon",INDIA
A11 Best Online Advertising in a Promotional Campaign,
UNIQLO LUCKY COUNTER,UNIQLO,CLOTHING,"DENTSU, Tokyo",JAPAN
SPACE HEROES,MARS,FOOD,"BBDO DENMARK,",DENMARK
,,,Copenhagen
SPEEDSALE,PAPERCUT SHOP,BOOKS AND FILMS,DDB STOCKHOLM,SWEDEN
FLIP YOUR PROFILE,CISCO CONSUMER,FLIP VIDEO,DDB SINGAPORE,SINGAPORE
,PRODUCTS
DUTY CALLS,ELECTRONIC ARTS,VIDEO GAME,"WIEDEN+KENNEDY,",USA
,,,Portland
A NEW WARRIOR,GREENPEACE,CHARITY,DDB PARIS,FRANCE
PARENTAL CONTROL,BANDSPORTS,SPORTS CHANNEL,"OGILVY BRASIL, São",BRAZIL
,,,Paulo
WEWANTFURNITURE.-,,DEFORESTATION
COM,WWF,AWARENESS,"MARCEL, Paris",FRANCE
DOGGELGANGER,MARS,CHARITY,"COLENSO BBDO,",NEW ZEALAND
,,,Auckland
A12 Best Use of Other Digital Media in a Promotional Campaign,
SAVE AS WWF,WWF,ENVIRONMENTAL,"JUNG von MATT,",GERMANY
,,AWARENESS,Hamburg
MACY'S BACKSTAGE PASS,MACY'S,,DEPARTMENT STORE  JWT NEW YORK,USA
M&M'S FIND RED,MARS,CHOCOLATE,PROXIMITY CANADA,CANADA
GETAWAY STOCKHOLM,MINI,MINI COUNTRYMAN,"JUNG von MATT,",SWEDEN
,,,Stockholm
GRID,NIKE,SPORTS BRAND,"AKQA, London",UNITED
,,,,KINGDOM
IN BED,SEALY,MATTRESS MOBILE,LEO BURNETT,USA
,,APP,CHICAGO
OLD NAVY RECORDS,OLD NAVY,CLOTHING,CRISPIN PORTER +,USA
,,,"BOGUSKY, Boulder"
REPAY FOR GOOD,UNICEF,DONATIONS,"SERVICEPLAN, Munich",GERMANY
FIAT STREET EVO,FIAT,CAR,LEO BURNETT,SPAIN
,,,"IBERIA, Madrid"
SLOW DOWN,PARENTS OF CHILD,ROAD SAFETY,HAPPINESS,BELGIUM
,ROAD VICTIMS,MESSAGE,BRUSSELS
SECRETS BEHIND PAINTINGS,PZU / NATIONAL,MUSEUM,LEO BURNETT,POLAND
,MUSEUM IN KRAKOW,,WARSAW
A13 Best use of Social Media Marketing in a Promotional Campaign,
,THE JOHN F.,50TH ANNIVERSARY
OUR SPEECH,KENNEDY,OF JFK'S,THE MARTIN,USA
,PRESIDENTIAL,INAUGURATION,"AGENCY, Richmond"
LIBRARY,
"ALMAPBBDO, São",
FOX COMMENTS,VOLKSWAGEN,VOLKSWAGEN FOX,,BRAZIL
,,,Paulo
FEED A FRIEND,PIZZA HUT,FAST FOOD,"M&C SAATCHI/MARK,",AUSTRALIA
,,RESTAURANT CHAIN,Sydney
4TH AMENDMENT WEAR,4TH AMENDMENT,METALLIC INK,4TH AMENDMENT,USA
,WEAR,UNDERCLOTHES,"WEAR, Boulder"
FLIP YOUR PROFILE,CISCO CONSUMER,FLIP VIDEO,DDB SINGAPORE,SINGAPORE
,PRODUCTS
SHOUT FROM THE MOUNTAIN INTEGRATED CAMPAIGN,AT&T,AT&T,BBDO NEW YORK,USA
ALEPHTWEETS,PAULO COELHO,WEBSITE,"LODUCCA, Sao Paulo",BRAZIL
STREET ART VIEW,RED BULL,INSTITUCIONAL,"LODUCCA, Sao Paulo",BRAZIL
DELAY THE WORK DAY,361.00000000,SPORTSWEAR,OGILVY SHANGHAI,CHINA
A HUNTER SHOOTS A BEAR,BIC / TIPP-EX,POCKET MOUSE,"BUZZMAN, Paris",FRANCE
CATS ON FACEBOOK,CAT SOCIETY,ADOPTION SERVICE,"LEO BURNETT, Hong",HONG KONG
,,,Kong
PAY WITH A TWEET,INNOVATIVE,CURRENCY SYSTEM,"R/GA, New York",USA
,THUNDER
DIGITAL DEATH,KEEP A CHILD ALIVE,AIDS AWARENESS,"TBWA\CHIAT\DAY,",USA
,,,New York
PLAN-T,PARLE AGRO,FOOD AND NON,"CREATIVELAND ASIA,",INDIA
,,ALCOHOLIC DRINK,Mumbai
B01 Food and Non-Alcoholic Drinks,
AMERICAN ROM,KANDIA DULCE,CHOCOLATE BAR,"McCANN ERICKSON,",ROMANIA
,,,Bucharest
JUNK FOOD PACKAGING,BOLTHOUSE FARMS,BABY CARROTS,CRISPIN PORTER +,USA
,,,"BOGUSKY, Boulder"
BOTTLE SCHOOL,PEPSICO,DRINK CONSUMER,"BBDO GUERRERO,",THE
,,GOODS,Makati City,PHILIPPINES
,,FOOD AND,"CREATIVELAND ASIA,"
PLAN-T,PARLE AGRO,NON-ALCOHOLIC,Mumbai,INDIA
DRINKS,
B02 Alcoholic Drinks,
HEINEKEN STARPLAYER,HEINEKEN,BEER,"AKQA, London",UNITED
,,,,KINGDOM
CAP RECALL,JAMES READY,BEER,LEO BURNETT,CANADA
,,,TORONTO
,ANHEUSER-BUSCH,,DEL CAMPO NAZCA
ANDES FRIEND RECOVERY,INBEV,BEER,"SAATCHI & SAATCHI,",ARGENTINA
Buenos Aires,
B03 Fast Moving Consumer Goods (not including food),
DIRTY DISHES,PZ CUSSONS,MORNING FRESH,DDB GROUP,AUSTRALIA
,,,MELBOURNE
,,,SAATCHI & SAATCHI
BIG STAIN,PROCTER & GAMBLE,ARIEL,GREAT WALL,CHINA
,,,"ADVERTISING,"
,,,Guangzhou
DOGGELGANGER,MARS,PEDIGREE,"COLENSO BBDO,",NEW ZEALAND
,,,Auckland
WTF! INSANE HUMAN CURLING,BIC,BIC FLEX 3,"BUZZMAN, Paris",FRANCE
A HUNTER SHOOTS A BEAR,BIC / TIPP-EX,POCKET MOUSE,"BUZZMAN, Paris",FRANCE
B04 Durable Goods,
DATED PILLOWS,PACIFIC BRANDS,PILLOWS,"HAPPY SOLDIERS,",AUSTRALIA
,,,Sydney
,,,FORSMAN &
HOMEMADE IS BEST,IKEA,,"DEPARTMENT STORE  BODENFORS,",SWEDEN
,,,Gothenburg
TRACKTAPE,MATTEL MÉXICO,HOT WHEELS,OGILVY MEXICO,MEXICO
,,,DEL CAMPO NAZCA
BIG NOSES,BGH,AIR CONDITIONERS,"SAATCHI & SAATCHI,",ARGENTINA
,,,Buenos Aires
DELAY THE WORK DAY,361.00000000,SPORTSWEAR,OGILVY SHANGHAI,CHINA
B05 Retail (Incl. Restaurants),
DOMINO'S APP,DOMINO'S PIZZA,RESTAURANT,"HAKUHODO, Tokyo",JAPAN
THE FIRE WORKS DISCOUNT COUPON,BIGC,STORE,"LOWE, Bangkok",THAILAND
THE MAN WHO GAVE EVERYTHING AWAY,HOMECENTER,HOME GOODS,"Y&R COLOMBIA,",COLOMBIA
,,RETAILER,Bogotá
,THE SALVATION,CHARITY STORE,KITCHEN LEO
SURPRISE CATWALK,ARMY SECONDHAND,SECONDHAND,"BURNETT, Oslo",NORWAY
,SHOP,CLOTHING
DOMINO'S PERFECT PEPPERONI PIZZA DEAL. A DEAL SO,DOMINO'S,PIZZA,"INDIE, Amsterdam",THE
PERFECT EVERYBODY CAN SELL IT,,,,NETHERLANDS
B06 Cars & Automotive Services,
VENDING MACHINE,MINI CANADA,MINI R5X,"TAXI 2, Toronto",CANADA
GETAWAY STOCKHOLM,MINI,MINI COUNTRYMAN,"JUNG von MATT,",SWEDEN
,,,Stockholm
XV RESCUE,SUBARU AUSTRALIA,SUBARU IMPREZA XV,LEO BURNETT,AUSTRALIA
,,,SYDNEY
,,VOLKSWAGEN
THE FUN THEORY AWARD - THE SPEED CAMERA LOTTERY  VOLKSWAGEN,,BLUEMOTION,DDB STOCKHOLM,SWEDEN
,,TECHNOLOGIES
FIAT STREET EVO,FIAT,PUNTO EVO,LEO BURNETT,SPAIN
,,,"IBERIA, Madrid"
STONE / TWIG / WATER,CHRYSLER,JEEP GRAND,LEO BURNETT,BRAZIL
,,CHEROKEE,"BRASIL, São Paulo"
B07 Entertainment & Leisure,
STORIES FROM THE STREET,MELBOURNE,ARTS,"JWT, Melbourne",AUSTRALIA
,WRITERS FESTIVAL
,KIASMA MUSEUM OF,KIASMA MUSEUM OF,"HASAN & PARTNERS,"
"MAKE A BETTER ONE YOURSELF, THEN!",CONTEMPORARY ART,CONTEMPORARY,Helsinki,FINLAND
,,ART
ENCOM AT WONDERCON,DISNEY,ENTERTAINMENT,"42 ENTERTAINMENT,",USA
,,,Pasadena
B08 Publications & Media,
CARDEÑOSA,MOVISTAR,SPORTS WEBSITE,"DDB SPAIN, Madrid",SPAIN
METTLE DETECTOR,THE ECONOMIST,MAGAZINE,OGILVY SINGAPORE,SINGAPORE
B09 Financial Products & Servcies,
SMALL BUSINESS SATURDAY,AMERICAN EXPRESS,AMERICAN EXPRESS,"DIGITAS, Boston",USA
H&R BLOCK: NEVER SETTLE FOR LESS,H&R BLOCK,FINANCIAL SERVICES,"FALLON, Minneapolis",USA
,AVIVA LIFE
CALL FROM THE FUTURE,INSURANCE,AVIVA CHILD PLANS,"BBDO INDIA, Gurgaon",INDIA
,COMPANY INDIA
IMPULSE SAVER,WESTPAC,FINANCIAL SERVICES,"COLENSO BBDO,",NEW ZEALAND
,,,Auckland
B11 Corporate Image & Information,
4TH AMENDMENT WEAR,4TH AMENDMENT,METALLIC INK,4TH AMENDMENT,USA
,WEAR,UNDERCLOTHES,"WEAR, Boulder"
DAVID ON DEMAND,LEO BURNETT,MARKETING SEMINAR,LEO BURNETT,USA
,WORLDWIDE,,CHICAGO
,,,"TELECOMMUNICATIO- M&C SAATCHI/MARK,"
GIVE WHALES A VOICE,OPTUS,NS,Sydney,AUSTRALIA
,ANHEUSER-BUSCH,,DEL CAMPO NAZCA
THE BEST EXCUSE EVER,INBEV,NORTE BEER,"SAATCHI & SAATCHI,",ARGENTINA
,,,Buenos Aires
STREET ART VIEW,RED BULL,INSTITUCIONAL,"LODUCCA, Sao Paulo",BRAZIL
,RELIANCE MEDIA,,MUDRA
SILENT NATIONAL ANTHEM,WORKS,CINEMAS,"COMMUNICATIONS,",INDIA
,,,Mumbai
B12 Commercial Public Services Incl. Healthcare & Medical,
HIGH SPEEDS,TELMEX COLOMBIA,BROADBAND,"JWT COLOMBIA,",COLOMBIA
,,INTERNET,Bogotá
B13 Charities,
PLAY AIR,SONG ROOM,CHARITY FUND,"BADJAR OGILVY,",AUSTRALIA
,,RAISING,Melbourne
FINNISH KIDNEY AND,
ORGAN DONATION DAY,,ORGAN DONATION,358 HELSINKI,FINLAND
,LIVER ORGANISATION
DONATED SONGS,SALVATION ARMY,SALVATION ARMY,"WIRZ/BBDO, Zürich",SWITZERLAND
WAKING UP THE NEIGHBOURHOOD,POWA,FEMALE ABUSE,OGILVY,SOUTH AFRICA
,,PREVENTION,JOHANNESBURG
A NEW WARRIOR,GREENPEACE,CHARITY,DDB PARIS,FRANCE
,GUANGZHOU YANGAI,,LEO BURNETT
YANG AI (DESPAIR WHIRLPOOL),SPECIAL CHILDREN,CHARITY,SHANGHAI,CHINA
,PARENT CLUB
"B14 Public Health & Safety, Pubic Awareness Messages",
UNDERHEARD IN NEW YORK,NEW YORK CITY,HOMELESSNESS,"BBH, New York",USA
,RESCUE MISSION,AWARENESS
THE MISSING CHILD,INITIATIVE,MISSING CHILDREN,"KEMPERTRAUTMANN,",GERMANY
,VERMISSTE KINDER,INITIATIVE,Hamburg
,THE POLISH
WHAT A PERSON CAN MISS A MACHINE WILL FIND,FEDERATION OF,CHARITY,EURO RSCG WARSAW POLAND
,CANCER SURVIVORS
THE ZONING PLAN,GREENPEACE,NUCLEAR ENERGY,"walker, Zürich",SWITZERLAND
,SWITZERLAND,AWARENESS
SPREAD THE TED,TEDX BUENOS AIRES,TEDX,"OGILVY ARGENTINA,",ARGENTINA
,,,Buenos Aires
TAKE A STAND,ABOLITION.FR,DEATH PENALTY,"MARCEL, Paris",FRANCE
,,AWARENESS
WEWANTFURNITURE.-,,DEFORESTATION
COM,WWF,AWARENESS,"MARCEL, Paris",FRANCE
BURMA,HUMAN RIGHTS,PETITION,JWT NEW YORK,USA
,WATCH
C01 Best Integrated Campaign Led by Promotion and Activation,
DATED PILLOW,PACIFIC BRANDS,PILLOWS,"HAPPY SOLDIERS,",AUSTRALIA
,,,Sydney
,MEAT AND
LAMBASSADOR,LIVESTOCK,LAMB,"BMF, Sydney",AUSTRALIA
,AUSTRALIA
CARDEÑOSA,MOVISTAR,SPORTS WEBSITE,"DDB SPAIN, Madrid",SPAIN
WALL OF FAME,EDDING,STATIONARY,"KEMPERTRAUTMANN,",GERMANY
,INTERNATIONAL,,Hamburg
DIRTY DISHES,PZ CUSSONS,DISHWASHING LIQUID,DDB GROUP,AUSTRALIA
,,,MELBOURNE
WATSON,IBM,IBM,"OGILVY & MATHER,",USA
,,,New York
DULUX WALLS,AKZO NOBEL,DULUX,EURO RSCG LONDON,UNITED
,,,,KINGDOM
WORLD OF EOS,CANON AUSTRALIA,CAMERA,LEO BURNETT,AUSTRALIA
,,,SYDNEY
NEVER SETTLE FOR LESS,H&R BLOCK,H&R BLOCK,"FALLON, Minneapolis",USA
,ANHEUSER-BUSCH,,DEL CAMPO NAZCA
THE BEST EXCUSE EVER,INBEV,NORTE BEER,"SAATCHI & SAATCHI,",ARGENTINA
,,,Buenos Aires
,,,DEL CAMPO NAZCA
BIG NOSES,BGH,AIR CONDITIONERS,"SAATCHI & SAATCHI,",ARGENTINA
,,,Buenos Aires
SHARE THE JOY CAMPAIGN,CADBURY,DAIRY MILK,DDB GROUP NEW,NEW ZEALAND
,,,"ZEALAND, Auckland"
DECODE JAY-Z WITH BING,BING/JAY-Z,DECODE JAY-Z WITH,"DROGA5, New York",USA
,,BING
FURTHER THAN YOU IMAGINED,,VOYAGES-SNCF.COM- TRANSPORT,DDB PARIS,FRANCE
BUD ICE COLD INDEX,BUDWEISER,BUDWEISER ICE,"DDB UK, London",UNITED
,,COLD,,KINGDOM
ONE WEEKEND OFF,SCARLET TELECOM,SCARLET TELECOM,"MORTIERBRIGADE,",BELGIUM
Brussels,
