Title,Advertiser/Client,Product/Service,Entrant Company,Country,Production Company,Country
Grand Prix,
CAROUSEL,PHILIPS,PHILIPS CINEMA 21:9,TRIBAL DDB,THE,"STINK DIGITAL, London",UNITED
,,,AMSTERDAM *,NETHERLANDS,,KINGDOM
Gold,
PURE WATERS,LION NATHAN,JAMES BOAG'S DRAUGHT,"PUBLICIS MOJO, Sydney *",AUSTRALIA,"REVOLVER, Sydney",AUSTRALIA
LOVE DISTANCE,SAGAMI RUBBER INDUSTRIES,CONDOMS,"GT, Tokyo *",JAPAN,"ROCK & ROLL, Tokyo",JAPAN
CRASH TEST,FIAT,FIAT CAR RANGE,MARCEL PARIS *,FRANCE,"WIZZ, Clichy",FRANCE
PANDA,
DOG-FISH,VOLKSWAGEN,VW SPACEFOX,"ALMAPBBDO, São Paulo *",BRAZIL,"REBOLUCION, Buenos",ARGENTINA
,,,,,Aires
A DAY IN THE,BENNETT COLEMAN AND CO.,THE TIMES OF INDIA,"JWT INDIA, Mumbai *",INDIA,"GOOD MORNING, Mumbai",INDIA
LIFE OF CHENNAI,
DANCE,T-MOBILE,T-MOBILE,"SAATCHI & SAATCHI,",UNITED,"PARTIZAN, London",UNITED
,,,London *,KINGDOM,,KINGDOM
DYING OLD,BREAST CANCER RESEARCH,RESEARCH TRUST,"Y&R, Auckland *",NEW ZEALAND,"ROBBERS DOG FILM,",NEW ZEALAND
,TRUST,,,,Auckland
A DAY IN THE,BENNETT COLEMAN AND CO.,THE TIMES OF INDIA,"JWT INDIA, Mumbai *",INDIA,"GOOD MORNING, Mumbai",INDIA
LIFE OF CHENNAI,
GUCCI FLORA,PROCTER & GAMBLE,FLORA BY GUCCI,"REM RUINI E MARIOTTI,",ITALY,"FILMMASTER, Milan *",ITALY
,PRESTIGE PRODUCTS,FRAGRANCE,Rome
CHAMBERS,CHAMBERS HOTEL,CHAMBERS HOTEL,BARRIE D'ROZARIO,USA,"NYDRLE, Hollywood",USA
VIDEO ART PIECE,,,"MURPHY, Minneapolis *"
CHANGED,
OPENING,RADIO STATION STUDIO,MUSIC FOR LIFE BRANDED,"MORTIERBRIGADE,",BELGIUM,"VRT, Brussels",BELGIUM
CREDITS &,BRUSSELS,CONTENT,Brussels *
EPISODES,
Gold Campaign,
ANTIQUING,PFIZER CANADA INC,VIAGRA,"TAXI CANADA, Toronto *",CANADA,"SOFT CITIZEN, Toronto",CANADA
STROLLING,PFIZER CANADA INC,VIAGRA,"TAXI CANADA, Toronto *",CANADA,"SOFT CITIZEN, Toronto",CANADA
READING,PFIZER CANADA INC,VIAGRA,"TAXI CANADA, Toronto *",CANADA,"SOFT CITIZEN, Toronto",CANADA
HINDU,GOBIERNO DE LA CIUDAD DE,BAFICI INDIE FILMS,"SAVAGLIO\TBWA, Buenos",ARGENTINA,"TOMA 78, Barcelona",SPAIN
,BUENOS AIRES,FESTIVAL,Aires *
ORIENTALS,GOBIERNO DE LA CIUDAD DE,BAFICI INDIE FILMS,"SAVAGLIO\TBWA, Buenos",ARGENTINA,"TOMA 78, Barcelona",SPAIN
,BUENOS AIRES,FESTIVAL,Aires *
AUTOBAHN,THE ARMY/COI,ARMY ROAD TRAFFIC,GOLLEY SLATER,UNITED,"ACADEMY, London",UNITED
,,ACCIDENTS,"GROUP, Cardiff *",KINGDOM,,KINGDOM
DEBRIS,THE ARMY/COI,ARMY ROAD TRAFFIC,GOLLEY SLATER,UNITED,"ACADEMY, London",UNITED
,,ACCIDENTS,"GROUP, Cardiff *",KINGDOM,,KINGDOM
AIRPORT,MTV,CHOOSE OR LOSE VOTING,"JWT, New York *",USA,"HUNGRY MAN, Los Angeles",USA
,,AWARENESS
PHONE,MTV,CHOOSE OR LOSE VOTING,"JWT, New York *",USA,"HUNGRY MAN, Los Angeles",USA
,,AWARENESS
8 KILOMETRE,INBEV,STELLA ARTOIS 4%,"MOTHER, London *",UNITED,"TRANSPARENT, London",UNITED
,,,,KINGDOM,,KINGDOM
VINGT-QUATRE,INBEV,STELLA ARTOIS 4%,"MOTHER, London *",UNITED,"TRANSPARENT, London",UNITED
,,,,KINGDOM,,KINGDOM
DIAL HARD,INBEV,STELLA ARTOIS 4%,"MOTHER, London *",UNITED,"TRANSPARENT, London",UNITED
,,,,KINGDOM,,KINGDOM
Silver,
JOHN WEST ROW,JOHN WEST,JOHN WEST FRESH FISH,"CHEETHAMBELLJWT,",UNITED,"ONWARD FILM,",UNITED
,,,Manchester *,KINGDOM,Manchester,KINGDOM
LLAMA,MARS,STARBURST,"LATINWORKS, Austin *",USA,"FLIP FILMS, Santa Monica",USA
THE V,NESTLÉ ARGENTINA,FRIGOR ICE CREAM,"JWT ARGENTINA, Buenos",ARGENTINA,"URSULA, Buenos Aires",ARGENTINA
,,,Aires *
WOMAN,FOSTER'S GROUP: CARLTON,CARLTON MID STRENGTH,CLEMENGER BBDO,AUSTRALIA,"PRODIGY, Sydney",AUSTRALIA
WHISPERER,MID,BEER,MELBOURNE *
WALK-IN FRIDGE,HEINEKEN NEDERLAND,HEINEKEN BEER,"TBWA\NEBOKO,",THE,"CZAR.NL, Amsterdam",THE
,,,Amsterdam *,NETHERLANDS,,NETHERLANDS
,,SANTEC VIDEO,,,COBBLESTONE
GAS STATION,SANYO VIDEO Vertrieb AB,SURVEILLANCE,"SERVICEPLAN, Hamburg *",GERMANY,HAMBURG,GERMANY
,,,,,FILMPRODUKTION
BREAK-UP,adidas UK,SAFETY COLLECTION,TBWA\LONDON,UNITED,"BLINK, London",UNITED
SERVICE,,,,KINGDOM,,KINGDOM
FATE,NIKE,NIKE FOOTBALL,"WIEDEN+KENNEDY,",USA,"ANONYMOUS CONTENT,",USA
,,,Portland *,,Culver City
GYMNASTIC,SEMIR,SEMIR CLOTHING BRAND,OGILVY SHANGHAI *,CHINA,"PHENOMENA, Bangkok",THAILAND
SHOPPING,CITROËN,CITROËN C3,"H, Suresnes *",FRANCE,"WANDA PRODUCTIONS,",FRANCE
,,,,,Paris
DREAMS,DAIMLER,MERCEDES PRE-SAFE,"JUNG von MATT, Hamburg",GERMANY,BIGFISH,GERMANY
,,SAFETY SYSTEM,*,,"FILMPRODUKTION, Berlin"
SCOOTER,CANADIAN FILM CENTRE,WORLDWIDE SHORT FILM,"DOUG AGENCY, Toronto *",CANADA,BROWN,CANADA
,,FESTIVAL,,,"ENTERTAINMENT, Toronto"
BIRDS,WASHINGTON'S LOTTERY,LOTTERY,"PUBLICIS IN THE WEST,",USA,STICKS + STONES,USA
,,,Seattle *,,"STUDIOS, Hollywood"
DISARMING,,,,UNITED,,UNITED
BRITAIN:,CHANNEL 4/4CREATIVE,ON AIR PROMOTION,"4CREATIVE, London *",KINGDOM,"CHANNEL 4, London",KINGDOM
HANDGUNS,
BIRD,MTV NETWORK,MTV,"LA COMUNIDAD, Buenos",ARGENTINA,"THE LIFT, Mexico City",MEXICO
,,,Aires *
BALLOON,LAGARDÈRE,TIJI TV CHANNEL,DDB PARIS *,FRANCE,"WANDA PRODUCTIONS,",FRANCE
,,,,,Paris
TIPS,CAREERBUILDER.COM,ONLINE EMPLOYMENT,"WIEDEN+KENNEDY,",USA,"MJZ, Los Angeles",USA
,,SERVICES,Portland *
DOUBLE TAKE,MONSTER.COM,JOB SEARCH WEBSITE,BBDO NEW YORK *,USA,"RATTLING STICK, London",UNITED
,,,,,,KINGDOM
BINGE DRINKING,THE HOME OFFICE,KNOW YOUR LIMITS,"VCCP, London *",UNITED,GORGEOUS,UNITED
- FEMALE,,,,KINGDOM,"ENTERPRISES, London",KINGDOM
POLAR BEARS,ENVIRONMENTAL DEFENSE,GLOBAL WARMING,OGILVY NEW YORK,USA,"BISCUIT FILMWORKS, Los",USA
,FUND,,,,Angeles *
YOU ARE,AMNESTY INTERNATIONAL,AMNESTY INTERNATIONAL,"MOTHER, London *",UNITED,"ACADEMY, London",UNITED
POWERFUL,,,,KINGDOM,,KINGDOM
CRIBS,MTV,ANTI-KNIFE CRIME,OGILVY LONDON *,UNITED,"HOME.CORP, London",UNITED
,,,,KINGDOM,,KINGDOM
HOUSE OF CARDS  SHELTER,,HOMELESSNESS CHARITY,"LEO BURNETT, London *",UNITED,"OUTSIDER, London",UNITED
,,,,KINGDOM,,KINGDOM
ANZAC,VICTORIA BITTER,VETERANS' AFFAIRS,"DROGA5 AUSTRALIA,",AUSTRALIA,"EXIT FILMS, Melbourne",AUSTRALIA
MEMORIES,,APPEAL,Sydney *
FATHER'S DAY,LIBERTY MUTUAL,INSURANCE,"HILL HOLLIDAY, Boston *",USA,"RSA FILMS, Los Angeles",USA
OASIS DIG OUT,NYC & CO/WARNER,,,,"HSI PRODUCTIONS, New"
YOUR SOUL IN,BROTHERS RECORDS,DIG OUT YOUR SOUL,"BBH, New York *",USA,York,USA
THE STREET,
Silver Campaign,
KARATE CHOP,GENERAL MILLS CANADA,PIZZA POPS,"COSSETTE, Toronto *",CANADA,"HOLIDAY FILMS, Toronto",CANADA
MONKEYS,GENERAL MILLS CANADA,PIZZA POPS,"COSSETTE, Toronto *",CANADA,"HOLIDAY FILMS, Toronto",CANADA
ROBOT FRIEND,GENERAL MILLS CANADA,PIZZA POPS,"COSSETTE, Toronto *",CANADA,"HOLIDAY FILMS, Toronto",CANADA
,,,DEL CAMPO NAZCA
DOCTOR,AMBEV,NORTE BEER,"SAATCHI & SAATCHI,",ARGENTINA,"PRIMO, Buenos Aires",ARGENTINA
,,,Buenos Aires *
,,,DEL CAMPO NAZCA
IT GUY,AMBEV,NORTE BEER,"SAATCHI & SAATCHI,",ARGENTINA,"PRIMO, Buenos Aires",ARGENTINA
,,,Buenos Aires *
,,,DEL CAMPO NAZCA
MILLIONAIRE,AMBEV,NORTE BEER,"SAATCHI & SAATCHI,",ARGENTINA,"PRIMO, Buenos Aires",ARGENTINA
,,,Buenos Aires *
WAREHOUSE,MILLER BREWING,MILLER BEER,"SAATCHI & SAATCHI,",USA,"SAATCHI & SAATCHI, New",USA
,COMPANY/MILLER HIGH LIFE,,New York *,,York
HIGH LIFE,MILLER BREWING COMPANY/,MILLER BEER,"SAATCHI & SAATCHI,",USA,"SAATCHI & SAATCHI, New",USA
,MILLER HIGH LIFE,,New York *,,York
ONE MISSISSIPPI,MILLER BREWING COMPANY/,MILLER BEER,"SAATCHI & SAATCHI,",USA,"SAATCHI & SAATCHI, New",USA
,MILLER HIGH LIFE,,New York *,,York
GUITAR,MILLER BREWING COMPANY/,MILLER BEER,"SAATCHI & SAATCHI,",USA,"SAATCHI & SAATCHI, New",USA
,MILLER HIGH LIFE,,New York *,,York
PAINTING,MILLER BREWING COMPANY/,MILLER BEER,"SAATCHI & SAATCHI,",USA,"SAATCHI & SAATCHI, New",USA
,MILLER HIGH LIFE,,New York *,,York
BEAN COUNTER,APPLE,MAC,"TBWA\MEDIA ARTS LAB,",USA,"EPOCH FILMS, Beverly",USA
,,,Los Angeles *,,Hills
V-WORD,APPLE,MAC,"TBWA\MEDIA ARTS LAB,",USA,"EPOCH FILMS, Beverly",USA
,,,Los Angeles *,,Hills
PIZZA BOX,APPLE,MAC,"TBWA\MEDIA ARTS LAB,",USA,"EPOCH FILMS, Beverly",USA
,,,Los Angeles *,,Hills
,,,PUBLICIS
SURGERY,VISIONLAB OPTICIAN'S,OPTICIAN,COMUNICACIÓN,SPAIN,"GARLIC FILMS, Madrid",SPAIN
,,,"ESPAÑA, Madrid *"
,,,PUBLICIS
DINNER,VISIONLAB OPTICIANS,OPTICIAN,COMUNICACIÓN,SPAIN,"GARLIC FILMS, Madrid",SPAIN
,,,"ESPAÑA, Madrid *"
CIVIL WAR,EBAY,EBAY,BBDO NEW YORK *,USA,"O POSITIVE, New York",USA
HERO,EBAY,EBAY,BBDO NEW YORK *,USA,"O POSITIVE, New York",USA
"OGILVY & MATHER,",
LONG,KASIKORNBANKGROUP,K - SME CREDIT,Bangkok *,THAILAND,"PHENOMENA, Bangkok",THAILAND
QUICK,KASIKORNBANKGROUP,K - SME CREDIT,"OGILVY & MATHER,",THAILAND,"PHENOMENA, Bangkok",THAILAND
,,,Bangkok *
,,TELECOMMUNICATIONS,FORSMAN &
GOLF,TELE2,SERVICES,"BODENFORS, Gothenburg",SWEDEN,"FLX, Stockholm",SWEDEN
*,
TELECOMMUNICATIONS,FORSMAN &
BICYCLE,TELE2,SERVICES,"BODENFORS, Gothenburg",SWEDEN,"FLX, Stockholm",SWEDEN
*,
TELECOMMUNICATIONS,FORSMAN &
SNOWRACER,TELE2,SERVICES,"BODENFORS, Gothenburg",SWEDEN,"FLX, Stockholm",SWEDEN
,,,*
WASHINGTON DC,ADIDAS BASKETBALL,BASKETBALL SHOES,"180LA (180\TBWA), Santa",USA,"SMUGGLER, Hollywood",USA
,,,Monica
ORLANDO,ADIDAS BASKETBALL,BASKETBALL SHOES,"180LA (180\TBWA), Santa",USA,"SMUGGLER, Hollywood",USA
,,,Monica
HOUSTON,ADIDAS BASKETBALL,BASKETBALL SHOES,"180LA (180\TBWA), Santa",USA,"SMUGGLER, Hollywood",USA
,,,Monica
BOSTON,ADIDAS BASKETBALL,BASKETBALL SHOES,"180LA (180\TBWA), Santa",USA,"SMUGGLER, Hollywood",USA
,,,Monica
PING PONG,NOKIA,NOKIA N96 BRUCE LEE,JWT BEIJING *,CHINA,JQK PRODUCTION,CHINA
,,LIMITED EDITION,,,"HOUSE, Beijing"
MATCH,NOKIA,NOKIA N96 BRUCE LEE,JWT BEIJING *,CHINA,JQK PRODUCTION,CHINA
,,LIMITED EDITION,,,"HOUSE, Beijing"
Bronze,
,,,MILES CALCRAFT,UNITED,,UNITED
GO ON LAD,PREMIER FOODS,HOVIS BREAD,"BRIGINSHAW DUFFY,",KINGDOM,"RATTLING STICK, London",KINGDOM
,,,London *
MARIACHIS,MARS MEXICO,SKWINKLES SWEETS,LEO BURNETT MEXICO *,MEXICO,"CENTRAL FILMS, Mexico",MEXICO
,,,,,City
TAILOR,MARS,SKITTLES,"TBWA\CHIAT\DAY, New",USA,"MJZ, Los Angeles",USA
,,,York *
TAXI,PEPSI-QTG CANADA,TROPICANA TROPICS,"BBDO CANADA, Toronto *",CANADA,SONS AND DAUGHTERS,CANADA
,,,,,"PRODUCTIONS, Toronto"
ENCOUNTER,THE COCA-COLA COMPANY,COCA-COLA,"McCANN ERICKSON,",SPAIN,"LANDIA, Madrid",SPAIN
,,,Madrid *
WELCOME BACK,THE CLOROX COMPANY,KINGSFORD CHARCOAL,"DDB WEST, San Francisco",USA,"MOXIE PICTURES, Los",USA
,,,*,,Angeles
SQUARES,UNILEVER,AXE DEODORANT,ponce buenos aires *,ARGENTINA,"REBOLUCION, Buenos",ARGENTINA
,,,,,Aires
GUCCI FLORA,PROCTER & GAMBLE,FLORA BY GUCCI,"REM RUINI E MARIOTTI,",ITALY,"FILMMASTER, Milan *",ITALY
,PRESTIGE PRODUCTS,FRAGRANCE,Rome
BEAUTY BOWLING  ALFINE CO.,,ESTHE WAM HAIR,OGILVY & MATHER,JAPAN,"PYRAMID FILM, Tokyo",JAPAN
,,REMOVAL,"JAPAN, Tokyo *"
SECRETS AND,LEVI STRAUSS,501 JEANS,"BBH, London *",UNITED,"SONNY, London",UNITED
LIES,,,,KINGDOM,,KINGDOM
HONDA LIVE,HONDA,HONDA ACCORD,"4CREATIVE, London *",UNITED,"4CREATIVE, London",UNITED
,,,,KINGDOM,,KINGDOM
UNBOXED,AUDI UK,AUDI Q5,"BBH, London *",UNITED,"PASSION PICTURES,",UNITED
,,,,KINGDOM,London,KINGDOM
PARKING,VOLKSWAGEN AG,VOLKSWAGEN PARK,"GRABARZ & PARTNER,",GERMANY,"ELEMENT E, Hamburg",GERMANY
,,ASSIST,Hamburg *
BOXES,VOLKSWAGEN TRUCKS,VW TRUCKS,"ALMAPBBDO, São Paulo *",BRAZIL,"SENTIMENTAL FILMES,",BRAZIL
,,,,,São Paulo
REMOTE,LOEWE OPTA,LOEWE SOUND SYSTEM,"SCHOLZ & FRIENDS,",GERMANY,"ELEMENT E, Hamburg",GERMANY
CONTROL,,,Berlin *
POTATO,MIGROS,MIGROS SUPERMARKET,"JUNG von MATT/LIMMAT,",SWITZERLAND,BIGFISH,GERMANY
,GENOSSENSCHAFTSBUND,,Zürich *,,"FILMPRODUKTION, Berlin"
MOUSE,TOK&STOK,FURNITURE STORE,"DDB BRASIL, São Paulo *",BRAZIL,"CIA DE CINEMA, São Paulo",BRAZIL
MUNICH,NATIONAL MUSEUM,MUSEUM,"EURO RSCG, Prague *",CZECH,"ARMADA FILMS, Prague",CZECH
,,,,REPUBLIC,,REPUBLIC
SPACESHIPS,SITGES FANTASY FILM,SITGES FANTASY FILM,"VITRUVIO LEO BURNETT,",SPAIN,"PICNIC, Barcelona",SPAIN
,FESTIVAL,FESTIVAL,Madrid *
BLOOD RAIN,SONY COMPUTER,SONY PLAYSTATION,"TBWA\ESPAÑA, Madrid *",SPAIN,"PIRAMIDE, Madrid",SPAIN
,ENTERTAINMENT
,,INTERNATIONAL,"TBWA\NEBOKO,",THE,,THE
PITCH,IDFA,DOCUMENTARY FILM,Amsterdam *,NETHERLANDS,"25FPS, Amsterdam",NETHERLANDS
,,AMSTERDAM
THAI MUNG,SYN MUN KONG INSURANCE,CAR INSURANCE,LOWE BANGKOK *,THAILAND,"PHENOMENA, Bangkok",THAILAND
,PUBLIC COMPANY LIMITED
QUIZZ BAD LOSER,THE SWEDISH NATIONAL,BONDS,"STORÅKERS McCANN,",SWEDEN,"CALLBOY, Stockholm",SWEDEN
,DEBT OFFICE,,Stockholm *
MOTHER'S DAY,COMCAST,COMCAST TELEPHONE,GOODBY SILVERSTEIN &,USA,"O POSITIVE, New York *",USA
,,SERVICES,"PARTNERS, San Francisco"
CHEERLEADER,NATIONAL FATHERHOOD,FATHERHOOD INITIATIVE,"CAMPBELL-EWALD,",USA,"HUNGRY MAN, Los Angeles",USA
,INITIATIVE,,Warren *
WELCOME TO,,,,THE,,THE
THE WORLD,ORANGE BABIES,FUNDRAISING,OGILVY AMSTERDAM *,NETHERLANDS,BONANZA AMSTERDAM,NETHERLANDS
DANCE,T-MOBILE,T-MOBILE,"SAATCHI & SAATCHI,",UNITED,"PARTIZAN, London",UNITED
,,,London *,KINGDOM,,KINGDOM
INCREDIBLE,,,,UNITED,,UNITED
POWER IN YOUR,VODAFONE,BLACKBERRY STORM,"OUTSIDER, London *",KINGDOM,"OUTSIDER, London",KINGDOM
HANDS,
ZACK JOHNSON,PROCTER & GAMBLE,TAMPAX,"LEO BURNETT USA,",USA,"SMUGGLER, Hollywood",USA
,,,Chicago *
THE OTHER,SENSOOR HELPLINE,SENSOOR HELPLINE,"INDIE, Amsterdam *",THE,"HAZAZAH, Amsterdam",THE
STORY,,,,NETHERLANDS,,NETHERLANDS
Bronze Campaign,
JUMPERS,FLEMISH MILK BOARD (VLAM),MILK,DUVAL GUILLAUME,BELGIUM,"LATCHO DROM, Brussels",BELGIUM
,,,BRUSSELS *
FREESTYLER,FLEMISH MILK BOARD (VLAM),MILK,DUVAL GUILLAUME,BELGIUM,"LATCHO DROM, Brussels",BELGIUM
,,,BRUSSELS *
BOSS,NATIONAL FOODS,DARE ICED COFFEE,"BMF, Sydney *",AUSTRALIA,"CHERUB PICTURES,",AUSTRALIA
,,,,,Sydney
GIRLFRIEND,NATIONAL FOODS,DARE ICED COFFEE,"BMF, Sydney *",AUSTRALIA,"CHERUB PICTURES,",AUSTRALIA
,,,,,Sydney
SELF CHECKOUT   FAKTA,,SUPERMARKET,"UNCLE GREY, Århus *",DENMARK,"M2FILM, Århus",DENMARK
BEEP,FAKTA,SUPERMARKET,"UNCLE GREY, Århus *",DENMARK,"M2FILM, Århus",DENMARK
LIBRARY,RADIOTJÄNST,BROADCASTING TAX,"DRAFTFCB, Stockholm *",SWEDEN,"MISTER KRISTER,",SWEDEN
,,PAYMENT AWARENESS,,,Stockholm
PUBLIC POOL,RADIOTJÄNST,BROADCASTING TAX,"DRAFTFCB, Stockholm *",SWEDEN,"MISTER KRISTER,",SWEDEN
,,PAYMENT AWARENESS,,,Stockholm
SUPERMARKET,RADIOTJÄNST,BROADCASTING TAX,"DRAFTFCB, Stockholm *",SWEDEN,"MISTER KRISTER,",SWEDEN
,,PAYMENT AWARENESS,,,Stockholm
GRAPH,POST CEREALS,SHREDDIES CEREAL,OGILVY TORONTO *,CANADA,"REDLINE PRODUCTIONS,",CANADA
,,,,,Toronto
LETTERS,POST CEREALS,SHREDDIES CEREAL,OGILVY TORONTO *,CANADA,"REDLINE PRODUCTIONS,",CANADA
Toronto,
