TITLE,ADVERTISER,PRODUCT,ENTRANT COMPANY,COUNTRY
GRAND PRIX,
11 Cars,
GRRR,HONDA,HONDA DIESEL,WIEDEN+KENNEDY,UNITED KINGDOM
GOLD LION,
02 Sweet Foods,
PEOPLE OF PAIN,ALTOIDS,ALTONIDS SOURS,LEO BURNETT,USA
MASTERING THE MOTHER TONGUE,ALTOIDS,ALTONIDS SOURS,LEO BURNETT,USA
FABLE OF THE FRUIT BAT,ALTOIDS,ALTONIDS SOURS,LEO BURNETT,USA
07 Cosmetics & Beauty,
STUNT CITY,UNILEVER,REXONA,LOWE LONDON,UNITED KINGDOM
08 Toiletries & OTC Pharmacy,
JINXED,KIMBERLY-CLARK,KLEENEX TISSUES,JWT,BRAZIL
GOLF,PFIZER CANADA,VIAGRA ERECTILE DYSFUNCTION DRUG,TAXI CANADA,CANADA
OFFICE,PFIZER CANADA,VIAGRA ERECTILE DYSFUNCTION DRUG,TAXI CANADA,CANADA
COACH,PFIZER CANADA,VIAGRA ERECTILE DYSFUNCTION DRUG,TAXI CANADA,CANADA
11 Cars,
SOUNDS OF SUMMER,MERCEDES-BENZ,MERCEDES CONVERTIBLES,SPRINGER & JACOBY WERBUNG,GERMANY
COUNTERFEIT,MINI,MINI COOPER,CRISPIN PORTER + BOGUSKY,USA
"12 Other Vehicles, Auto Products & Services",
KING KONG,FORD SALES & SERVICE,FORD RANGER OPENCAB,JWT BANGKOK,THAILAND
,THAILAND
13 Home Electronics & Audio-Visual,
RED-EYED BABY,OLYMPUS EUROPE,OLYMPUS DIGITAL CAMERA,SPRINGER & JACOBY,THE NETHERLANDS
,,,INTERNATIONAL
CROPPED TOURISTS,OLYMPUS EUROPE,OLYMPUS DIGITAL CAMERA,SPRINGER & JACOBY,THE NETHERLANDS
,,,INTERNATIONAL
DISTORTED DOGS,OLYMPUS EUROPE,OLYMPUS DIGITAL CAMERA,SPRINGER & JACOBY,THE NETHERLANDS
,,,INTERNATIONAL
BLURRY BOY,OLYMPUS EUROPE,OLYMPUS DIGITAL CAMERA,SPRINGER & JACOBY,THE NETHERLANDS
,,,INTERNATIONAL
17 Entertainment & Leisure,
GOLFERS,SONY PLAYSTATION,PLAYSTATION 2,TBWA\LONDON,UNITED KINGDOM
ATHLETES,SONY PLAYSTATION,PLAYSTATION 2,TBWA\LONDON,UNITED KINGDOM
TRADERS,SONY PLAYSTATION,PLAYSTATION 2,TBWA\LONDON,UNITED KINGDOM
18 Publications & Media,
MOTHER,L'EQUIPE,L'EQUIPE NEWSPAPER,DDB PARIS,FRANCE
CHILD,L'EQUIPE,L'EQUIPE NEWSPAPER,DDB PARIS,FRANCE
"19 Banking, Investment & Insurance",
BRAILLE,DEXIA,AXION YOUTH BANKING,DUVAL GUILLAUME BRUSSELS,BELGIUM
23 Corporate Image,
UNSTOPPABLE,ADIDAS,APPAREL,TBWA\CHIAT\DAY,USA
HELLO TOMORROW,ADIDAS,FOOTWEAR,TBWA\CHIAT\DAY,USA
24 Public Health & Safety,
VIBRATORS,AIDES,AIDS AWARENESS,TBWA\PARIS,FRANCE
25 Public Awareness Messages,
LOST MONEY,ENERGY POLICY AND,ENERGY CONSERVATION,SAATCHI & SAATCHI THAILAND,THAILAND
,PLANNING OFFICE
MOUSE TRAP,ENERGY POLICY AND,ENERGY CONSERVATION,SAATCHI & SAATCHI THAILAND,THAILAND
,PLANNING OFFICE
MADAM,ENERGY POLICY AND,ENERGY CONSERVATION,SAATCHI & SAATCHI THAILAND,THAILAND
,PLANNING OFFICE
26 Fundraising & Appeals,
MAGIC,PONLE CORAZÓN,FOUNDATION AGAINST CHILD CANCER,LEO BURNETT DEL PERU,PERU
VENTRILOQUIST,NSPCC,CHILD PROTECTION CHARITY,SAATCHI & SAATCHI,UNITED KINGDOM
27 Best Use of Music,
HELLO TOMORROW,ADIDAS,FOOTWEAR & APPAREL,TBWA\CHIAT\DAY,USA
SILVER LION,
01 Savoury Foods,
THE RACE,CHARAL,BEEF,LEO BURNETT PARIS,FRANCE
DOGGY,H.J HEINZ,KETCHUP,LEO BURNETT,UNITED KINGDOM
MOUSE TRAP,H.J HEINZ,KETCHUP,LEO BURNETT,UNITED KINGDOM
02 Sweet Foods,
FIBRE CYCLE,KELLOGG'S,FROSTED MINI WHEATS,LAPIZ,USA
03 Alcoholic Drinks,
CARNIVAL,MAHOU,SAN MIGUEL BEER,ARNOLD WORLDWIDE SPAIN,SPAIN
DIAMOND,DIAGEO,SMIRNOFF RED VODKA,JWT,UNITED KINGDOM
04 Non-Alcoholic Drinks,
CAR,K-FEE,CAFFEINE DRINK,JUNG von MATT GERMANY,GERMANY
GOLF,K-FEE,CAFFEINE DRINK,JUNG von MATT GERMANY,GERMANY
BEACH,K-FEE,CAFFEINE DRINK,JUNG von MATT GERMANY,GERMANY
MOTHER'S DAY,UNI PRESIDENT (THAILAND),UNIF GREEN TEA,BBDO BANGKOK,THAILAND
PIPES,TANGO,SOFT DRINKS,CLEMMOW HORNBY INGE,UNITED KINGDOM
VELCRO,TANGO,SOFT DRINKS,CLEMMOW HORNBY INGE,UNITED KINGDOM
05 Household,
MANO JAPONESA,ENERGIZER,BATTERIES,GRUPO GALLEGOS,USA
WIND,RECKITT BENCKISER,FURNITURE POLISH,JWT,BRAZIL
07 Cosmetics & Beauty,
RESIDUE,AXE,DEODORANT/BODY SPRAY,BARTLE BOGLE HEGARTY,USA
08 Toiletries & OTC Pharmacy,
STAIRS,PROCTER & GAMBLE,PAMPERS,DEL CAMPO NAZCA SAATCHI &,ARGENTINA
,,,SAATCHI
"09 Clothing, Footwear & Accessories",
KARL LAGERFELD FOR H&M,H&M,KARL LAGERFELD'S COLLECTION FOR H&M RAF,,SWEDEN
MIDSUMMER,LEVI'S EUROPE,501 JEANS WITH ANTI-FIT,BARTLE BOGLE HEGARTY,UNITED KINGDOM
10 Miscellaneous,
PRANK CALL,BIC,PERMANENT MARKER,McCANN ERICKSON SINGAPORE,SINGAPORE
PING PONG,SHOWBOUND NATURALS,PET FOOD,GREY WORLDWIDE,USA
13 Home Electronics & Audio-Visual,
SHOWER,VIRGIN MOBILE USA,MOBILE PHONE,FALLON NEW YORK,USA
THING,VIRGIN MOBILE USA,MOBILE PHONE,FALLON NEW YORK,USA
CALL WAITING,VIRGIN MOBILE USA,MOBILE PHONE,FALLON NEW YORK,USA
"16 Travel, Transport & Tourism",
LOVE STORY,VIRGIN ATLANTIC,UPPER CLASS SUITES,NET#WORK BBDO,SOUTH AFRICA
17 Entertainment & Leisure,
HUSKY GIRLS,AJINOMOTO,AJINOMOTO STADIUM,DENTSU,JAPAN
18 Publications & Media,
PARENTS' DAY,VH1,SATELLITE TV CHANNEL,LA COMUNIDAD,USA
"19 Banking, Investment & Insurance",
HEADMAN VILLAGER LEE,KRUNGTHAI BANK,BANKING,EURO RSCG FLAGSHIP,THAILAND
21 Commercial Public Services,
VAN,PROXIMUS,MOBILE NETWORK,LG&F,BELGIUM
BEAR,PROXIMUS,MOBILE NETWORK,LG&F,BELGIUM
23 Corporate Image,
GIMME THE BALL,ADIDAS INTERNATIONAL,SPORTSWEAR,180 AMSTERDAM,THE NETHERLANDS
IMPROVISATION,ADIDAS,SPORTSWEAR,RSA USA,USA
TENNIS INSTRUCTOR,NIKE,NIKE,GORGEOUS ENTERPRISES,UNITED KINGDOM
MADE TO PERFECTION,ADIDAS,FOOTWEAR,TBWA\CHIAT\DAY,USA
24 Public Health & Safety,
VOICE,AMERICAN LEGACY,ANTI-SMOKING,ARNOLD WORLDWIDE,USA
,FOUNDATION
MARIE,INPES,PASSIVE SMOKING AWARENESS,FCB PARIS,FRANCE
LUCKY,DFT,ROAD SAFETY,ABBOTT MEAD VICKERS.BBDO,UNITED KINGDOM
25 Public Awareness Messages,
BUNSO,UNITED NATIONS CHILDREN'S,JUVENILE JUSTICE LAW REFORM,BBDO GUERRERO ORTEGA,THE PHILIPPINES
,FUND (UNICEF) / CONSUELO
,FOUNDATION
26 Fundraising & Appeals,
BARCODE CAGE,INTERNATIONAL FUND FOR,ANIMAL WELFARE,SPRINGER & JACOBY WERBUNG,GERMANY
,ANIMAL WELFARE
KITCHEN,ORGAN TRANSPLANTS,ORGAN DONATION APPEAL,DDB BRASIL,BRAZIL
,ASSOCIATION
BRONZE LION,
01 Savoury Foods,
THE BLOB,UNILEVER BEST FOODS,MARMITE,THE SWEET SHOP,NEW ZEALAND
UNAUSTRALIAN,MEAT AND LIVESTOCK,LAMB,BMF ADVERTISING,AUSTRALIA
,AUSTRALIA
DIAMOND,LE BARRAN,CHICKEN,DDB PARIS,FRANCE
SHIRT,LE BARRAN,CHICKEN,DDB PARIS,FRANCE
02 Sweet Foods,
SHELTER,MASTERFOODS,SKITTLES GUM,TBWA\LONDON,UNITED KINGDOM
CHERUBS,MASTERFOODS,SKITTLES GUM,TBWA\LONDON,UNITED KINGDOM
ERIC,MASTERFOODS,SKITTLES CANDY,TBWA\CHIAT\DAY,USA
RAINBOW SITTING,MASTERFOODS,SKITTLES CANDY,TBWA\CHIAT\DAY,USA
SHEEPBOYS,MASTERFOODS,SMOOTHIE MIX SKITTLES CANDY,TBWA\CHIAT\DAY,USA
03 Alcoholic Drinks,
BREEZE,DIAGEO,GORDON'S GIN,BARTLE BOGLE HEGARTY,UNITED KINGDOM
SURFER,GUINNESS,GUINNESS EXTRA COLD BEER,ABBOTT MEAD VICKERS.BBDO,UNITED KINGDOM
PILOT,INTERBREW,STELLA ARTOIS BEER,LOWE LONDON,UNITED KINGDOM
04 Non-Alcoholic Drinks,
RIVALRIES,COCA-COLA,COCA-COLA,SANTO BUENOS AIRES,ARGENTINA
CANOPY,PEPSICO,MOUNTAIN DEW SOFT DRINK,BBDO NEW YORK,USA
HALLWAY,PEPSICO,MOUNTAIN DEW SOFT DRINK,BBDO NEW YORK,USA
HELICOPTER,PEPSICO,MOUNTAIN DEW SOFT DRINK,BBDO NEW YORK,USA
PARADE,COCA-COLA,COCA-COLA,SRA RUSHMORE,SPAIN
05 Household,
POOL,THE CLOROX COMPANY,GLAD PRESS N' SEAL,DDB SAN FRANCISCO,USA
07 Cosmetics & Beauty,
EVIDENCE,AXE,SHOWER GEL,BARTLE BOGLE HEGARTY,USA
SHIRTS,LEVER,REXONA FOR MEN,VEGAOLMOSPONCE,ARGENTINA
NO,LEVER,AXE BODY SPRAY,VEGAOLMOSPONCE,ARGENTINA
JEREMIAH,LEVER,AXE BODY SPRAY,VEGAOLMOSPONCE,ARGENTINA
08 Toiletries & OTC Pharmacy,
DATE,S&SONS TRADING,SCOTCH ESSENCE OF CHICKEN,Y&R THAILAND,THAILAND
"09 Clothing, Footwear & Accessories",
SPIDER,GROSBY,COMFORT SHOES,WHYBIN TBWA,AUSTRALIA
UNDERWEAR,ALPARGATAS,RAINHA TRAINERS,F/NAZCA SAATCHI & SAATCHI,BRAZIL
10 Miscellaneous,
SCRATCHES,MASTERFOODS BRASIL,WHISKAS CAT FOOD,ALMAPBBDO,BRAZIL
,ALIMENTOS
11 Cars,
WATERING CAN,MERCEDES-BENZ,CLK-CLASS,SPRINGER & JACOBY WERBUNG,GERMANY
POLICEMEN,VOLSKSWAGEN MEXICO,GOLF GTI,DDB MEXICO,MEXICO
KIDS ON STEPS,VOLKSWAGEN,VW GOLF DSG,DDB GERMANY,GERMANY
DOG,ADAM OPEL,ASTRA CAR,McCANN ERICKSON BCA,GERMANY
CARBOT,CITROEN,CITROEN C4,EURO RSCG LONDON,UNITED KINGDOM
BAIT,TOYOTA,TOYOTA VIOS,SAATCHI & SAATCHI,MALAYSIA
SCHOOL,VOLKSWAGEN,VW TOUAREG,DDB LONDON,UNITED KINGDOM
SINGIN' IN THE RAIN,VOLKSWAGEN,GOLF GTI,DDB LONDON,UNITED KINGDOM
"12 Other Vehicles, Auto Products & Services",
CLONE,VOLKSWAGEN,VW PARTS,ALMAPBBDO,BRAZIL
13 Home Electronics & Audio-Visual,
SQUISHED LOCKER ROOM,THOMSON/RCA,RCA DLP TV,PUBLICIS,USA
SQUISHED CONCERT,THOMPSON/RCA,RCA DLP TV,PUBLICIS,USA
TOKYO,SAGEM,MYX5-2,PUBLICIS CONSEIL,FRANCE
14 Retail Stores,
MOSQUITO KILLER,HORNBACH,HOME IMPROVEMENT SUPERSTORES,HEIMAT,GERMANY
PAVING STONES,HORNBACH,HOME IMPROVEMENT SUPERSTORES,HEIMAT,GERMANY
POWER DRILL,HORNBACH,HOME IMPROVEMENT SUPERSTORES,HEIMAT,GERMANY
SILICATE PAINT,HORNBACH,HOME IMPROVEMENT SUPERSTORES,HEIMAT,GERMANY
TAXI,TOWER RECORDS JAPAN,RECORD STORE,DENTSU,JAPAN
STAY LONGER,FAKTA,SUPERMARKET,UNCLE GREY,DENMARK
MOVING GOODS,FAKTA,SUPERMARKET,UNCLE GREY,DENMARK
STUDENT,COCO DE MER,EROTIC BOUTIQUE,SAATCHI & SAATCHI,UNITED KINGDOM
"16 Travel, Transport & Tourism",
TANNING?,COLOR LINE,FERRY COMPANY,TRY ADVERTISING AGENCY,NORWAY
NO MORE TANNING?,COLOR LINE,FERRY COMPANY,TRY ADVERTISING AGENCY,NORWAY
THE NOSES,HOLIDAY INN,HOLIDAY INN,FALLON MINNEAPOLIS,USA
17 Entertainment & Leisure,
NADIA,ADIDAS INTERNATIONAL,OLYMPICS 2004,180 AMSTERDAM,THE NETHERLANDS
JESSE,ADIDAS INTERNATIONAL,OLYMPICS 2004,180 AMSTERDAM,THE NETHERLANDS
HAILE,ADIDAS INTERNATIONAL,OLYMPICS 2004,180 AMSTERDAM,THE NETHERLANDS
MEMBER #1,CLUB ATLETICO DE MADRID,FOOTBALL CLUB,SRA RUSHMORE,SPAIN
18 Publications & Media,
UNCLE MATT DIES,ESPN,ESPN SHORTS,HEADQUARTERS,USA
DECISION TIME,ESPN,ESPN SHORTS,HEADQUARTERS,USA
MYSTERIOUS BREAKDOWN,ESPN,ESPN SHORTS,HEADQUARTERS,USA
THE FINAL,ESPN,ESPN SHORTS,HEADQUARTERS,USA
HINDENBURG,A&E INTERNATIONAL,THE HISTORY CHANNEL,GROUND ZERO,USA
BERLIN,A&E INTERNATIONAL,THE HISTORY CHANNEL,GROUND ZERO,USA
NORMANDY,A&E INTERNATIONAL,THE HISTORY CHANNEL,GROUND ZERO,USA
"19 Banking, Investment & Insurance",
SURPRISE DINNER,AMERIQUEST MORTGAGE,MORTGAGES,DDB LOS ANGELES,USA
PARKING METER,AMERIQUEST MORTGAGE,MORTGAGES,DDB LOS ANGELES,USA
MOTHER-IN-LAW,AMERIQUEST MORTGAGE,MORTGAGES,DDB LOS ANGELES,USA
21 Commercial Public Services,
BOARDROOM,SCIENCE WORLD,SCIENCE WORLD,RETHINK,CANADA
GANDHI,TELECOM ITALIA,TELECOMMUNICATION DEVICES,Y&R ITALIA,ITALY
DANCE PARTY,NEXTEL,TELECOMMUNICATIONS,TBWA\CHIAT\DAY,USA
SEAN ASTIN,ORANGE,MOBILE NETWORK,MOTHER,UNITED KINGDOM
VERNE TROYER,ORANGE,MOBILE NETWORK,MOTHER,UNITED KINGDOM
PATRICK SWAYZE,ORANGE,MOBILE NETWORK,MOTHER,UNITED KINGDOM
22 Internet Service Providers,
FOOT,CEGETEL,ADSL INTERNET,SCHER LAFARGE,FRANCE
CHASE,CEGETEL,ADSL INTERNET,SCHER LAFARGE,FRANCE
WESTERN,CEGETEL,ADSL INTERNET,SCHER LAFARGE,FRANCE
23 Corporate Image,
CARRY,ADIDAS,FOOTWEAR,TBWA\CHIAT\DAY,USA
SCARY HOUSE,NIKE,NIKE FOOTWEAR,PARTIZAN,USA
24 Public Health & Safety,
REVERSE,FORUM CRISALIDE,BULIMIA PREVENTION,LEO BURNETT ITALIA,ITALY
25 Public Awareness Messages,
HUGGING,ALS SOCIETY OF CANADA,ALS AWARENESS,BBDO CANADA,CANADA
FAT BOYS,AMERICAN LEGACY,ANTI-SMOKING,CRISPIN PORTER + BOGUSKY,USA
,FOUNDATION
GUMBALLS,AMERICAN LEGACY,ANTI-SMOKING,CRISPIN PORTER + BOGUSKY,USA
,FOUNDATION
DECAL CONSCIOUS,AMERICAN LEGACY,ANTI-SMOKING,CRISPIN PORTER + BOGUSKY,USA
,FOUNDATION
26 Fundraising & Appeals,
WE GAVE BLOOD,AUSTRALIAN RED CROSS,BLOOD DONATION APPEAL,BMF ADVERTISING,AUSTRALIA
,BLOOD SERVICE
