Title,Advertiser/Client,Product/Service,Entrant Company,Country
Grand Prix Campaign,
UNHATE (PALESTINE AND ISRAEL),UNITED COLORS OF BENETTON,APPAREL,"FABRICA, Treviso",ITALY
UNHATE (USA AND VENEZUELA),UNITED COLORS OF BENETTON,APPAREL,"FABRICA, Treviso",ITALY
UNHATE (GERMANY AND FRANCE),UNITED COLORS OF BENETTON,APPAREL,"FABRICA, Treviso",ITALY
Gold Lion,
BLONDES,CARLTON AND UNITED BREWERIES,CARLTON MID,CLEMENGER BBDO MELBOURNE,AUSTRALIA
REDHEADS,CARLTON AND UNITED BREWERIES,CARLTON MID,CLEMENGER BBDO MELBOURNE,AUSTRALIA
LYING DOWN,CARLTON AND UNITED BREWERIES,CARLTON MID,CLEMENGER BBDO MELBOURNE,AUSTRALIA
FIREWORKS,UNILEVER,AXE,BBH LONDON,UNITED KINGDOM
PETROL STATION,UNILEVER,AXE,BBH LONDON,UNITED KINGDOM
1942 LOVERS,RAY-BAN,RAY BAN LEGENDS COLLECTION,"MARCEL, Paris",FRANCE
1956 DANCING,RAY-BAN,RAY BAN LEGENDS COLLECTION,"MARCEL, Paris",FRANCE
1992 RAPPER,RAY-BAN,RAY BAN LEGENDS COLLECTION,"MARCEL, Paris",FRANCE
BIKERS-POLICE,VOLKSWAGEN,VW PARK ASSIST TECHNOLOGY,"DDB, Sydney",AUSTRALIA
CAR JACK-GLASS TRUCK,VOLKSWAGEN,VW PARK ASSIST TECHNOLOGY,"DDB, Sydney",AUSTRALIA
PORTALOO-HEARSE-,VOLKSWAGEN,VW PARK ASSIST TECHNOLOGY,"DDB, Sydney",AUSTRALIA
TIFFANY,McDONALD'S SOUTH AFRICA,KIDS BIRTHDAY PARTIES,"DDB SOUTH AFRICA, Johannesburg",SOUTH AFRICA
BILLY,McDONALD'S SOUTH AFRICA,KIDS BIRTHDAY PARTIES,"DDB SOUTH AFRICA, Johannesburg",SOUTH AFRICA
THEODORE,McDONALD'S SOUTH AFRICA,KIDS BIRTHDAY PARTIES,"DDB SOUTH AFRICA, Johannesburg",SOUTH AFRICA
A,CLARO,MOBILE COMPANY,"OGILVY BRASIL, São Paulo",BRAZIL
T,CLARO,MOBILE COMPANY,"OGILVY BRASIL, São Paulo",BRAZIL
S,CLARO,MOBILE COMPANY,"OGILVY BRASIL, São Paulo",BRAZIL
I,CLARO,MOBILE COMPANY,"OGILVY BRASIL, São Paulo",BRAZIL
THE BOOT,SURFRIDER FOUNDATION EUROPE,OCEAN INITIATIVES 2012,Y&R PARIS,FRANCE
THE SHOE,SURFRIDER FOUNDATION EUROPE,OCEAN INITIATIVES 2012,Y&R PARIS,FRANCE
THE BOTTLE,SURFRIDER FOUNDATION EUROPE,OCEAN INITIATIVES 2012,Y&R PARIS,FRANCE
THE COUCH,SURFRIDER FOUNDATION EUROPE,OCEAN INITIATIVES 2012,Y&R PARIS,FRANCE
OMAR,AMNESTY INTERNATIONAL,AMNESTY INTERNATIONAL,"LOWE GINKGO, Montevideo",URUGUAY
EDUARDO,AMNESTY INTERNATIONAL,AMNESTY INTERNATIONAL,"LOWE GINKGO, Montevideo",URUGUAY
CLAUDIO,AMNESTY INTERNATIONAL,AMNESTY INTERNATIONAL,"LOWE GINKGO, Montevideo",URUGUAY
ROBERTO,AMNESTY INTERNATIONAL,AMNESTY INTERNATIONAL,"LOWE GINKGO, Montevideo",URUGUAY
CHINA/USA,EDITORIAL COYUNTURA,REVISTA MERCADO,"JWT ARGENTINA, Buenos Aires",ARGENTINA
INDIA/CHINA,EDITORIAL COYUNTURA,REVISTA MERCADO,"JWT ARGENTINA, Buenos Aires",ARGENTINA
BRAZIL/GREAT BRITAIN,EDITORIAL COYUNTURA,REVISTA MERCADO,"JWT ARGENTINA, Buenos Aires",ARGENTINA
CHINA/USA,EDITORIAL COYUNTURA,REVISTA MERCADO,"JWT ARGENTINA, Buenos Aires",ARGENTINA
INDIA/CHINA,EDITORIAL COYUNTURA,REVISTA MERCADO,"JWT ARGENTINA, Buenos Aires",ARGENTINA
BRAZIL/GREAT BRITAIN,EDITORIAL COYUNTURA,REVISTA MERCADO,"JWT ARGENTINA, Buenos Aires",ARGENTINA
BILLY,McDONALD'S SOUTH AFRICA,KIDS BIRTHDAY PARTIES,"DDB SOUTH AFRICA, Johannesburg",SOUTH AFRICA
THEODORE,McDONALD'S SOUTH AFRICA,KIDS BIRTHDAY PARTIES,"DDB SOUTH AFRICA, Johannesburg",SOUTH AFRICA
CIVILIZATION-EG-,
,MAXAM,TOILETRIES,JWT SHANGHAI,CHINA
YPT,
CIVILIZATION-RO-,
,MAXAM,TOILETRIES,JWT SHANGHAI,CHINA
ME,
FAMILY,MERCEDES-BENZ,MERCEDES-BENZ VIANO & VITO,"LUKAS LINDEMANN ROSINSKI, Hamburg",GERMANY
BUSINESS,MERCEDES-BENZ VANS,MERCEDES-BENZ VIANO & VITO,"LUKAS LINDEMANN ROSINSKI, Hamburg",GERMANY
LEISURE,MERCEDES-BENZ VANS,MERCEDES-BENZ VIANO & VITO,"LUKAS LINDEMANN ROSINSKI, Hamburg",GERMANY
1942 LOVERS,RAY-BAN,RAY BAN LEGENDS COLLECTION,"MARCEL, Paris",FRANCE
1956 DANCING,RAY-BAN,RAY BAN LEGENDS COLLECTION,"MARCEL, Paris",FRANCE
1965 MINISKIRT,RAY-BAN,RAY BAN LEGENDS COLLECTION,"MARCEL, Paris",FRANCE
1992 RAPPER,RAY-BAN,RAY BAN LEGENDS COLLECTION,"MARCEL, Paris",FRANCE
Silver Lion,
BROKEN VASE,FLEUROP,FLORIST,"SPILLMANN/FELSER/LEO BURNETT, Zürich",SWITZERLAND
JACQUES,DONATE YOUR GARBAGE NGO,PUBLIC AWARENESS,"LEW'LARA\TBWA, São Paulo",BRAZIL
THE WINE LIST,DB BREWERIES,EXPORT DRY,"COLENSO BBDO, Auckland",NEW ZEALAND
FEAR,HONDA MOTO,MOTO,DDB PARIS,FRANCE
OZZY OSBOURNE,KISS FM,RADIO STATION,"LUA, São Paulo",BRAZIL
Silver Lion,
MOTHER-IN-LAW,TIGER BRANDS,ENTERPRISE,TBWA\HUNT\LASCARIS JOHANNESBURG,SOUTH AFRICA
MOMMY'S BOYS,TIGER BRANDS,ENTERPRISE,TBWA\HUNT\LASCARIS JOHANNESBURG,SOUTH AFRICA
MUD,UNILEVER,OMO,"DLKW LOWE, London",UNITED KINGDOM
ADVENTURES,UNILEVER,OMO,"DLKW LOWE, London",UNITED KINGDOM
BRAVERY,UNILEVER,OMO,"DLKW LOWE, London",UNITED KINGDOM
VASE,OFFICE DEPOT,OFFICE DEPOT BUBBLE CUSHION WRAP,CREATIVE JUICE\BANGKOK (TBWA),THAILAND
WINE GLASS,OFFICE DEPOT,OFFICE DEPOT BUBBLE CUSHION WRAP,CREATIVE JUICE\BANGKOK (TBWA),THAILAND
PLATE,OFFICE DEPOT,OFFICE DEPOT BUBBLE CUSHION WRAP,CREATIVE JUICE\BANGKOK (TBWA),THAILAND
SOCKS,BAJAJ ELECTRICALS,EXHAUST FANS,"LEO BURNETT INDIA, Mumbai",INDIA
FISH,BAJAJ ELECTRICALS,EXHAUST FANS,"LEO BURNETT INDIA, Mumbai",INDIA
DRY ARMPIT INFORMANT,P&G,GILLETTE ODOR SHIELD,BBDO NEW YORK,USA
,,ANTI-PERSPIRANT
DRY ARMPIT BLUFF,P&G,GILLETTE ODOR SHIELD,BBDO NEW YORK,USA
,,ANTI-PERSPIRANT
DRY ARMPIT AFFAIR,P&G,GILLETTE ODOR SHIELD,BBDO NEW YORK,USA
,,ANTI-PERSPIRANT
ACTION HERO,P&G,OLD SPICE SWAGGER,"WIEDEN+KENNEDY, Portland",USA
ROCKER,P & G,OLD SPICE SWAGGER,"WIEDEN+KENNEDY, Portland",USA
CIVILIZATION-RO-,
,MAXAM,TOILETRIES,JWT SHANGHAI,CHINA
ME,
CIVILIZATION-EG-,
,MAXAM,TOILETRIES,JWT SHANGHAI,CHINA
YPT,
TOURIST,ABBOTT NUTRITION INTERNATIONAL,ENSURE (NUTRITIONAL COMPLEMENT),"JWT ARGENTINA, Buenos Aires",ARGENTINA
ANNIVERSARY,ABBOTT NUTRITION INTERNATIONAL,ENSURE (NUTRITIONAL COMPLEMENT),"JWT ARGENTINA, Buenos Aires",ARGENTINA
FOOTBALL,ABBOTT NUTRITION INTERNATIONAL,ENSURE (NUTRITIONAL COMPLEMENT),"JWT ARGENTINA, Buenos Aires",ARGENTINA
DULCINEA,RHEIN,STABILO BOSS,"PROLAM Y&R, Santiago",CHILE
MARIA ANTONIETA,RHEIN,STABILO BOSS,"PROLAM Y&R, Santiago",CHILE
SWEETCORN,HONDA CARS,HONDA CARS,"WIEDEN+KENNEDY, London",UNITED KINGDOM
FISH,HONDA CARS,HONDA CARS,"WIEDEN+KENNEDY, London",UNITED KINGDOM
LIGHTBULB,HONDA CARS,HONDA CARS,"WIEDEN+KENNEDY, London",UNITED KINGDOM
EAGLE,AUDI BRASIL,QUATTRO,"ALMAPBBDO, São Paulo",BRAZIL
MONKEY,AUDI BRASIL,QUATTRO,"ALMAPBBDO, São Paulo",BRAZIL
BIKE,MERCEDES-BENZ CESKÁ REPUBLICA,NIGHT VIEW ASSIST,"BBDO GERMANY, Düsseldorf",GERMANY
CHILD,MERCEDES-BENZ CESKÁ REPUBLICA,NIGHT VIEW ASSIST,"BBDO GERMANY, Düsseldorf",GERMANY
THE DEER,OPEL FRANCE,OPEL,Y&R PARIS,FRANCE
THE RABBIT,OPEL FRANCE,OPEL,Y&R PARIS,FRANCE
THE BOAR,OPEL FRANCE,OPEL,Y&R PARIS,FRANCE
TRAIN,WESTONE (THINKING GROUP),EARPHONES,DDB GROUP HONG KONG,HONG KONG
TUNNEL,WESTONE (THINKING GROUP),EARPHONES,DDB GROUP HONG KONG,HONG KONG
CAFE,WESTONE (THINKING GROUP),EARPHONES,DDB GROUP HONG KONG,HONG KONG
ASTERIX AND OBELIX,LEGO,LEGO,"JUNG von MATT, Hamburg",GERMANY
ERNIE AND BERT,LEGO,LEGO,"JUNG von MATT, Hamburg",GERMANY
THE SMURFS,LEGO,LEGO,"JUNG von MATT, Hamburg",GERMANY
LUCKY LUKE AND THE DALTONS,LEGO,LEGO,"JUNG von MATT, Hamburg",GERMANY
TICK TRICK AND TRACK,LEGO,LEGO,"JUNG von MATT, Hamburg",GERMANY
CHINA/USA,EDITORIAL COYUNTURA,REVISTA MERCADO,"JWT ARGENTINA, Buenos Aires",ARGENTINA
INDIA/CHINA,EDITORIAL COYUNTURA,REVISTA MERCADO,"JWT ARGENTINA, Buenos Aires",ARGENTINA
BRAZIL/GREAT BRITAIN,EDITORIAL COYUNTURA,REVISTA MERCADO,"JWT ARGENTINA, Buenos Aires",ARGENTINA
BILL GATES,FORBES BRASIL,FORBES MAGAZINE,"OGILVY BRASIL, São Paulo",BRAZIL
DONALD TRUMP,FORBES BRASIL,FORBES MAGAZINE,"OGILVY BRASIL, São Paulo",BRAZIL
RICHARD BRANSON,FORBES BRASIL,FORBES MAGAZINE,"OGILVY BRASIL, São Paulo",BRAZIL
TIGER WOODS,FORBES BRASIL,FORBES MAGAZINE,"OGILVY BRASIL, São Paulo",BRAZIL
MARK ZUCKERBERG,FORBES BRASIL,FORBES MAGAZINE,"OGILVY BRASIL, São Paulo",BRAZIL
I LOVE MY HOUSE,SWISS LIFE,LIFE INSURANCE,"SPILLMANN/FELSER/LEO BURNETT, Zürich",SWITZERLAND
NEVER WANT CHILDREN,SWISS LIFE,LIFE INSURANCE,"SPILLMANN/FELSER/LEO BURNETT, Zürich",SWITZERLAND
NOT INTERESTED IN GETTING,SWISS LIFE,LIFE INSURANCE,"SPILLMANN/FELSER/LEO BURNETT, Zürich",SWITZERLAND
MARRIED,
SHES MY EVERYTHING,SWISS LIFE,LIFE INSURANCE,"SPILLMANN/FELSER/LEO BURNETT, Zürich",SWITZERLAND
I LIKE WORKING WITH,SWISS LIFE,LIFE INSURANCE,"SPILLMANN/FELSER/LEO BURNETT, Zürich",SWITZERLAND
ONLY WOMAN,SWISS LIFE,LIFE INSURANCE,"SPILLMANN/FELSER/LEO BURNETT, Zürich",SWITZERLAND
MAGICIAN,ZMG (NEWSPAPER MARKETING,ZMG (NEWSPAPER MARKETING,"OGILVY GERMANY, Frankfurt",GERMANY
,ASSOCIATION),ASSOCIATION)
SHOWGIRL,ZMG (NEWSPAPER MARKETING,ZMG (NEWSPAPER MARKETING,"OGILVY GERMANY, Frankfurt",GERMANY
,ASSOCIATION),ASSOCIATION)
LILLIPUTIAN,ZMG (NEWSPAPER MARKETING,ZMG (NEWSPAPER MARKETING,"OGILVY GERMANY, Frankfurt",GERMANY
,ASSOCIATION),ASSOCIATION)
"BEAR, BEARD, BEER",FF ENGLISH SCHOOL,CONVERSATIONAL CLASSES,"DIM & CANZIAN, São Paulo",BRAZIL
"SHEEP, SHIP, CHIP",FF ENGLISH SCHOOL,CONVERSATIONAL CLASSES,"DIM & CANZIAN, São Paulo",BRAZIL
CARBURETOR,MEDICINS SANS FRONTIERES,RECRUITMENT CAMPAIGN,"M&C SAATCHI, Sydney",AUSTRALIA
TAP,MEDICINS SANS FRONTIERES,RECRUITMENT CAMPAIGN,"M&C SAATCHI, Sydney",AUSTRALIA
FUSE BOX,MEDICINS SANS FRONTIERES,RECRUITMENT CAMPAIGN,"M&C SAATCHI, Sydney",AUSTRALIA
KITCHEN CIRCLE,SAVE THE CHILDREN,SAVE THE CHILDREN,Y&R MEXICO,MEXICO
LIVINGROOM CIRCLE,SAVE THE CHILDREN,SAVE THE CHILDREN,Y&R MEXICO,MEXICO
BEDROOM CIRCLE,SAVE THE CHILDREN,SAVE THE CHILDREN,Y&R MEXICO,MEXICO
NOT INTERESTED IN GETTING,SWISS LIFE,LIFE INSURANCE,"SPILLMANN/FELSER/LEO BURNETT, Zürich",SWITZERLAND
MARRIED,
SHES MY EVERYTHING,SWISS LIFE,LIFE INSURANCE,"SPILLMANN/FELSER/LEO BURNETT, Zürich",SWITZERLAND
I LIKE WORKING WITH,SWISS LIFE,LIFE INSURANCE,"SPILLMANN/FELSER/LEO BURNETT, Zürich",SWITZERLAND
ONLY WOMAN,SWISS LIFE,LIFE INSURANCE,"SPILLMANN/FELSER/LEO BURNETT, Zürich",SWITZERLAND
TERRAIN,LIFE CYCLE,BICYCLE,DDB GROUP SINGAPORE,SINGAPORE
ROAD MAP,LIFE CYCLE,BICYCLE,DDB GROUP SINGAPORE,SINGAPORE
DONALD TRUMP,FORBES BRASIL,FORBES MAGAZINE,"OGILVY BRASIL, São Paulo",BRAZIL
RICHARD BRANSON,FORBES BRASIL,FORBES MAGAZINE,"OGILVY BRASIL, São Paulo",BRAZIL
TRAIN,WESTONE (THINKING GROUP),EARPHONES,DDB GROUP HONG KONG,HONG KONG
CAFE,WESTONE (THINKING GROUP),EARPHONES,DDB GROUP HONG KONG,HONG KONG
DULCINEA,RHEIN,STABILO BOSS,"PROLAM Y&R, Santiago",CHILE
MARIA ANTONIETA,RHEIN,STABILO BOSS,"PROLAM Y&R, Santiago",CHILE
JACK,CHRISTIAN CARE SERVICES,RAY OF HOPE,LEO BURNETT GROUP SINGAPORE,SINGAPORE
QUEEN,CHRISTIAN CARE SERVICES,RAY OF HOPE,LEO BURNETT GROUP SINGAPORE,SINGAPORE
KING,CHRISTIAN CARE SERVICES,RAY OF HOPE,LEO BURNETT GROUP SINGAPORE,SINGAPORE
JACKET,HARVEY NICHOLS,SPRING SUMMER SALE 2011,Y&R DUBAI,UNITED ARAB
,,,,EMIRATES
DRESS,HARVEY NICHOLS,SPRING SUMMER SALE 2011,Y&R DUBAI,UNITED ARAB
,,,,EMIRATES
HANDBAG,HARVEY NICHOLS,SPRING SUMMER SALE 2011,Y&R DUBAI,UNITED ARAB
,,,,EMIRATES
CITYSCAPE,LIFE CYCLE,BICYCLE,DDB GROUP SINGAPORE,SINGAPORE
TERRAIN,LIFE CYCLE,BICYCLE,DDB GROUP SINGAPORE,SINGAPORE
ROAD MAP,LIFE CYCLE,BICYCLE,DDB GROUP SINGAPORE,SINGAPORE
Bronze Lion,
CAR ACCIDENT,L' UNIVERS DE CHOCOLAT,CHOCOLATE WITH WHISKY,"DENTSU BRASIL, São Paulo",BRAZIL
CHURCH,STAEDTLER,SKETCHING PENCIL,LEO BURNETT HONG KONG,HONG KONG
SUPERMARKET,MAN LATIN AMERICA,VOLKSWAGEN TRUCKS,"ALMAPBBDO, São Paulo",BRAZIL
BLANKET,MEDIA 24,DIE BURGER NEWSPAPER,DRAFTFCB CAPE TOWN,SOUTH AFRICA
SEX SHOP,GOOGLE,GOOGLE MAPS,"BBDO RUSSIA GROUP, Moscow",RUSSIA
LIFE,SPECTRUM BRANDS,RAYOVAC BATTERIES,"FISCHER AMERICA ARGENTINA, Buenos",ARGENTINA
,,,Aires
BLUE BRICK,M.CASSAB,LEGO,"PEREIRA & O'DELL, San Francisco",USA
DO YOU FIT?,DEFENCE FORCE RECRUITING,NAVY HELICOPTER ROLES,"GEORGE PATTERSON Y&R, Melbourne",AUSTRALIA
CIVILIZATION-EG-,
,MAXAM,TOILETRIES,JWT SHANGHAI,CHINA
YPT,
Bronze Lion,
SAD PUG,BRASIL FOODS,PERDIGAO BONELESS TURKEY,Y&R SÃO PAULO,BRAZIL
SAD WHIPPET,BRASIL FOODS,PERDIGAO BONELESS TURKEY,Y&R SÃO PAULO,BRAZIL
SAD LHAZA APSO,BRASIL FOODS,PERDIGAO BONELESS TURKEY,Y&R SÃO PAULO,BRAZIL
BARBED WIRE,PERFETTI VAN MELLE INDIA,MENTOS SOUR MARBELS,"OGILVY & MATHER, Mumbai",INDIA
NAILS,PERFETTI VAN MELLE INDIA,MENTOS SOUR MARBELS,"OGILVY & MATHER, Mumbai",INDIA
ELECTRIC SHOCK,PERFETTI VAN MELLE INDIA,MENTOS SOUR MARBELS,"OGILVY & MATHER, Mumbai",INDIA
PRINCESS,CAFE BONOGRAO,COFFEE,Y&R SÃO PAULO,BRAZIL
LUCHA LIBRE,CAFE BONOGRAO,COFFEE,Y&R SÃO PAULO,BRAZIL
OLD MAN,CAFE BONOGRAO,COFFEE,Y&R SÃO PAULO,BRAZIL
BOXES WASHING MACHINE,DANK SECOND HAND FURNITURE,SECOND HAND FURNITURE,"DDB&CO, Istanbul",TURKEY
BOXES FRIDGE,DANK SECOND HAND FURNITURE,SECOND HAND FURNITURE,"DDB&CO, Istanbul",TURKEY
BOXES TELLY,DANK SECOND HAND FURNITURE,SECOND HAND FURNITURE,"DDB&CO, Istanbul",TURKEY
BEDROOM,MR.CURTAIN (THAILAND),MR.CURTAIN,"OGILVY & MATHER, Bangkok",THAILAND
LIVINGROOM,MR.CURTAIN (THAILAND),MR.CURTAIN,"OGILVY & MATHER, Bangkok",THAILAND
BIKE ACCIDENT,EGIS,BETADINE,Y&R PRAGUE,CZECH REPUBLIC
ROLLER SKATING ACCIDENT,EGIS,BETADINE,Y&R PRAGUE,CZECH REPUBLIC
RUNNING ACCIDENT,EGIS,BETADINE,Y&R PRAGUE,CZECH REPUBLIC
CHICKEN,PANAPAT HEALTHCARE,LAXEN,CREATIVE JUICE\BANGKOK (TBWA),THAILAND
BEEF,PANAPAT HEALTHCARE,LAXEN,CREATIVE JUICE\BANGKOK (TBWA),THAILAND
PORK,PANAPAT HEALTHCARE,LAXEN,CREATIVE JUICE\BANGKOK (TBWA),THAILAND
SISTER,FLEUROP,FLEUROP,"OGILVY GERMANY, Frankfurt",GERMANY
FACEBOOK,FLEUROP,FLEUROP,"OGILVY GERMANY, Frankfurt",GERMANY
RECORD PRODUCER,FLEUROP,FLEUROP,"OGILVY GERMANY, Frankfurt",GERMANY
COAST,GOODYEAR,GOODYEAR TYRES,Y&R SÃO PAULO,BRAZIL
COUNTRYSIDE,GOODYEAR,GOODYEAR TYRES,Y&R SÃO PAULO,BRAZIL
CITY,GOODYEAR,GOODYEAR TYRES,Y&R SÃO PAULO,BRAZIL
KILL,LG,LG HOME THEATER 3D,Y&R SÃO PAULO,BRAZIL
PRETTY,LG,LG HOME THEATER 3D,Y&R SÃO PAULO,BRAZIL
FORREST,LG,LG HOME THEATER 3D,Y&R SÃO PAULO,BRAZIL
BASKETBALL,JVC,JVC CAMERA GCPX10,"DRAFTFCB BRASIL, São Paulo",BRAZIL
SKATEBOARD,JVC,JVC CAMERA GCPX10,"DRAFTFCB BRASIL, São Paulo",BRAZIL
COUPLE,TOSHIBA,TOSHIBA - 3D GLASSES FREE TV,"EURO RSCG ESPAÑA, Madrid",SPAIN
FAT MAN,TOSHIBA,TOSHIBA - 3D GLASSES FREE TV,"EURO RSCG ESPAÑA, Madrid",SPAIN
MARK TWAIN,AVELAR MACHADO,ANTIQUE BOOKSTORE,"DRAFTFCB PORTUGAL, Lisbon",PORTUGAL
AGATHA CHRISTIE,AVELAR MACHADO,ANTIQUE BOOKSTORE,"DRAFTFCB PORTUGAL, Lisbon",PORTUGAL
JAMES JOYCE,AVELAR MACHADO,ANTIQUE BOOKSTORE,"DRAFTFCB PORTUGAL, Lisbon",PORTUGAL
RUG CHEST OF DRAWERS,TOK&STOK,FURNITURE STORE,"DDB BRASIL, São Paulo",BRAZIL
RUG CHAIR,TOK&STOK,FURNITURE STORE,"DDB BRASIL, São Paulo",BRAZIL
A.M.P.M. BLONDE GIRL,McDONALD’S AUSTRIA,McCAFÉ,"DDB TRIBAL GROUP, Vienna",AUSTRIA
A.M.P.M. BRUNETTE GIRL,McDONALD’S AUSTRIA,McCAFÉ,"DDB TRIBAL GROUP, Vienna",AUSTRIA
ALARM,CITY LODGE HOTELS,ROAD LODGE,TBWA\HUNT\LASCARIS JOHANNESBURG,SOUTH AFRICA
NATURE'S CALL,CITY LODGE HOTELS,ROAD LODGE,TBWA\HUNT\LASCARIS JOHANNESBURG,SOUTH AFRICA
LATE NIGHT TELEVISION,CITY LODGE HOTELS,ROAD LODGE,TBWA\HUNT\LASCARIS JOHANNESBURG,SOUTH AFRICA
CHINA,TUI,TUI TRAVEL,"GREY GROUP CHINA, Beijing",CHINA
AUSTRALIA,TUI,TUI TRAVEL,"GREY GROUP CHINA, Beijing",CHINA
EGYPT,TUI,TUI TRAVEL,"GREY GROUP CHINA, Beijing",CHINA
GERMANY,TUI,TUI TRAVEL,"GREY GROUP CHINA, Beijing",CHINA
AK-47,WHITE COLLAR HIPPIES,CORPORATE CAMPAIGN,"BBDO INDIA, Mumbai",INDIA
NUCLEAR REACTOR,WHITE COLLAR HIPPIES,CORPORATE CAMPAIGN,"BBDO INDIA, Mumbai",INDIA
WOUND,SONY COMPUTER ENTERTAINMENT,SONY PLAYSTATION,"TBWA\ESPAÑA, Madrid",SPAIN
INJECTION,SONY COMPUTER ENTERTAINMENT,SONY PLAYSTATION,"TBWA\ESPAÑA, Madrid",SPAIN
CITYSCAPE,LIFE CYCLE,BICYCLE,DDB GROUP SINGAPORE,SINGAPORE
TERRAIN,LIFE CYCLE,BICYCLE,DDB GROUP SINGAPORE,SINGAPORE
ROAD MAP,LIFE CYCLE,BICYCLE,DDB GROUP SINGAPORE,SINGAPORE
REFRIGERATOR,MATTEL TOYS,HOTWHEELS,"OGILVY & MATHER, Mumbai",INDIA
DRAWERS,MATTEL TOYS,HOTWHEELS,"OGILVY & MATHER, Mumbai",INDIA
SOFA,MATTEL TOYS,HOTWHEELS,"OGILVY & MATHER, Mumbai",INDIA
MATRIX RELOAD,FOX INTERNATIONAL CHANNELS MIDDLE,TV STATION,LEO BURNETT DUBAI,UNITED ARAB
,EAST,,,EMIRATES
HOLLYWOODLAND,FOX INTERNATIONAL CHANNELS MIDDLE,TV STATION,LEO BURNETT DUBAI,UNITED ARAB
,EAST,,,EMIRATES
SCARY MOVIE 4,FOX INTERNATIONAL CHANNELS MIDDLE,TV STATION,LEO BURNETT DUBAI,UNITED ARAB
,EAST,,,EMIRATES
ALIEN 3,FOX INTERNATIONAL CHANNELS MIDDLE,TV STATION,LEO BURNETT DUBAI,UNITED ARAB
,EAST,,,EMIRATES
GETTY BEAR,GETTY IMAGES,ROYALTY FREE IMAGES,"OGILVY & MATHER COLOMBIA, Bogotá",COLOMBIA
GETTY RALLY,GETTY IMAGES,ROYALTY FREE IMAGES,"OGILVY & MATHER COLOMBIA, Bogotá",COLOMBIA
GETTY SHARK,GETTY IMAGES,ROYALTY FREE IMAGES,"OGILVY & MATHER COLOMBIA, Bogotá",COLOMBIA
BROWN,DEVLYN DE MÉXICO,OPTICIAN - EYE EXAMS,BBDO MEXICO,MEXICO
GREEN,DEVLYN DE MÉXICO,OPTICIAN - EYE EXAMS,BBDO MEXICO,MEXICO
BLUE,DEVLYN DE MÉXICO,OPTICIAN - EYE EXAMS,BBDO MEXICO,MEXICO
SOFTWARE TERMS,VISIONLAB,PRESCRIPTION GLASSES,"PUBLICIS COMUNICACIÓN ESPAÑA,",SPAIN
,,,Madrid
LEASE CONTRACT,VISIONLAB,PRESCRIPTION GLASSES,"PUBLICIS COMUNICACIÓN ESPAÑA,",SPAIN
,,,Madrid
LITTLE RED RIDING HOOD,NATIONAL LIBRARY BOARD,NATIONAL LIBRARY BOARD,LEO BURNETT GROUP SINGAPORE,SINGAPORE
THE EMPEROR'S NEW CLOTHES,NATIONAL LIBRARY BOARD,NATIONAL LIBRARY BOARD,LEO BURNETT GROUP SINGAPORE,SINGAPORE
BOY,ALCOHOLICS ANONYMOUS,ALCOHOLICS ANONYMOUS,"JWT BRAZIL, São Paulo",BRAZIL
WOMAN,ALCOHOLICS ANONYMOUS,ALCOHOLICS ANONYMOUS,"JWT BRAZIL, São Paulo",BRAZIL
RESTAURANT,TRAFFICK LIGHTS,SEX TRAFFICKING AWARENESS,BBDO PROXIMITY SINGAPORE,SINGAPORE
MAID AGENCY,TRAFFICK LIGHTS,SEX TRAFFICKING AWARENESS,BBDO PROXIMITY SINGAPORE,SINGAPORE
CUCKOO CLOCK,McDONALD'S,KIDS BIRTHDAY PARTIES,"DDB SOUTH AFRICA, Johannesburg",SOUTH AFRICA
TROPHY,McDONALD'S,KIDS BIRTHDAY PARTIES,"DDB SOUTH AFRICA, Johannesburg",SOUTH AFRICA
PROFESSIONAL FOOTBALL PLAYER,BEIERSDORF PORTUGAL,HARMONY XL-FIT CONDOMS,"DRAFTFCB PORTUGAL, Lisbon",PORTUGAL
ARABIAN PRINCE,BEIERSDORF PORTUGAL,HARMONY XL-FIT CONDOMS,"DRAFTFCB PORTUGAL, Lisbon",PORTUGAL
FLOWER,VOLKSWAGEN,BLUEMOTION,"DDB UK, London",UNITED KINGDOM
GRAPH,VOLKSWAGEN,BLUEMOTION,"DDB UK, London",UNITED KINGDOM
BOUNCING COIN,VOLKSWAGEN,BLUEMOTION,"DDB UK, London",UNITED KINGDOM
CHEERING MAN,VOLKSWAGEN,BLUEMOTION,"DDB UK, London",UNITED KINGDOM
JACQUES,DONATE YOUR GARBAGE NGO,PUBLIC AWARENESS,"LEW'LARA\TBWA, São Paulo",BRAZIL
DOROTHY,DONATE YOUR GARBAGE NGO,PUBLIC AWARENESS,"LEW'LARA\TBWA, São Paulo",BRAZIL
WANGARI,DONATE YOUR GARBAGE NGO,PUBLIC AWARENESS,"LEW'LARA\TBWA, São Paulo",BRAZIL
CONFUSION,ORBIS,ORBIS FUNDRAISING,"OGILVY & MATHER, Hong Kong",HONG KONG
KNOTS,ORBIS,ORBIS FUNDRAISING,"OGILVY & MATHER, Hong Kong",HONG KONG
PUZZLE,ORBIS,ORBIS FUNDRAISING,"OGILVY & MATHER, Hong Kong",HONG KONG
STROKES,ORBIS,ORBIS FUNDRAISING,"OGILVY & MATHER, Hong Kong",HONG KONG
A,CLARO,MOBILE COMPANY,"OGILVY BRASIL, São Paulo",BRAZIL
T,CLARO,MOBILE COMPANY,"OGILVY BRASIL, São Paulo",BRAZIL
S,CLARO,MOBILE COMPANY,"OGILVY BRASIL, São Paulo",BRAZIL
I,CLARO,MOBILE COMPANY,"OGILVY BRASIL, São Paulo",BRAZIL
BALACLAVA,HARVEY NICHOLS,SUMMER SALE,"DDB UK, London",UNITED KINGDOM
STOCKING,HARVEY NICHOLS,SUMMER SALE,"DDB UK, London",UNITED KINGDOM
