Title,Advertiser/Client,Product/Service,Entrant Company,Country
Grand Prix,
BEST JOB IN THE WORLD,TOURISM QUEENSLAND,ISLANDS OF THE GREAT,"CUMMINSNITRO, Brisbane",AUSTRALIA
,,BARRIER REEF
Gold,
BANNER CONCERTS,AXION,YOUTH BANKING,"BOONDOGGLE, Leuven",BELGIUM
THE GREAT SCHLEP,JEWISH COUNCIL FOR EDUCATION &,THE GREAT SCHLEP,"DROGA5, New York",USA
RESEARCH,
LET IT RING,OVK/PARENTS OF CHILD ROAD VICTIMS,ROAD SAFETY AWARENESS,HAPPINESS BRUSSELS,BELGIUM
VILLAGE WHERE NOTHING,,SPECIALISED COUNCIL OF
EVER HAPPENS,CONECT,PAY TV THEMATIC,"SHACKLETON, Madrid",SPAIN
,,CHANNELS
TED696 PROJECT,LION NATHAN AUSTRALIA,TOOHEYS EXTRA DRY,"BMF, Sydney",AUSTRALIA
,,696ML
BEST JOB IN THE WORLD,TOURISM QUEENSLAND,ISLANDS OF THE GREAT,"CUMMINSNITRO, Brisbane",AUSTRALIA
,,BARRIER REEF
BANNER CONCERTS,AXION,YOUTH BANKING,"BOONDOGGLE, Leuven",BELGIUM
DANCE,T-MOBILE,T-MOBILE,"SAATCHI & SAATCHI, London",UNITED
,,,,KINGDOM
BEST JOB IN THE WORLD,TOURISM QUEENSLAND,ISLANDS OF THE GREAT,"CUMMINSNITRO, Brisbane",AUSTRALIA
,,BARRIER REEF
THE VILLAGE WHERE,COUNCIL OF PAY TV THEMATIC,PAY TV CHANNELS,"SHACKLETON, Madrid",SPAIN
NOTHING EVER HAPPENS,CHANNELS
LET IT RING,OVK/PARENTS OF CHILD ROAD VICTIMS,ROAD SAFETY AWARENESS,HAPPINESS BRUSSELS,BELGIUM
Silver,
THE NAVIGATIONLETTER,VOLKSWAGEN,NAVIGATION SYSTEMS,DDB GERMANY BERLIN,GERMANY
"DAIMLER AG, MERCEDES-BENZ",,,LUKAS LINDEMANN
FOLDER MAILING,VERTRIEBSORGANISATION,MERCEDES-BENZ SPRINTER,"ROSINSKI, Hamburg",GERMANY
DEUTSCHLAND,
VILLAGE WHERE NOTHING,SPECIALISED COUNCIL OF
EVER HAPPENS,CONECT,PAY TV THEMATIC,"SHACKLETON, Madrid",SPAIN
,,CHANNELS
PEACE MIRROR,SHISEIDO,d-PROGRAM,"HAKUHODO KETTLE, Tokyo",JAPAN
TED696 PROJECT,LION NATHAN AUSTRALIA,TOOHEYS EXTRA DRY,"BMF, Sydney",AUSTRALIA
,,696ML
"STORE+, THE STORE THAT",PORTUGUESE RED CROSS,RED CROSS DONATIONS,LEO BURNETT LISBOA,PORTUGAL
SELLS HOPE,
THE GOMERAN WHISTLE,WWW.BUSUU.COM,LANGUAGE LEARNING WEB,"LA DESPENSA, Madrid",SPAIN
"STORE+, THE STORE THAT",PORTUGUESE RED CROSS,RED CROSS DONATIONS,LEO BURNETT LISBOA,PORTUGAL
SELLS HOPE,
"WAKE UP, HUMANS!",AMNESTY INTERNATIONAL,HUMAN RIGHTS,"AIR, Brussels",BELGIUM
,,AWARENESS
YELLOW TREEHOUSE,YELLOW PAGES,YELLOW PAGES,"AIM PROXIMITY, Auckland",NEW ZEALAND
VILLAGE WHERE NOTHING,SPECIALIZED COUNCIL OF PAY TV,MIRAVETE DE LA SIERRA,"SHACKLETON, Madrid",SPAIN
EVER HAPPENS,THEMATIC CHANNELS
TRILLION DOLLAR,THE ZIMBABWEAN,THE ZIMBABWEAN,TBWA\HUNT\LASCARIS,SOUTH AFRICA
CAMPAIGN,,NEWSPAPER,JOHANNESBURG
Bronze,
XTREME PRECISION,KOMATSU,CONSTRUCTION MACHINES,"DUVAL GUILLAUME, Antwerp",BELGIUM
THE HOMELESS LETTER,GOTHENBURG HOMELESS AID,HOMELESS CHARITY,"GOSS, Gothenburg",SWEDEN
BOOK ON PAPER,VERLAGSGRUPPE LÜBBE & CO.,"SARAH LORD, 'ACROSS A","SERVICEPLAN, Munich",GERMANY
HANDKERCHIEFS,,WILD SEA'
ABODE CS4 TROJANHORSE,2009.00000000,DTP JOB VACANCY,"2009, Amsterdam",THE
,,,,NETHERLANDS
STEP ON STEP,STEP CARPET,STEP CARPET,TBWA\ISTANBUL,TURKEY
BANK TRANSFER JOB-AD,DRAFTFCB KOBZA,JOBS POSTING,"DRAFTFCB KOBZA, Vienna",AUSTRIA
THE LEGO CODES,MYTOYS.DE,LEGO BRICK BOXES,LUKAS LINDEMANN,GERMANY
,,,"ROSINSKI, Hamburg"
THROW US A BONE,SYDNEY DOGS & CATS HOME,ANIMAL RESCUE SHELTER,"M&C SAATCHI/MARK,",AUSTRALIA
,,,Sydney
BLUEMOTION PETROL,VOLKSWAGEN,POLO BLUEMOTION,DDB GERMANY HAMBURG,GERMANY
RECEIPT,
UNBREAKABLE KISS,DE BEERS,DE BEERS DIAMONDS,"JWT, New York",USA
PARKING TICKET,SPORTSPEC,BICYCLE RETAILER,"GOSS, Gothenburg",SWEDEN
CONVERTER,
CHANGED CREDITS &,RADIO STATION STUDIO BRUSSELS,MUSIC FOR LIFE,"MORTIERBRIGADE, Brussels",BELGIUM
EPISODES,
WHEN WILL THE FRUIT,PASCALL,CONFECTIONERY,"DDB NEW ZEALAND,",NEW ZEALAND
BURST,,,Auckland
FLIRTING WITH SOUND,MTR ELEMENTS,ELEMENTS MALL,"McCANN WORLDGROUP,",HONG KONG
,,,Hong Kong
BETTER SOCCER FOR,BELGACOM TV,DIGITAL TV SOCCER,"FAMOUS, Brussels",BELGIUM
BETTER TELEVISION,,SUBSCRIPTIONS
THE LEGO CODES,MYTOYS.DE,LEGO BRICK BOXES,LUKAS LINDEMANN,GERMANY
,,,"ROSINSKI, Hamburg"
BUSINESS CARDS,DE LIJN,PUBLIC TRANSPORT,DUVAL GUILLAUME,BELGIUM
,,COMPANY,BRUSSELS
MAGIC SALAD PLATE,FOUR'N TWENTY MEAT PIES,FOUR'N TWENTY MEAT PIES,CLEMENGER BBDO,AUSTRALIA
,,,MELBOURNE
BLUEMOTION PETROL,VOLKSWAGEN,VW POLO BLUEMOTION,DDB GERMANY HAMBURG,GERMANY
RECEIPT,
FLICKR,DAIMLER,MERCEDES-BENZ,"JUNG von MATT, Hamburg",GERMANY
THE NAVIGATIONLETTER,VOLKSWAGEN,VOLKSWAGEN NAVIGATION,DDB GERMANY BERLIN,GERMANY
,,SYSTEMS
GETTINGUTHRU,ANZ BANK,TERTIARY BANKING,"RAPP NEW ZEALAND,",NEW ZEALAND
,,,Auckland
FLIRTING WITH SOUND,MTR ELEMENTS,ELEMENTS MALL,"McCANN WORLDGROUP,",HONG KONG
,,,Hong Kong
THE LEGO CODES,MYTOYS.DE,LEGO BRICK BOXES,LUKAS LINDEMANN,GERMANY
,,,"ROSINSKI, Hamburg"
TED696 PROJECT,LION NATHAN AUSTRALIA,TOOHEYS EXTRA DRY,"BMF, Sydney",AUSTRALIA
,,696ML
FERNANDO TORRES,BANCO GALLEGO,BANKING,"CONTRAPUNTO, Madrid",SPAIN
