TITLE,ADVERTISER,PRODUCT,ENTRANT COMPANY,COUNTRY
GRAND PRIX,
A05 Financial Products & Services,
MONEY GOES DIGITAL,ASB BANK,MONEY TRANSFER SERVICE,OMD NEW ZEALAND Auckland,NEW ZEALAND
GOLD LION,
A01 Fast Moving Consumer Goods,
DORITOS CRASH THE SUPER BOWL,FRITO-LAY,DORITOS TORTILLA CHIPS,OMD USA New York,USA
A04 Other Consumer Products,
A TIME MACHINE? A WASHING,HITACHI,WASHING MACHINES,DENTSU Tokyo,JAPAN
MACHINE?,
"A08 Retail And E-Commerce, Incl. Restaurants",
IKEA LAUNCH COMMUNICATIONS IN    IKEA JAPAN,,IKEA FURNITURE STORE,ADK Tokyo,JAPAN
JAPAN,
A10 Publications & Media,
GET SCARED MORE OFTEN,CORUS ENTERTAINMENT,SCREAM TV TELEVISION CHANNEL,ZIG Toronto,CANADA
A12 Corporate Information,
BARRIO BONITO,NIKE,NIKE,BBDO ARGENTINA Buenos Aires,ARGENTINA
B04 Best Use of Newspapers,
LOVE OF WRITING,PEN & ART,MONT BLANC FOUNTAIN PENS,THE JUPITER DRAWING ROOM SOUTH,SOUTH AFRICA
,,,AFRICA Cape Town
B05 Best Use of Outdoor,
NOT HERE BUT NOW,AMNESTY INTERNATIONAL,HUMAN RIGHTS CAMPAIGN,WALKER Zurich,SWITZERLAND
FATHER'S DAY,C&A,CLOTHING RETAIL STORE,DDB Brussels,BELGIUM
B11 Best Use of Sponsorship,
PRELIMINARIES 2006 SOCCER WORLD,PHILIPS ARGENTINA,FLAT SCREEN TELEVISIONS,FiRe ADVERTAINMENT Acassuso,ARGENTINA
CUP,
SILVER LION,
A01 Fast Moving Consumer Goods,
THE ONE,CERVECERIA NACIONAL DOMINICANA,THE ONE BEER,OMD DOMINICANA Santo Domingo,DOMINICAN REPUBLIC
A06 Commercial Public Services,
RECYCLING,EMP,RECYCLING COMPANY,UNIVERSAL MCCANN Vilnius,LITHUANIA
A10 Publications & Media,
COMIC SHOGAKUKAN BOOKS,SHOGAKUKAN,COMIC BOOKS,DENTSU Tokyo,JAPAN
,"A13 Charities, Public Health & Safety, Public Awareness Messages"
NOT HERE BUT NOW,AMNESTY INTERNATIONAL,HUMAN RIGHTS ABUSE CAMPAIGN,WALKER Zurich,SWITZERLAND
1 IN 8 WOMEN,AVON COSMETICS ROMANIA,BREAST CANCER AWARENESS,STARCOM MEDIA Bucharest,ROMANIA
B02 Best Use of Cinema,
CINEMA CURTAIN,BEIERSDORF,Q10 ANTI-DRUG PRODUCTS,TBWA\WIEN,AUSTRIA
B06 Best Use of Ambient Media: Small Scale,
BRACELETS,MÉDECINS SANS FRONTIÈRES /,MALNUTRITION CAMPAIGN,DUVAL GUILLAUME Brussels,BELGIUM
,ARTSEN ZONDER GRENZEN
FIRST IMPRESSION,MERCEDES-BENZ STUTTGART,MERCEDES-BENZ,BBDO STUTTGART,GERMANY
B08 Best Use of Special Events and Stunts,
SCREAM,CORUS ENTERTAINMENT,SCREAM TV TELEVISION CHANNEL,ZIG Toronto,CANADA
B10 Best Use of Internet/New Media,
BLOODY LEGENDS,LAND TRANSPORT NEW ZEALAND,ANTI DRINK DRIVING CAMPAIGN,CLEMENGER BBDO Wellington,NEW ZEALAND
C01 Use of Mixed Media,
SEARCH FOR LARA,ATARI,TOMB RAIDER COMPUTER GAME,IKON COMMUNICATIONS Sydney,AUSTRALIA
BRONZE LION,
A01 Fast Moving Consumer Goods,
THE DIFFERENCE IS K,KELLOGG'S,SPECIAL K FOOD PRODUCTS,STARCOM USA Chicago,USA
A02 Cars & Automotive Services,
SCHLAEMMER'S QUEST,VOLKSWAGEN,VW GOLF,DDB GERMANY Berlin,GERMANY
"A03 Clothing, Footwear & Accessories",
VIRTUAL GOALS,ADIDAS,PREDATOR/F50 FOOTBALL BOOTS,ISOBAR GLOBAL London,UNITED KINGDOM
A04 Other Consumer Products,
GANGS OF LONDON,SONY COMPUTER ENTERTAINMENT,GANGS OF LONDON PSP COMPUTER,20:20 LONDON,UNITED KINGDOM
,EUROPE,GAME
A05 Financial Products & Services,
NOW WHAT,STATE FARM,INSURANCE,OMD USA New York,USA
A06 Commercial Public Services,
LIVING VIDEO,GOOGLE GERMANY,GOOGLE VIDEO WEBSITE,KOLLE REBBE WERBEAGENTUR,GERMANY
,,,Hamburg
"A08 Retail And E-Commerce, Incl. Restaurants",
SUNDIAL,McDONALD'S,McDONALD'S RESTAURANTS,LEO BURNETT USA Chicago,USA
A11 Business Products & Services,
COMMERCIAL BREAK,DPWN,DHL COURIER SERVICE,JUNG von MATT Berlin,GERMANY
A12 Corporate Information,
THE PEOPLE CHAIN,DEUTSCHE TELEKOM,TELEPHONE NETWORK PROVIDER,MEDIACOM GERMANY Duesseldorf,GERMANY
ENTRANCE BANNERS,BANCO DO BRASIL,BANK,ARTPLAN Rio de Janeiro,BRAZIL
,"A13 Charities, Public Health & Safety, Public Awareness Messages"
VERB YELLOWBALL,CENTRES FOR DISEASE CONTROL AND,YOUTH OBESITY CAMPAIGN,ARC WORLDWIDE Chicago,USA
,PREVENTION
B01 Best Use of TV,
DONBEI,NISSIN FOOD PRODUCTS,INSTANT NOODLES,ADK Tokyo,JAPAN
REAL WOMEN,UNILEVER,DOVE BODYWASH,MINDSHARE USA New York,USA
B02 Best Use of Cinema,
XBOX LIVE,MICROSOFT,XBOX,CINEVATION Johannesburg,SOUTH AFRICA
B03 Best Use of Magazines,
PAGES,MOTOROLA,MOTOROLA C261,OGILVY & MATHER COLOMBIA Bogota,COLOMBIA
PIMPLE,RECKITT BENCKISER DEUTSCHLAND,CLEARASIL FACE WASH,EURO RSCG Duesseldorf,GERMANY
B04 Best Use of Newspapers,
DO U GET IT?,VODAFONE,SMS SERVICE,OMD SPAIN Madrid,SPAIN
B05 Best Use of Outdoor,
FLOODED CITY INFO MAPS,,EARTH LOVE MOVEMENT FOUNDATION GLOBAL WARMING AWARENESS,JUNG von MATT Hamburg,GERMANY
B06 Best Use of Ambient Media: Small Scale,
MONEY IS THE MEDIUM,ASB BANK,MOBILE CASH TRANSFER SERVICE,OMD NEW ZEALAND Auckland,NEW ZEALAND
SHOPPING,BOEHRINGER INGELHEIM DO BRASIL,MUCOSOLVAN COUGH SYRUP,LEO BURNETT BRASIL Sao Paulo,BRAZIL
B07 Best Use of Ambient Media: Large Scale,
FLOATING HANDS,YAYASAN REBANA INDONESIA,NGO TSUNAMI RELIEF,JWT Jakarta,INDONESIA
BIG SHADOW,MICROSOFT CORPORATION,XBOX 360,GT Tokyo,JAPAN
MONTANA METH,MONTANA METH PROJECT,DRUG PREVENTION CAMPAIGN,OMD USA New York,USA
B08 Best Use of Special Events and Stunts,
DRUNK DRIVING CAN BE FUN,TOOT-N-SCOOT,TAXI SERVICE,TEQUILA\JOHANNESBURG,SOUTH AFRICA
HYPNOMARKETING,ICON CLOTHING,GOLF PUNK APPAREL,NAKED COMMUNICATIONS Sydney,AUSTRALIA
B09 Best Use of Radio,
EXCLUSIVE TRAFFIC FM,SULAMÉRICA,CAR INSURANCE,MPM PROPAGANDA Sao Paulo,BRAZIL
B10 Best Use of Internet/New Media,
AKARIUM CALL PROJECT,HARAJUKU OMOTESANDO KEYAKI-KAI,AKARIUM CALL PROJECT,777INTERACTIVE Tokyo,JAPAN
B11 Best Use of Sponsorship,
BLUE GENERATION,BBVA,BLUE FINANCIAL PRODUCTS,OMD SPAIN Madrid,SPAIN
C01 Use of Mixed Media,
MONEY GOES DIGITAL,ASB BANK,CASH TRANSFER SERVICE,OMD NEW ZEALAND Auckland,NEW ZEALAND
A TIME MACHINE? A WASHING,HITACHI,WASHING MACHINES,DENTSU Tokyo,JAPAN
MACHINE?,
