Title,Advertiser/Client,Product/Service,Entrant Company,Country
A01 Foods & Drinks,
BABYCARROTS.COM,BOLTHOUSE,BABY CARROTS,CRISPIN PORTER +,USA
,FARMS,,"BOGUSKY, Boulder"
FAN 400,COKE ZERO,COKE ZERO,CRISPIN PORTER +,USA
,,,"BOGUSKY, Boulder"
PERRIER BY DITA,NESTLÉ WATERS,PERRIER,"OGILVY FRANCE, Paris",FRANCE
A02 Automotive Products & Services,
TRUE LIFE COSTS,VOLKSWAGEN,,"VOLKSWAGEN VALUE  DDB UK, London",UNITED
,,,,KINGDOM
LIVE DRIVE,MITSUBISHI,MITSUBISHI,"180LA, Santa Monica",USA
,MOTORS,OUTLANDER SPORT
,,,FORSMAN &
XC TRAVELS,VOLVO,CARS,"BODENFORS,",SWEDEN
,,,Gothenburg
THE WINTER ADJUSTED OFFER,VOLKSWAGEN,,VW PASSAT 4MOTION  DDB STOCKHOLM,SWEDEN
A04 Healthcare & Medical,
DREAM RECOMMENDER,HELP REMEDIES,HELP I CAN'T SLEEP,"AGENCYTWOFIFTEEN,",USA
,,,San Francisco
"A05 Clothing, Footwear & Accessories",
TABIO SLIDE SHOW,TABIO,LEGWEAR,"PROJECTOR, Tokyo",JAPAN
ADIDAS SKYCOMIC,ADIDAS,ADIDAS FOOTBALL,"TBWA\HAKUHODO,",JAPAN
,,,Tokyo
LUCKY MACHINE,UNIQLO,CLOTHING,"DENTSU, Tokyo",JAPAN
WORN ACROSS AMERICA,WRANGLER,WRANGLER SS11,"STINK DIGITAL, London",UNITED
,,,,KINGDOM
RUN FWD:,NIKE,IPHONE APP,WIEDEN+KENNEDY,JAPAN
,,,TOKYO
SNEAKERPEDIA,FOOT LOCKER,FOOT LOCKER,"SAPIENTNITRO, London",UNITED
,,,,KINGDOM
LUCKY LINE,UNIQLO,UNIQLO SPECIAL,"DENTSU, Tokyo",JAPAN
,,SALE
FASHION INSIDERS,LOUIS VUITTON,WINTER 11/12,"OGILVY FRANCE, Paris",FRANCE
,,FASHION SHOW
WRITE THE FUTURE,NIKE,NIKE FOOTWEAR,WIEDEN+KENNEDY,JAPAN
,,,TOKYO
,,,FORSMAN &
THE PROMISE KEEPER,REEBOK,SHOES,"BODENFORS,",SWEDEN
,,,Gothenburg
FREE,NIKE,APPAREL,"R/GA, New York",USA
THE BLACK MAMBA,NIKE,APPAREL,"R/GA, New York",USA
A06 Other Consumer Products (including Durable Goods),
HAPPY INSIDE,IKEA,IKEA CATALOGUE,"MOTHER, London",UNITED
,,,,KINGDOM
HARMONY,JOHN LEWIS,HARMONY,"ADAM & EVE, London",UNITED
,,,,KINGDOM
WORLD OF EOS,CANON,EOS,LEO BURNETT,AUSTRALIA
,,,SYDNEY
40-DAY BED-IN,FLEX,MATTRESS,"SRA RUSHMORE,",SPAIN
,,,Madrid
A07 Financial Services,
56 SAGE STREET,BARCLAYS,BARCLAYS,"BBH, London",UNITED
,,MONEYSKILLS,,KINGDOM
,,,FORSMAN &
SEND A MESSAGE TO THE FUTURE,AMF,PENSION FUNDS,"BODENFORS,",SWEDEN
Gothenburg,
"A08 Travel, Entertainment & Leisure",
"GOOGLE, Mountain",
ART PROJECT,GOOGLE,GOOGLE GEO,,USA
,,,View
,RMN /GRAND
MONET 2010,PALAIS /CONSEIL,MONET EXHIBITION,"FABERNOVEL, Paris",FRANCE
,DE LA CRÉATION
,ARTISTIQUE
HALO REACH: REMEMBER REACH,MICROSOFT XBOX,HALO: REACH,"AKQA, San Francisco",USA
,,,GOODBY
ADOBE MUSEUM OF DIGITAL MEDIA,ADOBE,ADOBE MUSEUM,SILVERSTEIN &,USA
,,,"PARTNERS, San"
,,,Francisco
"A09 Retail & E-Commerce, including Restaurants",
THE HUMAN JUKEBOX,PAUSE HOME,HI-FI STORES,"ÅKESTAM HOLST,",SWEDEN
,ENTERTAINMENT,,Stockholm
,,,FORSMAN &
LULLABIES,IKEA,IKEA,"BODENFORS,",SWEDEN
,,,Gothenburg
THE MOST LIKED PROVISION SHOP,ZHA HUO DIAN,RETAIL,JWT XM SINGAPORE,SINGAPORE
A10 Publications & Media,
THE WILDERNESS DOWNTOWN,GOOGLE,ARCADE FIRE,GOOGLE CREATIVE,USA
,,,"LAB, New York"
,,,MASASHI QANTA
SOUR/MIRROR,ZENITH,INDEPENDENT BAND,"SAQOOSHA HIROKI,",JAPAN
,,,Tokyo
CARLOS,CANAL +,TV CHANNEL,"BETC EURO RSCG,",FRANCE
,,,Paris
A11 Business Products & Services,
CHANGING WORLD,FEDEX,FEDEX,"BBDO GUERRERO,",THE
,,,Makati City,PHILIPPINES
GOOGLE DEMO SLAM,GOOGLE,GOOGLE,JOHANNES,USA
,,INNOVATIONS,"LEONARDO, New York"
A12 Advertising & Media,
PROJEQT,TBWA\WORLDWIDE,PROJEQT WEB,"TBWA\WORLDWIDE,",USA
,,PUBLISHING TOOL,New York
A13 Commercial Public Services,
LOST IN VAL SINESTRA,SWISSCOM,SWISSCOM TV,"CONTEXTA, Bern",SWITZERLAND
LIVING CHRISTMAS CARDS,THE SWEDISH,POSTAL SERVICE,"ÅKESTAM HOLST,",SWEDEN
,POST,,Stockholm
THE SOUND OF GREEN,THE SWEDISH,POSTAL SERVICE,"ÅKESTAM HOLST,",SWEDEN
,POST,,Stockholm
PETITE LAP GIRAFFE,DIRECTV,TELECOM,GREY NEW YORK,USA
"A14 Charities, Public Health & Safety, Public Awareness Messages",
BETTER WORLD,NIKE,NIKE BETTER,"WIEDEN+KENNEDY,",USA
,,WORLD WEBSITE,Portland
,HIROSHIMA PEACE,NUCLEAR WEAPONS
PEACE SHADOW PROJECT,MEMORIAL,AWARENESS,"HAKUHODO, Tokyo",JAPAN
,MUSEUM
HOMELESS BANNERS,STOCKHOLMS,HOMELESSENESS,"GARBERGS, Stockholm",SWEDEN
,STADSMISSION,CHARITY
A NEW WARRIOR,GREENPEACE,GREENPEACE,DDB PARIS,FRANCE
,"NANHI KALI, K.C.",,"STRAWBERRYFROG,"
THE GIRL STORE,MAHINDRA,EDUCATION TRUST,New York,USA
,EDUCATION TRUST
A15 Corporate Information,
FANTASY CHEATERS LEAGUE,HOST,ONLINE GAME,"HOST, Sydney",AUSTRALIA
,,,FORSMAN &
FASHION AWARD,IKEA,,"DEPARTMENT STORE  BODENFORS,",SWEDEN
,,,Gothenburg
WE ARE TENNIS,BNP PARIBAS,WE ARE TENNIS,"R/GA, London",UNITED
,,WEBSITE,,KINGDOM
A16 Miscellaneous,
WALL OF FAME,EDDING,STATIONARY,"KEMPERTRAUTMANN,",GERMANY
,INTERNATIONAL,,Hamburg
B01 Best Digitally Led Integrated Campaign,
M&M'S FIND RED,MARS,M&M'S,PROXIMITY CANADA,CANADA
SUPER MEGA RAINBOW UPDATER,WRIGLEY,SKITTLES,TBWA\LONDON,UNITED
,,,,KINGDOM
NOKIA PUSH SNOWBOARDING,NOKIA,NOKIA N8,"HYPERNAKED, London",UNITED
,,,,KINGDOM
RESPONSE CAMPAIGN,PROCTER &,OLD SPICE BODY,"WIEDEN+KENNEDY,",USA
,GAMBLE,WASH,Portland
TWEET RACE,MERCEDES-BENZ,AUTOMOBILE,"RAZORFISH, New York",USA
WALL OF FAME,EDDING,STATIONARY,"KEMPERTRAUTMANN,",GERMANY
,INTERNATIONAL,,Hamburg
THE CHANCE,NIKE,NIKE FOOTBALL,"AKQA, London",UNITED
,,,,KINGDOM
MINI WORLD RECORD ATTEMPT,MINI,MINI COUNTRYMAN,"PROFERO, London",UNITED
,,,,KINGDOM
THE HEART OF PUERTO RICO,PEPSICO,GATORADE,JWT SAN JUAN,PUERTO RICO
TAKE THE CITY,NIKE,NIKE RUNNING,"BOONDOGGLE, Leuven",BELGIUM
,,,FORSMAN &
THE PROMISE KEEPER,REEBOK,SHOES,"BODENFORS,",SWEDEN
,,,Gothenburg
NOKIA N8 CAMPAIGN,NOKIA,NOKIA N8,"WIEDEN+KENNEDY,",UNITED
,,,London,KINGDOM
DULUX WALLS,AKZO NOBEL,DULUX,EURO RSCG LONDON,UNITED
,,,,KINGDOM
YOUR MOM HATES DEAD SPACE 2,ELECTRONIC ARTS,DEAD SPACE 2,"DRAFTFCB, San",USA
,,,Francisco
CHROME FAST,GOOGLE,CHROME BROWSER,"BBH, New York",USA
DECODE JAY-Z WITH BING,BING/JAY-Z,DECODE JAY-Z WITH,"DROGA5, New York",USA
,,BING
SHOW US YOUR PIZZA,DOMINO'S,DOMINO'S,CRISPIN PORTER +,USA
,,,"BOGUSKY, Boulder"
,,,FORSMAN &
LULLABIES,IKEA,"DEPARTMENT STORE  BODENFORS,",,SWEDEN
,,,Gothenburg
C01 Foods and Drinks,
BREAKTHROUGH CAMPAIGN,HEINEKEN,DESPERADOS,"MEDIAMONKS,",THE
,INTERNATIONAL,,Hilversum,NETHERLANDS
C02 Automotive Products & Services,
TEST DRIVE ON COMMAND,NISSAN MIDDLE,NISSAN PATROL,"TBWA\RAAD, Dubai",UNITED ARAB
,EAST,,,EMIRATES
ONLINE GUERRILLA,MERCEDES-BENZ,MERCEDES-BENZ,"N=5, Amsterdam",THE
,,SPRINTER,,NETHERLANDS
"C05 Clothing, Footwear & Accessories",
LUCKY COUNTER,UNIQLO,CLOTHING,"DENTSU, Tokyo",JAPAN
C06 Other Consumer Products,
LEGO BUILDERS OF INFINITY,LEGO,LEGO,"SERVICEPLAN, Munich",GERMANY
EDDING DIGITAL HIGHLIGHTER,EDDING,DIGITAL,"KEMPERTRAUTMANN,",GERMANY
,INTERNATIONAL,HIGHLIGHTER,Hamburg
"C14 Charities, Public Health & Safety, Public Awareness",
,,CHRISTMAS,OGILVYONE
€1.20 YOUTUBE VIDEO,ING DIRECT,CAMPAIGN FOR,"WORLDWIDE, Madrid",SPAIN
,,UNICEF
HOMELESS BANNERS,STOCKHOLMS,HOMELESSENESS,"GARBERGS, Stockholm",SWEDEN
,STADSMISSION,CHARITY
D01 Best Copywriting,
WORLD'S LONGEST BANNER,BMW,BMW X3 LAUNCH,"CUNDARI, Toronto",CANADA
HURTS DON'T LET GO - AN INTERACTIVE AUDIO NOVEL ON,,,SONY MUSIC,UNITED
SPOTIFY,RCA,HURTS 'HAPPINESS',ENTERTAINMENT UK,KINGDOM
,,,"CREATIVE, London"
MAJESTIC PLASTIC BAG,HEAL THE BAY,PUBLIC SERVICE,"DDB, Los Angeles",USA
ANNOUNCEMENT,
,TOYOTA MOTOR,,SAATCHI & SAATCHI
SWAGGER WAGON,,TOYOTA SIENNA,,USA
,SALES,,LA
PRIUS GOES PLURAL INTRO WEB VIDEO,TOYOTA MOTOR,TOYOTA PRIUS,SAATCHI & SAATCHI,USA
,SALES,,LA
RESPONSE CAMPAIGN JS BEALS,PROCTER &,OLD SPICE BODY,"WIEDEN+KENNEDY,",USA
,GAMBLE,WASH,Portland
D02 Best Music/Sound Design,
WORLD'S SMALLEST CHARACTER ANIMATION,NOKIA,NOKIA N8,"WAVE STUDIOS,",UNITED
,,,London,KINGDOM
SOUNDS LIKE: DARK RIDE,LEXUS,LEXUS CT 200H,"SKINNY, New York",USA
XYLOPHONE,NTT DOCOMO,MOBILE PHONE,"DRILL, Tokyo",JAPAN
MADE IN USA,WRANGLER,BLUEBELL SS11,"STINK DIGITAL, London",UNITED
,,,,KINGDOM
CURIOUSLY STRONG AWARDS,WRIGLEY,ALTOIDS,"EVOLUTION BUREAU,",USA
,,,San Francisco
VARIATIONS 2010,NESPRESSO,COFFEE CAPSULES,"SOLEIL NOIR, Paris",FRANCE
BRICK THIEF,LEGO,LEGO,"PEREIRA & O'DELL,",USA
,,,San Francisco
,,,"TELECOMMUNICATIO- SAATCHI & SAATCHI,",UNITED
WELCOME BACK,T-MOBILE,NS,London,KINGDOM
,,,FORSMAN &
LULLABIES,IKEA,IKEA,"BODENFORS,",SWEDEN
,,,Gothenburg
SWAGGER WAGON,TOYOTA MOTOR,TOYOTA SIENNA,SAATCHI & SAATCHI,USA
,SALES,,LA
THE EMOTION PLANNER,THE ROYAL OPERA,OPERA,DDB STOCKHOLM,SWEDEN
,IN STOCKHOLM
D03 Animation,
TRUE LIFE COSTS,VOLKSWAGEN,,"VOLKSWAGEN VALUE  DDB UK, London",UNITED
,,,,KINGDOM
SECRET RACE BATTLE,MATTEL,HOT WHEELS,MUSE AMSTERDAM,THE
,,,,NETHERLANDS
VARIATIONS 2010,NESPRESSO,COFFEE CAPSULES,"SOLEIL NOIR, Paris",FRANCE
,,,RAINEY KELLY,UNITED
CLAYNATION INTERVIEW,LAND ROVER,FREELANDER 2,CAMPBELL,KINGDOM
"ROALFE/Y&R, London",
RMN/GRAND,
MONET2010,PALAIS/CONSEIL,MONET EXHIBITION,"FABERNOVEL, Paris",FRANCE
,DE LA CRÉATION
,ARTISTIQUE
WORLDS SMALLEST CHARACTER ANIMATION,NOKIA,NOKIA N8,AARDMAN,UNITED
,,,"ANIMATIONS, Bristol",KINGDOM
ATTRACTION,INPES,TOBACCO,DDB PARIS,FRANCE
,,AWARENESS
D04 Interface & Navigation,
HIDDEN HEROES,HI-CONE,MULTIPACK,GRIMM GALLUN,GERMANY
,,,"HOLTAPPELS, Hamburg"
TRUE LIFE COSTS,VOLKSWAGEN,,"VOLKSWAGEN VALUE  DDB UK, London",UNITED
,,,,KINGDOM
WALL OF FAME,EDDING,STATIONARY,"KEMPERTRAUTMANN,",GERMANY
,INTERNATIONAL,,Hamburg
,RMN/GRAND
MONET2010,PALAIS/CONSEIL,MONET EXHIBITION,"FABERNOVEL, Paris",FRANCE
,DE LA CRÉATION
,ARTISTIQUE
,,,FORSMAN &
LULLABIES,IKEA,IKEA,"BODENFORS,",SWEDEN
,,,Gothenburg
360°,RENAULT,ESPACE,"PUBLICIS CONSEIL,",FRANCE
,,,Paris
,,,GOODBY
YAHOO! BUS STOP DERBY,YAHOO!,YAHOO!,SILVERSTEIN &,USA
,,,"PARTNERS, San"
,,,Francisco
D05 Illustration and Graphic Design,
PIXIE,NESPRESSO,COFFEE MACHINE,"SOLEIL NOIR, Paris",FRANCE
THE NEW RAINBOW,
A NEW WARRIOR,GREENPEACE,,"LES 84, Paris",FRANCE
,,WARRIOR
,RMN /GRAND
MONET2010,PALAIS /CONSEIL,MONET EXHIBITION,"FABERNOVEL, Paris",FRANCE
,DE LA CRÉATION
,ARTISTIQUE
BELIEVE IN A NEW GOD,ROLLING STONE,MAGAZINE,"MARCEL, Paris",FRANCE
,MAGAZINE
WALL OF FAME,EDDING,STATIONARY,"KEMPERTRAUTMANN,",GERMANY
,INTERNATIONAL,,Hamburg
ATTRACTION,INPES,TOBACCO,DDB PARIS,FRANCE
,,AWARENESS
BREW BY FEEL,CARLTON UNITED,CASCADE BREWERY,DROGA5 SYDNEY,AUSTRALIA
,BREWERIES
D06 Photography,
STUNT,VF EUROPE,WRANGLER,FRED & FARID PARIS,FRANCE
DIESEL ISLAND,DIESEL,DIESEL APPAREL,"STINK DIGITAL, London",UNITED
,,,,KINGDOM
THE FIRST IPAD MOTION COVER & INTERACTIVE SPREAD,VIV MAG,VIV MAGAZINE,"ALEXX HENRY, Los",USA
,,,Angeles
D07 Best Use of Video,
,,HOME
THE INFINITE HOUSE,HORNBACH DIY,IMPROVEMENT,"HEIMAT, Berlin",GERMANY
,,SUPERSTORES
THE WILDERNESS DOWNTOWN,GOOGLE,ARCADE FIRE,GOOGLE CREATIVE,USA
,,,"LAB, New York"
HERDING CATS EXPERIMENT,IKEA,IKEA CATALOGUE,"MOTHER, London",UNITED
,,,,KINGDOM
,,,MASASHI QANTA
SOUR/MIRROR,ZENITH,INDEPENDENT BAND,"SAQOOSHA HIROKI,",JAPAN
,,,Tokyo
MADE IN USA,WRANGLER,BLUEBELL SS11,"STINK DIGITAL, London",UNITED
,,,,KINGDOM
,"NANHI KALI, K.C.",EDUCATION FOR,"STRAWBERRYFROG,"
A GIRL STORY,MAHINDRA,YOUNG GIRLS,New York,USA
,EDUCATION TRUST
A HUNTER SHOOTS A BEAR,BIC TIPP-EX,POCKET MOUSE,"BUZZMAN, Paris",FRANCE
CHROME FASTBALL,GOOGLE,CHROME BROWSER,"BBH, New York",USA
E01 Mobile Advertising,
HAVE A CAMPER DAY,CAMPER,CAMPER,"HERRAIZ SOTO,",SPAIN
,,,Barcelona
LEAF IAD,NISSAN,NISSAN LEAF,"TBWA\CHIAT\DAY LA,",USA
,,,Los Angeles
VENDING MACHINE,MINI CANADA,THE 2011 MINI R5X,"TAXI 2, Toronto",CANADA
HEAT MWC,GOOGLE,MOBILE APP,"JUNG von MATT,",SWEDEN
,,,Stockholm
GETAWAY STOCKHOLM,MINI,MINI COUNTRYMAN,"JUNG von MATT,",SWEDEN
,,,Stockholm
THIS UNPREDICTABLE LIFE,HONDA,HONDA JAZZ,"WIEDEN+KENNEDY,",UNITED
,,,London,KINGDOM
BOOM,NIKE,MOBILE APP,"R/GA, New York",USA
NIKE FOOTBALL+ TEAM EDITION,NIKE,NIKE FOOTBALL,"AKQA, London",UNITED
,,COACHING APP,,KINGDOM
TRAINING CLUB,NIKE,NIKE WOMEN,"AKQA, London",UNITED
,,,,KINGDOM
AIRWALK IPUS,AIRWALK,FOOTWEAR,"Y&R, New York",USA
STREAM,LYNX,MOBILE & SOCIAL,"RAZORFISH, New York",USA
,,PLATFORM
THE HEART OF PUERTO RICO,PEPSICO,GATORADE,JWT SAN JUAN,PUERTO RICO
OWN VOICE,NOKIA,NOKIA OVI STORE,"WIEDEN+KENNEDY,",UNITED
,,,London,KINGDOM
HEINEKEN STARPLAYER,HEINEKEN,STARPLAYER,"AKQA, London",UNITED
KINGDOM,
,REPORTERS,NON
THE VOICE,WITHOUT,GOVERNMENTAL,PUBLICIS BRUSSELS,BELGIUM
,BORDERS,ORGANISATION
,,,GOODBY
DALI MUSEUM IPHONE APP,DALI MUSEUM,HIPSTAMATIC,SILVERSTEIN &,USA
,,IPHONE APP,"PARTNERS, San"
,,,Francisco
NIKE+ GPS,NIKE,MOBILE APP,"R/GA, New York",USA
"E02 Interactive Tools (for PCs, MACs, etc)",
E-FOLDER SET,IKEA,IKEA,"LABORATORY IDEAS,",HUNGARY
,,,Budapest
PROJEQT,TBWA\WORLDWIDE,PROJEQT WEB,"TBWA\WORLDWIDE,",USA
,,PUBLISHING TOOL,New York
SAVE AS WWF,WWF,WWF,"JUNG von MATT,",GERMANY
,DEUTSCHLAND,,Hamburg
E03 Community Applications,
SOCIAL MEDIA SOBRIETY TEST,WEBROOT,WEBROOT INTERNET,"TDA_BOULDER,",USA
,,SECURITY COMPLETE Boulder
,BERGHS SCHOOL,INTERACTIVE,BERGHS SCHOOL OF
DON'T TELL ASHTON,OF,COMMUNICATION,"COMMUNICATION,",SWEDEN
,COMMUNICATION,PROGRAM,Stockholm
LUCKY LINE,UNIQLO,CLOTHING,"DENTSU, Tokyo",JAPAN
DAVID ON DEMAND,LEO BURNETT,MARKETING SEMINAR,LEO BURNETT,USA
,CHICAGO,,CHICAGO
LIKE MACHINE,COCA-COLA,COCA-COLA VILLAGE,"PUBLICIS E-DOLOGIC,",ISRAEL
,,,Ramat Gan
SUPER MEGA RAINBOW UPDATER,WRIGLEY,SKITTLES,TBWA\LONDON,UNITED
,,,,KINGDOM
HALO REACH: REMEMBER REACH,MICROSOFT XBOX,HALO: REACH,"AKQA, San Francisco",USA
SMALL BUSINESS SATURDAY,AMERICAN,AMERICAN EXPRESS,"DIGITAS, Boston",USA
,EXPRESS
,BOUYGUES,TELECOMMUNICATIO-
WHEN FACEBOOK BECOMES A BOOK,TELECOM,NS,DDB PARIS,FRANCE
MAC & JINX,KRAFT,KRAFT MAC &,CRISPIN PORTER +,USA
,,CHEESE,"BOGUSKY, Boulder"
SCHOOL LAND,UNICEF,UNICEF,"JWT, Madrid",SPAIN
TAKE THE CITY,NIKE,NIKE RUNNING,"BOONDOGGLE, Leuven",BELGIUM
OWN VOICE,NOKIA,OVI MAPS,"WIEDEN+KENNEDY,",UNITED
,,,London,KINGDOM
HEINEKEN STARPLAYER,HEINEKEN,STARPLAYER,"AKQA, London",UNITED
,,,,KINGDOM
MOB THE RAINBOW,WRIGLEY,SKITTLES,"EVOLUTION BUREAU,",USA
,,,San Francisco
SOCIAL MEDIA HELL,R/GA,GAME,"R/GA, New York",USA
STREET ART VIEW,RED BULL,INSTITUCIONAL,"LODUCCA, Sao Paulo",BRAZIL
E04 Games,
LUCKY MACHINE,UNIQLO,CLOTHING,"DENTSU, Tokyo",JAPAN
DUTY CALLS,ELECTRONIC ARTS,VIDEO GAME,"WIEDEN+KENNEDY,",USA
,,,Portland
GETAWAY STOCKHOLM,MINI,MINI COUNTRYMAN,"JUNG von MATT,",SWEDEN
,,,Stockholm
CHROME FASTBALL,GOOGLE,CHROME BROWSER,"BBH, New York",USA
HEINEKEN STARPLAYER,HEINEKEN,SOCIAL MEDIA GAME,"AKQA, London",UNITED
,,,,KINGDOM
NIKE GRID,NIKE,NIKE RUNNING,"AKQA, London",UNITED
,,,,KINGDOM
56 SAGE STREET,BARCLAYS,BARCLAYS,"BBH, London",UNITED
,,MONEYSKILLS,,KINGDOM
RISK HEARING,INPES,INPES,DDB PARIS,FRANCE
E05 Other Digital Channels,
SONY MUSIC,
UNITED,
HURTS DON'T LET GO,RCA,HURTS 'HAPPINESS',ENTERTAINMENT UK,KINGDOM
"CREATIVE, London",
ANHEUSER-BUSCH,DEL CAMPO NAZCA
ANDES FRIEND RECOVERY,INBEV,BEER,"SAATCHI & SAATCHI,",ARGENTINA
,,,Buenos Aires
THE CANVAS EXPERIMENT,CONVERSE EMEA,CONVERSE SHOES,"PERFECT FOOLS,",SWEDEN
,,,Stockholm
,,,GOODBY
YAHOO! BUS STOP DERBY,YAHOO!,YAHOO!,SILVERSTEIN &,USA
,,,"PARTNERS, San"
,,,Francisco
,,,DEL CAMPO NAZCA
BIG NOSES,BGH,AIR CONDITIONERS,"SAATCHI & SAATCHI,",ARGENTINA
Buenos Aires,
"F01 Email Marketing, incl. e-cards",
DIGITAL,"SAATCHI & SAATCHI,"
THE OUT OF OFFICE AD,B-REEL,PRODUCTION,Stockholm,SWEDEN
,,COMPANY
F02 Viral Video,
IPAD LIGHT PAINTING,DENTSU LONDON,ADVERTISING,"DENTSU LONDON,",UNITED
,,AGENCY,London,KINGDOM
DARTH VADER,TOMTOM,NAVIGATION VOICES,"POOL WORLDWIDE,",THE
,,,Amsterdam,NETHERLANDS
MASTER YODA,TOMTOM,NAVIGATION VOICES,"POOL WORLDWIDE,",THE
,,,Amsterdam,NETHERLANDS
LEGENDARY BIRU,SLEEMAN,BEER,"DENTSU CANADA,",CANADA
,BREWERIES,,Toronto
WRITE THE FUTURE,NIKE,NIKE FOOTBALL,WIEDEN+KENNEDY,THE
,,,AMSTERDAM,NETHERLANDS
WAKING UP THE NEIGHBOURHOOD,POWA,FEMALE ABUSE,OGILVY,SOUTH AFRICA
,,PREVENTION,JOHANNESBURG
DIGITAL STORY OF THE NATIVITY,EXCENTRIC,DIGITAL AGENCY,"EXCENTRIC, Lisbon",PORTUGAL
FOOSBALL FEVER,NOKIA,N8 MOBILE,JACK MORTON,UNITED
,,SMARTPHONE,"WORLDWIDE, London",KINGDOM
CHATROULETTE REACTIONS,LIONSGATE,THE LAST EXORCISM,THE VISIONAIRE,USA
,,(MOVIE),"GROUP, Los Angeles"
I HOPE THIS GETS TO YOU,WALTER MAY,LOVE,"WALTER MAY, Los",USA
,,,Angles
CAGE COP,WRIGLEY,SKITTLES,"BBDO CANADA, Toronto CANADA"
CAT,WRIGLEY,SKITTLES,"BBDO CANADA, Toronto CANADA"
LIQUID MOUNTAINEERING,HI-TEC,WATERPROOF,"CCCP, Amsterdam",THE
,,SHOES,,NETHERLANDS
THE FORCE,VOLKSWAGEN,VW PASSAT,"DEUTSCH INC., Los",USA
,,,Angeles
BREAKTHROUGH CAMPAIGN,HEINEKEN,DESPERADOS,"MEDIAMONKS,",THE
,INTERNATIONAL,,Hilversum,NETHERLANDS
,INTEL,THE 2ND,VENABLES BELL &
THE CHASE,CORPORATION,GENERATION INTEL,"PARTNERS, San",USA
,,CORE I5 PROCESSOR  Francisco
PROM DATE,WRIGLEY,CHEWING GUM,"ENERGY BBDO,",USA
,,,Chicago
CURIOUSLY STRONG AWARDS,WRIGLEY,ALTOIDS,"EVOLUTION BUREAU,",USA
,,,San Francisco
THE WORLDS SMALLEST STOP-MOTION CHARACTER,NOKIA,NOKIA N8,"WIEDEN+KENNEDY,",UNITED
ANIMATION,,,London,KINGDOM
GONG,EUROPEAN TOUR,EUROPEAN GOLF,"SAATCHI & SAATCHI,",UNITED
,,TOUR,London,KINGDOM
,,CORPORATE,THE LEO BURNETT
PANYEE FC,TMB BANK,BRANDING,"GROUP THAILAND,",THAILAND
,,,Bangkok
RESPONSE CAMPAIGN,PROCTER &,OLD SPICE BODY,"WIEDEN+KENNEDY,",USA
,GAMBLE,WASH,Portland
CHROME FASTBALL,GOOGLE,CHROME BROWSER,"BBH, New York",USA
CHROME SPEED TESTS,GOOGLE,CHROME BROWSER,"BBH, New York",USA
PINK PONIES CASE STUDY,JOHN ST.,JOHN ST.,"JOHN ST, Toronto",CANADA
,DSCR ROAD,,"LOWE STRATEUS,"
UNBEARABLE,,ROAD SAFETY,,FRANCE
,SAFETY,,Paris
F03 Viral Marketing,
,BERGHS SCHOOL,INTERACTIVE,BERGHS SCHOOL OF
DON'T TELL ASHTON,OF,COMMUNICATION,"COMMUNICATION,",SWEDEN
,COMMUNICATION,PROGRAM,Stockholm
LUCKY LINE,UNIQLO,CLOTHING,"DENTSU, Tokyo",JAPAN
LUCKY COUNTER,UNIQLO,CLOTHING,"DENTSU, Tokyo",JAPAN
SUPER MEGA RAINBOW UPDATER,WRIGLEY,SKITTLES,TBWA\LONDON,UNITED
,,,,KINGDOM
STREET ART VIEW,RED BULL,INSTITUTIONAL,"LODUCCA, Sao Paulo",BRAZIL
RESPONSE CAMPAIGN,PROCTER &,OLD SPICE BODY,"WIEDEN+KENNEDY,",USA
,GAMBLE,WASH,Portland
TWEET RACE,MERCEDES-BENZ,AUTOMOBILE,"RAZORFISH, New York",USA
EOS TALKING TREE,EOS MAGAZINE,CASCADE,HAPPINESS,BELGIUM
,,,BRUSSELS
LIFE IN A DAY,YOUTUBE,YOUTUBE,"TOASTER, London",UNITED
,,,,KINGDOM
PAY WITH A TWEET,INNOVATIVE,CURRENCY SYSTEM,"R/GA, New York",USA
,THUNDER
THE SOCIAL INTERVIEW,R/GA,THE SOCIAL,"R/GA, New York",USA
,,INTERVIEW
YOUR MOM HATES DEAD SPACE 2,ELECTRONIC ARTS,DEAD SPACE 2,"DRAFTFCB, San",USA
,,,Francisco
A HUNTER SHOOTS A BEAR,BIC TIPP-EX,POCKET MOUSE,"BUZZMAN, Paris",FRANCE
4TH AMENDMENT WEAR,4TH AMENDMENT,METALLIC INK,4TH AMENDMENT,USA
,WEAR,UNDERCLOTHES,"WEAR, Boulder"
SNEAKERPEDIA,FOOT LOCKER,FOOT LOCKER,"SAPIENTNITRO, London",UNITED
,,,,KINGDOM
SAVE AS WWF,WWF,WWF,"JUNG von MATT,",GERMANY
,DEUTSCHLAND,,Hamburg
