TITLE,ADVERTISER,PRODUCT,ENTRANT COMPANY,COUNTRY
A01 Savoury Foods,
FRIES,CAIRO FOOD INDUSTRIAL HEINZ,HOT KETCHUP,LEO BURNETT BRUSSELS,BELGIUM
,EGYPT
FISH,CAIRO FOOD INDUSTRIAL HEINZ,HOT KETCHUP,LEO BURNETT BRUSSELS,BELGIUM
,EGYPT
STEAK,CAIRO FOOD INDUSTRIAL HEINZ,HOT KETCHUP,LEO BURNETT BRUSSELS,BELGIUM
,EGYPT
BLACK SUIT,GASSER - GRANDI SALUMIFICI,FRANKFURTER,TBWA\ITALIA Milan,ITALY
,ITALIANI
TEXAN,GASSER - GRANDI SALUMIFICI,FRANKFURTER,TBWA\ITALIA Milan,ITALY
,ITALIANI
PIG,VEGA MAYOR - FLORETTE,SALAD,GREY Barcelona,SPAIN
SHEEP,VEGA MAYOR - FLORETTE,SALAD,GREY Barcelona,SPAIN
COCK,VEGA MAYOR - FLORETTE,SALAD,GREY Barcelona,SPAIN
COW,VEGA MAYOR - FLORETTE,SALAD,GREY Barcelona,SPAIN
MARIA,GONDOLA VENEZIANA ITALIAN,ANGEL HAIR PASTA,OGILVY SHANGHAI,CHINA
,RESTAURANT
ANGELO,GONDOLA VENEZIANA ITALIAN,ANGEL HAIR PASTA,OGILVY SHANGHAI,CHINA
,RESTAURANT
A02 Sweet Foods & Snacks,
ROBOT,FAGE,FAGE TOTAL,OGILVY New York,USA
WATCH,FAGE,FAGE TOTAL,OGILVY New York,USA
CREAMER,KRAFT,MINI OREO,DRAFTFCB New York,USA
LITTLE RED RIDING HOOD,WRIGLEY,JUICY FRUIT,BBDO GERMANY Duesseldorf,GERMANY
THE WOLF AND THE SEVEN,WRIGLEY,JUICY FRUIT,BBDO GERMANY Duesseldorf,GERMANY
GOATS,
FROG KING,WRIGLEY,JUICY FRUIT,BBDO GERMANY Duesseldorf,GERMANY
Nº2,KELLOGG'S,ALL-BRAN,LEO BURNETT COLOMBIANA,COLOMBIA
,,,Bogota
PEN,NESTLÉ INDIA,KIT KAT CHOCOLATE BAR,JWT INDIA Mumbai,INDIA
SWING,PERFETTI VAN MELLE,BIG BABOL,DRAFTFCB INDONESIA Jakarta,INDONESIA
,INDONESIA
TOBACCO,CHUPA CHUPS SAU,SMINT MINTS,DDB ESPANA Barcelona,SPAIN
ONION,CHUPA CHUPS SAU,SMINT MINTS,DDB ESPANA Barcelona,SPAIN
3D BALL,ARCOR,BIG BIG SWEETS,LEO BURNETT BRASIL Sao Paulo,BRAZIL
OFFICE,NESTLÉ SINGAPORE,KIT KAT,JWT SINGAPORE,SINGAPORE
AIRBAG,BAZOOKA,BAZOOKA BUBBLEGUM,DUVAL GUILLAUME BRUSSELS,BELGIUM
BLOODLETTING,WRIGLEY,ALTOIDS MINTS,ENERGY BBDO Chicago,USA
HORSEWHIP,WRIGLEY,ALTOIDS MINTS,ENERGY BBDO Chicago,USA
HORSEWHIP ON BACKFLESH,WRIGLEY,ALTOIDS MINTS,ENERGY BBDO Chicago,USA
MILK LEG,WRIGLEY,ALTOIDS MINTS,ENERGY BBDO Chicago,USA
X-RAY,WRIGLEY,WRIGLEY'S PK CHEWING GUM,DDB SYDNEY,AUSTRALIA
SUPERMARKET,WRIGLEY,WRIGLEY'S PK CHEWING GUM,DDB SYDNEY,AUSTRALIA
BUS,WRIGLEY,HUBBA BUBBA BUBBLE GUM,DDB SYDNEY,AUSTRALIA
FASHION,GENERAL MILLS,CHEERIOS BREAKFAST CEREAL,SAATCHI & SAATCHI New York,USA
GARDENING,GENERAL MILLS,CHEERIOS BREAKFAST CEREAL,SAATCHI & SAATCHI New York,USA
FISHING,GENERAL MILLS,CHEERIOS BREAKFAST CEREAL,SAATCHI & SAATCHI New York,USA
ROCK 'N' ROLL,GENERAL MILLS,CHEERIOS BREAKFAST CEREAL,SAATCHI & SAATCHI New York,USA
A03 Alcoholic Drinks,
ITALY,HEINEKEN,HEINEKEN BEER,THE RED BRICK ROAD London,UNITED KINGDOM
SPAIN,HEINEKEN,HEINEKEN BEER,THE RED BRICK ROAD London,UNITED KINGDOM
PORTUGAL,HEINEKEN,HEINEKEN BEER,THE RED BRICK ROAD London,UNITED KINGDOM
JAMAICA,HEINEKEN,HEINEKEN BEER,THE RED BRICK ROAD London,UNITED KINGDOM
CUBA,HEINEKEN,HEINEKEN BEER,THE RED BRICK ROAD London,UNITED KINGDOM
COCKPIT,BARWORKS WINE & SPIRITS,LOWENBRAU,McCANN WORLDGROUP,SINGAPORE
,,,SINGAPORE
SURGERY,BARWORKS WINE & SPIRITS,LOWENBRAU,McCANN WORLDGROUP,SINGAPORE
,,,SINGAPORE
TIMES SQUARE,ABSOLUT VODKA,ABSOLUT VODKA,TBWA\CHIAT\DAY New York,USA
BREASTS,I-BREW,COOPERS BEER,JWT SINGAPORE,SINGAPORE
FACE,I-BREW,COOPERS BEER,JWT SINGAPORE,SINGAPORE
LEG,I-BREW,COOPERS BEER,JWT SINGAPORE,SINGAPORE
DAD'S FIRST,JIM BEAM,CANADIAN CLUB WHISKEY,ENERGY BBDO Chicago,USA
TWEEZED,JIM BEAM,CANADIAN CLUB WHISKEY,ENERGY BBDO Chicago,USA
GROUPIES,JIM BEAM,CANADIAN CLUB WHISKEY,ENERGY BBDO Chicago,USA
A04 Non-Alcoholic Drinks,
SPLASH,PEPSI FOODS,DIET PEPSI,JWT INDIA Mumbai,INDIA
BATHROOM,PEPSI,PEPSI LIGHT,BBDO CHILE Santiago,CHILE
VAN GOGH,PEPSICO,MOUNTAIN DEW,GRAFFITI BBDO Bucharest,ROMANIA
IN MY DREAM,COCA-COLA,COCA-COLA BLAK,MARCEL PARIS,FRANCE
I WISH I WAS,COCA-COLA,COCA-COLA BLAK,MARCEL PARIS,FRANCE
WOULD BE,COCA-COLA,COCA-COLA BLAK,MARCEL PARIS,FRANCE
SOCCER,PEPSICO,GATORADE KIDS,ALMAPBBDO Sao Paulo,BRAZIL
BOXING,PEPSICO,GATORADE KIDS,ALMAPBBDO Sao Paulo,BRAZIL
BASKETBALL,PEPSICO,GATORADE KIDS,ALMAPBBDO Sao Paulo,BRAZIL
EARTH VS SUN,PARLE AGRO BEVERAGES,APPY FIZZ SPARKLING APPLE,CREATIVELAND ASIA Mumbai,INDIA
,,DRINK
EVOLUTION,PARLE AGRO BEVERAGES,APPY FIZZ SPARKLING APPLE,CREATIVELAND ASIA Mumbai,INDIA
,,DRINK
BALLOONS,DELTA CAFÉS,DELTA CAFÉS,EURO RSCG LISBON,PORTUGAL
TOURISM,DELTA CAFÉS,DELTA CAFÉS,EURO RSCG LISBON,PORTUGAL
STADIUM,DELTA CAFÉS,DELTA CAFÉS,EURO RSCG LISBON,PORTUGAL
SUGAR,CAFE DEL MONDO,COFFEE,DDB&CO. Istanbul,TURKEY
SCIENTIST,BONAFIDE,COFFEE,CRAVEROLANIS Buenos Aires,ARGENTINA
SPY,BONAFIDE,COFFEE,CRAVEROLANIS Buenos Aires,ARGENTINA
GENERAL,BONAFIDE,COFFEE,CRAVEROLANIS Buenos Aires,ARGENTINA
KINDERGARTEN,POWERHORSE,ENERGY DRINK,SAATCHI & SAATCHI NZ,NEW ZEALAND
PRISON,POWERHORSE,ENERGY DRINK,SAATCHI & SAATCHI NZ,NEW ZEALAND
OLD FOLKS,POWERHORSE,ENERGY DRINK,SAATCHI & SAATCHI NZ,NEW ZEALAND
A05 Household: Cleaning Products,
ICE CREAM,PROCTER & GAMBLE,FAB WASHING POWDER,LEO BURNETT/ARC,SINGAPORE
,SINGAPORE,,WORLDWIDE SINGAPORE
KETCHUP,PROCTER & GAMBLE,FAB WASHING POWDER,LEO BURNETT/ARC,SINGAPORE
,SINGAPORE,,WORLDWIDE SINGAPORE
SOUP,PROCTER & GAMBLE,FAB WASHING POWDER,LEO BURNETT/ARC,SINGAPORE
,SINGAPORE,,WORLDWIDE SINGAPORE
BROWN,PROCTER & GAMBLE,TIDE LAUNDRY DETERGENT,CONILL SAATCHI & SAATCHI,USA
,,,New York
RED,PROCTER & GAMBLE,TIDE LAUNDRY DETERGENT,CONILL SAATCHI & SAATCHI,USA
,,,New York
ARM,HENKEL,MIR BLACK,TBWA\PARIS,FRANCE
SPIDER,HENKEL,MIR BLACK,TBWA\PARIS,FRANCE
MOVIE,HENKEL,MIR BLACK,TBWA\PARIS,FRANCE
STERILE LAUNDRY PEG,PROCTER & GAMBLE POLAND,ARIEL,SAATCHI & SAATCHI POLAND,POLAND
,,,Warsaw
STERILE CLOTHES HANGER,PROCTER & GAMBLE POLAND,ARIEL,SAATCHI & SAATCHI POLAND,POLAND
,,,Warsaw
STERILE CLOTHES LINE,PROCTER & GAMBLE POLAND,ARIEL LAUNDRY DETERGENT,SAATCHI & SAATCHI POLAND,POLAND
,,,Warsaw
HOME,SARA LEE HONG KONG,AMBI PUR FRAGRANCE SPRAY,GREY HONG KONG,HONG KONG
RESTAURANT,SARA LEE HONG KONG,AMBI PUR FRAGRANCE SPRAY,GREY HONG KONG,HONG KONG
KETCHUP,PROCTER & GAMBLE,ARIEL,SAATCHI & SAATCHI ROMANIA,ROMANIA
,,,Bucharest
MUSTARD,PROCTER & GAMBLE,ARIEL,SAATCHI & SAATCHI ROMANIA,ROMANIA
,,,Bucharest
GRASS,PROCTER & GAMBLE,ARIEL,SAATCHI & SAATCHI ROMANIA,ROMANIA
Bucharest,
HOT CHOCOLATE,
PROCTER & GAMBLE,ARIEL,SAATCHI & SAATCHI ROMANIA,ROMANIA
,,Bucharest
FORK,PROCTER & GAMBLE,ARIEL STAIN REMOVAL PEN,SAATCHI & SAATCHI Brussels,BELGIUM
WHISK,PROCTER & GAMBLE,ARIEL STAIN REMOVAL PEN,SAATCHI & SAATCHI Brussels,BELGIUM
SPOON,PROCTER & GAMBLE,ARIEL STAIN REMOVAL PEN,SAATCHI & SAATCHI Brussels,BELGIUM
BAHT,UNILEVER THAILAND,BREEZE EXCEL,LOWE BANGKOK,THAILAND
BATHROOM,PROCTER & GAMBLE,DOWNY FABRIC CONDITIONER,GREY ARGENTINA Buenos Aires,ARGENTINA
BEDROOM,PROCTER & GAMBLE,DOWNY FABRIC CONDITIONER,GREY ARGENTINA Buenos Aires,ARGENTINA
DRESSING ROOM,PROCTER & GAMBLE,DOWNY FABRIC CONDITIONER,GREY ARGENTINA Buenos Aires,ARGENTINA
LIPSTICK,PROCTER & GAMBLE,TIDE DETERGENTS,LEO BURNETT INDIA Mumbai,INDIA
KETCHUP,PROCTER & GAMBLE,TIDE DETERGENTS,LEO BURNETT INDIA Mumbai,INDIA
ICE CREAM,PROCTER & GAMBLE,TIDE DETERGENTS,LEO BURNETT INDIA Mumbai,INDIA
PINK,"MIR, HENKEL",MIR WOOL,TBWA\PARIS,FRANCE
YELLOW,"MIR, HENKEL",MIR WOOL,TBWA\PARIS,FRANCE
A06 Household: Other,
KIDNAP,A.W. FABER-CASTELL,UHU GLUE,Y&R MALAYSIA Kuala Lumpur,MALAYSIA
COUNTRY HOUSE,MORTEIN,MORTEIN RAT KILL CAKE,FP7 DOHA,QATAR
SEASIDE HOUSE,MORTEIN,MORTEIN RAT KILL CAKE,FP7 DOHA,QATAR
BRICK HOUSE,MORTEIN,MORTEIN RAT KILL CAKE,FP7 DOHA,QATAR
USA ARMY VS. TALIBAN,BAYER,BAYER ADVANCED - PLANT,FP7 DOHA,QATAR
,,FOOD
POLICEMAN VS. KIDNAPPER,BAYER,BAYER ADVANCED - PLANT,FP7 DOHA,QATAR
,,FOOD
BACK PACKER VS. TIGER,BAYER,BAYER ADVANCED - PLANT,FP7 DOHA,QATAR
,,FOOD
MOUNTAIN BIKE,K.T. AGROTECH,TON-MAI-KOO FERTILIZER,Y&R THAILAND Bangkok,THAILAND
FRISBEE,K.T. AGROTECH,TON-MAI-KOO FERTILIZER,Y&R THAILAND Bangkok,THAILAND
CHICKEN,ITAL ASIA GROUP CO.LTD,WMF,LEO BURNETT Bangkok,THAILAND
FISH,ITAL ASIA GROUP CO.LTD,WMF,LEO BURNETT Bangkok,THAILAND
LOBSTER,ITAL ASIA GROUP CO.LTD,WMF,LEO BURNETT Bangkok,THAILAND
PAINT,ENERGIZER,ENERGIZER LITHIUM BATTERIES,DDB SOUTH AFRICA,SOUTH AFRICA
,,,Johannesburg
PANTS,ENERGIZER,ENERGIZER LITHIUM BATTERIES,DDB SOUTH AFRICA,SOUTH AFRICA
,,,Johannesburg
PARK,ENERGIZER,ENERGIZER LITHIUM BATTERIES,DDB SOUTH AFRICA,SOUTH AFRICA
,,,Johannesburg
SPIT,ENERGIZER,ENERGIZER LITHIUM BATTERIES,DDB SOUTH AFRICA,SOUTH AFRICA
,,,Johannesburg
SHADOW PUPPETS,OSRAM,LIGHT BULBS,SAATCHI & SAATCHI,SOUTH AFRICA
,,,Johannesburg
SUCKER,EVEREADY,EVEREADY POWER PLUS,KING JAMES Johannesburg,SOUTH AFRICA
,,BATTERIES
SOLDIER,HENKEL AUSTRALIA,LOCTITE SUPER GLUE,DDB SYDNEY,AUSTRALIA
SKATER,HENKEL AUSTRALIA,LOCTITE SUPER GLUE,DDB SYDNEY,AUSTRALIA
WRESTLER,HENKEL AUSTRALIA,LOCTITE SUPER GLUE,DDB SYDNEY,AUSTRALIA
HOUSEKEEPER,HENKEL,SUPER BONDER,DDB BRASIL Sao Paulo,BRAZIL
WAITER,HENKEL,SUPER BONDER,DDB BRASIL Sao Paulo,BRAZIL
A07 Home Appliances & Furnishings,
FAILING ETHICS,INDOSPOT THAILAND,MAGLITE,BBDO BANGKOK,THAILAND
REVENGE,INDOSPOT THAILAND,MAGLITE,BBDO BANGKOK,THAILAND
UNEQUAL LOVE,INDOSPOT THAILAND,MAGLITE,BBDO BANGKOK,THAILAND
WOOD,BLACK & DECKER THAILAND,BLACK & DECKER,OGILVY & MATHER Bangkok,THAILAND
FIREWORKS,WERU,NOISE PROTECTION WINDOWS,SCHOLZ & FRIENDS Berlin,GERMANY
,,BY WERU
FIRING A SALUTE,WERU,NOISE PROTECTION WINDOWS,SCHOLZ & FRIENDS Berlin,GERMANY
,,BY WERU
BELL TOWER,WERU,NOISE PROTECTION WINDOWS,SCHOLZ & FRIENDS Berlin,GERMANY
,,BY WERU
COOK,OGAWA ELECTRIC,OGAWA VENTILATING FAN,LOWE BANGKOK,THAILAND
SMOKE,OGAWA ELECTRIC,OGAWA VENTILATING FAN,LOWE BANGKOK,THAILAND
INCENSE,OGAWA ELECTRIC,OGAWA VENTILATING FAN,LOWE BANGKOK,THAILAND
OLD MAN DREAM,IKEA,IKEA BEDROOMS,DDB GERMANY DUESSELDORF,GERMANY
YOUNG MAN DREAM,IKEA,IKEA BEDROOMS,DDB GERMANY DUESSELDORF,GERMANY
WOMAN DREAM,IKEA,IKEA BEDROOMS,DDB GERMANY DUESSELDORF,GERMANY
LUCILLE BALL,ARMSTRONG,LAMINATE FLOORING,BBDO NEW YORK,USA
JAMES DEAN,ARMSTRONG,LAMINATE FLOORING,BBDO NEW YORK,USA
DEAN MARTIN,ARMSTRONG,LAMINATE FLOORING,BBDO NEW YORK,USA
MARLON BRANDO,ARMSTRONG,LAMINATE FLOORING,BBDO NEW YORK,USA
CASTLE,VIKING,RIDE-ON MOWER,PUBLICIS CONSEIL Paris,FRANCE
GOLF,VIKING,RIDE-ON MOWER,PUBLICIS CONSEIL Paris,FRANCE
STADIUM,VIKING,RIDE-ON MOWER,PUBLICIS CONSEIL Paris,FRANCE
CASHMERE,CORAL PAINTS,CORAL DULUX (BATHROOM,LEO BURNETT BRASIL Sao Paulo,BRAZIL
,,CEILING)
FLORAL,CORAL PAINTS,CORAL DULUX (BATHROOM,LEO BURNETT BRASIL Sao Paulo,BRAZIL
,,CEILING)
ORIENTAL,CORAL PAINTS,CORAL DULUX (BATHROOM,LEO BURNETT BRASIL Sao Paulo,BRAZIL
,,CEILING)
VECTORIAL,CORAL PAINTS,CORAL DULUX (BATHROOM,LEO BURNETT BRASIL Sao Paulo,BRAZIL
,,CEILING)
SHIRT,ASKO,WASHING MACHINES,SMFB Oslo,NORWAY
HUNTER,ASKO,WASHING MACHINES,SMFB Oslo,NORWAY
A08 Cosmetics & Beauty,
BLONDE,UNILEVER,POND´S REJUVENESS,OGILVY MEXICO,MEXICO
PAUSE,BEIERSDORF MIDDLE EAST,NIVEA VISAGE ANTI-WRINKLE,TBWA\RAAD Dubai,UNITED ARAB EMIRATES
,,CREAM
THE COUPLE,HENKEL,DIADERMINE,BBDO GERMANY Duesseldorf,GERMANY
PERFORATION,PROCTER & GAMBLE,OLAY,SAATCHI & SAATCHI Madrid,SPAIN
SOLDIER,B. D. GROUP,L'OREAL,FP7 DOHA,QATAR
BIKER,B. D. GROUP,L'OREAL,FP7 DOHA,QATAR
BLONDE,UNILEVER,AXE DARK TEMPTATION,,VEGAOLMOSPONCE Buenos Aires ARGENTINA
GREEN,SHANGHAI TONGLI BIO-,LIZHI BODY CREAM,i-DNA BRAND COMMUNICACION,CHINA
,TECHNOLOGY,,Shanghai
PINK,SHANGHAI TONGLI BIO-,LIZHI BODY CREAM,i-DNA BRAND COMMUNICACION,CHINA
,TECHNOLOGY,,Shanghai
HAIR LIPS,PROCTER & GAMBLE,KOLESTON,LEO BURNETT ITALY Milan,ITALY
TOILET,PROCTER & GAMBLE MALAYSIA,SAFEGUARD ANTIBACTERIAL,SAATCHI & SAATCHI Petaling Jaya MALAYSIA
,,SOAP
PARK,PROCTER & GAMBLE MALAYSIA,SAFEGUARD ANTIBACTERIAL,SAATCHI & SAATCHI Petaling Jaya MALAYSIA
,,SOAP
BLACKBOARD,UNILEVER CHINA,REXONA DEODORANT SPRAY,LOWE Shanghai,CHINA
TARGET,UNILEVER CHINA,REXONA DEODORANT SPRAY,LOWE Shanghai,CHINA
FEET,UNILEVER CHINA,REXONA DEODORANT SPRAY,LOWE Shanghai,CHINA
AVRIL,FUSION COSMETICS,PHYTO ANTI-AGING HAIR SERUM Y&R Singapore,,SINGAPORE
BILL,FUSION COSMETICS,PHYTO ANTI-AGING HAIR SERUM Y&R Singapore,,SINGAPORE
HAIR CLIPS,PROCTER & GAMBLE,REJOICE SHAMPOO,LEO BURNETT/ARC,SINGAPORE
,SINGAPORE,,WORLDWIDE SINGAPORE
FACELIFT,PROCTER & GAMBLE,OLAY,SAATCHI & SAATCHI,SOUTH AFRICA
,,,Johannesburg
OFFICE,PROCTER & GAMBLE,HEAD & SHOULDERS ANTI-,SAATCHI & SAATCHI,SOUTH AFRICA
,,DANDRUFF SHAMPOO,Johannesburg
NIGHTCLUB,PROCTER & GAMBLE,HEAD & SHOULDERS ANTI-,SAATCHI & SAATCHI,SOUTH AFRICA
,,DANDRUFF SHAMPOO,Johannesburg
POOL,PROCTER & GAMBLE,HEAD & SHOULDERS ANTI-,SAATCHI & SAATCHI,SOUTH AFRICA
,,DANDRUFF SHAMPOO,Johannesburg
COP,LUX,LUX SOAP,JWT SYDNEY,AUSTRALIA
20?,PROCTER & GAMBLE,OLAY TOTAL EFFECTS,SAATCHI & SAATCHI Dubai,UNITED ARAB EMIRATES
POINT OF VIEW,PROCTER & GAMBLE,HEAD & SHOULDERS,DEL CAMPO NAZCA SAATCHI &,ARGENTINA
,,,SAATCHI Buenos Aires
BIRDS,PROCTER & GAMBLE,OLAY TOTAL EFFECTS,DEL CAMPO NAZCA SAATCHI &,ARGENTINA
,,,SAATCHI Buenos Aires
MERMAID,PROCTER & GAMBLE,OLAY TOTAL EFFECTS,DEL CAMPO NAZCA SAATCHI &,ARGENTINA
,,,SAATCHI Buenos Aires
HEARTS,PROCTER & GAMBLE,OLAY TOTAL EFFECTS,DEL CAMPO NAZCA SAATCHI &,ARGENTINA
SAATCHI Buenos Aires,
SNOW FOREST,PROCTER & GAMBLE,HEAD & SHOULDERS,SAATCHI & SAATCHI,CHINA
,,,GUANGZHOU
WEIGHT,PROCTER & GAMBLE,HEAD & SHOULDERS,SAATCHI & SAATCHI,CHINA
,,,GUANGZHOU
STRONG HAIR,EN VOGUE,HAIR COSMETICS,EURO RSCG GROUP,SWITZERLAND
,,,SWITZERLAND Zurich
WOMAN,RECKITT BENCKISER,DETTOL HAND WASH,EURO RSCG KUALA LUMPUR,MALAYSIA
,(MALAYSIA),,Petaling Jaya
MINUS 15,NIVEA BEIERSDORF,,ANTI-WRINKLE Q10 PLUS CREAM TBWA\PARIS,FRANCE
A09 Toiletries,
WATER TOWER,KIMBERLY CLARK,HUGGIES NAPPIES,JWT New York,USA
BINOCULARS,MISS EPIL,HAIR REMOVAL PRODUCTS/,LOWE STRATEUS Paris,FRANCE
,,VICE MAGAZINE
BABY GIRL,PROCTER & GAMBLE,PAMPERS,DEL CAMPO NAZCA SAATCHI &,ARGENTINA
,,,SAATCHI Buenos Aires
BABY BOY,PROCTER & GAMBLE,PAMPERS,DEL CAMPO NAZCA SAATCHI &,ARGENTINA
,,,SAATCHI Buenos Aires
BALD BABY BOY,PROCTER & GAMBLE,PAMPERS,DEL CAMPO NAZCA SAATCHI &,ARGENTINA
,,,SAATCHI Buenos Aires
MORGUE,"HANSAPLAST, BEIERSDORF",EARPLUGS,TBWA\PARIS,FRANCE
FUNERAL HOME,"HANSAPLAST, BEIERSDORF",EARPLUGS,TBWA\PARIS,FRANCE
ADIOS,PROCTER & GAMBLE,SCOPE MOUTHWASH,SAATCHI & SAATCHI New York,USA
EGG ROLL,PROCTER & GAMBLE,SCOPE MOUTHWASH,SAATCHI & SAATCHI New York,USA
SPAGHETTI,PROCTER & GAMBLE,SCOPE MOUTHWASH,SAATCHI & SAATCHI New York,USA
A10 OTC Pharmacy,
HUNTER,JOHNSON & JOHNSON,DOLORMIN,KNSK WERBEAGENTUR Hamburg,GERMANY
WORKSHOP,JOHNSON & JOHNSON,DOLORMIN,KNSK WERBEAGENTUR Hamburg,GERMANY
BUILDING SITE,JOHNSON & JOHNSON,DOLORMIN,KNSK WERBEAGENTUR Hamburg,GERMANY
BEIGE HAT,JOHNSON & JOHNSON,SINUTAB,JWT CARACAS,VENEZUELA
GREEN HOODIE,JOHNSON & JOHNSON,SINUTAB,JWT CARACAS,VENEZUELA
NO-WATERBALLET,BAYER VITAL,ASPIRIN EFFECT,BBDO GERMANY Duesseldorf,GERMANY
PEACE OF ROAD,BJ BROTHERS AND SON,A-TAP EARPLUG,MONDAY Bangkok,THAILAND
MONEY,NOVARTIS,EXCEDRIN,SAATCHI & SAATCHI New York,USA
VACATION,NOVARTIS,EXCEDRIN,SAATCHI & SAATCHI New York,USA
BEAUTY,NOVARTIS,EXCEDRIN,SAATCHI & SAATCHI New York,USA
FAME,NOVARTIS,EXCEDRIN,SAATCHI & SAATCHI New York,USA
CLASSROOM,NOVARTIS,NODOZ,SAATCHI & SAATCHI New York,USA
HAND,JOHNSON & JOHNSON,PURELL HAND SANITIZER,JWT SYDNEY,AUSTRALIA
ELVIS,JOHNSON & JOHNSON,BENALET COUGH & SORE,JWT BRASIL Sao Paulo,BRAZIL
,,THROAT REMEDY
BOB,JOHNSON & JOHNSON,BENALET COUGH & SORE,JWT BRASIL Sao Paulo,BRAZIL
,,THROAT REMEDY
JAMES,JOHNSON & JOHNSON,BENALET COUGH & SORE,JWT BRASIL Sao Paulo,BRAZIL
,,THROAT REMEDY
CAR,BUHL,PRIME CONDOMS,DRAFTFCB BUENOS AIRES,ARGENTINA
TREE,BUHL,PRIME CONDOMS,DRAFTFCB BUENOS AIRES,ARGENTINA
POOL,BUHL,PRIME CONDOMS,DRAFTFCB BUENOS AIRES,ARGENTINA
COLUMN,BUHL,PRIME CONDOMS,DRAFTFCB BUENOS AIRES,ARGENTINA
TROUSERS,NOVARTIS CONSUMER HEALTH,VOLTAREN PAIN RELIEF,SAATCHI & SAATCHI SIMKO,SWITZERLAND
,,,Geneva
BABY,NOVARTIS CONSUMER HEALTH,VOLTAREN PAIN RELIEF,SAATCHI & SAATCHI SIMKO,SWITZERLAND
,,,Geneva
CHEESE,NOVARTIS CONSUMER HEALTH,VOLTAREN PAIN RELIEF,SAATCHI & SAATCHI SIMKO,SWITZERLAND
,,,Geneva
KITCHEN,NOVARTIS CONSUMER HEALTH,VOLTAREN PAIN RELIEF,SAATCHI & SAATCHI SIMKO,SWITZERLAND
,,,Geneva
REMOTE CONTROL,NOVARTIS CONSUMER HEALTH,VOLTAREN PAIN RELIEF,SAATCHI & SAATCHI SIMKO,SWITZERLAND
,,,Geneva
"A11 Clothing, Footwear & Accessories",
SWIMMING POOL,BOCAGE-ERAM,SHOES,H Suresnes,FRANCE
BOAT,BOCAGE-ERAM,SHOES,H Suresnes,FRANCE
SHOWER,BOCAGE-ERAM,SHOES,H Suresnes,FRANCE
POOL,BOCAGE-ERAM,SHOES,H Suresnes,FRANCE
HITLER VS CHAPLIN,HUT WEBER,HATS,SERVICEPLAN Munich,GERMANY
BULGARIANS,HERRINGBONE,HERRINGBONE,M&C SAATCHI Sydney,AUSTRALIA
MEASUREMENTS,HERRINGBONE,HERRINGBONE,M&C SAATCHI Sydney,AUSTRALIA
MAKE LOVE TO YOU,HERRINGBONE,HERRINGBONE,M&C SAATCHI Sydney,AUSTRALIA
DOOR STEP,CITY CENTER,HUSH PUPPIES,FP7 DOHA,QATAR
CLOSET,CITY CENTER,HUSH PUPPIES,FP7 DOHA,QATAR
RHYTHMIC GYMNASTICS,FREDDY,DANCE AND SPORTSWEAR,1861UNITED Milan,ITALY
MIKHAïL GORBATCHEV,LOUIS VUITTON MALLETIER,LOUIS VUITTON,OGILVY & MATHER Paris,FRANCE
CATHERINE DENEUVE,LOUIS VUITTON MALLETIER,LOUIS VUITTON,OGILVY & MATHER Paris,FRANCE
STEFFI GRAF/ANDRE AGASSI,LOUIS VUITTON MALLETIER,LOUIS VUITTON,OGILVY & MATHER Paris,FRANCE
KEITH RICHARDS,LOUIS VUITTON MALLETIER,LOUIS VUITTON,OGILVY & MATHER Paris,FRANCE
RUSH HOUR CLOCK,NIKE,NIKE RUNNING SHOES,WIEDEN+KENNEDY Portland,USA
MOUNTAIN,SSL HEALTHCARE (THAILAND),SCHOLL CRYSTAL,LOWE BANGKOK,THAILAND
DRAIN,SSL HEALTHCARE (THAILAND),SCHOLL CRYSTAL,LOWE BANGKOK,THAILAND
SEA,SSL HEALTHCARE (THAILAND),SCHOLL CRYSTAL,LOWE BANGKOK,THAILAND
RED DRESS,NICOLA FINETTI/TIGERLILY,FASHIONWEAR,JWT DUBAI,UNITED ARAB EMIRATES
BABY,DIESEL,FASHION JEANS & CLOTHING,MARCEL PARIS,FRANCE
LIPSTICK,DIESEL,FASHION JEANS & CLOTHING,MARCEL PARIS,FRANCE
PRAYER,DIESEL,FASHION JEANS & CLOTHING,MARCEL PARIS,FRANCE
STITCHES,DIESEL,FASHION JEANS & CLOTHING,MARCEL PARIS,FRANCE
BLIND MAN,DIESEL,FASHION JEANS & CLOTHING,MARCEL PARIS,FRANCE
BLUE,SAO PAULO ALPARGATAS,HAVAIANAS,ALMAPBBDO Sao Paulo,BRAZIL
LIME,SAO PAULO ALPARGATAS,HAVAIANAS,ALMAPBBDO Sao Paulo,BRAZIL
PURPLE,SAO PAULO ALPARGATAS,HAVAIANAS,ALMAPBBDO Sao Paulo,BRAZIL
PLAYGROUND,WONDERBRA,WONDERBRA,PUBLICIS CONSEIL Paris,FRANCE
SUPERMARKET,WONDERBRA,WONDERBRA,PUBLICIS CONSEIL Paris,FRANCE
PARK,WONDERBRA,WONDERBRA,PUBLICIS CONSEIL Paris,FRANCE
FENCE,LEVI STRAUSS ASIA PACIFIC,JEANS,BBH ASIA PAC Singapore,SINGAPORE
,DIVISION
FLAT,LEVI STRAUSS ASIA PACIFIC,JEANS,BBH ASIA PAC Singapore,SINGAPORE
,DIVISION
STAIRS,LEVI STRAUSS ASIA PACIFIC,JEANS,BBH ASIA PAC Singapore,SINGAPORE
,DIVISION
A12 Miscellaneous,
TWINS,GM PENS INTERNATIONAL,REYNOLDS PERMANENT,JWT INDIA Mumbai,INDIA
,,MARKER
GOLDFISH,COMERCIAL ARGE PILOT,PILOT WATER RESISTANT PEN,GREY Barcelona,SPAIN
INFESTED SEA,INTERVET LABORATORIES,FLEA COLLAR,ZAPPING/M&C SAATCHI Madrid,SPAIN
PACITICK OCEAN,INTERVET LABORATORIES,FLEA COLLAR,ZAPPING/M&C SAATCHI Madrid,SPAIN
ATLANTICK OCEAN,INTERVET LABORATORIES,FLEA COLLAR,ZAPPING/M&C SAATCHI Madrid,SPAIN
BLUE,LUXOR WRITING INSTRUMENTS,HIGHLIGHTER PENS,LEO BURNETT INDIA Mumbai,INDIA
PINK,LUXOR WRITING INSTRUMENTS,HIGHLIGHTER PENS,LEO BURNETT INDIA Mumbai,INDIA
PERMANENT,REYNOLDS,PERMANENT MARKER,JWT TUNISIA Tunis,TUNISIA
CHE,LUXOR WRITING INSTRUMENTS,HIGHLIGHTER PENS,LEO BURNETT INDIA Mumbai,INDIA
CHARLIE,LUXOR WRITING INSTRUMENTS,HIGHLIGHTER PENS,LEO BURNETT INDIA Mumbai,INDIA
HITLER,LUXOR WRITING INSTRUMENTS,HIGHLIGHTER PENS,LEO BURNETT INDIA Mumbai,INDIA
A13 Cars,
THE GUARDS,AUTOMOBILI LAMBORGHINI,LAMBORGHINI SPORTS CARS,PHILIPP UND KEUNTJE Hamburg,GERMANY
MOTOR SCOOTER,AUTOMOBILI LAMBORGHINI,LAMBORGHINI SPORTS CARS,PHILIPP UND KEUNTJE Hamburg,GERMANY
FAST-FOOD,AUTOMOBILI LAMBORGHINI,LAMBORGHINI SPORTS CARS,PHILIPP UND KEUNTJE Hamburg,GERMANY
LATH,AMAG VOLKSWAGEN,VW GOLF VARIANT,KRIEG SCHLUPP BUERGE/,SWITZERLAND
,,,SPRINGER & JACOBY Zurich
RIVER BED,CHRYSLER GERMANY,JEEP,KNSK WERBEAGENTUR Hamburg,GERMANY
AMBULANCE,FORD MOTOR COMPANY,VOLVO GLASSES,OGILVY MEXICO,MEXICO
HIGHWAY,FORD MOTOR COMPANY,VOLVO XENON HEADLAMPS,OGILVY MEXICO,MEXICO
POLICE,FORD MOTOR COMPANY,VOLVO GLASSES,OGILVY MEXICO,MEXICO
PROTEST,FORD MOTOR COMPANY,VOLVO GLASSES,OGILVY MEXICO,MEXICO
ALPE D'HUEZ,PON'S AUTOMOBIELHANDEL,VOLKSWAGEN TOW CAR OF,DDB AMSTERDAM,THE NETHERLANDS
,,THE YEAR
PRODUCT RECALL,PON's AUTOMOBIELHANDEL,VOLKSWAGEN,DDB AMSTERDAM,THE NETHERLANDS
"19,901,557TH GOLF",PON's AUTOMOBIELHANDEL,VW GOLF,DDB AMSTERDAM,THE NETHERLANDS
WINDOW WASHER,RENAULT,RENAULT SCENIC,PUBLICIS Lisbon,PORTUGAL
BEACH,FORD CHILE,FORD RANGER,JWT CHILE Santiago,CHILE
TEXTILE FACTORIES,VOLKSWAGEN GROUP ITALIA,PASSAT BUSINESS WITH,DDB Milan,ITALY
,,INTEGRATED DVD/DIVX
PHARMACEUTICAL INDUSTRY,VOLKSWAGEN GROUP ITALIA,PASSAT BUSINESS WITH,DDB Milan,ITALY
,,INTEGRATED DVD/DIVX
FAT BEAR,CHRYSLER CANADA,JEEP WRANGLER UNLIMITED,BBDO CANADA Toronto,CANADA
NEW,MERCEDES/EMIRATES MOTOR,MERCEDES-BENZ,JWT DUBAI,UNITED ARAB EMIRATES
,COMPANY
GIRL,MERCEDES/GARGASH,MERCEDES-BENZ SLK,JWT DUBAI,UNITED ARAB EMIRATES
,ENTERPRISES
BASKETBALL PLAYER,FIAT,FIAT SIENA,LEO BURNETT BRASIL Sao Paulo,BRAZIL
BIRD,VOLKSWAGEN,VW JETTA,ALMAPBBDO Sao Paulo,BRAZIL
DOG,VOLKSWAGEN,VW JETTA,ALMAPBBDO Sao Paulo,BRAZIL
TREE,VOLKSWAGEN,VW JETTA,ALMAPBBDO Sao Paulo,BRAZIL
SUPPORTERS,TIIDA,NISSAN,PUBLICIS ROMANIA Bucharest,ROMANIA
TRIBUTE,,DAIMLERCHRYSLER MERCEDES- SMART FORTWO,CONTRAPUNTO Madrid,SPAIN
,BENZ
LEAVES,,DAIMLERCHRYSLER MERCEDES- SMART FORTWO,CONTRAPUNTO Madrid,SPAIN
,BENZ
MAZE,RENAULT,SANDERO,NEOGAMA/BBH Sao Paulo,BRAZIL
CAVE PAINTING,NISSAN SOUTH AFRICA,NISSAN PATHFINDER,TBWA\HUNT\LASCARIS,SOUTH AFRICA
,,,JOHANNESBURG
ESCAPE,VOLKSWAGEN,VW TOUAREG,DDB LONDON,UNITED KINGDOM
COW,AUDI SA,AUDI S5,OGILVY SOUTH AFRICA,SOUTH AFRICA
,,,Johannesburg
ELVIS,AUDI SA,AUDI S5,OGILVY SOUTH AFRICA,SOUTH AFRICA
,,,Johannesburg
SPEED CAMERA,AUDI SA,AUDI S5,OGILVY SOUTH AFRICA,SOUTH AFRICA
,,,Johannesburg
DROP,BMW,BMW EFFICIENTDYNAMICS,MAB BERLIN,GERMANY
GROUND KISSER,VOLKSWAGEN CANADA,VW PASSAT 4MOTION,CRISPIN PORTER + BOGUSKY,USA
,,,Miami
PEE STAIN FAMILY,VOLKSWAGEN CANADA,VW PASSAT 4MOTION,CRISPIN PORTER + BOGUSKY,USA
,,,Miami
GOLF VARIANT,VOLKSWAGEN,VOLKSWAGEN PARK DISTANCE,DDB GERMANY BERLIN,GERMANY
,,CONTROL
TOURAN,VOLKSWAGEN,VOLKSWAGEN PARK DISTANCE,DDB GERMANY BERLIN,GERMANY
,,CONTROL
GOLF,VOLKSWAGEN,VOLKSWAGEN PARK DISTANCE,DDB GERMANY BERLIN,GERMANY
,,CONTROL
,"A14 Other Vehicles, Auto Products & Services"
FREDDIE,VOLKSWAGEN,VW RNS 510 NAVIGATION,DDB GERMANY BERLIN,GERMANY
,,SYSTEM
MICHAEL,VOLKSWAGEN,VW RNS 510 NAVIGATION,DDB GERMANY BERLIN,GERMANY
,,SYSTEM
TRAVOLTA,VOLKSWAGEN,VW RNS 510 NAVIGATION,DDB GERMANY BERLIN,GERMANY
,,SYSTEM
PLANE,YAMAHA MARINE,F350 MARINE MOTOR,1861UNITED Milan,ITALY
FLIGHT 1001,MERCEDES-BENZ TRUCKS,,BLUE TEC DIESEL TECHNOLOGY  BBDO GERMANY Duesseldorf,GERMANY
LA DOLCE VITA,MERCEDES-BENZ TRUCKS,,BLUE TEC DIESEL TECHNOLOGY  BBDO GERMANY Duesseldorf,GERMANY
TALES FROM THE OOZE,MERCEDES-BENZ TRUCKS,,BLUE TEC DIESEL TECHNOLOGY  BBDO GERMANY Duesseldorf,GERMANY
"GOLF, NOW WITH TRACKING...",VOLKSWAGEN,VW GOLF,ALMAPBBDO Sao Paulo,BRAZIL
BEER BOX,VOLKSWAGEN,VW TRUCKS,ALMAPBBDO Sao Paulo,BRAZIL
EGG BOX,VOLKSWAGEN,VW TRUCKS,ALMAPBBDO Sao Paulo,BRAZIL
FRUIT BOX,VOLKSWAGEN,VW TRUCKS,ALMAPBBDO Sao Paulo,BRAZIL
MILK BOX,VOLKSWAGEN,VW TRUCKS,ALMAPBBDO Sao Paulo,BRAZIL
BRAILLE,MERCEDES-BENZ,NIGHT VIEW ASSIST,EL LABORATORIO SPRINGER &,SPAIN
,,,JACOBY Madrid
TRICYCLE,FORD,EXPEDITION,JWT MEXICO,MEXICO
KITTEN,FORD,EXPEDITION,JWT MEXICO,MEXICO
TORTOISE,FORD,EXPEDITION,JWT MEXICO,MEXICO
HUTS,VOLKSWAGEN,VW COMMERCIAL VEHICLES,DDB PARIS,FRANCE
CONCEPTION,VOLKSWAGEN,VW COMMERCIAL VEHICLES,DDB PARIS,FRANCE
POLIZEI,VOLKSWAGEN,VW COMMERCIAL VEHICLES,DDB PARIS,FRANCE
IDEALS,VOLKSWAGEN,VW COMMERCIAL VEHICLES,DDB PARIS,FRANCE
PSYCHEDELIC,VOLKSWAGEN,VW COMMERCIAL VEHICLES,DDB PARIS,FRANCE
VAN,VOLKSWAGEN,VW COMMERCIAL VEHICLES,DDB PARIS,FRANCE
A15 Home Electronics & Audio-Visual,
DELHI,SAMSUNG,SAMSUNG MOBILES W/ MOBILE,CHEIL WORLDWIDE New Delhi,INDIA
,,TRACKER
BOMBAY,SAMSUNG,SAMSUNG MOBILES W/ MOBILE,CHEIL WORLDWIDE New Delhi,INDIA
,,TRACKER
CALCUTTA,SAMSUNG,SAMSUNG MOBILES W/ MOBILE,CHEIL WORLDWIDE New Delhi,INDIA
,,TRACKER
BANGALORE,SAMSUNG,SAMSUNG MOBILES W/ MOBILE,CHEIL WORLDWIDE New Delhi,INDIA
,,TRACKER
MADRAS,SAMSUNG,SAMSUNG MOBILES W/ MOBILE,CHEIL WORLDWIDE New Delhi,INDIA
,,TRACKER
CHEETAH,CANON,CANON DIGITAL CAMERA IXUS,DENTSU THAILAND Bangkok,THAILAND
75.00000000,
BASEBALL,CANON,CANON DIGITAL CAMERA IXUS,DENTSU THAILAND Bangkok,THAILAND
75.00000000,
ROCK CONCERT,CANON,CANON DIGITAL CAMERA IXUS,DENTSU THAILAND Bangkok,THAILAND
75.00000000,
ECHIDNA,OLYMPUS,OLYMPUS BINOCULARS,JWT SYDNEY,AUSTRALIA
KOALA,OLYMPUS,OLYMPUS BINOCULARS,JWT SYDNEY,AUSTRALIA
COCKATOO,OLYMPUS,OLYMPUS BINOCULARS,JWT SYDNEY,AUSTRALIA
HAIR,FOTOCASIÓN,FOTOCASIÓN,EL LABORATORIO SPRINGER &,SPAIN
,,,JACOBY Madrid
SKIN,FOTOCASIÓN,FOTOCASIÓN,EL LABORATORIO SPRINGER &,SPAIN
,,,JACOBY Madrid
FIRE FIGHTERS,PENTAX EUROPE,PENTAX CAMERAS,DDB GERMANY DUESSELDORF,GERMANY
BANK RAID,PENTAX EUROPE,PENTAX CAMERAS,DDB GERMANY DUESSELDORF,GERMANY
EMERGENCY LANDING,PENTAX EUROPE,PENTAX CAMERAS,DDB GERMANY DUESSELDORF,GERMANY
COUGH,"TIVOLI AUDIO, LENBROOK ASIA",HOME ELECTRONICS & AUDIO,OGILVY & MATHER SINGAPORE,SINGAPORE
,,VISUAL
VACUUM,"TIVOLI AUDIO, LENBROOK ASIA",HOME ELECTRONICS & AUDIO,OGILVY & MATHER SINGAPORE,SINGAPORE
,,VISUAL
HICCUPS,"TIVOLI AUDIO, LENBROOK ASIA",HOME ELECTRONICS & AUDIO,OGILVY & MATHER SINGAPORE,SINGAPORE
,,VISUAL
MATCHES,SANYO,XACTO CG9 DIGITAL,SAATCHI & SAATCHI NZ,NEW ZEALAND
,,CAMCORDER
A16 Retail Stores,
CROTCH,TIMMIE DOGGIE OUTFITTERS,PET SUPPLIES,DDB CANADA Toronto,CANADA
NUTS,TIMMIE DOGGIE OUTFITTERS,PET SUPPLIES,DDB CANADA Toronto,CANADA
POOP,TIMMIE DOGGIE OUTFITTERS,PET SUPPLIES,DDB CANADA Toronto,CANADA
GIRL,FINETRA,BEDDING,KRIEG SCHLUPP BUERGE/,SWITZERLAND
,,,SPRINGER & JACOBY Zurich
MAN,FINETRA,BEDDING,KRIEG SCHLUPP BUERGE/,SWITZERLAND
,,,SPRINGER & JACOBY Zurich
WOMAN,FINETRA,BEDDING,KRIEG SCHLUPP BUERGE/,SWITZERLAND
,,,SPRINGER & JACOBY Zurich
PAINT,RÉNO-DÉPÔT,HARDWARE STORE,SID LEE Montreal,CANADA
THERMOSTAT,RÉNO-DÉPÔT,HARDWARE STORE,SID LEE Montreal,CANADA
ZURICH,WWW.RICARDO.CH,ONLINE SHOPPING PLATFORM,RUF LANZ Zurich,SWITZERLAND
LIVING ROOM,VILLA ARENA,FURNITURE AND HOME,PUBLICIS Amstelveen,THE NETHERLANDS
,,DECORATION
CAR PARK,EKCHAI DISTRIBUTION,TESCO LOTUS,BBDO BANGKOK,THAILAND
,SYSTEMS CO.
CRAB,EKCHAI DISTRIBUTION,TESCO LOTUS,BBDO BANGKOK,THAILAND
,SYSTEMS CO.
FISH,EKCHAI DISTRIBUTION,TESCO LOTUS,BBDO BANGKOK,THAILAND
,SYSTEMS CO.
PRAWNS,EKCHAI DISTRIBUTION,TESCO LOTUS,BBDO BANGKOK,THAILAND
SYSTEMS CO.,
SQUID,EKCHAI DISTRIBUTION,TESCO LOTUS,BBDO BANGKOK,THAILAND
,SYSTEMS CO.
DOOR,PAR 5,FASHION SPORTSWEAR,DDB Milan,ITALY
AIRPLANES,123 FLEURS,ONLINE FLOWER DELIVERY,CALLEGARI BERVILLE GREY,FRANCE
,,SERVICE,Paris
GRANNY,123 FLEURS,ONLINE FLOWER DELIVERY,CALLEGARI BERVILLE GREY,FRANCE
,,SERVICE,Paris
LIONESS,CAPE UNION MART,,CAPE UNION MART STORE CARD KING JAMES Johannesburg,SOUTH AFRICA
CROCODILE,CAPE UNION MART,,CAPE UNION MART STORE CARD KING JAMES Johannesburg,SOUTH AFRICA
TREE SNAKE,CAPE UNION MART,,CAPE UNION MART STORE CARD KING JAMES Johannesburg,SOUTH AFRICA
GREAT WHITE SHARK,CAPE UNION MART,,CAPE UNION MART STORE CARD KING JAMES Johannesburg,SOUTH AFRICA
FOOTBALL,HARVEY NICHOLS,HARVEY NICHOLS SUMMER,DDB LONDON,UNITED KINGDOM
,,SALE
NORSE,HARVEY NICHOLS,HARVEY NICHOLS SUMMER,DDB LONDON,UNITED KINGDOM
,,SALE
YELLOW,HARVEY NICHOLS,HARVEY NICHOLS WINTER SALE,DDB LONDON,UNITED KINGDOM
SILVER,HARVEY NICHOLS,HARVEY NICHOLS WINTER SALE,DDB LONDON,UNITED KINGDOM
MAN'S NIGHT,FUNK INTERNATIONAL,FUNK SUNGLASSES,DDB GERMANY BERLIN,GERMANY
WOMEN'S NIGHT,FUNK INTERNATIONAL,FUNK SUNGLASSES,DDB GERMANY BERLIN,GERMANY
A17 Restaurants & Fast Food Outlets,
JAPAN,SUNSET GRILL AND TAP,SUNSET GRILL AND TAP,ARNOLD Boston,USA
ARROW,LEGAL SEA FOODS,LEGAL SEA FOODS,DEVITO/VERDI New York,USA
,,RESTAURANT
CHILDREN,LEGAL SEA FOODS,LEGAL SEA FOODS,DEVITO/VERDI New York,USA
,,RESTAURANT
RETIRE,LEGAL SEA FOODS,LEGAL SEA FOODS,DEVITO/VERDI New York,USA
,,RESTAURANT
REST,LEGAL SEA FOODS,LEGAL SEA FOODS,DEVITO/VERDI New York,USA
,,RESTAURANT
EXTRA LARGE COFFEE,McDONALD'S SWEDEN,McDONALD'S,DDB STOCKHOLM,SWEDEN
KURT,COCCO'S CAFE,COCCO'S CAFE RESTAURANT,McCANN ERICKSON INDIA,INDIA
,,,Mumbai
MARILYN,COCCO'S CAFE,COCCO'S CAFE RESTAURANT,McCANN ERICKSON INDIA,INDIA
,,,Mumbai
VAN GOGH,COCCO'S CAFE,COCCO'S CAFE RESTAURANT,McCANN ERICKSON INDIA,INDIA
,,,Mumbai
McDONALD'S BUS,McDONALD'S,McDONALD'S BREAKFAST,DDB SYDNEY,AUSTRALIA
McDONALD'S TRAIN,McDONALD'S,McDONALD'S BREAKFAST,DDB SYDNEY,AUSTRALIA
McDONALD'S HOUSE,McDONALD'S,McDONALD'S BREAKFAST,DDB SYDNEY,AUSTRALIA
"A18 Travel, Transport & Tourism",
TOURISM WAVE,TOURISM WA,THE WEST AUSTRALIAN,MARKETFORCE West Perth,AUSTRALIA
,,NEWSPAPER
DENMARK,FALK MARCO POLO,NAVIGATION DEVICES,SCHOLZ & FRIENDS Berlin,GERMANY
,INTERACTIVE
FINLAND,FALK MARCO POLO,NAVIGATION DEVICES,SCHOLZ & FRIENDS Berlin,GERMANY
,INTERACTIVE
GREAT BRITAIN,FALK MARCO POLO,NAVIGATION DEVICES,SCHOLZ & FRIENDS Berlin,GERMANY
,INTERACTIVE
EIFFEL TOWER,COX & KINGS,TRAVEL AND TOUR COMPANY,SAATCHI & SAATCHI Mumbai,INDIA
LONDON BRIDGE,COX & KINGS,TRAVEL AND TOUR COMPANY,SAATCHI & SAATCHI Mumbai,INDIA
STATUE OF LIBERTY,COX & KINGS,TRAVEL AND TOUR COMPANY,SAATCHI & SAATCHI Mumbai,INDIA
CUBA,SHANGRI-LA,TRAVEL AGENCY,AGENCIA3 Rio de Janeiro,BRAZIL
INDIA,SHANGRI-LA,TRAVEL AGENCY,AGENCIA3 Rio de Janeiro,BRAZIL
USA,SHANGRI-LA,TRAVEL AGENCY,AGENCIA3 Rio de Janeiro,BRAZIL
TAJ MAHAL,"MINISTRY OF TOURISM,",INCREDIBLE INDIA,GREY WORLDWIDE INDIA,INDIA
,GOVERNMENT OF INDIA,,Mumbai
MOUNT RUSHMORE FROM,OVERTHERAINBOW GbR,QUEER-TRAVEL.DE GAY &,SCHOLZ & FRIENDS HAMBURG,GERMANY
BEHIND,,LESBIAN ONLINE TRAVEL
,,AGENCY
KING KONG,TAM AIRLINES,ENTERTAINMENT ON BOARD,Y&R Sao Paulo,BRAZIL
TITANIC,TAM AIRLINES,ENTERTAINMENT ON BOARD,Y&R Sao Paulo,BRAZIL
KAMA SUTRA,ARUBA,HOLIDAY RESORTS,LEW'LARA\TBWA Sao Paulo,BRAZIL
MONEY,ARUBA,HOLIDAY RESORTS,LEW'LARA\TBWA Sao Paulo,BRAZIL
A19 Entertainment & Leisure,
JAWS,MEGASTAR CINEPLEX,CINEMAS,OGILVY & MATHER VIETNAM Ho,VIETNAM
Chi Minh City,
HOTEL,MATTEL MÉXICO,SCRABBLE BOARD GAME,OGILVY MEXICO,MEXICO
HIP HOP,MATTEL MÉXICO,HOT WHEELS TOY CARS,OGILVY MEXICO,MEXICO
MODEL,MATTEL MÉXICO,HOT WHEELS TOY CARS,OGILVY MEXICO,MEXICO
0.13000000,APARTHEID MUSEUM,APARTHEID MUSEUM,GREY SOUTH AFRICA,SOUTH AFRICA
,,,Johannesburg
GOODBYE,B. D. P. GROUP,EA GAMES,FP7 DOHA,QATAR
PROUD MOTHER,B. D. P. GROUP,EA GAMES,FP7 DOHA,QATAR
BACK HOME,B. D. P. GROUP,EA GAMES,FP7 DOHA,QATAR
JAIL,HASBRO,MONOPOLY,GREY CHILE Santiago,CHILE
PERFUME,POLLA CHILENA DE,LOTO,JWT CHILE Santiago,CHILE
,BENEFICENCIA
BEAST,MATTEL,SCRABBLE,OGILVY & MATHER Paris,FRANCE
NURSE,MATTEL,SCRABBLE,OGILVY & MATHER Paris,FRANCE
VAMPIRE,MATTEL,SCRABBLE,OGILVY & MATHER Paris,FRANCE
HULA,MATTEL,SCRABBLE,OGILVY & MATHER Paris,FRANCE
CONDOM,MATTEL,SCRABBLE,OGILVY & MATHER Paris,FRANCE
BUDDHA,MATTEL,SCRABBLE,OGILVY & MATHER Paris,FRANCE
HOSPITAL,LAZER HELMETS,BIKE HELMETS,DUVAL GUILLAUME Antwerp,BELGIUM
ORANGE,CLIMA CO.LTD,CLIMA BICYCLE LOCK,LEO BURNETT Bangkok,THAILAND
BLUE,CLIMA CO.LTD,CLIMA BICYCLE LOCK,LEO BURNETT Bangkok,THAILAND
RED,CLIMA CO.LTD,CLIMA BICYCLE LOCK,LEO BURNETT Bangkok,THAILAND
YELLOW,CLIMA CO.LTD,CLIMA BICYCLE LOCK,LEO BURNETT Bangkok,THAILAND
MATRIUSKAS,SONY COMPUTER,SONY PLAYSTATION,TBWA\ESPANA Madrid,SPAIN
,ENTERTAINMENT
SCREAM,MUF,NATIONAL COMICS MUSEUM,JWT ITALIA Milan,ITALY
MUDDY 1,CITY CENTER,SPACE TOYS,FP7 DOHA,QATAR
MUDDY 2,CITY CENTER,SPACE TOYS,FP7 DOHA,QATAR
MUDDY 3,CITY CENTER,SPACE TOYS,FP7 DOHA,QATAR
OPEN CUT SANDPIT,HASBRO,TONKA TOYS,DDB SYDNEY,AUSTRALIA
CONSTRUCTION SANDPIT,HASBRO,TONKA TOYS,DDB SYDNEY,AUSTRALIA
OPEN CUT BUILDING,HASBRO,TONKA TOYS,DDB SYDNEY,AUSTRALIA
MUSTANG,MATTEL GERMANY,MATCHBOX,OGILVY FRANKFURT,GERMANY
ELDORADO,MATTEL GERMANY,MATCHBOX,OGILVY FRANKFURT,GERMANY
FLEETWOOD,MATTEL GERMANY,MATCHBOX,OGILVY FRANKFURT,GERMANY
CONTROL,SILFA,LEGO,OGILVY & MATHER SANTIAGO,CHILE
GENEROUS DONATIONS,LUA VIET TOURS,CU CHI TUNNELS MUSEUM,SAATCHI & SAATCHI VIETNAM,VIETNAM
,,,Ho Chi Minh City
NOT BELOW,LUA VIET TOURS,CU CHI TUNNELS MUSEUM,SAATCHI & SAATCHI VIETNAM,VIETNAM
,,,Ho Chi Minh City
A20 Publications & Media,
WILD WEST,ROESCHKE & ROESCHKE,INTERNET PORNBLOCKER,SPRINGER & JACOBY,GERMANY
,,,WERBEAGENTUR Hamburg
CHRISTMAS,ROESCHKE & ROESCHKE,INTERNET PORNBLOCKER,SPRINGER & JACOBY,GERMANY
,,,WERBEAGENTUR Hamburg
CATHY FREEMAN AND,SBS,SBS TV SHOW 'WHO DO YOU,RAZOR JUNIOR Sydney,AUSTRALIA
ANCESTORS,,THINK YOU ARE?'
INDIA,NOVA,RADIO NOVA,Y&R FRANCE Boulogne Billancourt,FRANCE
SKA,NOVA,RADIO NOVA,Y&R FRANCE Boulogne Billancourt,FRANCE
FUNK,NOVA,RADIO NOVA,Y&R FRANCE Boulogne Billancourt,FRANCE
JAZZ,NOVA,RADIO NOVA,Y&R FRANCE Boulogne Billancourt,FRANCE
RAP,NOVA,RADIO NOVA,Y&R FRANCE Boulogne Billancourt,FRANCE
CUBAN,NOVA,RADIO NOVA,Y&R FRANCE Boulogne Billancourt,FRANCE
FOLK,NOVA,RADIO NOVA,Y&R FRANCE Boulogne Billancourt,FRANCE
BLUES,NOVA,RADIO NOVA,Y&R FRANCE Boulogne Billancourt,FRANCE
JAMES,NOVA,RADIO NOVA,Y&R FRANCE Boulogne Billancourt,FRANCE
HANDCUFFS,SKY,SKY ONE: PRISON BREAK,THE RED BRICK ROAD London,UNITED KINGDOM
COTTAGE,SKY TELEVISION,SATELLITE TELEVISION,DDB NEW ZEALAND Auckland,NEW ZEALAND
COW,FRITZ UND FRÄNZI,THE MAGAZINE OF THE,JUNG von MATT Zurich,SWITZERLAND
FOUNDATION FOR,
PARENTHOOD,
MISS FEBRUARY,MEDIACORP PUBLISHING,FHM MAGAZINE,McCANN WORLDGROUP,SINGAPORE
,,,SINGAPORE
MISS MARCH,MEDIACORP PUBLISHING,FHM MAGAZINE,McCANN WORLDGROUP,SINGAPORE
,,,SINGAPORE
BREAKAWAY,GLOBE-TROTTERS,GLOBE-TROTTERS MAGAZINE,FFL PARIS,FRANCE
FLORIST,YELLOW PAGES,DIRECTORY,GREY WORLDWIDE Dubai,UNITED ARAB EMIRATES
WEDDINGS,YELLOW PAGES,DIRECTORY,GREY WORLDWIDE Dubai,UNITED ARAB EMIRATES
GROCERS,YELLOW PAGES,DIRECTORY,GREY WORLDWIDE Dubai,UNITED ARAB EMIRATES
FUNERALS,YELLOW PAGES,DIRECTORY,GREY WORLDWIDE Dubai,UNITED ARAB EMIRATES
SLIMY KISS,MTV,MTV NETWORKS,TIEMPO BBDO Madrid,SPAIN
KANGAROO,MTV,MTV DANCE,TIEMPO BBDO Madrid,SPAIN
PISTON,MTV,MTV DANCE,TIEMPO BBDO Madrid,SPAIN
MEXICO,MAIRDUMONT,STEFAN LOOSE TRAVEL GUIDE,SCHOLZ & FRIENDS Berlin,GERMANY
SMOKE,GANJ BOOK,BOOK,MEDINA TURGUL DDB Istanbul,TURKEY
RAMONES,OUIFM,ROCK RADIO,LEG. Paris,FRANCE
THE STROKES,OUIFM,ROCK RADIO,LEG. Paris,FRANCE
THE JAM,OUIFM,ROCK RADIO,LEG. Paris,FRANCE
THE WHO,OUIFM,ROCK RADIO,LEG. Paris,FRANCE
BUSH,WIKIMEDIA,WIKIPEDIA.ORG,DDB GERMANY DUESSELDORF,GERMANY
SMOKING BAN,WIKIMEDIA,WIKIPEDIA.ORG,DDB GERMANY DUESSELDORF,GERMANY
WORLDCUP,WIKIMEDIA,WIKIPEDIA.ORG,DDB GERMANY DUESSELDORF,GERMANY
PENGUIN,ANIMAL PLANET,ANIMAL DOCUMENTARIES,DDB GERMANY DUESSELDORF,GERMANY
BEAR,ANIMAL PLANET,ANIMAL DOCUMENTARIES,DDB GERMANY DUESSELDORF,GERMANY
BLOWFISH,ANIMAL PLANET,ANIMAL DOCUMENTARIES,DDB GERMANY DUESSELDORF,GERMANY
STAR TREK,NBC UNIVERSAL/SCI FI,SCI FI TV SERIES,SHACKLETON Madrid,SPAIN
GUITARIST,NU 107,RADIO STATION,BBDO GUERRERO ORTEGA,THE PHILIPPINES
,,,Makati City
VOCALS,NU 107,RADIO STATION,BBDO GUERRERO ORTEGA,THE PHILIPPINES
,,,Makati City
BIRD,MTV NETWORKS,COMEDY CENTRAL,KEMPERTRAUTMANN Hamburg,GERMANY
CHAIR,MTV NETWORKS,COMEDY CENTRAL,KEMPERTRAUTMANN Hamburg,GERMANY
DOOR,MTV NETWORKS,COMEDY CENTRAL,KEMPERTRAUTMANN Hamburg,GERMANY
TWINS,MTV NETWORKS,COMEDY CENTRAL,KEMPERTRAUTMANN Hamburg,GERMANY
MANSON,PUBLIREVISTAS,ROLLING STONE MAGAZINE,LA COMUNIDAD Buenos Aires,ARGENTINA
HIPPIE,PUBLIREVISTAS,ROLLING STONE MAGAZINE,LA COMUNIDAD Buenos Aires,ARGENTINA
AIDS STATS,INDEPENDENT NEWSPAPERS,CAPE ARGUS NEWSPAPER,KING JAMES Cape Town,SOUTH AFRICA
CHÉ,CIA DAS LETRAS,CIA DE BOLSO,ALMAPBBDO Sao Paulo,BRAZIL
THE TRIAL,CIA DAS LETRAS,CIA DE BOLSO,ALMAPBBDO Sao Paulo,BRAZIL
ROMAN EMPIRE,CIA DAS LETRAS,CIA DE BOLSO,ALMAPBBDO Sao Paulo,BRAZIL
MR WHITE,ESPN,ESPN,SAATCHI & SAATCHI Singapore,SINGAPORE
MR BLUE,ESPN,ESPN,SAATCHI & SAATCHI Singapore,SINGAPORE
MR BROWN,ESPN,ESPN,SAATCHI & SAATCHI Singapore,SINGAPORE
SOLDIER,TAMEDIA/SONNTAGSZEITUNG,SUNDAY NEWSPAPER,ADVICO YOUNG & RUBICAM,SWITZERLAND
,,,Zurich
BABY,TAMEDIA/SONNTAGSZEITUNG,SUNDAY NEWSPAPER,ADVICO YOUNG & RUBICAM,SWITZERLAND
,,,Zurich
BUSH,TAMEDIA/SONNTAGSZEITUNG,SUNDAY NEWSPAPER,ADVICO YOUNG & RUBICAM,SWITZERLAND
,,,Zurich
PUTIN,TAMEDIA/SONNTAGSZEITUNG,SUNDAY NEWSPAPER,ADVICO YOUNG & RUBICAM,SWITZERLAND
,,,Zurich
DOLLAR,GAZETA MERCANTIL,GAZETA MERCANTIL,JWT BRASIL Sao Paulo,BRAZIL
,,NEWSPAPER
YEN,GAZETA MERCANTIL,GAZETA MERCANTIL,JWT BRASIL Sao Paulo,BRAZIL
,,NEWSPAPER
EURO,GAZETA MERCANTIL,GAZETA MERCANTIL,JWT BRASIL Sao Paulo,BRAZIL
,,NEWSPAPER
DISSECTION,THE ECONOMIST,THE ECONOMIST,ABBOTT MEAD VICKERS BBDO,UNITED KINGDOM
,,,London
WORLD REVOLVES,THE ECONOMIST,THE ECONOMIST,ABBOTT MEAD VICKERS BBDO,UNITED KINGDOM
,,,London
WORST THING,THE ECONOMIST,THE ECONOMIST,ABBOTT MEAD VICKERS BBDO,UNITED KINGDOM
London,
LAKE,NBC UNIVERSAL GLOBAL,13EME RUE,BETC EURO RSCG Paris,FRANCE
,NETWORKS
GARAGE,NBC UNIVERSAL GLOBAL,13EME RUE,BETC EURO RSCG Paris,FRANCE
,NETWORKS
FOREST,NBC UNIVERSAL GLOBAL,13EME RUE,BETC EURO RSCG Paris,FRANCE
,NETWORKS
"A21 Banking, Investment & Insurance",
ARM,N SEGUROS,N SEGUROS,MSTF PARTNERS Lisbon,PORTUGAL
LEG,N SEGUROS,N SEGUROS,MSTF PARTNERS Lisbon,PORTUGAL
HOSPISOLIDAIRE,LA MUTUALITÉ CHRÉTIENNE,ASSURANCE HOSPITALISATION,LEO BURNETT BRUSSELS,BELGIUM
LARRY DAVID,AMERICAN EXPRESS,AMERICAN EXPRESS CARD,OGILVY New York,USA
TINA FEY,AMERICAN EXPRESS,AMERICAN EXPRESS CARD,OGILVY New York,USA
"HALF MUM, HALF DELRIN AND",FOLKSAM,INSURANCE,ANR.BBDO Gothenburg,SWEDEN
POLYURETHANE,
RING,KARSTADTQUELLE INSURANCE,DENTAL INSURANCE,JUNG von MATT Hamburg,GERMANY
TILL SLIPS,SANLAM,TOPAZ,THE JUPITER DRAWING ROOM,SOUTH AFRICA
,,,SOUTH AFRICA Cape Town
LAMP SHADE,ROHAN BUILDERS &,ROHAN MIHIRA,OGILVY & MATHER Bangalore,INDIA
,DEVELOPERS
SIDE LAMP,ROHAN BUILDERS &,ROHAN MIHIRA,OGILVY & MATHER Bangalore,INDIA
,DEVELOPERS
TREE,HOSPITAL ALEMÁN,CHILD HEALTH PLAN,DEL CAMPO NAZCA SAATCHI &,ARGENTINA
,,,SAATCHI Buenos Aires
DOG,HOSPITAL ALEMÁN,CHILD HEALTH PLAN,DEL CAMPO NAZCA SAATCHI &,ARGENTINA
,,,SAATCHI Buenos Aires
CANDY,HOSPITAL ALEMÁN,CHILD HEALTH PLAN,DEL CAMPO NAZCA SAATCHI &,ARGENTINA
,,,SAATCHI Buenos Aires
DO YOU THINK SHE'S PRETTY?,1ST FOR WOMEN INSURANCE,INSURANCE FOR WOMEN,BLACK RIVER F.C. Johannesburg,SOUTH AFRICA
,BROKERS
WE NEED,1ST FOR WOMEN INSURANCE,INSURANCE FOR WOMEN,BLACK RIVER F.C. Johannesburg,SOUTH AFRICA
,BROKERS
BEAR IN KITCHEN,TRAVELERS,INSURANCE,FALLON Minneapolis,USA
ICE CAR,TRAVELERS,INSURANCE,FALLON Minneapolis,USA
MUFFLER MAN,TRAVELERS,INSURANCE,FALLON Minneapolis,USA
DINNER,BRADESCO PRIME,BANK,NEOGAMA/BBH Sao Paulo,BRAZIL
WINE,BRADESCO PRIME,BANK,NEOGAMA/BBH Sao Paulo,BRAZIL
SHANGHAI - CHICAGO,WESTERN UNION,MONEY TRANSFER,SAATCHI & SAATCHI VIETNAM,VIETNAM
,,,Ho Chi Minh City
HONG KONG - NY,WESTERN UNION,MONEY TRANSFER,SAATCHI & SAATCHI VIETNAM,VIETNAM
,,,Ho Chi Minh City
SYDNEY - TORONTO,WESTERN UNION,MONEY TRANSFER,SAATCHI & SAATCHI VIETNAM,VIETNAM
,,,Ho Chi Minh City
SINGAPORE - LA,WESTERN UNION,MONEY TRANSFER,SAATCHI & SAATCHI VIETNAM,VIETNAM
,,,Ho Chi Minh City
A22 Business Equipment & Services,
LOST,DHL WORLDWIDE EXPRESS,DHL,OGILVY & MATHER PHILIPPINES,THE PHILIPPINES
,PHILIPPINES,,Makati City
BERTRAND,INLINE KURIERDIENST -,BIKE COURIER SERVICE,SCHOLZ & FRIENDS Berlin,GERMANY
,VERMITTLUNG VON
,BOTENFAHRTEN
GRIT,INLINE KURIERDIENST -,BIKE COURIER SERVICE,SCHOLZ & FRIENDS Berlin,GERMANY
,VERMITTLUNG VON
,BOTENFAHRTEN
BUY A BALLOON,RESEARCH INTERNATIONAL,RESEARCH FOR BUSINESSES,McCANN ERICKSON MUNICH,GERMANY
,,AND BRANDS
FROG/HIPPO,SONY,MICROVAULT,FORTUNE PROMOSEVEN Dubai,UNITED ARAB EMIRATES
RAT/ELEPHANT,SONY,MICROVAULT,FORTUNE PROMOSEVEN Dubai,UNITED ARAB EMIRATES
SQUID/WHALE,SONY,MICROVAULT,FORTUNE PROMOSEVEN Dubai,UNITED ARAB EMIRATES
GUTTER,LENOVO - COMPUTER,THIN NOTEBOOK COMPUTERS,OGILVY & MATHER Bangalore,INDIA
,MANUFACTURER
CHART,TELMEX,INTRANET WIRELESS,EURO RSCG BUENOS AIRES,ARGENTINA
LEAK,PHOTOLIBRARY,ROYALTY-FREE IMAGES,TBWA\TEQUILA SINGAPORE,SINGAPORE
HUMP,PHOTOLIBRARY,ROYALTY-FREE IMAGES,TBWA\TEQUILA SINGAPORE,SINGAPORE
BALLET,MONSTER.COM,JOB SEARCH WEBSITE,JWT HK Hong Kong,HONG KONG
SOLDIER,MONSTER.COM,JOB SEARCH WEBSITE,JWT HK Hong Kong,HONG KONG
SUMO,MONSTER.COM,JOB SEARCH WEBSITE,JWT HK Hong Kong,HONG KONG
WIRELESS TO EVERYONE,GEEK SQUAD,,TECHNICAL SUPPORT SERVICES CRISPIN PORTER + BOGUSKY,USA
,,,Miami
A23 Advertising & Media,
BEDROOM,YOUNGGUNS INTERNATIONAL,CALL FOR ENTRIES POSTERS,TAXI CANADA Toronto,CANADA
,ADVERTISING AWARDS
BUS,YOUNGGUNS INTERNATIONAL,CALL FOR ENTRIES POSTERS,TAXI CANADA Toronto,CANADA
,ADVERTISING AWARDS
LOCKER ROOM,YOUNGGUNS INTERNATIONAL,CALL FOR ENTRIES POSTERS,TAXI CANADA Toronto,CANADA
,ADVERTISING AWARDS
TREE,YOUNGGUNS INTERNATIONAL,CALL FOR ENTRIES POSTERS,TAXI CANADA Toronto,CANADA
,ADVERTISING AWARDS
CHARACTER VOICES,YELLOW BOX STUDIO,ADVERTISING & MEDIA,Y&R Singapore,SINGAPORE
SOUND DESIGN,YELLOW BOX STUDIO,ADVERTISING & MEDIA,Y&R Singapore,SINGAPORE
GENTLEMEN,CORBIS/VMI,IMAGE BANK,LEO BURNETT LISBOA,PORTUGAL
LAYOUT,CORBIS/VMI,IMAGE BANK,LEO BURNETT LISBOA,PORTUGAL
FOCUS GROUP,CORBIS/VMI,IMAGE BANK,LEO BURNETT LISBOA,PORTUGAL
6-0,CORBIS/VMI,IMAGE BANK,LEO BURNETT LISBOA,PORTUGAL
DWARF,YOUNG LIONS BRAZIL,YOUNG LIONS BRAZIL (CALL,LEO BURNETT BRASIL Sao Paulo,BRAZIL
,,FOR ENTRIES)
A24 Other Business to Business,
SCARECROW,COROMANDEL FERTILIZERS,PARRY AGRO FERTILISERS,JWT INDIA Mumbai,INDIA
CHEERS,FEDEX CANADA,EXPRESS SERVICE,BBDO CANADA Toronto,CANADA
ACTION,HERBERT RICHERS,DUBBING SERVICES,PUBLICIS BRASIL Sao Paulo,BRAZIL
,TRANSLATION
CLASSIC,HERBERT RICHERS,DUBBING SERVICES,PUBLICIS BRASIL Sao Paulo,BRAZIL
,TRANSLATION
ROMANCE,HERBERT RICHERS,DUBBING SERVICES,PUBLICIS BRASIL Sao Paulo,BRAZIL
,TRANSLATION
FALLING BABY,BURTI,VATICANO,NEOGAMA/BBH Sao Paulo,BRAZIL
A25 Healthcare & Prescription Drugs,
BALLOON,RAMATHIBODI HOSPITAL,RAMATHIBODI HOSPITAL,BBDO BANGKOK,THAILAND
NARCISSE,DNF,FRENCH ASSOCIATION FOR,BDDP & FILS Paris,FRANCE
,,NON-SMOKERS RIGHTS
OSCAR,DNF,FRENCH ASSOCIATION FOR,BDDP & FILS Paris,FRANCE
,,NON-SMOKERS RIGHTS
REINCARNATION,APOLLO HOSPITALS,APOLLO HOSPITAL'S TOBACCO,OGILVY & MATHER Bangalore,INDIA
,,CESSATION PROGRAM
AFTERLIFE,APOLLO HOSPITALS,APOLLO HOSPITAL'S TOBACCO,OGILVY & MATHER Bangalore,INDIA
,,CESSATION PROGRAM
PANADOL,GLAXOSMITHKLINE,PAINKILLERS,OGILVY SINGAPORE,SINGAPORE
ROBOT,GSK,PANADOL MENSTRUAL,OGILVY & MATHER SINGAPORE,SINGAPORE
PRISON CELL,EASY IMPLANT,DENTAL SERVICE,McCANN ERICKSON BRASIL Sao,BRAZIL
,,,Paulo
A26 Commercial Public Services,
QWERTY KEYBOARD,MICROSOFT TAIWAN,MSN MESSENGER,EURO RSCG TAIPEI,CHINESE TAIPEI
,CORPORATION
CAR DOOR,MR.UNLOCK,LOCKSMITHS,MONDAY Bangkok,THAILAND
HOUSE DOOR,MR.UNLOCK,LOCKSMITHS,MONDAY Bangkok,THAILAND
ICE CREAM MACHINE,JOBSINTOWN.DE,ONLINE RECRUITMENT,SCHOLZ & FRIENDS Berlin,GERMANY
JUKEBOX,JOBSINTOWN.DE,ONLINE RECRUITMENT,SCHOLZ & FRIENDS Berlin,GERMANY
KIDDY-RIDE,JOBSINTOWN.DE,ONLINE RECRUITMENT,SCHOLZ & FRIENDS Berlin,GERMANY
TEXT MESSAGING,ORANGE,ORANGE,SHALMOR AVNON AMICHAY/,ISRAEL
,,,Y&R Tel Aviv
ROUNDABOUT,TELEINFO MEDIA,THAILAND YELLOW PAGES,CREATIVE JUICE G1 (TBWA),THAILAND
,,,Bangkok
PARK,TELEINFO MEDIA,THAILAND YELLOW PAGES,CREATIVE JUICE G1 (TBWA),THAILAND
,,,Bangkok
RIVER,TELEINFO MEDIA,THAILAND YELLOW PAGES,CREATIVE JUICE G1 (TBWA),THAILAND
,,,Bangkok
BUTTS,ETB,ETB PARENTAL CONTROL,LEO BURNETT COLOMBIANA,COLOMBIA
,,,Bogota
TITS,ETB,ETB PARENTAL CONTROL,LEO BURNETT COLOMBIANA,COLOMBIA
,,,Bogota
APRIL,INLINGUA SCHOOL OF,LANGUAGE SCHOOL,SAATCHI & SAATCHI Bangkok,THAILAND
LANGUAGE,
,,KEES,INLINGUA SCHOOL OF,LANGUAGE SCHOOL
,,,LANGUAGE
,,,,SAATCHI & SAATCHI Bangkok
THAILAND,
SALMA,INLINGUA SCHOOL OF,LANGUAGE SCHOOL,SAATCHI & SAATCHI Bangkok,THAILAND
,LANGUAGE
1998 VS 2004,EPA,EPA ADVERTISING & ART,ALMAPBBDO Sao Paulo,BRAZIL
,,SCHOOL
NEPTUNE'S STEEDS VS SURF,EPA,EPA ADVERTISING & ART,ALMAPBBDO Sao Paulo,BRAZIL
,,SCHOOL
MY BIRTH VS REBIRTH,EPA,EPA ADVERTISING & ART,ALMAPBBDO Sao Paulo,BRAZIL
,,SCHOOL
1987 VS 2003,EPA,EPA ADVERTISING & ART,ALMAPBBDO Sao Paulo,BRAZIL
,,SCHOOL
DESERT-LIKE,AGBAR,WATER COMPANY,ROAD BARCELONA,SPAIN
TONGUE,MILAN JUNIOR CAMP,FOOTBALL SCHOOL FOR KIDS,OGILVY BRASIL Sao Paulo,BRAZIL
FRANCE,INLINGUA FREIBURG,INLINGUA LANGUAGE COURSES,KOLLE REBBE WERBEAGENTUR,GERMANY
,,,Hamburg
SOAP OPERA,TELEFONICA,TELEFONICA DIGITAL TV,DDB BRASIL Sao Paulo,BRAZIL
COWBOY,TELEFONICA,TELEFONICA DIGITAL TV,DDB BRASIL Sao Paulo,BRAZIL
SNAILS,MOTOCAB,MOTOCAB,LEO BURNETT PARIS,FRANCE
A27 Corporate Image,
ADIDAS OLYMPIC LAUNCH - SUI,ADIDAS,OLYMPIC SPONSORSHIP,TBWA\CHINA Shanghai,CHINA
FEIFEI,
ADIDAS OLYMPIC LAUNCH -,ADIDAS,OLYMPIC SPONSORSHIP,TBWA\CHINA Shanghai,CHINA
ZHENG ZHI,
COW,THE BRITISH COUNCIL,MEET YOUR HERO,M&C SAATCHI Sydney,AUSTRALIA
,,SCHOLARSHIP
MANNEQUIN,THE BRITISH COUNCIL,MEET YOUR HERO,M&C SAATCHI Sydney,AUSTRALIA
,,SCHOLARSHIP
CHE GUEVARA,AGEA,CLARÍN INSTITUTIONAL,KEPEL & MATA Buenos Aires,ARGENTINA
ARTILLERY,PIAS ENTERTAINMENT GROUP,PIAS MUSIC,ADOPT Brussels,BELGIUM
WATCHMEN,PIAS ENTERTAINMENT GROUP,PIAS MUSIC,ADOPT Brussels,BELGIUM
PRIVACY,DENAAKTEWAARHEID.COM,CREDITS,ALFRED INTERNATIONAL,THE NETHERLANDS
,,,Amsterdam
CAPITALISM,DENAAKTEWAARHEID.COM,CREDITS,ALFRED INTERNATIONAL,THE NETHERLANDS
,,,Amsterdam
PATRIOTISM,DENAAKTEWAARHEID.COM,CREDITS,ALFRED INTERNATIONAL,THE NETHERLANDS
,,,Amsterdam
GORILLA,COMMERCIAL FILM,YOUNG DIRECTOR AWARD BY,TBWA\PHS HELSINKI,FINLAND
,PRODUCERS OF EUROPE,CFP-E & SHOTS
BEETLE,VOLKSWAGEN,CORPORATE,ALMAPBBDO Sao Paulo,BRAZIL
FOX,VOLKSWAGEN,CORPORATE,ALMAPBBDO Sao Paulo,BRAZIL
SAVEIRO,VOLKSWAGEN,CORPORATE,ALMAPBBDO Sao Paulo,BRAZIL
PINK RIBBON,MERCEDES-BENZ,BREAST CANCER FOUNDATION,FHV BBDO Amsterdam,THE NETHERLANDS
,NETHERLANDS,SPONSORSHIP
HUSBAND,COMPANHIA ATHLETICA,CORPORATE,DDB BRASIL Sao Paulo,BRAZIL
SUMO,COMPANHIA ATHLETICA,CORPORATE,DDB BRASIL Sao Paulo,BRAZIL
A28 Public Health & Safety,
TREE,LAND TRANSPORT NZ,SLEEP BEFORE DRIVING,CLEMENGER BBDO Wellington,NEW ZEALAND
CREEK,LAND TRANSPORT NZ,SLEEP BEFORE DRIVING,CLEMENGER BBDO Wellington,NEW ZEALAND
BRIDGE,LAND TRANSPORT NZ,SLEEP BEFORE DRIVING,CLEMENGER BBDO Wellington,NEW ZEALAND
TITANIC,SOLIDARITÉS,FRENCH ASSOCIATION FOR,BDDP & FILS Paris,FRANCE
,,INTERNATIONAL HUMAN
,,CAUSES
HIROSHIMA,SOLIDARITÉS,FRENCH ASSOCIATION FOR,BDDP & FILS Paris,FRANCE
,,INTERNATIONAL HUMAN
,,CAUSES
OLD PORN 1,MTV,TV CHANNEL,LODUCCA Sao Paulo,BRAZIL
OLD PORN 2,MTV,TV CHANNEL,LODUCCA Sao Paulo,BRAZIL
OLD PORN 3,MTV,TV CHANNEL,LODUCCA Sao Paulo,BRAZIL
PILLARS,UMW TOYOTA MOTOR,ANTI DRINK-DRIVE MESSAGE,,SAATCHI & SAATCHI Petaling Jaya MALAYSIA
TREES,UMW TOYOTA MOTOR,ANTI DRINK-DRIVE MESSAGE,,SAATCHI & SAATCHI Petaling Jaya MALAYSIA
SIGNS,UMW TOYOTA MOTOR,ANTI DRINK-DRIVE MESSAGE,,SAATCHI & SAATCHI Petaling Jaya MALAYSIA
BIN LADEN,UNIMED,ANTI-SMOKING CAMPAIGN,F/NAZCA SAATCHI & SAATCHI,BRAZIL
Sao Paulo,
HITLER,UNIMED,ANTI-SMOKING CAMPAIGN,F/NAZCA SAATCHI & SAATCHI,BRAZIL
,,,Sao Paulo
DOLL,FRANCE ALZHEIMER,NON-PROFIT ORGANISATION,SAATCHI & SAATCHI PARIS,FRANCE
,ASSOCIATION
CATS - IMPOTENCE,ADVERTISERS WITHOUT,ANTI-SMOKING MESSAGE,OGILVY MALAYSIA Kuala Lumpur,MALAYSIA
,BORDERS
F-WORD,FRIENDS OF CANCER PATIENTS,ANTI-SMOKING,SAATCHI & SAATCHI,THE NETHERLANDS
,,,AMSTERDAM
STAIRWAY,FRIENDS OF CANCER PATIENTS,ANTI-SMOKING,SAATCHI & SAATCHI,THE NETHERLANDS
,,,AMSTERDAM
12.4 SECONDS,FRIENDS OF CANCER PATIENTS,ANTI-SMOKING,SAATCHI & SAATCHI,THE NETHERLANDS
,,,AMSTERDAM
GIRL,AIDES,AIDS AWARENESS,TBWA\PARIS,FRANCE
BOY,AIDES,AIDS AWARENESS,TBWA\PARIS,FRANCE
CLIFF,GUINNESS ANCHOR BERHAD,ANTI DRINK-DRIVING MESSAGE,,SAATCHI & SAATCHI Petaling Jaya MALAYSIA
STOP,GUINNESS ANCHOR BERHAD,ANTI DRINK-DRIVING MESSAGE,,SAATCHI & SAATCHI Petaling Jaya MALAYSIA
TRAFFIC LIGHT,GUINNESS ANCHOR BERHAD,ANTI DRINK-DRIVING MESSAGE,,SAATCHI & SAATCHI Petaling Jaya MALAYSIA
ROADWORKS,GUINNESS ANCHOR BERHAD,ANTI DRINK-DRIVING MESSAGE,,SAATCHI & SAATCHI Petaling Jaya MALAYSIA
A29 Public Awareness Messages,
AFRICAN,AMNESTY INTERNATIONAL,AMNESTY INTERNATIONAL,McCANN ERICKSON Lisbon,PORTUGAL
,PORTUGAL
MUSLIM,AMNESTY INTERNATIONAL,AMNESTY INTERNATIONAL,McCANN ERICKSON Lisbon,PORTUGAL
,PORTUGAL
OCTOPUS,SURFRIDER FOUNDATION,SURFRIDER FOUNDATION,Y&R FRANCE Boulogne Billancourt,FRANCE
LOBSTER,SURFRIDER FOUNDATION,SURFRIDER FOUNDATION,Y&R FRANCE Boulogne Billancourt,FRANCE
EEL,SURFRIDER FOUNDATION,SURFRIDER FOUNDATION,Y&R FRANCE Boulogne Billancourt,FRANCE
SEAHORSE,SURFRIDER FOUNDATION,SURFRIDER FOUNDATION,Y&R FRANCE Boulogne Billancourt,FRANCE
FRIDGE,SPF- FEDERAL PUBLIC UTILITY,ENVIRONMENT,LEO BURNETT BRUSSELS,BELGIUM
WASHING MACHINE,SPF- FEDERAL PUBLIC UTILITY,ENVIRONMENT,LEO BURNETT BRUSSELS,BELGIUM
CONSTRUCTION,SFP-FEDERAL PUBLIC UTILITY,ENVIRONMENT,LEO BURNETT BRUSSELS,BELGIUM
STITCH CAMPAIGN,KOREA GREEN FOUNDATION,STITCH CAMPAIGN,CHEIL WORLDWIDE Seoul,KOREA
DAY,ASSOCIATION AGAINST,NON-PROFIT HELP FOR PEOPLE,SCHOLZ & FRIENDS ZURICH,SWITZERLAND
,DOMESTIC VIOLENCE OF THE,WHO SUFFER FROM DOMESTIC
,STATE ZURICH,VIOLENCE.
NIGHT,ASSOCIATION AGAINST,NON-PROFIT HELP FOR PEOPLE,SCHOLZ & FRIENDS ZURICH,SWITZERLAND
,DOMESTIC VIOLENCE OF THE,WHO SUFFER FROM DOMESTIC
,STATE ZURICH,VIOLENCE.
SATELLITES,AMNESTY INTERNATIONAL,GUN CONTROL PROGRAM,JWT CARACAS,VENEZUELA
,VENEZUELA
WINDOWS,AMNESTY INTERNATIONAL,GUN CONTROL PROGRAM,JWT CARACAS,VENEZUELA
,VENEZUELA
USA,AMNESTY INTERNATIONAL,HUMAN RIGHTS AWARENESS,AIR Brussels,BELGIUM
PAKISTAN,AMNESTY INTERNATIONAL,HUMAN RIGHTS AWARENESS,AIR Brussels,BELGIUM
TRAFFIC,WWF,WORLD WILDLIFE FUND,OGILVY CAPE TOWN,SOUTH AFRICA
FUMES,WWF,WORLD WILDLIFE FUND,OGILVY CAPE TOWN,SOUTH AFRICA
FRANCE,WWF,WORLD WILDLIFE FUND,OGILVY CAPE TOWN,SOUTH AFRICA
ENGLAND,WWF,WORLD WILDLIFE FUND,OGILVY CAPE TOWN,SOUTH AFRICA
SOUTH AFRICA,WWF,WORLD WILDLIFE FUND,OGILVY CAPE TOWN,SOUTH AFRICA
RED SHOES,AMNESTY INTERNATIONAL OF,AMNESTY INTERNATIONAL,JWT SAN JUAN,PUERTO RICO
,PUERTO RICO
ONE TREE,SANCTUARY ASIA,SANCTUARY ASIA MAGAZINE,MUDRA COMMUNICATIONS,INDIA
,,,Mumbai
WORSHIP,TORONTO HUMANE SOCIETY,THE TORONTO HUMANE,LEO BURNETT TORONTO,CANADA
,,SOCIETY
JOG,TORONTO HUMANE SOCIETY,THE TORONTO HUMANE,LEO BURNETT TORONTO,CANADA
,,SOCIETY
SAVE JULIA,FUNDACIÓN VIDA SILVESTRE,FUNDACIÓN VIDA SILVESTRE,OGILVY & MATHER ARGENTINA,ARGENTINA
,,,Buenos Aires
SAVE MARTIN,FUNDACIÓN VIDA SILVESTRE,FUNDACIÓN VIDA SILVESTRE,OGILVY & MATHER ARGENTINA,ARGENTINA
,,,Buenos Aires
OLD MAN WAITING,WWW.HELPAGEINDIA.ORG,SENIOR CITIZENS' CHARITY,PIRANA Dubai,UNITED ARAB EMIRATES
CARDS,COMPANIONS FOR SENIORS,COMPANIONS FOR SENIORS,Y&R CHICAGO,USA
PIANO,COMPANIONS FOR SENIORS,COMPANIONS FOR SENIORS,Y&R CHICAGO,USA
SHOE,COMPANIONS FOR SENIORS,COMPANIONS FOR SENIORS,Y&R CHICAGO,USA
,,,EMILY,CERCA
CHILDREN AND ADOLESCENTS,EURO RSCG BRASIL Sao Paulo,BRAZIL
REFERENCE CENTRE,
ANNIE,CERCA,CHILDREN AND ADOLESCENTS,EURO RSCG BRASIL Sao Paulo,BRAZIL
,,REFERENCE CENTRE
PETER,CERCA,CHILDREN AND ADOLESCENTS,EURO RSCG BRASIL Sao Paulo,BRAZIL
,,REFERENCE CENTRE
FAMILY NAME,AADHAR,ANTI FEMALE FOETICIDE,CONTRACT INDIA Mumbai,INDIA
ARCHERY,AMNESTY INTERNATIONAL,HUMAN RIGHTS AWARENESS,TBWA\PARIS,FRANCE
WEIGHTLIFTING,AMNESTY INTERNATIONAL,HUMAN RIGHTS AWARENESS,TBWA\PARIS,FRANCE
SWIMMING,AMNESTY INTERNATIONAL,HUMAN RIGHTS AWARENESS,TBWA\PARIS,FRANCE
A30 Fundraising & Appeals,
STOCK AD,COVENANT HOUSE,AGENCY FOR HOMELESS,TAXI CANADA Toronto,CANADA
,,YOUTH
18 LIVES,CANADIAN BLOOD SERVICES,BLOOD DONORSHIP,DDB CANADA Toronto,CANADA
3 LIVES,CANADIAN BLOOD SERVICES,BLOOD DONORSHIP,DDB CANADA Toronto,CANADA
FAT,SOI CAT AND DOG BANGKOK,SCAD BANGKOK,BANGKOK SHOWCASE,THAILAND
BROKEN HEART,SOI CAT AND DOG BANGKOK,SCAD BANGKOK,BANGKOK SHOWCASE,THAILAND
GAME ADDICT,SOI CAT AND DOG BANGKOK,SCAD BANGKOK,BANGKOK SHOWCASE,THAILAND
HANDICAP,SOI CAT AND DOG BANGKOK,SCAD BANGKOK,BANGKOK SHOWCASE,THAILAND
STAIRS,NATIONAL CENTRE FOR,DOMESTIC VIOLENCE,JWT London,UNITED KINGDOM
,DOMESTIC VIOLENCE,AWARENESS
ARMCHAIR,NATIONAL CENTRE FOR,DOMESTIC VIOLENCE,JWT London,UNITED KINGDOM
,DOMESTIC VIOLENCE,AWARENESS
JULIET,AMNESTY INTERNATIONAL,FREEDOM WEEK,PUBLICIS MOJO Auckland,NEW ZEALAND
LUKE,AMNESTY INTERNATIONAL,FREEDOM WEEK,PUBLICIS MOJO Auckland,NEW ZEALAND
PREGNANT,FUNDACIÓN SAN JOSÉ,FUNDACIÓN SAN JOSÉ,PROLAM Y&R Santiago,CHILE
MICKEY MOUSE,THAI RED CROSS EYE BANK,THAI EYE BANK,NUDE COMMUNICATION Bangkok,THAILAND
DOG,THAI RED CROSS EYE BANK,THAI EYE BANK,NUDE COMMUNICATION Bangkok,THAILAND
CAPTAIN STEELER,UNICEF GERMANY,UNICEF,SERVICEPLAN Munich,GERMANY
WINGMAN,UNICEF GERMANY,UNICEF,SERVICEPLAN Munich,GERMANY
BUSH,AMNESTY-INTERNATIONAL,AMNESTY-INTERNATIONAL,CONTRAPUNTO Madrid,SPAIN
AHMADINEJAD,AMNESTY-INTERNATIONAL,AMNESTY-INTERNATIONAL,CONTRAPUNTO Madrid,SPAIN
PUTIN,AMNESTY-INTERNATIONAL,AMNESTY-INTERNATIONAL,CONTRAPUNTO Madrid,SPAIN
KIM JONG IL,AMNESTY-INTERNATIONAL,AMNESTY-INTERNATIONAL,CONTRAPUNTO Madrid,SPAIN
HU JING TAO,AMNESTY-INTERNATIONAL,AMNESTY-INTERNATIONAL,CONTRAPUNTO Madrid,SPAIN
WAITING LIST,SANTA CASA,ORGAN DONATION,Y&R Sao Paulo,BRAZIL
SKIN,SALVATION ARMY,CHARITY,McCANN ERICKSON BRASIL Sao,BRAZIL
,,,Paulo
LUNGS,HOSPITAL DE CÂNCER DE,HOSPITAL DE CANCER DE,MATOSGREY COMUNICACAO,BRAZIL
,BARRETOS,BARRETOS,Sao Paulo
BREASTS,HOSPITAL DE CÂNCER DE,HOSPITAL DE CANCER DE,MATOSGREY COMUNICACAO,BRAZIL
,BARRETOS,BARRETOS,Sao Paulo
DIVERSITY OF SPECIES,OROVERDE RAINFOREST,OROVERDE RAINFOREST,OGILVY FRANKFURT,GERMANY
,FOUNDATION,FOUNDATION
