* denotes entrant company,
TITLE,ADVERTISER,PRODUCT,ADVERTISING,COUNTRY,PRODUCTION,COUNTRY
,,,AGENCY,,COMPANY
A01 Savoury Foods,
WITCH,CALIFORNIA MILK,MILK,GRUPO GALLEGOS Long,USA,BLUE PRODUCTORA,ARGENTINA
,PROCESSOR BOARD,,Beach*,,Buenos Aires
TRANSFORMATION,FOSTER FARMS,FOSTER FARMS,GRUPO GALLEGOS Long,USA,FLIP FILMS Santa Monica,USA
,,CHICKEN,Beach*
FALLING IN LAMB,MEAT AND LIVESTOCK,LAMB,BMF Sydney*,AUSTRALIA,FLYING FISH Sydney,AUSTRALIA
,AUSTRALIA
CHRISTINE,HEINZ,BAKED BEANS,DDB MELBOURNE*,AUSTRALIA,FILM CONSTRUCTION,AUSTRALIA
,,,,,Sydney
KISS,JAPAN DAIRY COUNCIL,MILK,DENTSU Tokyo*,JAPAN,DENTSU TEC Tokyo,JAPAN
FOOTBALL,GILDE,GILDE FOODS,BATES UNITED Oslo*,NORWAY,KOMET FILM Oslo,NORWAY
GRANNY,H.J. HEINZ COMPANY,SPAGHETTI SAUCE,GREY WORLDWIDE,GERMANY,INPUT FILM Berlin,GERMANY
,,,Duesseldorf*
NO MILK TODAY,TINE,MILK,TRY ADVERTISING,NORWAY,MONSTER,NORWAY
,,,AGENCY Oslo*,,COMMERCIALS Oslo
REVOLUTION,FINDUS,MICROWAVEABLE,CALLEGARI BERVILLE,FRANCE,HAMSTER PUBLICITE,FRANCE
,,MEALS,GREY Paris*,,Suresnes
LEGEND,CALIFORNIA MILK,MILK,GOODBY SILVERSTEIN,USA,MJZ Los Angeles,USA
,PROCESSOR BOARD,,& PARTNERS San
,,,Francisco*
VIPER,CALIFORNIA MILK,MILK,GOODBY SILVERSTEIN,USA,MJZ Los Angeles,USA
,PROCESSOR BOARD,,& PARTNERS San
,,,Francisco*
D-STRING,CALIFORNIA MILK,MILK,GOODBY SILVERSTEIN,USA,MJZ Los Angeles,USA
,PROCESSOR BOARD,,& PARTNERS San
,,,Francisco*
SUPER 8,CALIFORNIA MILK,MILK,GOODBY SILVERSTEIN,USA,MJZ Los Angeles,USA
,PROCESSOR BOARD,,& PARTNERS San
,,,Francisco*
BIG CATCH,SIMPLOT,JOHN WEST TUNA TO,GREY Melbourne*,AUSTRALIA,PLUSH FILMS Sydney,AUSTRALIA
,,GO
CHICKEN BIRTH,POLLENS ORGANIC,ORGANIC MAYONNAISE,OGILVY LONDON*,UNITED KINGDOM,DAB HAND MEDIA,UNITED KINGDOM
,,,,,London
TANTRUM,CAMPBELL'S,CAMPBELL'S SOUPS,BBDO MEXICO Mexico,MEXICO,VIETNAME FILMS Mexico,MEXICO
,,,City*,,City
A02 Sweet Foods & Snacks,
,DRAGGUS POSTERIALIS CALLARD & BOWSER-,ALTOIDS MINTS,LEO BURNETT USA,USA,UNTITLED Los Angeles*,USA
,SUCHARD,,Chicago
MOUSETRAP,CADBURY TREBOR,CREME EGG,PUBLICIS London*,UNITED KINGDOM,PARTIZAN London,UNITED KINGDOM
,BASSETT
WHISK,CADBURY TREBOR,CREME EGG,PUBLICIS London*,UNITED KINGDOM,PARTIZAN London,UNITED KINGDOM
,BASSETT
,NON-BLINKING WOMAN  MORINAGA & CO.,CARRÉ DE CHOCOLAT,DENTSU Tokyo*,JAPAN,MOTHERS Tokyo,JAPAN
,,CHOCOLATE BOX
INVENTION,WRIGLEY,ALTOIDS MINTS,ENERGY BBDO Chicago*,USA,MJZ Los Angeles,USA
PRINTER,WRIGLEY,ALTOIDS MINTS,ENERGY BBDO Chicago*,USA,MJZ Los Angeles,USA
PROMOTION,WRIGLEY,ALTOIDS MINTS,ENERGY BBDO Chicago*,USA,MJZ Los Angeles,USA
BEST PART OF THE,WRIGLEY,LIFESAVERS CANDY,ENERGY BBDO Chicago*,USA,HUNGRY MAN Santa,USA
MUFFIN,,,,,Monica
WE ARE SWEET,WRIGLEY,LIFESAVERS CANDY,ENERGY BBDO Chicago*,USA,FURLINED Santa Monica,USA
STAIRS,PARMALAT CANADA,ASTRO BIOBEST,BBDO CANADA Toronto*,CANADA,IMPORTED ARTISTS,CANADA
,,YOGOURT,,,FILM COMPANY Toronto
TONGUE TWISTER,PERFETTI VAN MELLE,MENTOS GUM,BBH CHINA Shanghai*,CHINA,GOOD BOY'Z HOUSE,THAILAND
,,,,,Bangkok
GORILLA,CADBURY,DAIRY MILK,FALLON LONDON*,UNITED KINGDOM,BLINK London,UNITED KINGDOM
ATM,PERFETTI VAN MELLE,CENTERFRUIT CANDY,OGILVY & MATHER,INDIA,CORCOISE FILMS,INDIA
,,,Mumbai*,,Mumbai
CUSTOMS OFFICER,NIDAR CHOCOLATE,SMASH CHOCOLATE,DDB OSLO*,NORWAY,MOTION BLUR Oslo,NORWAY
,FACTORY,PIECES
CONSTRUCTION,KELLOGG'S,ALL-BRAN CEREAL,LEO BURNETT USA,USA,BISCUIT FILMWORKS,USA
,,,Chicago*,,Los Angeles
EGG,GENERAL MILLS,PILLSBURY READY-TO-,SAATCHI & SAATCHI,USA,FOREIGNFILMS New,USA
,,BAKE COOKIES,New York*,,York
GOLF,DIAMOND OF,EMERALD NUTS,GOODBY SILVERSTEIN,USA,FURLINED Santa Monica,USA
,CALIFORNIA,,& PARTNERS San
,,,Francisco*
KITCHEN,DIAMOND OF,EMERALD NUTS,GOODBY SILVERSTEIN,USA,FURLINED Santa Monica,USA
,CALIFORNIA,,& PARTNERS San
,,,Francisco*
PINATA,MARS,CHOCOLATE MIX,TBWA\CHIAT\DAY New,USA,MJZ Los Angeles,USA
,,SKITTLES SWEETS,York*
STABLE,MARS,SOUR SKITTLES,TBWA\CHIAT\DAY New,USA,MJZ Los Angeles,USA
,,SWEETS,York*
TOUCH,MARS,SKITTLES SWEETS,TBWA\CHIAT\DAY New,USA,MJZ Los Angeles,USA
,,,York*
TRASHCAN,MARS,SNICKERS CHOCOLATE,TBWA\CHIAT\DAY New,USA,HUNGRY MAN Santa,USA
,,BAR,York*,,Monica
BROTHERS,MARS,SNICKERS DARK,TBWA\CHIAT\DAY New,USA,HUNGRY MAN Santa,USA
,,CHOCOLATE BAR,York*,,Monica
A03 Alcoholic Drinks,
SKYTROOP,FOSTER'S GROUP,CARLTON DRAUGHT,CLEMENGER BBDO,AUSTRALIA,PLAZA FILMS Sydney,AUSTRALIA
,,BEER,MELBOURNE*
BREWTOPIA,FOSTER'S GROUP,PURE BLONDE BEER,CLEMENGER BBDO,AUSTRALIA,PLAZA FILMS Sydney,AUSTRALIA
,,,MELBOURNE*
GALWAY,HEINEKEN,HEINEKEN BEER,THE RED BRICK ROAD,UNITED KINGDOM,PARTIZAN London,UNITED KINGDOM
,,,London*
JAMAICA,HEINEKEN,HEINEKEN BEER,THE RED BRICK ROAD,UNITED KINGDOM,PARTIZAN London,UNITED KINGDOM
,,,London*
LOBSTER,HEINEKEN,HEINEKEN BEER,THE RED BRICK ROAD,UNITED KINGDOM,RATTLING STICK London,UNITED KINGDOM
,,,London*
ONLY IN AUSTRALIA,DIAGEO AUSTRALIA,BUNDABERG RUM,LEO BURNETT Sydney*,AUSTRALIA,THERAPY FILMS London,UNITED KINGDOM
TIPPING POINT,DIAGEO,DRAUGHT GUINNESS,ABBOTT MEAD VICKERS,UNITED KINGDOM,MJZ London,UNITED KINGDOM
,,,BBDO London*
OUT,COORS BREWERS,CARLING BEER,BEATTIE McGUINNESS,UNITED KINGDOM,SONNY London,UNITED KINGDOM
,,,BUNGAY London*
SPACE,COORS BREWERS,CARLING BEER,BEATTIE McGUINNESS,UNITED KINGDOM,SONNY London,UNITED KINGDOM
,,,BUNGAY London*
PIGEON,CCU,SCHNEIDER BEER,LA COMUNIDAD Buenos,ARGENTINA,LANDIA Buenos Aires,ARGENTINA
,,,Aires*
MUSIC MACHINE,DIAGEO,GUINNESS,IRISH INTERNATIONAL,IRELAND,RED BEE MEDIA London,UNITED KINGDOM
,,,BBDO Dublin*
NEWSCAST,ANHEUSER-BUSCH,BUD LIGHT BEER,DOWNTOWN,CANADA,RADKE FILM GROUP,CANADA
,,,PARTNERS Toronto,,Toronto
DUDE,ANHEUSER BUSCH,BUD LIGHT BEER,DDB CHICAGO*,USA,TOOL OF NORTH,USA
,,,,,AMERICA Santa Monica
VEGAS,ANHEUSER BUSCH,BUD LIGHT BEER,DDB CHICAGO*,USA,TOOL OF NORTH,USA
,,,,,AMERICA Santa Monica
CARPET,ANHEUSER BUSCH,BUD LIGHT BEER,DDB CHICAGO,USA,PARK PICTURES New,USA
,,,,,York*
OPERA WAVE,ANHEUSER BUSCH,BUD LIGHT BEER,DDB CHICAGO*,USA,TOOL OF NORTH,USA
,,,,,AMERICA Santa Monica
SEA,DIAGEO,SMIRNOFF VODKA,JWT London*,UNITED KINGDOM,RATTLING STICK London,UNITED KINGDOM
PROTEST,ABSOLUT,ABSOLUT VODKA,TBWA\CHIAT\DAY New,USA,MJZ Los Angeles,USA
,,,York*
A04 Non-Alcoholic Drinks,
KISSES,PEPSICO BEVERAGES,TONIC WATER,BBDO ARGENTINA,ARGENTINA,AWARDS CINE Buenos,ARGENTINA
,ARGENTINA,,Buenos Aires*,,Aires
NATURALLY JUICY,ORANGINA SCHWEPPES  ORANGINA,,FFL PARIS*,FRANCE,STINK London,UNITED KINGDOM
ELEVATOR SMALL,PEPSI-QTG CANADA,DIET 7UP,BBDO CANADA Toronto*,CANADA,SONS AND DAUGHTERS,CANADA
TALK TONY,,,,,Toronto
EMOTICON SUSAN,PEPSI-QTG CANADA,DIET 7UP,BBDO CANADA Toronto*,CANADA,SONS AND DAUGHTERS,CANADA
,,,,,Toronto
WAKE UP THAILAND,THAI ATLAS GLOBAL,D7 COFFEE,CREATIVE JUICE G1,THAILAND,PHENOMENA Bangkok,THAILAND
,FOOD,,(TBWA) Bangkok*
SOCCER SQUIRREL,CARLSBERG,CARLSBERG SPORT,& CO. Copenhagen*,DENMARK,BACON Copenhagen,DENMARK
,,DRINK
FASHION SHOW,COCA-COLA,SPRITE,OGILVY & MATHER,ARGENTINA,NUNCHAKU CINE,ARGENTINA
,,,ARGENTINA Buenos,,Buenos Aires
,,,Aires*
ROCKER,COCA-COLA,COCA-COLA,SANTO BUENOS AIRES*,ARGENTINA,LANDIA Buenos Aires,ARGENTINA
CHAINSAW,COCA-COLA,COCA-COLA,SANTO BUENOS AIRES*,ARGENTINA,LANDIA Buenos Aires,ARGENTINA
SPA,COCA-COLA,COCA-COLA,SANTO BUENOS AIRES*,ARGENTINA,LANDIA Buenos Aires,ARGENTINA
BEE,COCA-COLA,COCA-COLA,SANTO BUENOS AIRES*,ARGENTINA,LANDIA Buenos Aires,ARGENTINA
MONKEY,COCA-COLA,COCA-COLA,SANTO BUENOS AIRES*,ARGENTINA,LANDIA Buenos Aires,ARGENTINA
TALL MAN,COCA-COLA,COCA-COLA,SANTO BUENOS AIRES*,ARGENTINA,LANDIA Buenos Aires,ARGENTINA
STATUE,COCA-COLA,COCA-COLA,SANTO BUENOS AIRES*,ARGENTINA,LANDIA Buenos Aires,ARGENTINA
ZOMBIE,COCA-COLA,COCA-COLA,SANTO BUENOS AIRES*,ARGENTINA,LANDIA Buenos Aires,ARGENTINA
OPEN SOURCE,PEPSICO,PEPSI,CLM BBDO Boulogne-,FRANCE,@radical.media London,UNITED KINGDOM
,INTERNATIONAL,,Billancourt*
MAGNETIC,PEPSI,PEPSI,BBDO NEW YORK*,USA,MJZ New York,USA
ATTRACTION,
CAN'T DRINK,THE COCA-COLA,COCA-COLA ZERO,WIEDEN+KENNEDY,THE,PASSION PICTURES,UNITED KINGDOM
,COMPANY,,AMSTERDAM*,NETHERLANDS,London
LIAR,THE COCA-COLA,COCA-COLA ZERO,WIEDEN+KENNEDY,THE,PASSION PICTURES,UNITED KINGDOM
,COMPANY,,AMSTERDAM*,NETHERLANDS,London
BRAIN,THE COCA-COLA,COCA-COLA ZERO,WIEDEN+KENNEDY,THE,PASSION PICTURES,UNITED KINGDOM
,COMPANY,,AMSTERDAM*,NETHERLANDS,London
MEETING THE EX,COCA-COLA NORDIC,COCA-COLA ZERO,GREY COPENHAGEN*,DENMARK,100% FILM Copenhagen,DENMARK
BREAK UP,COCA-COLA NORDIC,COCA-COLA ZERO,GREY COPENHAGEN*,DENMARK,100% FILM Copenhagen,DENMARK
SCARY,NORRMEJERIER,GAINOMAX RECOVERY,SAATCHI & SAATCHI,SWEDEN,HOBBY FILM Stockholm,SWEDEN
,,DRINK,Stockholm*
REGENT PARK,KRAFT CANADA,MAXWELL HOUSE,OGILVY & MATHER,CANADA,SONS AND DAUGHTERS,CANADA
,,COFFEE,Toronto*,,Toronto
BURST,CADBURY SCHWEPPES,SCHWEPPES,GEORGE PATTERSON,AUSTRALIA,EXIT FILMS Melbourne,AUSTRALIA
,,,Y&R Melbourne*
DINER,SPRITE,SPRITE,CRISPIN PORTER +,USA,SMUGGLER New York,USA
,,,BOGUSKY Miami*
SWIMMER,SPRITE,SPRITE DUO,CALLE CRUZADA Madrid,SPAIN,MJZ Los Angeles*,USA
IT'S MINE,COCA-COLA,COKE,WIEDEN+KENNEDY,USA,MJZ Los Angeles,USA
,,,Portland*
,A05 Household: Cleaning Products
SHAME,THE CLOROX COMPANY,PINE-SOL CLEANING,DIESTE HARMEL &,USA,LANDIA Buenos Aires,ARGENTINA
,,PRODUCT,PARTNERS Dallas*
RUNWAY,PROCTER & GAMBLE,ARIEL DETERGENT,DEL CAMPO NAZCA,ARGENTINA,REBOLUCION Buenos,ARGENTINA
,,,SAATCHI & SAATCHI,,Aires
,,,Buenos Aires*
BODYBUILDING,PROCTER & GAMBLE,WASHING-UP LIQUID,GREY ARGENTINA,ARGENTINA,PALERMO FILMS Buenos,ARGENTINA
,,,Buenos Aires*,,Aires
LITTLE BOY,PROCTER & GAMBLE,ARIEL DETERGENT,DEL CAMPO NAZCA,ARGENTINA,PALERMO FILMS Buenos,ARGENTINA
,,,SAATCHI & SAATCHI,,Aires
,,,Buenos Aires*
ROBOBOY,UNILEVER,OMO LAUNDRY,BBH London*,UNITED KINGDOM,BIKINI London,UNITED KINGDOM
,,DETERGENT
WORKING LATE,PROCTER & GAMBLE,TIDE-TO-GO STAIN,SAATCHI & SAATCHI,USA,FURLINED Santa,USA / CANADA
,,REMOVER,New York*,,"Monica / SOFT CITIZEN,"
,,,,,Toronto
A06 Household: Other,
DARK SIDE OF THE,RAMROD,MAGLITE,DRAFTFCB,SOUTH AFRICA,CREATIVE VISION,SOUTH AFRICA
MOON,,,JOHANNESBURG*,,Johannesberg
LIGHTS ON,VARTA CONSUMER,VARTA FLASHLIGHTS,SERVICEPLAN Munich*,GERMANY,COBBLESTONE,GERMANY
,BATTERIES,,,,HAMBERG
,,,,,FILMPRODUKTION
,,,,,Hamburg
SPEED,MATSUSHITA ELECTRIC,PANASONIC OXYRIDE,HAKUHODO Tokyo,JAPAN,HAT Tokyo*,JAPAN
,"INDUSTRIAL CO.,LTD.",BATTERIES
SLEEPING,SPRINTER 2000,FOTON BATTERIES,McCANN ERICKSON,ROMANIA,TANDEM FILM Bucharest,ROMANIA
,,,ROMANIA Bucharest*
PICNIC,HAVELLS SYLVANIA,SYLVANIA LIGHT BULB,JEH UNITED BANGKOK*,THAILAND,PHENOMENA Bangkok,THAILAND
,(THAILAND)
BIRD,COMPO,FERTILISER,DUVAL GUILLAUME,BELGIUM,CAVIAR Brussels,BELGIUM
,,,BRUSSELS*
,A07 Home Appliances & Furnishings
,SWEET DREAMS/BEACH BICO AG,BICO BEDS &,RUF LANZ Zurich*,SWITZERLAND,CONDOR FILMS Zurich,SWITZERLAND
,,MATTRESSES
THE BIG TEST,SECOM CO.,HOME SECURITY,DENTSU Tokyo*,JAPAN,GEEK PICTURES Tokyo,JAPAN
,,SERVICE
WATCHDOG,"SECOM CO.,LTD.",SECOM HOME,DENTSU Tokyo*,JAPAN,GEEK PICTURES Tokyo,JAPAN
,,SECURITY
GRANNY,ENERGIZER,ER LAMPS,DDB SOUTH AFRICA,SOUTH AFRICA,VELOCITY FILMS Cape,SOUTH AFRICA
,,,Johannesburg*,,Town
GROWN-UPS,IKEA CANADA,IKEA NEW COLLECTION,zig Toronto*,CANADA,STEAM FILMS Toronto,CANADA
CARWASH,MIELE,MIELE DISHWASHERS,JUST/KIDDE,DENMARK,JUST/KIDDE,DENMARK
,,,Copenhagen*,,Copenhagen / AGENT
,,,,,"ZOO, Copenhagen"
SNUG,TASMAN INSULATION,,PINK BATTS INSULATION DDB NEW ZEALAND,NEW ZEALAND,ROBBERS DOG FILM,NEW ZEALAND
,,,Auckland*,,Auckland
DOG,IKEA,HOME FURNISHING,LA CHOSE Paris*,FRANCE,LES TELECREATEURS,FRANCE
,,,,,Paris
CORENT,BRANDT,WASHING MACHINE,DDB PARIS*,FRANCE,MR HYDE Paris,FRANCE
A08 Cosmetics & Beauty,
CLOCK,SPLASH CORPORATION,EXTRADERM AGE-DEFY,DDB DM9 JAYMESYFU,THE PHILIPPINES,ABRACADABRA Makati,THE PHILIPPINES
,,CREAMS,Makati City*,,City
DINNER PARTY,UNILEVER,AXE FRAGRANCE,BBH New York*,USA,THE DIRECTORS,USA
,,,,,BUREAU Hollywood
SUPERMARKET,UNILEVER,AXE FRAGRANCE,BBH New York*,USA,THE DIRECTORS,USA
,,,,,BUREAU Hollywood
PICK UP,AXE,AXE BODY SPRAY,BBH New York,USA,HSI PRODUCTIONS,USA
,,,,,Culver City*
POOL FESTIVAL,UNILEVER,ANDRÉLON SHAMPOO,UBACHSWISBRUN/JWT,THE,HAZAZAH Amsterdam,THE
,,FOR MEN,Amsterdam*,NETHERLANDS,,NETHERLANDS
EJECTED WOMEN,UNILEVER,AXE DEODORANT,VEGAOLMOSPONCE,ARGENTINA,BLINK London / PIONEER,UNITED
,,,Buenos Aires*,,"PRODUCTIONS, Buenos",KINGDOM /
,,,,,Aires,ARGENTINA
QUAKE,UNILEVER,AXE QUAKE,VEGAOLMOSPONCE,ARGENTINA,REBOLUCION Buenos,ARGENTINA
,,DEODORANT,Buenos Aires*,,Aires
CHOCOLATE MAN,UNILEVER,AXE DARK TEMPTATION,VEGAOLMOSPONCE,ARGENTINA,MJZ Los Angeles,USA
,,DEODORANT,Buenos Aires*
CHURCH,UNILEVER,AXE SHOWER GEL,VEGAOLMOSPONCE,ARGENTINA,REBOLUCION Buenos,ARGENTINA
,,,Buenos Aires*,,Aires
BETWEEN A ROCK AND,UNILEVER,IMPULSE DEODORANT,VEGAOLMOSPONCE,ARGENTINA,GORGEOUS,UNITED KINGDOM
A HARD PLACE,,,Buenos Aires*,,ENTERPRISES London
HUNGRY LIKE THE,PROCTER & GAMBLE,,OLD SPICE BODY SPRAY WIEDEN+KENNEDY,USA,BISCUIT FILMWORKS,USA
BRUCE,,,Portland*,,Los Angeles
IS IT RIGHT FOR ME?,PROCTER & GAMBLE,OLD SPICE HAIR AND,WIEDEN+KENNEDY,USA,SMITH AND JONES,USA
,,BODY WASH,Portland*,,FILMS North Hollywood
AUDITORIUM,RECKITT BENCKISER,CLEARASIL ULTRA KIT,EURO RSCG,USA,OPC Toronto,CANADA
,,,WORLDWIDE New York*
BABY PHOTOS,RECKITT BENCKISER,CLEARASIL FACE WASH,EURO RSCG,USA,OPC Toronto,CANADA
,,,WORLDWIDE New York*
MOM,RECKITT BENCKISER,CLEARASIL FACE WASH,EURO RSCG,USA,OPC Toronto,CANADA
,,,WORLDWIDE New York*
FUNERAL,"AXE REGIONAL,",AXE BODY SPRAY,,BBH ASIA PAC Singapore* SINGAPORE,PHENOMENA Bangkok,THAILAND
,UNILEVER PHILIPPINES
A09 Toiletries,
YOGA,SCA HYGIENE LIBERO,LIBERO DIAPERS,FORSMAN &,SWEDEN,ANDERS SKOG FILMS,SWEDEN
,,,BODENFORS,,Stockholm
,,,Gothenburg*
UTERUS,KIMBERLY CLARK,HUGGIES NAPPIES,OGILVY & MATHER,ARGENTINA,REBOLUCION Buenos,ARGENTINA
,,,ARGENTINA Buenos,,Aires
,,,Aires*
KARIS,PHILIPS,SATINELLE ICE,DDB LONDON*,UNITED KINGDOM,SONNY London,UNITED KINGDOM
,,EPILATOR
BULLDOZER,PROCTER & GAMBLE,CREST TOOTHPASTE,SAATCHI & SAATCHI,USA,STATION FILM New York,USA
,,,New York*
LICE,PROCTER & GAMBLE,CREST TOOTHPASTE,SAATCHI & SAATCHI,USA,STATION FILM New York,USA
,,,New York*
PRE-NUP,PROCTER & GAMBLE,CREST TOOTHPASTE,SAATCHI & SAATCHI,USA,STATION FILM New York,USA
,,,New York*
A10 Pharmacy,
MASOCHIST,ELEA LABORATORY,MOX PAINKILLER,KEPEL & MATA Buenos,ARGENTINA,URSULA Buenos Aires,ARGENTINA
,,,Aires*
OLD WOMAN BLEEP,BUCKLEYS CANADA,BUCKLEYS COUGH,SAATCHI & SAATCHI,CANADA,OPC Toronto,CANADA
,,MEDICINE,Toronto*
VIVIAN,PFIZER CANADA,VIAGRA ERECTILE,TAXI CANADA Toronto*,CANADA,RADKE FILM GROUP,CANADA
,,DYSFUNCTION,,,Toronto
,,MEDICATION
MICHELLE,PFIZER CANADA,VIAGRA ERECTILE,TAXI CANADA Toronto*,CANADA,RADKE FILM GROUP,CANADA
,,DYSFUNCTION,,,Toronto
,,MEDICATION
DENISE,PFIZER CANADA,VIAGRA ERECTILE,TAXI CANADA Toronto*,CANADA,RADKE FILM GROUP,CANADA
,,DYSFUNCTION,,,Toronto
MEDICATION,
BOBBY,PFIZER CANADA,VIAGRA ERECTILE,TAXI CANADA Toronto*,CANADA,RADKE FILM GROUP,CANADA
,,DYSFUNCTION,,,Toronto
,,MEDICATION
RESTROOM,NOVARTIS,BUCKLEY'S COUGH,SAATCHI & SAATCHI,USA,SAATCHI & SAATCHI,USA
,,SYRUP,New York*,,New York
CARDIO,NOVARTIS,BUCKLEY'S COUGH,SAATCHI & SAATCHI,USA,SAATCHI & SAATCHI,USA
,,SYRUP,New York*,,New York
SPRING BREAK,NOVARTIS,BUCKLEY'S COUGH,SAATCHI & SAATCHI,USA,SAATCHI & SAATCHI,USA
,,SYRUP,New York*,,New York
,"A11 Clothing, Footwear & Accessories"
AUDIENCE,ARENA,SWIMSUITS,LOWE PIRELLA,ITALY,FIRST FLOOR FILMS,ITALY
,,,FRONZONI Milan*,,Milan
GUY'S NIGHT OUT,STANFIELD'S LIMITED,MEN'S UNDERWEAR,JOHN ST Toronto*,CANADA,OPC Toronto,CANADA
FIRST STEPS,FILA,FOOTWEAR,SANTA CLARA Sao,BRAZIL,LUX FILMES Sao Paulo,BRAZIL
,,,Paulo*
IMPOSSIBLE PARK,ADIDAS,ADIDAS FOOTBALL,TBWA\GERMANY (180,GERMANY,STINK Berlin,GERMANY
FOOTBALL,,,\TBWA) Berlin
ADDICTED,NIKE,NIKE+ FOOTWEAR AND,WIEDEN+KENNEDY,THE,MJZ London,UNITED KINGDOM
,,ACCESSORIES,AMSTERDAM*,NETHERLANDS
NOT A RUNNER,NIKE,NIKE+ FOOTWEAR AND,WIEDEN+KENNEDY,THE,BETWEEN THE EYES,UNITED KINGDOM
,,ACCESSORIES,AMSTERDAM*,NETHERLANDS,London
HUMAN SKATEBOARD,SNEAUX,SNEAUX SHOES,THE POWELL ROGERS,USA,ANONYMOUS CONTENT,USA
,,,PROJECT New York,,Culver City*
3 CHORDS,CONVERSE,FOOTWEAR,ANOMALY New York*,USA,ANOMALY New York,USA
ME/WE,CONVERSE,FOOTWEAR,ANOMALY New York*,USA,ANOMALY New York,USA
UNSIGNED BAND,CONVERSE,FOOTWEAR,ANOMALY New York*,USA,ANOMALY New York /,USA
,,,,,"CONSULATE FILM, New"
,,,,,York
GRATEFUL,CONVERSE,FOOTWEAR,ANOMALY New York*,USA,ACME-SMITH Santa,USA
,,,,,Monica
PAGEANT,CONVERSE,FOOTWEAR,ANOMALY New York*,USA,ACME-SMITH Santa,USA
,,,,,Monica
MARKETERS,CONVERSE,FOOTWEAR,ANOMALY New York*,USA,ACME-SMITH Santa,USA
,,,,,Monica
NEXT LEVEL,NIKE,NIKE FOOTBALL,72ANDSUNNY El,USA,ANONYMOUS CONTENT,USA
,,,Segundo*,,Culver City
DAMN BOOTS,NOMIS,NOMIS FOOTBALL,JOHANNES LEONARDO,USA,NEXUS PRODUCTIONS,UNITED KINGDOM
,,BOOTS,New York*,,London
BALLERINA,NIKE,NIKE WOMEN,NITRO London,UNITED KINGDOM,GREAT GUNS London*,UNITED KINGDOM
WHERE YOU WANT IT,NIKE,T90 FOOTBALL BOOTS,NITRO London,UNITED KINGDOM,GREAT GUNS London*,UNITED KINGDOM
LEAVE NOTHING,NIKE,NIKE FOOTBALL,WIEDEN+KENNEDY,USA,ALTURAS REDFISH,USA
,,,Portland*,,FILMS Santa Monica
NO EXCUSES,NIKE,NIKE,WIEDEN+KENNEDY,USA,MOXIE PICTURES Santa,USA
,,,Portland*,,Monica
A12 Miscellaneous,
WHEN YOU'RE SMILING,PEDIGREE,PETFOOD WITH DENTAL,WHYBIN\TBWA South,AUSTRALIA,MRPPP Melbourne,AUSTRALIA
,,PROTECTION,Melbourne*
FIRST CARD,HALLMARK,HALLMARK CARDS,LEO BURNETT USA,USA,PYTKA PRODUCTIONS,USA
,,,Chicago*,,Venice
HISTORY OF LIGHT,COMERCIAL ARGE,PILOT V LIQUID LIGHT,GREY Barcelona *,SPAIN,ARENA SHOTS,SPAIN
,PILOT,MARKER,,,Barcelona
A13 Cars,
POP-UP BOOK,LEXUS,LEXUS,TEAM ONE El Segundo*,USA,SMUGGLER Hollywood,USA
JOY RIDE,SUBARU CANADA,SUBARU IMPREZA,DDB CANADA Toronto*,CANADA,THE CORNER STORE,CANADA
,,,,,Toronto / ROSNICK
,,,,,"MACKINNON WEBSTER,"
,,,,,Toronto
CARWASH,CITROËN,CITROËN C3,H Suresnes*,FRANCE,HAMSTER PUBLICITE,FRANCE
,,,,,Suresnes
GAS CAN BLUES,DAIMLERCHRYSLER,SMART FORTWO,JUNG von MATT Zurich*,SWITZERLAND,MARKENFILM Berlin,GERMANY
,SWITZERLAND
HIDDEN VARIANT,PON'S,VW VARIANT,DDB AMSTERDAM*,THE,ATMOSFAR Stockholm,SWEDEN
,AUTOMOBIELHANDEL,,,NETHERLANDS
BRAND NEW,VOLKSWAGEN,VW GOLF UNITED,AGENCE .V. Saint Ouen*,FRANCE,LES TELECREATEURS,FRANCE
,,,,,Paris
HERITAGE,JEEP,JEEP,CUTWATER San,USA,RSA FILMS Los Angeles,USA
,,,Francisco*
POURING IN,JEEP,JEEP,CUTWATER San,USA,MJZ Los Angeles,USA
,,,Francisco*
BIRDS AND BEES,MITSUBISHI MOTORS,MITSUBISHI LANCER,CLEMENGER BBDO,NEW ZEALAND,ROBBERS DOG FILM,NEW ZEALAND
,NEW ZEALAND,,Wellington*,,Auckland
NEVERENDING ROAD,RENAULT,RENAULT MÉGANE GT,PUBLICIS,SPAIN,GARLIC FILMS Madrid,SPAIN
,,,COMUNICACION
,,,ESPANA Madrid*
ONE DAY,RENAULT ARGENTINA,RENAULT/DACIA LOGAN,PUBLICIS,SPAIN,FILMIC Buenos Aires,ARGENTINA
,,,COMUNICACION
,,,ESPANA Madrid*
TEN LITTLE VEHICLES,CHRYSLER GERMANY,CHRYSLER/JEEP,KNSK WERBEAGENTUR,GERMANY,DELI PICTURES,GERMANY
,,,Hamburg*,,POSTPRODUKTION
,,,,,Hamburg
DOOR OPENER,CHRYSLER GERMANY,CHRYSLER/JEEP,KNSK WERBEAGENTUR,GERMANY,NHB Hamburg,GERMANY
,,,Hamburg*
HUMAN CAR,FORD OF CANADA,FORD CARS,Y&R Toronto*,CANADA,BLINK PICTURES,CANADA
,,,,,Toronto
STRING,V.A.E.S.A.,AUDI A4,DDB ESPANA Barcelona*,SPAIN,AGOSTO Barcelona,SPAIN
OOPS,V.A.E.S.A.,VW POLO,DDB ESPANA Barcelona*,SPAIN,BUS Barcelona,SPAIN
MAGIC,V.A.E.S.A.,VW TOURAN,DDB ESPANA Barcelona*,SPAIN,THE GANG Madrid,SPAIN
LOS YARIS,TOYOTA,TOYOTA YARIS,TIEMPO BBDO Madrid*,SPAIN,PICNIC Barcelona,SPAIN
CAKE,SKODA,SKODA FABIA,FALLON LONDON*,UNITED KINGDOM,GORGEOUS,UNITED KINGDOM
,,,,,ENTERPRISES London
THE LONG MINUTE,PEUGEOT,LAUNCH OF THE NEW,UNCLE GREY Aarhus*,DENMARK,MOLAND FILM,DENMARK
,,PEUGEOT 308,,,COMPANY Copenhagen
WAITING TIME,PEUGEOT,LAUNCH OF THE NEW,UNCLE GREY Aarhus*,DENMARK,MOLAND FILM,DENMARK
,,PEUGEOT 308,,,COMPANY Copenhagen
TOW TRUCK,VOLVO,VOLVO S60,McCANN ERICKSON,ISRAEL,ULPANOT Tel Aviv,ISRAEL
,,,ISRAEL Tel Aviv*
BETRAYAL,VOLVO,VOLVO S60,McCANN ERICKSON,ISRAEL,ULPANOT Tel Aviv,ISRAEL
,,,ISRAEL Tel Aviv*
ENVIRONMENT,SMART MBVD,SMART FORTWO CDI,BBDO GERMANY,GERMANY,COBBLESTONE,GERMANY
,,,Duesseldorf*,,HAMBERG
,,,,,FILMPRODUKTION
,,,,,Hamburg
HIDE & SEEK,HONDA,HONDA ODYSSEY,DRAFTFCB PUERTO,PUERTO RICO,SALADO MEDIA,URUGUAY
,,,RICO San Juan*,,Montevideo
SAFETY,AUDI OF AMERICA,AUDI,VENABLES BELL &,USA,INDEPENDENT MEDIA,USA
,,,PARTNERS San,,Santa Monica
,,,Francisco*
99% SERIOUS,RENAULT,RENAULT TWINGO,PUBLICIS CONSEIL Paris* FRANCE,,"PARTIZAN Paris / WAM,",FRANCE
,,,,,Paris
ENJOY THE EVERYDAY,VOLKSWAGEN,VW GOLF,DDB LONDON*,UNITED KINGDOM,OUTSIDER London,UNITED KINGDOM
NIGHT DRIVE,VOLKSWAGEN,VW GOLF,DDB LONDON*,UNITED KINGDOM,,BISCUIT@INDEPENDENT UNITED KINGDOM
,,,,,London
DOG,VOLKSWAGEN,VW POLO,DDB LONDON*,UNITED KINGDOM,,BISCUIT@INDEPENDENT UNITED KINGDOM
,,,,,London
4MATICS,DAIMLER,MERCEDES-BENZ,JUNG von MATT Berlin*,GERMANY,@radical.media Berlin,GERMANY
,,4MATIC FOUR WHEEL
,,DRIVE
CONSTRUCTION,AUDI UK,AUDI R8,BBH London*,UNITED KINGDOM,PARTIZAN London,UNITED KINGDOM
FACTORY,SKODA,SKODA CARS,DDB STOCKHOLM*,SWEDEN,HOF PRODUCTION,SWEDEN
,,,,,Stockholm
SKODA GREENLINE,SKODA,SKODA GREENLINE,DDB STOCKHOLM*,SWEDEN,DDB STOCKHOLM,SWEDEN
PROBLEM,HONDA,HONDA FCX CLARITY,WIEDEN+KENNEDY,UNITED KINGDOM,PARTIZAN London,UNITED KINGDOM
PLAYGROUND,,,London*
CITY LIVING,NISSAN,NISSAN QASHQAI,TBWA\LONDON*,UNITED KINGDOM,,RATTLING STICK London  UNITED KINGDOM
REVOLUCIÓN,RENAULT GERMANY,RENAULT DACIA LOGAN,NORDPOL+ HAMBURG*,GERMANY,MARKENFILM Wedel,GERMANY
,,MCV
BOURNE HAPPENS,VOLKSWAGEN,VW TOUAREG 2,CRISPIN PORTER +,USA,ANONYMOUS CONTENT,USA
,,,BOGUSKY Miami*,,"Culver City / RIOT, Santa"
,,,,,Monica
SAFETY ENGINEERS,VOLKSWAGEN CANADA,VW JETTA,CRISPIN PORTER +,USA,HSI PRODUCTIONS,USA
,,,BOGUSKY Miami*,,Culver City
,"A14 Other Vehicles, Auto Products & Services"
FINANCE DIRECTOR,VOLKSWAGEN,AUTOMOBILE,DDB NEW ZEALAND,NEW ZEALAND,AUTOMATIC Auckland,NEW ZEALAND
,,MANUFACTURER,Auckland*
SCREAM,BRIDGESTONE,TYRES,THE RICHARDS GROUP,USA,HOUSE OF USHER,USA
,,,Dallas*,,FILMS Santa Monica
LUCKY DOG,BRIDGESTONE,TYRES,THE RICHARDS GROUP,USA,HOUSE OF USHER,USA
,,,Dallas*,,FILMS Santa Monica
WITH YOU ALL THE WAY TOTAL,,TOTAL PETROL,SAATCHI & SAATCHI,FRANCE,,PREMIERE HEURE Saint-  FRANCE
,,STATIONS,PARIS*,,"Cloud / WAM, Paris"
ROBOT 2,GENERAL MOTORS,"100,000 MILE",DEUTSCH Los Angeles*,USA,MJZ Los Angeles,USA
,CORPORATION,WARRANTY
HOW SAFE IS YOUR,SKODA,SKODA/PRAKTIK,DDB STOCKHOLM*,SWEDEN,DDB STOCKHOLM,SWEDEN
WORKPLACE?,
FINGERPRINT,DUNLOP,DUNLOP TYRES,BBH London,UNITED KINGDOM,KNUCKLEHEAD London*,UNITED KINGDOM
EXTRA VOLKSWAGEN,PON'S,VW SERVICING,DDB AMSTERDAM*,THE,CZAR.NL Amsterdam,THE
PART,AUTOMOBIELHANDEL,,,NETHERLANDS,,NETHERLANDS
HAIL,CHEVROLET,LUV DMAX TRUCK,McCANN ERICKSON,COLOMBIA,McCANN ERICKSON,COLOMBIA
,,,COLOMBIA Bogota*,,COLOMBIA Bogota
TRASH,SC JOHNSON,CAR FRESHENER,DRAFTFCB BUENOS,ARGENTINA,MUU CINE Buenos Aires,ARGENTINA
,,,AIRES*
,A15 Home Electronics & Audio-Visual
WAITING,SAMSUNG,SAMSUNG K.I.N.O. LCD,CHEIL RUSSIA Moscow*,RUSSIA,METRAFILMS Moscow,RUSSIA
,ELECTRONICS RUSSIA,TV
COMPUTER CART,APPLE,MAC,TBWA\MEDIA ARTS LAB,USA,EPOCH FILMS Beverly,USA
,,,Los Angeles*,,Hills / EDITORIAL CO:
,,,,,"MAD RIVER POST, Santa"
,,,,,Monica
BOXER,APPLE,MAC,TBWA\MEDIA ARTS LAB,USA,EPOCH FILMS Beverly,USA
,,,Los Angeles*,,Hills / EDITORIAL CO:
,,,,,"MAD RIVER POST, Santa"
,,,,,Monica
HOLIDAY,APPLE,MAC,TBWA\MEDIA ARTS LAB,USA,LAIKA/HOUSE Portland,USA
,,,Los Angeles*
FLASHBACK,APPLE,MAC,TBWA\MEDIA ARTS LAB,USA,EPOCH FILMS Beverly,USA
,,,Los Angeles*,,Hills / EDITORIAL CO:
,,,,,"MAD RIVER POST, Santa"
,,,,,Monica
STUFFED,APPLE,MAC,TBWA\MEDIA ARTS LAB,USA,EPOCH FILMS Beverly,USA
,,,Los Angeles*,,Hills / EDITORIAL CO:
,,,,,"MAD RIVER POST, Santa"
,,,,,Monica
PR LADY,APPLE,MAC,TBWA\MEDIA ARTS LAB,USA,EPOCH FILMS Beverly,USA
,,,Los Angeles*,,Hills / EDITORIAL CO:
,,,,,"MAD RIVER POST, Santa"
,,,,,Monica
STACKS,APPLE,iPOD NANO,TBWA\MEDIA ARTS LAB,USA,GREEN DOT FILMS,USA
,,,Los Angeles*,,Santa Monica /
,,,,,EDITORIAL CO: NOMAD
,,,,,"EDITING COMPANY,"
,,,,,Santa Monica
WHICH IS THE TRUE,CANON,PIXUS HOME PRINTING,,HAKUHODO C & D Tokyo* JAPAN,HOLON FILM Tokyo,JAPAN
PRINT?,,MACHINE
BATTLE DAY,PANASONIC,LUMIX DIGITAL CAMERA,PUBLICIS THAILAND,THAILAND,@radical.media Sydney,AUSTRALIA
,,,Bangkok*
MASSIVE,SONY,CYBERSHOT CAMERA,FALLON LONDON*,UNITED KINGDOM,STINK London,UNITED KINGDOM
ORGANISED,SONY,CYBERSHOT CAMERA,FALLON LONDON*,UNITED KINGDOM,STINK London,UNITED KINGDOM
HARLEY,SONY,CYBERSHOT CAMERA,FALLON LONDON*,UNITED KINGDOM,STINK London,UNITED KINGDOM
PLAY-DOH,SONY,SONY BRAVIA LCD TV,FALLON LONDON*,UNITED KINGDOM,GORGEOUS,UNITED KINGDOM
,,,,,ENTERPRISES London
MUSIC PIECES,SONY,WALKMAN,FALLON LONDON*,UNITED KINGDOM,ACADEMY London,UNITED KINGDOM
THREADS,SONY ASIA PACIFIC,BRAVIA TELEVISIONS,Y&R Singapore*,SINGAPORE,VELOCITY FILMS Cape,SOUTH AFRICA
,,,,,Town
LAST DAY,HITACHI MAXELL,MAXELL DVD,ASATSU-DK Tokyo,JAPAN,AOI ADVERTISING,JAPAN
,,,,,PROMOTION Tokyo*
DENTIST,SLINGBOX,SLINGBOX DEVICE,HUB STRATEGY San,USA,SCATTERGUN FILMS,USA
,,,Francisco*,,San Francisco
ENJOY THE SILENCE,SONY ERICSSON,,W890I WALKMAN PHONE SAATCHI & SAATCHI,SWEDEN,FLODELLFILM Stockholm,SWEDEN
,,,Stockholm*
JERRY SEINFELD,HEWLETT-PACKARD,PAVILION,GOODBY SILVERSTEIN,USA,HSI PRODUCTIONS,USA
,,ENTERTAINMENT,& PARTNERS San,,Culver City
,,NOTEBOOK COMPUTER,Francisco*
SERENA WILLIAMS,HEWLETT-PACKARD,,PERSONAL COMPUTERS GOODBY SILVERSTEIN,USA,HSI PRODUCTIONS,USA
,,,& PARTNERS San,,Culver City
,,,Francisco*
A16 Retail Stores,
STANDOFF,"TOYS ""R"" US",TOYS,HILL HOLLIDAY Boston*,USA,MJZ Los Angeles,USA
PERISCOPE UP,"TOYS ""R"" US",TOYS,HILL HOLLIDAY Boston*,USA,MJZ Los Angeles,USA
FLIGHT ATTENDANT,TJ MAXX,TJ MAXX RETAIL,MULLEN Winston-Salem*,USA,TOOL OF NORTH,USA
,,STORES,,,AMERICA Santa Monica
SHADOWS,JOHN LEWIS,JOHN LEWIS,LOWE LONDON*,UNITED KINGDOM,PARTIZAN London,UNITED KINGDOM
,,DEPARTMENT STORE
HANDKERCHIEF,BOTICARIO,BOTICARIO STORES,ALMAPBBDO Sao Paulo*,BRAZIL,LUX FILMES Sao Paulo,BRAZIL
BEACH,EASY,WINTER SALES,DEL CAMPO NAZCA,ARGENTINA,PANK FILMS Buenos,ARGENTINA
,,,SAATCHI & SAATCHI,,Aires
Buenos Aires*,
VIDEO STORE,EASY,WINTER SALES,DEL CAMPO NAZCA,ARGENTINA,PANK FILMS Buenos,ARGENTINA
,,,SAATCHI & SAATCHI,Aires
,,,Buenos Aires*
LOVERS,HOME PRODUCT CO.,HOME IMPROVEMENT,BBDO BANGKOK *,THAILAND,PHENOMENA Bangkok,THAILAND
,,STORE
MOMENT OF TRUTH,BOOTS,BOOTS,MOTHER London*,UNITED KINGDOM,ANONYMOUSCONTENT@INDEPENDENT
"London / EXIT FILMS, Melbourne",
UNITED,
KINGDOM /,
AUSTRALIA,
EMANUEL,BEST BUY,BEST BUY,zig Toronto*,CANADA,SONS AND DAUGHTERS,CANADA
,,,,,Toronto
LAST MINUTE,BEST BUY,BEST BUY,zig Toronto*,CANADA,RADKE FILM GROUP,CANADA
,,,,,Toronto
JAN,FAKTA,SUPERMARKETS,UNCLE GREY Aarhus*,DENMARK,MINERVA FILM,DENMARK
,,,,,Copenhagen
LOVE AT FIRST SIGHT,DÉCATHLON,B'TWIN BICYCLE,Y&R FRANCE Boulogne,FRANCE,LES TELECREATEURS,FRANCE
,,,Billancourt*,,Paris
BED LINEN SET,LANCEFINAL,LANCEFINAL ONLINE,LEO BURNETT BRASIL,BRAZIL,ZEPPELIN FILMES Sao,BRAZIL
,,MARKETPLACE,Sao Paulo*,,Paulo
SHIRT,LANCEFINAL,LANCEFINAL ONLINE,LEO BURNETT BRASIL,BRAZIL,ZEPPELIN FILMES Sao,BRAZIL
,,MARKETPLACE,Sao Paulo*,,Paulo
HAIR,LANCEFINAL,LANCEFINAL ONLINE,LEO BURNETT BRASIL,BRAZIL,ZEPPELIN FILMES Sao,BRAZIL
,,MARKETPLACE,Sao Paulo*,,Paulo
FLAG,LANCEFINAL,LANCEFINAL. ONLINE,LEO BURNETT BRASIL,BRAZIL,ZEPPELIN FILMES Sao,BRAZIL
,,MARKETPLACE,Sao Paulo*,,Paulo
BROOCH,LANCEFINAL,LANCEFINAL ONLINE,LEO BURNETT BRASIL,BRAZIL,ZEPPELIN FILMES Sao,BRAZIL
,,MARKETPLACE,Sao Paulo*,,Paulo
STATION,PRIME NETWORK,PRIMESHOPPING MAIL-,DENTSU Y&R Tokyo,JAPAN,NIBAN-KOHBOH,JAPAN
,,ORDER,,,PRODUCTIONS Tokyo*
GREY CIRCLES,STAPLES,OFFICE SUPPLY RETAIL,McCANN ERICKSON,USA,SMUGGLER New York*,USA
,,STORE,New York
FISH,WONG,BIODEGRADABLE BAGS,MAYO DRAFT FCB PERU,PERU,7 SAMURAI Lima,PERU
,,,Lima*
BLAH-BLAH,SPORT PLAUSCH WIDER BIKE SHOP,,ADVICO YOUNG &,SWITZERLAND,PUMPKIN FILM Zurich,SWITZERLAND
,,,RUBICAM Zurich*
LONG LIST,GETA VOINEA,GETA VOINEA SALON,McCANN ERICKSON,ROMANIA,FILM FACTOR Bucharest,ROMANIA
,,,ROMANIA Bucharest*
BACKSTAGE,HARVEY NICHOLS,FOODMARKET,DDB LONDON*,UNITED KINGDOM,THOMAS THOMAS,UNITED KINGDOM
,,,,,FILMS London
50 EURO,MEDIA MARKT,ELECTRONICS,DUVAL GUILLAUME,BELGIUM,CAVIAR Brussels,BELGIUM
,,,BRUSSELS*
HEART,JCPENNEY,JCPENNEY STORES,SAATCHI & SAATCHI,USA,FURLINED Santa Monica,USA
,,,New York*
ZOMBIES,JCPENNEY,JCPENNEY STORES,SAATCHI & SAATCHI,USA,FURLINED Santa Monica,USA
,,,New York*
MAGIC,JCPENNEY,JCPENNEY STORES,SAATCHI & SAATCHI,USA,MJZ Los Angeles,USA
,,,New York*
WAKE UP,JCPENNEY,JCPENNEY STORES,SAATCHI & SAATCHI,USA,EPOCH FILMS New York,USA
,,,New York*
NO PLACE LIKE HOME,IKEA NORTH AMERICA,IKEA,ROBERT/BOISEN & LIKE-,DENMARK,BACON Copenhagen,DENMARK
,,,MINDED Copenhagen*
SHADOW,INTERFLORA DENMARK,FLOWER/WINE/,ROBERT/BOISEN & LIKE-,DENMARK,GOBSMACK,DENMARK
,,CHOCOLATE DELIVERY,MINDED Copenhagen*,,PRODUCTIONS
,,,,,Copenhagen
LATE,EXCLUSIVE BOOKS,FANATICS BOOK CLUB,OGILVY SOUTH AFRICA,SOUTH AFRICA,JUMP Cape Town,SOUTH AFRICA
,,,Johannesburg*
INTERVIEW,EXCLUSIVE BOOKS,FANATICS BOOK CLUB,OGILVY SOUTH AFRICA,SOUTH AFRICA,JUMP Cape Town,SOUTH AFRICA
,,,Johannesburg*
,A17 Restaurants & Fast Food Outlets
DIAGRAM,JACK IN THE BOX,SIRLOIN BURGER,SECRET WEAPON,USA,@radical.media Santa,USA
,,,MARKETING Santa,,Monica
,,,Monica*
MIX IT,SONIC DRIVE-IN,SONIC FAST FOOD,BARKLEY Kansas City*,USA,DAILY PLANET Phoenix,USA
,,OUTLET
NEW GUY,McDONALD'S,McDONALD'S,COSSETTE,CANADA,SONS AND DAUGHTERS,CANADA
,,,COMMUNICATION-,,Toronto
,,,MARKETING Toronto*
FIRST TIME,McDONALD'S SISTEMAS,McDONALD'S,TBWA\ESPANA Madrid*,SPAIN,SOPA DE TORO Madrid,SPAIN
,DE ESPAÑA
OFFICE,NEW YORK PIZZA,PIZZA DELIVERY,SELMORE Amsterdam*,THE,COMRAD Amsterdam /,THE
,,,,NETHERLANDS,"NOTCOM, Amsterdam",NETHERLANDS
GRANNY,MR. SUB,MR. SUB,zig Toronto*,CANADA,SOFT CITIZEN Toronto,CANADA
PIZZA PROMISE,DOMINO'S,DOMINO'S PIZZA,S-W-H Amsterdam*,THE,CAKE Amsterdam,THE
,,,,NETHERLANDS,,NETHERLANDS
SZZZZPEAKER,McDONALD'S,McDONALD'S,TBWA\NEBOKO,THE,25FPS Amsterdam,THE
,,,Amstelveen*,NETHERLANDS,,NETHERLANDS
LETTERS,McDONALD'S SWEDEN,HAPPY MEAL BOOKS,DDB STOCKHOLM*,SWEDEN,ST PAUL Stockholm,SWEDEN
TINY HANDS,BURGER KING,BURGER KING,CRISPIN PORTER +,USA,HSI PRODUCTIONS,USA
,,,BOGUSKY Miami*,,Culver City
BURGER QUEEN,BURGER KING,BURGER KING,CRISPIN PORTER +,USA,SMUGGLER New York /,USA
,,,BOGUSKY Miami*,,RED INTERACTIVE
,,,,,"AGENCY, Santa Monica"
HOME OF WHATEVER,BURGER KING,BURGER KING,CRISPIN PORTER +,USA,SMUGGLER New York /,USA
,,,BOGUSKY Miami*,,RED INTERACTIVE
,,,,,"AGENCY, Santa Monica"
WHOPPER SWAP,BURGER KING,BURGER KING,CRISPIN PORTER +,USA,SMUGGLER New York /,USA
,,,BOGUSKY Miami*,,RED INTERACTIVE
,,,,,"AGENCY, Santa Monica"
OFFICE COWBOYS,BURGER KING,BURGER KING,CRISPIN PORTER +,USA,BISCUIT FILMWORKS,USA
,,,BOGUSKY Miami*,,Los Angeles
WORLD DOMINATION,BURGER KING,BURGER KING,CRISPIN PORTER +,USA,HSI PRODUCTIONS,USA
,,,BOGUSKY Miami*,,Culver City
"A18 Travel, Transport & Tourism",
BIRTHDAY GIRL,THRIFTY,CAR & TRUCK RENTALS,JWT SYDNEY*,AUSTRALIA,PLAZA FILMS Sydney,AUSTRALIA
LIFE CHANGE,IBERIA,AIRLINE,TAPSA Madrid*,SPAIN,PROPAGANDA,SPAIN
,,,,,PRODUCCIONES Madrid
MONOVOLUME,IBERIA,AIRLINE,TAPSA Madrid*,SPAIN,PROPAGANDA,SPAIN
,,,,,PRODUCCIONES Madrid
SMILE,IBERIA,AIRLINE,TAPSA Madrid*,SPAIN,PROPAGANDA,SPAIN
,,,,,PRODUCCIONES Madrid
TEAM BUILDING,AMERICAN AIRLINES,AIRLINE,TM ADVERTISING Dallas*,USA,MOXIE PICTURES Santa,USA
,,,,,Monica
PUPPET,AIRTRAN AIRWAYS,AIRLINE,CRAMER-KRASSELT,USA,BISCUIT FILMWORKS,USA
,,,Chicago*,,Los Angeles
BABY,METRO MADRID,METRO MADRID,McCANN ERICKSON,SPAIN,INDIO FILMS Madrid,SPAIN
,,,Madrid*
NEW YORK MINUTE,AMERICAN AIRLINES,AMERICAN AIRLINES,McCANN ERICKSON,UNITED KINGDOM,MJZ London,UNITED KINGDOM
,,,LONDON*
HIGH SCHOOL,HOLIDAY INN,HOTELS,FALLON Minneapolis*,USA,BISCUIT FILMWORKS,USA
,,,,,Los Angeles
TED'S TAN,HOLIDAY INN,HOTELS,FALLON Minneapolis*,USA,BISCUIT FILMWORKS,USA
,,,,,Los Angeles
PILLOWS FOR ALL,HOLIDAY INN,HOTELS,FALLON Minneapolis*,USA,BISCUIT FILMWORKS,USA
,,,,,Los Angeles
SUITCASE,HOTELS.COM,HOTEL BOOKING,TBWA\CHIAT\DAY New,USA,O POSITIVE New York,USA
,,WEBSITE,York*
A19 Entertainment & Leisure,
CLASSIC CAR,NEW ZEALAND,NATIONAL LOTTERY,DDB NEW ZEALAND,NEW ZEALAND,ROBBERS DOG FILM,NEW ZEALAND
,LOTTERIES,,Auckland*,,Auckland
AIRPLANE,BC LIONS,BC LIONS FOOTBALL,RETHINK Vancouver*,CANADA,STEAM FILMS Toronto,CANADA
,,TEAM
PLAYGROUND,FILM INDEPENDENT,LOS ANGELES FILM,LOS ANGELES TIMES,USA,GARTNER Santa Monica,USA
,,FESTIVAL,MEDIA GROUP*
HUNTED,MICROSOFT,XBOX HALO 3 GAME,McCANN WORLDGROUP,USA,GO FILM New York*,USA
,,,San Francisco
DANCE,NATIONAL AQUARIUM,NATIONAL AQUARIUM,GKV COMMUNICATIONS,USA,WORKING STIFF,USA
,IN BALTIMORE,,Baltimore*,,Baltimore
CHILI DOG,NATIONAL AQUARIUM,NATIONAL AQUARIUM,GKV COMMUNICATIONS,USA,WORKING STIFF,USA
,IN BALTIMORE,,Baltimore*,,Baltimore
,DUELING ANNOUNCERS NY LOTTERY,MEGA MILLIONS NY,DDB NEW YORK*,USA,PARTIZAN New York,USA
,,LOTTERY
ANTHEM,ESPN,ESPN FANTASY,ARNOLD Boston*,USA,REDTREE,USA
,,BASEBALL,,,PRODUCTIONS Boston
HIGHSPEED,SHAREWARE.DE SWV,FREEWARE.DE,SCHOLZ & FRIENDS,GERMANY,ELEMENT E Hamburg /,GERMANY
DOWNLOAD - ADULT,GMBH,,Berlin*,,"LOFT TONSTUDIOS,"
MOVIE,,,,,Hamburg
SYMPHONY IN RED,CONCERT HALL,CONCERT HALL,JUNG von MATT,GERMANY,SEHSUCHT Hamburg,GERMANY
,DORTMUND,DORTMUND - SEASON,Hamburg*
,,2007/2008
PUZZLE BOY,SONY PLAYSTATION,SONY PLAYSTATION,TBWA\ESPANA Madrid*,SPAIN,USERT38 Madrid,SPAIN
,ENTERTAINMENT
FALL,SONY PLAYSTATION,SONY PLAYSTATION,TBWA\ESPANA Madrid*,SPAIN,GARLIC FILMS Madrid,SPAIN
ENTERTAINMENT,
WALK,BANCA DE QUINIELAS,CHRISTMAS LOTTERY,PUBLICIS IMPETU,URUGUAY,MILAGRITO FILMS,URUGUAY
,DEL URUGUAY -,,Montevideo*,,Montevideo
,DIRECCIÓN NACIONAL
,DE LOTERÍAS
ROLLER COASTER,ZURICH CHAMBER,ORCHESTRA,EURO RSCG GROUP,SWITZERLAND,VIRTUAL REPUBLIC,GERMANY
,ORCHESTRA (ZKO),,SWITZERLAND Zurich*,,Duesseldorf
DRIVING SCHOOL,NORSK TIPPING,LOTTERY,TRY ADVERTISING,NORWAY,EINAR FILM &,NORWAY
,(NORWEGIAN STATE,,AGENCY Oslo*,,FORTELLINGER Oslo
,LOTTERY)
UPS AND DOWNS,NORSK TIPPING,LOTTERY,TRY ADVERTISING,NORWAY,4 1/2 Oslo,NORWAY
,(NORWEGIAN STATE,,AGENCY Oslo*
,LOTTERY)
SANDWICH,SSL INTERNATIONAL,DUREX VIBRATOR,McCANN ERICKSON -,UNITED KINGDOM,TOMBOY FILMS London,UNITED KINGDOM
,,,MANCHESTER*
SHARK,LADBROKES,E-GAMING,M&C SAATCHI London*,UNITED KINGDOM,KNUCKLEHEAD London,UNITED KINGDOM
PARACHUTE,LADBROKES,E-GAMING,M&C SAATCHI London*,UNITED KINGDOM,KNUCKLEHEAD London,UNITED KINGDOM
BONJOVIS,FILMSUEZ,BUENOS AIRES,LA COMUNIDAD Buenos,ARGENTINA,ARGENTINACINE Buenos,ARGENTINA
,,INTERNATIONAL,Aires*,,Aires
,,INDEPENDENT FILM
,,FESTIVAL
TOMSELLECKS,FILMSUEZ,BUENOS AIRES,LA COMUNIDAD Buenos,ARGENTINA,ARGENTINACINE Buenos,ARGENTINA
,,INTERNATIONAL,Aires*,,Aires
,,INDEPENDENT FILM
,,FESTIVAL
SERENGETI,GE,EVAN ALMIGHTY,BBDO NEW YORK*,USA,HSI PRODUCTIONS New,USA
,,,,,York
QT,CINEMANILA,FILM FESTIVAL,TBWA\SANTIAGO,THE PHILIPPINES,REALITY,THE PHILIPPINES
,INTERNATIONAL FILM,,MANGADA PUNO Makati,,ENTERTAINMENT Pasig
,FESTIVAL,,City*,,City
STATUES,ATG,HORSE BETTING,AKESTAM HOLST,SWEDEN,SOCIAL CLUB Stockholm,SWEDEN
,,,Stockholm*
HORSE,HOODINY,CYLOOP MUSIC,LA COMUNIDAD Miami,USA,REBOLUCION Buenos,ARGENTINA
,,WEBSITE,Beach*,,Aires
PANTS,HOODINY,CYLOOP MUSIC,LA COMUNIDAD Miami,USA,NUNCHAKU CINE,ARGENTINA
,,WEBSITE,Beach*,,Buenos Aires
POOL,HOODINY,CYLOOP MUSIC,LA COMUNIDAD Miami,USA,COLIBRI FILMS Los,USA
,,WEBSITE,Beach*,,Angeles
DRUMSTICKS,HOODINY,CYLOOP MUSIC,LA COMUNIDAD Miami,USA,REBOLUCION Buenos,ARGENTINA
,,WEBSITE,Beach*,,Aires
FEAR,NATIONAL BASKETBALL,NBA PLAYOFFS,GOODBY SILVERSTEIN,USA,BOB INDUSTRIES Santa,USA
,ASSOCIATION,,& PARTNERS San,,Monica
,,,Francisco*
HAPPINESS,CANADIAN FILM FEST,CANADIAN FILM FEST,LEO BURNETT,CANADA,BUCK PRODUCTIONS,CANADA
,,,TORONTO*,,"Toronto, ON"
DIORAMA,MICROSOFT,XBOX 360 'HALO 3',T.A.G. SF San Francisco,USA,MJZ Los Angeles,USA
,,VIDEO GAME
PARKING LOT,MICROSOFT,XBOX 360,McCANN WORLDGROUP,USA,ANONYMOUS CONTENT,USA
,,,San Francisco*,,Culver City
STATION,MICROSOFT,XBOX 360,McCANN WORLDGROUP,USA,ANONYMOUS CONTENT,USA
,,,San Francisco*,,Culver City
MAGNETS,NATIONAL BASKETBALL,2007 NBA PLAYOFFS,GOODBY SILVERSTEIN,USA,HUNGRY MAN Santa,USA
,ASSOCIATION,,& PARTNERS San,,Monica
,,,Francisco*
NO LOOK,NATIONAL BASKETBALL,2007 NBA PLAYOFFS,GOODBY SILVERSTEIN,USA,HUNGRY MAN Santa,USA
,ASSOCIATION,,& PARTNERS San,,Monica
,,,Francisco*
YAO,NATIONAL BASKETBALL,2007 NBA PLAYOFFS,GOODBY SILVERSTEIN,USA,HUNGRY MAN Santa,USA
,ASSOCIATION,,& PARTNERS San,,Monica
,,,Francisco*
HEART,NATIONAL BASKETBALL,NATIONAL BASKETBALL,GOODBY SILVERSTEIN,USA,GOODBY SILVERSTEIN,USA
,ASSOCIATION,ASSOCIATION,& PARTNERS San,,& PARTNERS San
,,,Francisco*,,Francisco
IMMOVABLE,NATIONAL BASKETBALL,NATIONAL BASKETBALL,GOODBY SILVERSTEIN,USA,GOODBY SILVERSTEIN,USA
,ASSOCIATION,ASSOCIATION,& PARTNERS San,,& PARTNERS San
,,,Francisco*,,Francisco
A20 Publications & Media,
CHICKEN,FAILTE IRELAND,'THE MASTER'S,PUBLICIS QMP Dublin*,IRELAND,RED RAGE FILMS Dublin,IRELAND
,,APPRENTICE' TV SHOW
ALIEN,VH1 LATIN AMERICA,VH1,VH1 CREATIVE Buenos,ARGENTINA,MTV NETWORKS LATIN,USA
,,,Aires,,AMERICA Miami Beach*
BUSH,SCMP.COM,INTERNET NEWS,OGILVY & MATHER,HONG KONG,SILVERSCREEN Hong,HONG KONG
,,CHANNEL,HONG KONG*,,Kong
SOFA,EL PAIS,PROMOTION,TAPSA Madrid*,SPAIN,TAPSA Madrid,SPAIN
COLLECTION/,
NEWSPAPER,
WRINKLES,,CANAL DIGITAL FINLAND HIGH DEFINITION,FAMILY INC. Helsinki*,FINLAND,ALSO STARRING Helsinki,FINLAND
,,CHANNELS
BODY HAIR,,CANAL DIGITAL FINLAND HIGH DEFINITION,FAMILY INC. Helsinki*,FINLAND,ALSO STARRING Helsinki,FINLAND
,,CHANNELS
ZIDANE,MILENIO NEWSPAPER,MILENIO ONLINE,OLABUENAGA,MEXICO,CENTRAL FILMS Mexico,MEXICO
,,NEWSPAPER,CHEMISTRI Mexico City*,,City
WHITE,BBC,BBC 2 - WHITE,RAINEY KELLY,UNITED KINGDOM,RED BEE MEDIA London,UNITED KINGDOM
,,,CAMPBELL ROALFE/
,,,Y&R London*
PENGUINS,BBC MC&A FUTURE,BBC iPLAYER,RAINEY KELLY,UNITED KINGDOM,RED BEE MEDIA,UNITED KINGDOM
,MEDIA AND,,CAMPBELL ROALFE/,,London / GORGEOUS
,TECHNOLOGY,,Y&R London*,,"ENTERPRISES, London"
PARENTAL CONTROLS,BEATE UHSE TV,BEATE UHSE TV,KEMPERTRAUTMANN,GERMANY,MARKENFILM Wedel,GERMANY
FOR TV VIEWING,,,Hamburg*
ZOO,CARTOON NETWORKS,CARTOON NETWORKS,EL CIELO Buenos Aires,ARGENTINA,PELUCA FILMS Buenos,ARGENTINA
,,,,,Aires*
SNVL,MUSICA,LITTLE BRITAIN,THE JUPITER DRAWING,SOUTH AFRICA,WICKED PIXELS Cape,SOUTH AFRICA
,,,ROOM SOUTH AFRICA,,Town
,,,Cape Town*
TIRE,RTVE,PUBLIC SPANISH,TIEMPO BBDO Madrid*,SPAIN,SELF PRODUCTION,SPAIN
,,TELEVISION,,,Madrid
COMFEZE,CORUS,SCREAM TV,zig Toronto*,CANADA,RADKE FILM GROUP,CANADA
,ENTERTAINMENT,,,,Toronto
BATTLE,MAIL ON SUNDAY,YOU/LIVE MAGAZINES,BBH London*,UNITED KINGDOM,PARTIZAN London,UNITED KINGDOM
TOUPÉE,MTV,MTV,Y&R BUENOS AIRES*,ARGENTINA,LANDIA Buenos Aires,ARGENTINA
HD STATIC,BSKYB,HIGH DEFINITION,WCRS London*,UNITED KINGDOM,GORGEOUS,UNITED KINGDOM
,,,,,ENTERPRISES London
BILLBOARDS,BSKYB,SKY MOVIES,WCRS London*,UNITED KINGDOM,HOME.CORP London,UNITED KINGDOM
TENNIS,CABLEVISIÓN,CABLEVISION ADULT,KEPEL & MATA Buenos,ARGENTINA,BUS Buenos Aires,ARGENTINA
,,CHANNELS,Aires*
GAS,NEO SPORTS,SPORTS TELEVISION,OGILVY & MATHER,INDIA,NIRVANA FILMS,INDIA
,,CHANNEL,Mumbai*,,Bangalore
RUSTY NAIL,NEO SPORTS,SPORTS TELEVISION,OGILVY & MATHER,INDIA,NIRVANA FILMS,INDIA
,,CHANNEL,Mumbai*,,Bangalore
BLUBBERY,POLITIKEN,NEWSPAPER,PROPAGANDA McCANN,DENMARK,TRESHOW,DENMARK
HUMANITARIANISM,,,Copenhagen*,,FILMPRODUCTION
,,,,,Naerum
FRANCOFIL CHIT-CHAT,POLITIKEN,NEWSPAPER,PROPAGANDA McCANN,DENMARK,TRESHOW,DENMARK
,,,Copenhagen*,,FILMPRODUCTION
,,,,,Naerum
BATHROOM,NBC UNIVERSAL/SCI FI,SCI FI TV SERIES,SHACKLETON Madrid*,SPAIN,BLUR Madrid,SPAIN
REMOTE CONTROL,NBC UNIVERSAL/SCI FI,SCI FI TV SERIES,SHACKLETON Madrid*,SPAIN,BLUR Madrid,SPAIN
PEE,NBC UNIVERSAL/SCI FI,SCI FI TV SERIES,SHACKLETON Madrid*,SPAIN,BLUR Madrid,SPAIN
EXCHANGE,FOXTEL,SUBSCRIPTION,SAATCHI & SAATCHI,AUSTRALIA,PLAZA FILMS Sydney,AUSTRALIA
,,TELEVISION,Sydney*
NINJA,FOXTEL,SUBSCRIPTION,SAATCHI & SAATCHI,AUSTRALIA,GOODOIL FILMS Sydney,AUSTRALIA
,,TELEVISION,Sydney*
AIRPLANE,HBO,HBO,BBDO NEW YORK*,USA,RSA FILMS New York,USA
SURPRISE,HBO,HBO,BBDO NEW YORK*,USA,RSA FILMS New York,USA
DINER,HBO,HBO,BBDO NEW YORK*,USA,RSA FILMS New York,USA
COUPLE,HBO,HBO,BBDO NEW YORK*,USA,RSA FILMS New York,USA
DISCOVERY,ALBEITTIMES,DOMO! MAGAZINE,SHOWCASE: Tokyo,JAPAN,MONSTER FILMS Tokyo*,JAPAN
SUBPRIMES,FRANCE24,FRANCE24 NEWS,MARCEL PARIS*,FRANCE,BLACK TEAPOST Paris,FRANCE
,,CHANNEL
BEARD,PLAY TV,PLAY TV,F/NAZCA SAATCHI &,BRAZIL,PRODUTORA DE,BRAZIL
,,,SAATCHI Sao Paulo*,,CINEMA E FILMES
,,,,,ASSOCIADOS Sao Paulo
DOG,3 PLUS TV NETWORK,SUPERNANNY,FAST TRACK,SWITZERLAND,PUMPKIN FILM Zurich,SWITZERLAND
TAXI,FOX INTERNATIONAL,NAT GEO ADVENTURE,AM NEWTON 21 Rome,ITALY,MERCURIO SPQR Rome*,ITALY
,ITALIA
HOLD UP,CANAL+,CANAL+ TV CHANNEL,BETC EURO RSCG Paris*,FRANCE,SONNY PH St Cloud,FRANCE
ADOPT SCI FI,NBC UNIVERSAL,SCI FI CHANNEL,BETC EURO RSCG Paris*,FRANCE,QUAD Paris,FRANCE
,GLOBAL NETWORKS
TAXI,LE PARISIEN,LE PARISIEN,BETC EURO RSCG Paris*,FRANCE,PREMIERE HEURE Saint-,FRANCE
,,NEWSPAPER,,,Cloud
GALI,NBC UNIVERSAL,13EME RUE CRIME,BETC EURO RSCG Paris*,FRANCE,BIG PRODUCTIONS,FRANCE
,GLOBAL NETWORKS,CHANNEL,,,Paris
I LOVE THE WORLD,DISCOVERY CHANNEL,DISCOVERY CHANNEL,72ANDSUNNY El,USA,OUTSIDER Santa Monica,USA
Segundo*,
TAPE,THE GUARDIAN,GREATEST INTERVIEWS,WIEDEN+KENNEDY,UNITED KINGDOM,PARTIZAN London,UNITED KINGDOM
,,SUPPLEMENT,London*
IDEAL MAN,GQ,MEN'S MAGAZINE,DDB PARIS*,FRANCE,LA PAC Paris,FRANCE
VICTIMS,THE SCORE,SPORTS WEBSITE,LEO BURNETT,CANADA,STEAM FILMS Toronto,CANADA
,,,TORONTO*
,"A21 Banking, Investment & Insurance"
NO FEES EQUALS NO,COAST CAPITAL,BANKING/FINANCIAL,RETHINK Vancouver*,CANADA,SOFT CITIZEN Toronto,CANADA
STRESS,SAVINGS,SERVICES
BEAUTIFUL,ALLAN GRAY LIMITED,INVESTMENT COMPANY,KING JAMES Cape Town*,SOUTH AFRICA,VELOCITY FILMS Cape,SOUTH AFRICA
,,,,,Town
TRUCK,KOOPERATIVA A.S.,CAR INSURANCE,MUW SAATCHI &,,SLOVAK REPUBLIC AVI STUDIO Bratislava,SLOVAK REPUBLIC
,SLOVAKIA,,SAATCHI Bratislava*
LAUNCH,NAB,NAB BANKING,CLEMENGER BBDO,AUSTRALIA,CURIOUS FILM Sydney,AUSTRALIA
,,,MELBOURNE*
BOARDROOM,FOLKSAM,INSURANCE,ANR.BBDO Gothenburg*,SWEDEN,CALLBOY Stockholm,SWEDEN
WHIPLASH,FOLKSAM,INSURANCE,ANR.BBDO Gothenburg*,SWEDEN,CALLBOY Stockholm,SWEDEN
CAMERAS,BANK PEKAO,EXPRESS CASH LOANS,LEO BURNETT,POLAND,ITI FILM STUDIO Warsaw,POLAND
,,,WARSAW*
CAR,BANK PEKAO,EXPRESS CASH LOANS,LEO BURNETT,POLAND,ITI FILM STUDIO Warsaw,POLAND
,,,WARSAW*
FRESCO,BANK PEKAO,EXPRESS CASH LOANS,LEO BURNETT,POLAND,ITI FILM STUDIO Warsaw,POLAND
,,,WARSAW*
ELEVATOR,PACIFIC BLUE CROSS,HEALTH INSURANCE,DDB CANADA,CANADA,INDUSTRY FILMS,CANADA
,,,VANCOUVER*,,Toronto
METAL SHOP,PACIFIC BLUE CROSS,HEALTH INSURANCE,DDB CANADA,CANADA,INDUSTRY FILMS,CANADA
,,,VANCOUVER*,,Toronto
AMBULANCE,CENTRAAL BEHEER,INSURANCE COMPANY,DDB AMSTERDAM*,THE,STINK London,UNITED KINGDOM
,ACHMEA,,,NETHERLANDS
AEROSOL,VANCITY SAVINGS,ENVIRO VISA CARD,TBWA\VANCOUVER*,CANADA,OPC Toronto,CANADA
,CREDIT UNION
WOODSTOCK,DIRECT INSURANCE,DIRECT INSURANCE,SHALMOR AVNON,ISRAEL,OG GROUP Tel Aviv,ISRAEL
,,,AMICHAY/Y&R Tel Aviv*
YOU'RE FIRED,MASTERCARD,MASTERCARD WORLD,McCANN ERICKSON,UNITED KINGDOM,PARTIZAN London,UNITED KINGDOM
,,CARD,LONDON*
VALET PARKING,BANGKOK INSURANCE,BANGKOK INSURANCE,CREATIVE JUICE G1,THAILAND,PHENOMENA Bangkok,THAILAND
,,,(TBWA) Bangkok*
BEAM,BANGKOK INSURANCE,BANGKOK INSURANCE,CREATIVE JUICE G1,THAILAND,PHENOMENA Bangkok,THAILAND
,,,(TBWA) Bangkok*
SENSE & SENSIBILITY,CAJA MADRID,DEPOSIT,SHACKLETON Madrid*,SPAIN,INDIO FILMS Madrid,SPAIN
BABY TRADING,E*TRADE,E*TRADE FINANCIAL,GREY nyc.*,USA,SMUGGLER New York /,USA
,,SERVICES,,,"COSMO STREET, New"
,,,,,York
BABY BANKING,E*TRADE,E*TRADE FINANCIAL,GREY nyc.*,USA,SMUGGLER New York /,USA
,,SERVICES,,,"COSMO STREET, New"
,,,,,York
FAVORITE THINGS,MASTERCARD,MASTERCARD,McCANN ERICKSON,USA,EPOCH FILMS New York,USA
,,,NEW YORK*
THE MAYOR'S BIG DAY,CENTRAAL BEHEER,CENTRAAL BEHEER,DDB AMSTERDAM*,THE,CHRISTEL PALACE,THE
,ACHMEA,ACHMEA INSURANCE,,NETHERLANDS,Amsterdam,NETHERLANDS
CAR FIRE,HOME CREDIT,CAR LOANS,OGILVY & MATHER,RUSSIA,TANTRUM,UNITED KINGDOM
,,,Moscow*,,PRODUCTIONS London
IMPULSES,ENTERCARD,REMEMBER CREDIT,DDB STOCKHOLM*,SWEDEN,"SONNY London / FLX,",UNITED
,,CARD,,,Stockholm,KINGDOM /
,,,,,,SWEDEN
NEVER TRUST A MAN,MERCATOR INSURANCE,PENSION PLANS,DUVAL GUILLAUME,BELGIUM,CAVIAR Brussels,BELGIUM
,,,Antwerp*
RUNNING MAN,VISA,VISA DEBIT CARD,SAATCHI & SAATCHI,UNITED KINGDOM,PARTIZAN London,UNITED KINGDOM
,,,London*
PUPPIES,WAMU,WAMU BANKING,TBWA\CHIAT\DAY LA*,USA,FURLINED Santa Monica,USA
,,SERVICES
HAIR,WAMU,WAMU BANKING,TBWA\CHIAT\DAY LA*,USA,FURLINED Santa Monica,USA
,,SERVICES
,A22 Business Equipment & Services
AVATAR,IBM,BUSINESS,OGILVY New York*,USA,PYTKA PRODUCTIONS,USA
,,CONSULTATION,,,Venice
,,SERVICES
HOTEL ROOM,TEMPO-TEAM,EMPLOYMENT AGENCY,TBWA\NEBOKO,THE,CZAR.NL Amsterdam,THE
,,,Amstelveen*,NETHERLANDS,,NETHERLANDS
HANDS,RGS,CONSULTING SERVICES,ARNOLD WORLDWIDE,USA,THE INSANITY,USA
,,,McLean*,,CORPORATION New
,,,,,York
CARRIER PIGEONS,FEDEX,FEDEX,BBDO NEW YORK*,USA,MJZ New York,USA
EXCEPTION,FEDEX,FEDEX,BBDO NEW YORK*,USA,O POSITIVE New York,USA
LEMMINGS,FEDEX,FEDEX,BBDO NEW YORK*,USA,O POSITIVE New York,USA
CHAIRS,FEDEX,FEDEX KINKO'S,BBDO NEW YORK*,USA,O POSITIVE New York,USA
DAYBREAK,MONSTER.COM,JOB SEARCH WEBSITE,BBDO NEW YORK*,USA,MJZ New York,USA
LEGS,MONSTER.COM,JOB SEARCH WEBSITE,BBDO NEW YORK*,USA,MJZ New York,USA
STORK,MONSTER.COM,JOB SEARCH WEBSITE,BBDO NEW YORK*,USA,RATTLING STICK London,UNITED KINGDOM
PREGNANCY,SMITH MICRO,STUFFIT DELUXE,SAATCHI & SAATCHI,USA,HSI PRODUCTIONS New,USA
,SOFTWARE,COMPRESSION,New York*,,York
,,SOFTWARE
A23 Commercial Public Services,
WINDMILL,NUON,NUON WINDMILL,N=5 Amsterdam,THE,NOZON Brussels,BELGIUM
,,ELECTRICITY,,NETHERLANDS
GOOD MORON,KPN ZAKELIJKE MARKT,,MOBILE E-MAIL SERVICE N=5 Amsterdam,THE,BONKERS Amsterdam,THE
,,,,NETHERLANDS,,NETHERLANDS
MOBILE TV,TELENOR,TELECOM SERVICE,GARBERGS,SWEDEN,FLODELLFILM Stockholm,SWEDEN
,,,REKLAMBYRA Stockholm*
IT'S NOT EASY BEING,EDF ENERGY,EDF ENERGY SUPPLIER,EURO RSCG LONDON*,UNITED KINGDOM,CUT + RUN London,UNITED KINGDOM
GREEN,
ANSWER,TELE2,TELECOMMUNICATION,FORSMAN &,SWEDEN,HUNGRY MAN London,UNITED KINGDOM
,,SERVICES,BODENFORS
,,,Gothenburg*
PAY AS YOU GO,ORANGE,,PAY AS YOU GO MOBILE  FALLON LONDON*,UNITED KINGDOM,RATTLING STICK London,UNITED KINGDOM
PAY MONTHLY,ORANGE,,PAY AS YOU GO MOBILE  FALLON LONDON*,UNITED KINGDOM,RATTLING STICK London,UNITED KINGDOM
"GOODBYE, MARY ANN",EUSKALTEL,COVERAGE CAMPAIGN,DIMENSION San,SPAIN,PAPIK Barcelona,SPAIN
,,,Sebastian*
DOG,NETCOM,TELECOM SERVICE,McCANN NORWAY Oslo*,NORWAY,4 1/2 Oslo,NORWAY
COW,NETCOM,TELECOM SERVICE,McCANN NORWAY Oslo*,NORWAY,4 1/2 Oslo,NORWAY
LOVE STORY,FONECTA,FONECTA 16400,SEK & GREY Helsinki*,FINLAND,FRONT DESK Helsinki,FINLAND
TOUPEE,BERLITZ,LANGUAGE SCHOOL,ACW GREY TEL-AVIV*,ISRAEL,MUKI BEN-HAMO Tel,ISRAEL
,,,,,Aviv
TRANSEXUAL,BERLITZ,LANGUAGE SCHOOL,ACW GREY TEL-AVIV*,ISRAEL,MUKI BEN-HAMO Tel,ISRAEL
,,,,,Aviv
BUTCHER,AT&T,AT&T,BBDO NEW YORK*,USA,EPOCH FILMS New York,USA
SCORSESE,AT&T,AT&T,BBDO NEW YORK*,USA,O POSITIVE New York,USA
TRIP TO VEGAS,AT&T,AT&T,BBDO NEW YORK*,USA,SMUGGLER New York,USA
ASSEMBLY,AT&T,AT&T,BBDO NEW YORK*,USA,SMUGGLER New York,USA
CINEMA,MAXIS,HOTLINK PHONE CALLS,BBDO/PROXIMITY,MALAYSIA,SUPERWONDERFUL,MALAYSIA
,COMMUNICATIONS,,MALAYSIA Kuala Lumpur*,,FILMS Kuala Lumpur /
,BERHAD,,,,"MFX SDN BHD, Kuala"
,,,,,Lumpur
FRUSTRATED,IDEACAST,IDEACAST,DONER Southfield*,USA,DEKTOR FILM,USA
PITCHMAN,,,,,Hollywood / DREAMING
,,,,,"TREE, Burbank"
MATERNITY WARD,VERIZON WIRELESS,VERIZON WIRELESS,McCANN ERICKSON,USA,MOXIE PICTURES New,USA
,,,NEW YORK*,,York
BILL,TRACFONE,NET10 MOBILE,DROGA5 New York*,USA,PARK PICTURES New,USA
,,SERVICES,,,York
MARLENE,TRACFONE,NET10 MOBILE,DROGA5 New York*,USA,PARK PICTURES New,USA
,,SERVICES,,,York
BONNIE,TRACFONE,NET10 MOBILE,DROGA5 New York*,USA,PARK PICTURES New,USA
,,SERVICES,,,York
AGENT,TRACFONE,NET10 MOBILE,DROGA5 New York*,USA,WORLD LEADERS,USA
,,SERVICES,,,ENTERTAINMENT New
,,,,,York
NIGHTS AND,TRACFONE,NET10 MOBILE,DROGA5 New York*,USA,WORLD LEADERS,USA
WEEKENDS,,SERVICES,,,ENTERTAINMENT New
,,,,,York
OBVIOUS,TRACFONE,NET10 MOBILE,DROGA5 New York*,USA,WORLD LEADERS,USA
,,SERVICES,,,ENTERTAINMENT New
,,,,,York
SHARAK,TRACFONE,NET10 MOBILE,DROGA5 New York*,USA,WORLD LEADERS,USA
,,SERVICES,,,ENTERTAINMENT New
,,,,,York
BRAIN,TRACFONE,NET10 MOBILE,DROGA5 New York*,USA,WORLD LEADERS,USA
,,SERVICES,,,ENTERTAINMENT New
,,,,,York
CRACKING,MAXIS,HOTLINK PHONE PLAN,BBDO/PROXIMITY,MALAYSIA,PRS FILMS Kuala Lumpur,MALAYSIA
,COMMUNICATIONS,,MALAYSIA Kuala Lumpur*
BERHAD,
TOYS FOR GROWN-UPS  ORANGE,,TELECOMMUNICATIONS,PUBLICIS CONSEIL Paris* FRANCE,,WANDA PRODUCTIONS,FRANCE
,,SERVICE,,,"Paris / WAM, Paris"
REWIND CITY,ORANGE,TV ON DEMAND,PUBLICIS CONSEIL Paris* FRANCE,,WANDA PRODUCTIONS,FRANCE / UNITED
,,,,,"Paris / RATTLING STICK,",KINGDOM
,,,,,London
THE ORIGIN OF COOL,NOKIA,WEBSITE,EIGHT PARTNERSHIP,HONG KONG,ONE PRODUCTION,CHINA
,,,Causeway Bay*,,COMPANY Beijing
CARTWHEEL,VODAFONE,VODAFONE INTERNET,BBH London*,UNITED KINGDOM,RATTLING STICK London,UNITED KINGDOM
CITYSCAPE,VODAFONE,VODAFONE INTERNET,BBH London*,UNITED KINGDOM,THE MILL London,UNITED KINGDOM
TIME THEFT,VODAFONE,VODAFONE INTERNET,BBH London*,UNITED KINGDOM,ACADEMY London,UNITED KINGDOM
LOTTO,BELGACOM,DIGITAL TV,DUVAL GUILLAUME,BELGIUM,LATCHO DROM Brussels,BELGIUM
,,,BRUSSELS*
PARENTAL CONTROL,TERRA,INTERNET PARENTAL,DDB BRASIL Sao Paulo*,BRAZIL,CONSPIRACAO FILMES,BRAZIL
,,CONTROL,,,Sao Paulo
RABBIT,COMCAST,HIGH SPEED INTERNET,GOODBY SILVERSTEIN,USA,BISCUIT FILMWORKS,USA
,,,& PARTNERS San,,Los Angeles
,,,Francisco*
CREATION OF THE LIST,BOUYGUES TELECOM,TELECOMUNICATION,DDB PARIS*,FRANCE,TOKIB PRODUCTIONS,FRANCE / USA
,,SERVICES,,,"Paris / harvest, Santa"
,,,,,Monica
FAVOURITES,BOUYGUES TELECOM,TELECOMUNICATION,DDB PARIS*,FRANCE,LES TELECREATEURS,FRANCE
,,SERVICES,,,Paris
KEEP THINKING,TELECOM PERSONAL,PERSONAL VIDEO,DRAFTFCB BUENOS,ARGENTINA,REBOLUCION Buenos,ARGENTINA
,,CALLING,AIRES*,,Aires
CHICKS WITH SWORDS,ASK,SEARCH ENGINE,CRISPIN PORTER +,USA,PARTIZAN US Los,USA
,,WEBSITE,BOGUSKY Miami*,,Angeles
BARSTOOL RACING,ASK,SEARCH ENGINE,CRISPIN PORTER +,USA,PARTIZAN US Los,USA
,,WEBSITE,BOGUSKY Miami*,,Angeles
KATO,ASK,SEARCH ENGINE,CRISPIN PORTER +,USA,PARTIZAN US Los,USA
,,WEBSITE,BOGUSKY Miami*,,Angeles
SPIDERMAN,COMCAST,"BUNDLED INTERNET,",GOODBY SILVERSTEIN,USA,BOB INDUSTRIES Santa,USA
ROOMMATE,,PHONE AND CABLE,& PARTNERS San,,Monica
,,SERVICE,Francisco*
GUITAR,COMCAST,DIGITAL VOICE PHONE,GOODBY SILVERSTEIN,USA,MOXIE PICTURES Santa,USA
,,SERVICE,& PARTNERS San,,Monica
,,,Francisco*
A24 Corporate Image,
THE SIMPSONS,CHANNEL 4,THE SIMPSONS,4 CREATIVE London,UNITED KINGDOM,GRACIE FILMS Culver,USA
,,,,,City
MUM,IBERIA,AIRLINE,TAPSA Madrid*,SPAIN,TESAURO Madrid,SPAIN
CHAIRS,VANCITY SAVINGS,VANCOUVER,TBWA\VANCOUVER*,CANADA,THE CORNER STORE,CANADA
,CREDIT UNION,INTERNATIONAL FILM,,,Toronto
,,FESTIVAL
,,SPONSORSHIP
IF INTEGRITY WAS,DEVON ENERGY,DEVON ENERGY,COLE & WEBER UNITED,USA,SAVANT FILM Beverly,USA
CELEBRITY,,,Seattle*,,Hills
PR MAGIC,NIKE,NIKE/US WOMEN'S,WIEDEN+KENNEDY,USA,harvest Santa Monica*,USA
,,NATIONAL SOCCER,Portland
,,TEAM
DIVING,FREDDY,DANCE/SPORTSWARE,1861UNITED Milan,ITALY,(h) Milan*,ITALY
100 METRES,FREDDY,DANCE/SPORTSWARE,1861UNITED Milan,ITALY,(h) Milan*,ITALY
MACAULAY CULKIN,ORANGE FILM BOARD,ORANGE FILM BOARD,MOTHER London*,UNITED KINGDOM,EPOCH LONDON,UNITED KINGDOM
SNOOP DOGG,ORANGE FILM BOARD,ORANGE FILM BOARD,MOTHER London*,UNITED KINGDOM,HUNGRY MAN London,UNITED KINGDOM
VAL KILMER,ORANGE FILM BOARD,ORANGE FILM BOARD,MOTHER London*,UNITED KINGDOM,EPOCH LONDON,UNITED KINGDOM
BEARD,,COCA-COLA ARGENTINA COCA-COLA,OGILVY & MATHER,ARGENTINA,REBOLUCION Buenos,ARGENTINA
,,CHRISTMAS MESSAGE,ARGENTINA Buenos,,Aires
,,,Aires*
PLAYSTATION,SIGNIA,SIGNIA,McCANN ERICKSON,ARGENTINA,BITT ANIMATION + VFX,ARGENTINA
,,,ARGENTINA Buenos,,Buenos Aires
,,,Aires*
ROB LOWE,ORANGE,ORANGE,MOTHER London*,UNITED KINGDOM,HUNGRY MAN London,UNITED KINGDOM
LIBERTADORES,BANCO SANTANDER,EVENT SPONSORSHIP,BASSAT OGILVY Madrid*,SPAIN,GARAGE FILMS,SPAIN
,,,,,Barcelona
CONFERENCE CALL,FEDEX,FEDEX CUP,BBDO NEW YORK*,USA,O POSITIVE New York,USA
ASSISTANT,FEDEX,FEDEX CUP,BBDO NEW YORK*,USA,O POSITIVE New York,USA
INTO GOLF,FEDEX,FEDEX CUP,BBDO NEW YORK*,USA,O POSITIVE New York,USA
HONDAMENTALISM,HONDA,HONDA CIVIC TYPE-R,WIEDEN+KENNEDY,UNITED KINGDOM,INDEPENDENT London /,UNITED
,,,London*,,ANONYMOUS,KINGDOM / USA
,,,,,"CONTENT, Culver City"
CAR,HYDRO,OIL & ENERGY,DDB OSLO*,NORWAY,MOTION BLUR Oslo,NORWAY
,,COMPANY
TRAIN,HYDRO,OIL & ENERGY,DDB OSLO*,NORWAY,MOTION BLUR Oslo,NORWAY
COMPANY,
WATER BOTTLE,TOYOTA CANADA,TOYOTA,SAATCHI & SAATCHI,CANADA,CIRCLE PRODUCTIONS,CANADA
,,,Toronto*,,Toronto
PLANET,ORANGE,TELECOMMUNICATIONS,PUBLICIS CONSEIL Paris* FRANCE,,"IRENE Paris / WAM, Paris",FRANCE
,,SERVICE
KUNG FOOD,McDONALD'S,OLYMPIC GAMES,LEO BURNETT USA,USA,PARTIZAN US Los,USA
,,SPONSORSHIP,Chicago*,,Angeles
GHOSTBUSTERS,VOLKSWAGEN,VOLKSWAGEN,DDB LONDON*,UNITED KINGDOM,RATTLING STICK London,UNITED KINGDOM
,,INDEPENDENT CINEMA
,,SPONSORSHIP
LORD OF THE RINGS,VOLKSWAGEN,VOLKSWAGEN,DDB LONDON*,UNITED KINGDOM,RATTLING STICK London,UNITED KINGDOM
,,INDEPENDENT CINEMA
,,SPONSORSHIP
TOY STORY,VOLKSWAGEN,VW,DDB LONDON*,UNITED KINGDOM,RATTLING STICK London,UNITED KINGDOM
POODLES,VOLKSWAGEN,VW PASSAT,DDB LONDON*,UNITED KINGDOM,STINK London,UNITED KINGDOM
GYMNAST,VOLKSWAGEN,VW PASSAT,DDB LONDON*,UNITED KINGDOM,STINK London,UNITED KINGDOM
AVIATOR,JCPENNEY,JCPENNEY STORES,SAATCHI & SAATCHI,USA,MJZ Los Angeles,USA
,,,New York*
CLAP,MTN,MOBILE TELEPHONE,,METROPOLITANREPUBLIC SOUTH AFRICA,VELOCITY FILMS,SOUTH AFRICA
,,NETWORK,Johannesburg,,Johannesburg
HOUSE,ANHEUSER BUSCH,STELLA ARTOIS BEER,LOWE NEW YORK*,USA,BACKYARD Venice,USA
WAR,UNIMED,ANTI-SMOKING,F/NAZCA SAATCHI &,BRAZIL,TRIBBO POST Sao Paulo,BRAZIL
,,,SAATCHI Sao Paulo*
A25 Public Health & Safety,
SMASH & GRAB,VANCOUVER POLICE,THEFT AWARENESS/,RETHINK Vancouver*,CANADA,INDUSTRY FILMS,CANADA
,DEPARTMENT,PREVENTION,,,Toronto
PUPPET,AMERICAN LEGACY,ANTI-SMOKING,ARNOLD Boston*,USA,VICE FILMS Brooklyn,USA
,FOUNDATION,AWARENESS
GUN STORE,AMERICAN LEGACY,ANTI-SMOKING,ARNOLD Boston*,USA,VICE FILMS Brooklyn,USA
,FOUNDATION,AWARENESS
ACTOR INTERVIEW,AMERICAN LEGACY,ANTI-SMOKING,ARNOLD Boston*,USA,VICE FILMS Brooklyn,USA
,FOUNDATION,AWARENESS
NAIL,WORKERS',WORKPLACE SAFETY,EXTREME GROUP,CANADA,RPM PRODUCTIONS,CANADA
,COMPENSATION,AWARENESS,Halifax*,,Halifax
,BOARD OF NOVA
,SCOTIA
LADDER,WORKERS',WORKPLACE SAFETY,EXTREME GROUP,CANADA,RPM PRODUCTIONS,CANADA
,COMPENSATION,AWARENESS,Halifax*,,Halifax
,BOARD OF NOVA
,SCOTIA
THE MAGICAL AMOUNT,AMERICAN LEGACY,ANTI-SMOKING,ARNOLD Boston*,USA,MJZ Los Angeles,USA
,FOUNDATION,AWARENESS
KILL THE GUN,CHOICE FM,GUN CRIME,ABBOTT MEAD VICKERS,UNITED KINGDOM,THERAPY FILMS London,UNITED KINGDOM
,,,BBDO London*
MOMENT OF DOUBT,UK GOVERNMENT,THINK! DON’T DRINK,LEO BURNETT London*,UNITED KINGDOM,HLA London,UNITED KINGDOM
,DEPARTMENT FOR,AND DRIVE
,TRANSPORT
AWARENESS TEST,TRANSPORT FOR,CYCLE SAFETY,WCRS London*,UNITED KINGDOM,GORGEOUS,UNITED KINGDOM
,LONDON,,,,ENTERPRISES London
SMOKING BABY,NATIONAL COUNCIL,NATIONAL COUNCIL,JWT JOHANNESBURG,SOUTH AFRICA,PICTURE TREE,SOUTH AFRICA
,AGAINST SMOKING,AGAINST SMOKING,,,Johannesburg*
THE ARM AND THE,MOTORRIJDER,ROAD AWARENESS,FAMOUS Brussels,BELGIUM,CAVIAR Brussels*,BELGIUM
STREET,
POEM,MTV,ANTI DRINK-DRIVING,JWT London,UNITED KINGDOM,GORGEOUS,UNITED KINGDOM
,,,,,ENTERPRISES London*
BILLIARD,MTV,HEALTH & SAFETY,Y&R New York*,USA,harvest Santa Monica,USA
,,AWARENESS
FALCON,MTV,HEALTH & SAFETY,Y&R New York*,USA,harvest Santa Monica,USA
,,AWARENESS
GUACAMOLE,MTV,HEALTH & SAFETY,Y&R New York*,USA,harvest Santa Monica,USA
,,AWARENESS
VIDEO GAME,SAN RAFFAELE,CAMPAIGN FOR THE,JWT ITALIA Milan*,ITALY,FARGO FILM Milan,ITALY
,HOSPITAL,PREVENTION OF CHILD
,,OBESITY
A26 Public Awareness Messages,
SAFARI,IFAW,INTERNATIONAL FUND,SPRINGER & JACOBY,GERMANY,CONEGGE FILM,GERMANY
,,FOR ANIMAL WELFARE,WERBEAGENTUR,,COMPANY Hamburg /
,,,Hamburg*,,"DICKES, Berlin"
"BUY ONE, KILL ONE",PETA,PET ADOPTION,MATTER Laguna Beach,USA,OIL FACTORY Los,USA
FREE,,AWARENESS,,,Angeles
SEX TALK,PETA,PET SPAYING/,MATTER Laguna Beach,USA,OIL FACTORY Los,USA
,,NEUTERING,,,Angeles
AWARENESS,
,,,,MATCHES,WWF
FOREST,OGILVY PORTUGAL,PORTUGAL,OZONO FILMES Lisbon,PORTUGAL
CONSERVATION,Lisbon*
NEXT GENERATION,FEDERAL MINISTRY,EARTH AWARENESS,KNSK WERBEAGENTUR,GERMANY,LATERNA MAGICA,GERMANY
,FOR THE,,Hamburg*,,FILMPRODUKTION
,"ENVIRONMENT,",,,,Frankfurt
,NATURE
,CONSERVATION &
,NUCLEAR SAFETY
ANTI-BREATHING,MARICOPA COUNTY,CLEAN AIR,RIESTER Phoenix,USA,harvest Santa Monica*,USA
,,AWARENESS CAMPAIGN
CATHY FREEMAN,WWF,EARTH HOUR CARBON,LEO BURNETT Sydney*,AUSTRALIA,CARAVAN PICTURES,AUSTRALIA
,,REDUCTION EVENT,,,Sydney
EXECUTION,NOBODY'S CHILDREN,SAFER INTERNET,McCANN ERICKSON,POLAND,DYNAMO FILMS Warsaw,POLAND
,FOUNDATION/NASK,ACADEMY PROGRAM,POLSKA Warsaw*
PEEPSHOW,NOBODY'S CHILDREN,SAFER INTERNET,McCANN ERICKSON,POLAND,DYNAMO FILMS Warsaw,POLAND
,FOUNDATION/NASK,ACADEMY PROGRAM,POLSKA Warsaw*
COW,SOS LIVE EARTH,GLOBAL WARMING,FORSMAN &,SWEDEN,RAF Stockholm,SWEDEN
,,AWARENESS,BODENFORS
,,,Gothenburg*
CAMOUFLAGE,SPANISH GOVERNMENT,SPANISH ARMY,Y&R Madrid*,SPAIN,GOT FILM Barcelona,SPAIN
,,RECRUITMENT
DIFFERENT LIVES,MTV ASIA EXIT,HUMAN TRAFFICKING,COLMAN RASIC,AUSTRALIA,REVOLVER Sydney,AUSTRALIA
,FOUNDATION,AWARENESS,CARRASCO Sydney*
JOHNNY DEPP,SAFACT,SOUTH AFRICAN,TBWA\HUNT\LASCARIS,SOUTH AFRICA,FRESH WATER FILMS,SOUTH AFRICA
,,FEDERATION AGAINST,JOHANNESBURG*,,Johannesburg
,,COPYRIGHT THEFT
THINK ABOUT IT,IPAS BRASIL,ABORTION AWARENESS,SANTA CLARA Sao,BRAZIL,O2 FILMES Sao Paulo,BRAZIL
,,,Paulo*
LEADER,GRATITUDE CO.,COUNCIL FOR,MONDAY Bangkok*,THAILAND,SKY EXITS Bangkok,THAILAND
,,NATIONAL SECURITY
HURRICANES,,MACKENZIE UNIVERSITY ENVIRONMENTAL,PUBLICIS BRASIL Sao,BRAZIL,PUBLICIS BRASIL Sao,BRAZIL
,,AWARENESS,Paulo*,,Paulo
OCEANS INITIATIVES,SURFRIDER,SURFRIDER,Y&R FRANCE Boulogne,FRANCE,WANDA PRODUCTIONS,FRANCE
,FOUNDATION,FOUNDATION,Billancourt*,,Paris
JUST FOR AN HOUR,SBS/WWF AUSTRALIA,EARTH HOUR,RAZOR JUNIOR Sydney*,AUSTRALIA,PERCEPTUAL,NEW ZEALAND
,,,,,ENGINEERING Auckland
TEST,CASA DO ZEZINHO,CHILD POVERTY,ALMAPBBDO Sao Paulo*,BRAZIL,CINEMACENTRO Sao,BRAZIL
,,INDIFFERENCE,,,Paulo
,,AWARENESS
SUPPORT BURMA,MTV AND,BURMA AWARENESS,OGILVY & MATHER,THE,SHILO New York*,USA
,NONEOFUSAREFREE.,,Amsterdam,NETHERLANDS
,ORG
ENGLISH LESSONS,UNICEF,ADVOCACY FOR GIRLS,SAATCHI & SAATCHI,CHINA,A NEW LIFE FILMS,CHINA
,,,Beijing*,,Shanghai
INK,AMNESTY,HUMAN RIGHTS,TBWA\PARIS*,FRANCE,LA PAC Paris,FRANCE
,INTERNATIONAL,AWARENESS
CARBON NEUTRAL,WORLD WILDLIFE FUND,GLOBAL WARMING,DRAFTFCB TORONTO*,CANADA,DRAFTFCB TORONTO,CANADA
,,AWARENESS
TAN HONG MING,PETRONAS,MERDEKA 2007,LEO BURNETT,MALAYSIA,MHZ FILMS Kuala Lumpur,MALAYSIA
,,,ADVERTISING Kuala
,,,Lumpur*
RACE,PETRONAS,MERDEKA 2007,LEO BURNETT,MALAYSIA,MHZ FILMS Kuala Lumpur,MALAYSIA
,,,ADVERTISING Kuala
,,,Lumpur*
KARATE,PETRONAS,MERDEKA 2007,LEO BURNETT,MALAYSIA,MHZ FILMS Kuala Lumpur,MALAYSIA
,,,ADVERTISING Kuala
,,,Lumpur*
MONEY,WWF,ENVIRONMENTAL,DDB BRASIL Sao Paulo*,BRAZIL,PIX POST AND,BRAZIL
,,AWARENESS,,,ANIMATION STUDIO Sao
,,,,,Paulo
DREAMS OF,GREENPEACE,GREENPEACE,DDB PARIS*,FRANCE,STINK Paris,FRANCE
TOMORROW,
WOMEN ARE STILL IN,ZIJKANT,EQUAL PAYDAY,MORTIERBRIGADE,BELGIUM,CZAR.BE Brussels,BELGIUM
DISCOUNT,,,Brussels*
CHEMICAL PARTY/,MARIE CURIE,SCIENTIFIC RESEARCH/,MEDIA CONSULTA TV &,GERMANY,HUNGRY MAN New York*,USA
ELECTRICITY,,FUNDING AWARENESS,FILM PRODUKTION Berlin
LITTLE FELLA,ERECTILE,ERECTILE,DDB SYDNEY*,AUSTRALIA,WINDOW,AUSTRALIA
,DYSFUNCTION,DYSFUNCTION,,,PRODUCTIONS Sydney
,AUSTRALIA,AWARENESS
A27 Fundraising & Appeals,
REAR WINDOW,CHANNEL 3,CHANNEL 3 TELETHON,BASSAT OGILVY &,SPAIN,RCR FILMS Barcelona,SPAIN
,,,MATHER BARCELONA*
FREEDOM SPEECHES,PETA,ANIMAL RIGHTS,FOSBURY LUTHER,GERMANY,OPTIX DIGITAL,GERMANY
,,AWARENESS,LINDBERGH Hamburg*,,PICTURES Hamburg /
,,,,,"LOFT TONSTUDIOS,"
,,,,,Hamburg
RICARDO ORTEGA,REPORTERS WITHOUT,REPORTERS WITHOUT,SAATCHI & SAATCHI,SPAIN,LEE FILMS Madrid,SPAIN
,BORDERS,BORDERS,Madrid*
BRAD WILL,REPORTERS WITHOUT,REPORTERS WITHOUT,SAATCHI & SAATCHI,SPAIN,LEE FILMS Madrid,SPAIN
,BORDERS,BORDERS,Madrid*
ELECTRICITY OR RENT,,HABITAT FOR HUMANITY HABITAT FOR HUMANITY COSSETTE,,CANADA,STEAM FILMS Toronto,CANADA
,,,COMMUNICATION-
,,,MARKETING Toronto*
TENTACLE,DUNKELZIFFER,HELP FOR SEXUALLY,RED RABBIT,GERMANY,ROKKIT London,UNITED KINGDOM
,,ABUSED CHILDREN,WERBEAGENTUR
,,,Hamburg*
SABOTEUR,MS AUSTRALIA,MULTIPLE SCLEROSIS,CUMMINSNITRO,AUSTRALIA,SOMA FILMS Sydney,AUSTRALIA
,,AWARENESS,Melbourne*
DAVE,UNITED NATIONS HIGH,REFUGEE AWARENESS,BBDO CANADA Toronto*,CANADA,OPC Toronto,CANADA
,COMMISSION FOR
,REFUGEES
HANGING MAN,SAMARITANS,SAMARITANS CHARITY,ABBOTT MEAD VICKERS,UNITED KINGDOM,ROGUE London,UNITED KINGDOM
,,,BBDO London*
RAINBOW WARRIOR,GREENPEACE,CHARITY FUNDRAISING,JOH KUEMMEL,GERMANY,FILMAKADEMIE BADEN-,GERMANY
,,,Ludwigsburg*,,WUERTTEMBERG
,,,,,Ludwigsburg
BECAUSE,RED CROSS AUSTRIA,RED CROSS AUSTRIA,OGILVY & MATHER,AUSTRIA,SABOTAGE FILMS,AUSTRIA
,,,Vienna*,,Vienna
ARSENAL,TREEHOUSE,CHARITY SUPPORT,CHI & PARTNERS,UNITED KINGDOM,ACADEMY London,UNITED KINGDOM
,,,London*
DAD,BRAILLELIGA,FOUNDATION FOR THE,DUVAL GUILLAUME,BELGIUM,LATCHO DROM Brussels,BELGIUM
,,BLIND,BRUSSELS*
HOURGLASS,SIDACTION,FIGHT AGAINST AIDS,LEO BURNETT PARIS*,FRANCE,MARCASSIN Paris,FRANCE
CLICK,NSPCC,CHILDREN'S CHARITY,SAATCHI & SAATCHI,UNITED KINGDOM,BLINK London,UNITED KINGDOM
,,,London*
MAMA,MEDECINS SANS,MEDECINS SANS,MORTIERBRIGADE,BELGIUM,CAVIAR Brussels,BELGIUM
,FRONTIÈRES,FRONTIÈRES,Brussels*
A28 Best Use of Music,
STUCK,THORNTONS,CHOCOLATE GIFT SHOP,SHOP London,UNITED KINGDOM,2AM FILMS London*,UNITED KINGDOM
BALLERINA,NIKE RUSSIA,NIKE FOOTWEAR,NITRO London,UNITED KINGDOM,ENDLESS NOISE Los,USA
,,,,,Angeles*
'SKINS' SERIES,E4,E4 TELEVISION SERIES,4 CREATIVE London,UNITED KINGDOM,4 CREATIVE London,UNITED KINGDOM
ONLY IN AUSTRALIA,DIAGEO AUSTRALIA,BUNDABERG RUM,LEO BURNETT Sydney*,AUSTRALIA,THERAPY FILMS London,UNITED KINGDOM
HERE COME THE GIRLS,BOOTS,BOOTS,MOTHER London*,UNITED KINGDOM,PARTIZAN London,UNITED KINGDOM
MEDIEVAL MIND TRIP,BBC 4,BBC 4 - MEDIEVAL,RAINEY KELLY,UNITED KINGDOM,RED BEE MEDIA,UNITED KINGDOM
,,SEASON,CAMPBELL ROALFE/,,London / STRANGE
,,,Y&R London*,,"BEAST, London"
COKREATION,COCA-COLA EUROPE,COCA-COLA,SRA. RUSHMORE Madrid* SPAIN,,TESAURO Madrid,SPAIN
ROLLER COASTER,ZURICH CHAMBER,ORCHESTRA,EURO RSCG GROUP,SWITZERLAND,VIRTUAL REPUBLIC,GERMANY
,ORCHESTRA (ZKO),,SWITZERLAND Zurich*,,Duesseldorf
CAKE,SKODA,SKODA FABIA,FALLON LONDON*,UNITED KINGDOM,GORGEOUS,UNITED KINGDOM
,,,,,ENTERPRISES London
MUSIC PIECES,SONY,WALKMAN,FALLON LONDON*,UNITED KINGDOM,ACADEMY London,UNITED KINGDOM
THE LONG MINUTE,PEUGEOT,LAUNCH OF THE NEW,UNCLE GREY Aarhus*,DENMARK,MOLAND FILM,DENMARK
,,PEUGEOT 308,,,COMPANY Copenhagen
STREET,ASTRO MOBILE,ASTRO MOBILE,Y&R Singapore*,SINGAPORE,TRIO FILMS Los,USA / SINGAPORE
,,,,,Angeles / TWO OCEANS
,,,,,"FILM COMPANY,"
,,,,,Singapore
HUGGING,T-MOBILE CROATIA/T-,T-MOBILE,PUBLICIS Vienna*,AUSTRIA,PIONEER,HUNGARY
,MOBILE INTERNATIONAL,,,,PRODUCTIONS Budapest
HUNGRY LIKE THE,PROCTER & GAMBLE,,OLD SPICE BODY SPRAY WIEDEN+KENNEDY,USA,BISCUIT FILMWORKS,USA
BRUCE,,,Portland*,,Los Angeles
DAMN BOOTS,NOMIS BOOTS,NOMIS SOCCER BOOTS,JOHANNES LEONARDO,USA,NEXUS PRODUCTIONS,UNITED KINGDOM
,,,New York*,,London
CONSTRUCTION,AUDI UK,AUDI R8,BBH London*,UNITED KINGDOM,PARTIZAN London,UNITED KINGDOM
AVIATOR,JCPENNEY,JCPENNEY,SAATCHI & SAATCHI,USA,MJZ Los Angeles,USA
,,,New York*
MAGIC,JCPENNEY,JCPENNEY,SAATCHI & SAATCHI,USA,MJZ Los Angeles,USA
,,,New York*
SEA,DIAGEO,SMIRNOFF VODKA,JWT London*,UNITED KINGDOM,RATTLING STICK London,UNITED KINGDOM
PICTURES OF YOU,TRANSPORT ACCIDENT,ROAD SAFETY,GREY Melbourne,AUSTRALIA,LEVEL TWO MUSIC,AUSTRALIA
,COMMISSION,,,,South Melbourne* / EXIT
,,,,,"FILMS, Melbourne"
PROTEST,ABSOLUT,ABSOLUT VODKA,TBWA\CHIAT\DAY New,USA,MJZ Los Angeles*,USA
York,
SLASH,ACTIVISION,GUITAR HERO III:,DDB Venice,USA,MJZ Los Angeles*,USA
,,LEGENDS OF ROCK
,,VIDEO GAME
POURING IN,JEEP,JEEP LIBERTY,CUTWATER San,USA,MJZ Los Angeles*,USA
,,,Francisco
DIORAMA,MICROSOFT,XBOX 360/'HALO 3',T.A.G. SF San Francisco,USA,MJZ Los Angeles,USA
,,VIDEO GAME
B01 Internet Film,
BIG MAN,NIKE EMEA,NIKE+ FOOTWEAR AND,72ANDSUNNY El,USA,BELIEVE MEDIA Los,USA
,,ACCESSORIES,Segundo*,,Angeles
FIGHT FOR KISSES,WILKINSON/ENERGIZER,QUATTRO TITANIUM,JWT Paris*,FRANCE,WANDA PRODUCTIONS,FRANCE
,,RAZOR,,,Paris
ENEMY WEAPON,MICROSOFT,XBOX 360/'HALO 3',T.A.G. SF San Francisco,USA,GO FILM Hollywood,USA
,,VIDEO GAME
SWEAR JAR,ANHEUSER BUSCH,BUD LIGHT,DDB CHICAGO*,USA,HUNGRY MAN Santa,USA
,,,,,Monica
CRAZY-LEADER,AMNESTY,AMNESTY,SCHOLZ & FRIENDS,GERMANY,MARKENFILM Berlin,GERMANY
COMMERCIAL,INTERNATIONAL,INTERNATIONAL,Berlin*
GRAVESITE,MICROSOFT,XBOX 360/'HALO 3',T.A.G. SF San Francisco,USA,MJZ Los Angeles,USA
,,VIDEO GAME
ONSLAUGHT,UNILEVER CANADA,DOVE SELF-ESTEEM,OGILVY & MATHER,CANADA,WORLDWIDE,USA / CANADA
,,FUND,Toronto*,,PRODUCTION
,,,,,SERVICES Coral Gables /
,,,,,"STEAM FILMS, Toronto"
JOHN 117/MONUMENT,MICROSOFT,XBOX 360/'HALO 3',T.A.G. SF San Francisco,USA,T.A.G. San Francisco,USA
,,VIDEO GAME
HAPPINESS FACTORY,THE COCA-COLA,COCA-COLA,WIEDEN+KENNEDY,THE,PSYOP New York,USA
,COMPANY,,AMSTERDAM*,NETHERLANDS
FAT GUYS,COMPANHIA ATHLETICA,FITNESS,DDB BRASIL Sao Paulo*,BRAZIL,CINEMACENTRO Sao,BRAZIL
,,,,,Paulo
THE KEY TO RESERVA,FREIXENET,CAVA FREIXENET,JWT SPAIN Barcelona*,SPAIN,RSA FILMS New York /,USA / SPAIN
,,CARTA NEVADA,,,"OVIDEO , Barcelona"
,,RESERVA
THE WATCHER,HBO,HBO VOYEUR.COM,BBDO NEW YORK,USA,RSA FILMS Los Angeles*,USA
COMBAT,MICROSOFT,XBOX 360/'HALO 3',IN HOUSE,USA,RSA FILMS Los Angeles*,USA
,,VIDEO GAME
B03 Other Screens,
DON'T LET IT ALL,LIVE EARTH,CLIMATE CHANGE,AARDMAN ANIMATIONS,UNITED KINGDOM,AARDMAN ANIMATIONS,UNITED KINGDOM
UNRAVEL,,AWARENESS,Bristol*,,Bristol
KEEP DOING,HONDA,ENVIRONMENTAL,WIEDEN+KENNEDY,UNITED KINGDOM,NOT TO SCALE London,UNITED KINGDOM
,,AWARENESS,London*
APPLE 1984 FOCUS,THE AD CLUB,2007 HATCH AWARDS,ARNOLD Boston*,USA,ARNOLD Boston,USA
GROUPS,
"""THE GAMEKILLERS"" -",UNILEVER,AXE DEODORANT,BBH New York*,USA,@radical.media New York,USA
EPISODE 1,
"""THE GAMEKILLERS"" -",UNILEVER,AXE DEODORANT,BBH New York*,USA,@radical.media New York,USA
EPISODE 2,
"""THE GAMEKILLERS"" -",UNILEVER,AXE DEODORANT,BBH New York*,USA,@radical.media New York,USA
EPISODE 3,
"""THE GAMEKILLERS"" -",UNILEVER,AXE DEODORANT,BBH New York*,USA,@radical.media New York,USA
EPISODE 4,
"""THE GAMEKILLERS"" -",UNILEVER,AXE DEODORANT,BBH New York*,USA,@radical.media New York,USA
EPISODE 5,
ALL APARTMENTS,HBO,HBO VOYEUR,BBDO NEW YORK*,USA,RSA FILMS New York /,USA
PROJECTED FILM,,,,,"BIG SPACESHIP, New"
,,,,,York
NEW WORLD OF COKE,THE COCA-COLA,COCA-COLA,WIEDEN+KENNEDY,THE,PSYOP New York,USA
,COMPANY,,AMSTERDAM*,NETHERLANDS
B04 Integrated Film,
VOYEUR INTEGRATED,HBO,HBO VOYEUR,BBDO NEW YORK*,USA,RSA FILMS New York /,USA
CAMPAIGN,,,,,"BIG SPACESHIP, New"
,,,,,York
DREAM BIG CAMPAIGN,,ADIDAS INTERNATIONAL  SPORTSWEAR,180 AMSTERDAM (180,THE,CHRISTEL PALACE,THE
,,,\TBWA),NETHERLANDS,Amsterdam / CAN,NETHERLANDS /
,,,,,"COMMUNICATE,",UNITED KINGDOM
,,,,,Richmond
THE KEY TO RESERVA,FREIXENET,CAVA FREIXENET,JWT SPAIN Barcelona*,SPAIN,RSA FILMS New York /,USA / SPAIN
,,CARTA NEVADA,,,"OVIDEO , Barcelona"
,,RESERVA
B05 Interactive Film,
LET THE GAME,UNILEVER,AXE SHOCK SHOWER,BBH New York*,USA,MJZ Los Angeles,USA
CONTINUE,,GEL
PET SHOP BOYS,EMI MUSIC,INTERACTIVE MUSIC,THE RUMPUS ROOM,,UNITED KINGDOM   THE SWEET SHOP,UNITED KINGDOM
,,VIDEO,London*,,London
TELETHEATRE,RENAULT GERMANY,RENAULT TWINGO,NORDPOL+ HAMBURG*   GERMANY,,BIGFISH,GERMANY
,,,,,FILMPRODUKTION Berlin
SUBLYMONAL SHORT,SPRITE,SPRITE,CRISPIN PORTER +,USA,SMUGGLER New York,USA
FILM,,,BOGUSKY Miami*
NIKE ZOOM,NIKE,ONLINE TRAINING,R/GA New York*,USA,"R/GA New York / BUCK,",USA
,,PROGRAM,,,New York
