Title,Advertiser/Client,,Product/Service Advertising Agency,Country,,Production Company Country
Grand Prix,
THE GIFT,PHILIPS,CINEMA TV,"DDB UK, London",UNITED,"RSA FILMS, London *",UNITED
,,,,KINGDOM,,KINGDOM
Gold Lion,
,,ABSOLUT
I'M HERE,PERNOD RICARD,VODKA,"TBWA\CHIAT\DAY, New",USA,"MJZ, Los Angeles *",USA
,,BRANDED,York
CONTENT,
MINISTRY OF,LEO BURNETT/ARC
COMMUNITY,,COMMUNITY,WORLDWIDE,,DRAGONSGATE
FUNERAL,"DEVELOPMENT,",DEVELOPMENT,"SINGAPORE,",SINGAPORE,"STUDIO, Singapore",SINGAPORE
,YOUTH AND,,Singapore *
,SPORTS
THE LIFE,MICROSOFT,XBOX HALO 3,"AGENCYTWOFIFTEEN,",USA,"MJZ, Los Angeles *",USA
,,ODST,San Francisco
,MINISTRY OF,,LEO BURNETT/ARC
,COMMUNITY,COMMUNITY,WORLDWIDE,,DRAGONSGATE
FUNERAL,"DEVELOPMENT,",DEVELOPMENT,"SINGAPORE,",SINGAPORE,"STUDIO, Singapore",SINGAPORE
,YOUTH AND,,Singapore *
,SPORTS
PIANO,MATCH.COM,ONLINE DATING,"MOTHER, London",UNITED,"ACADEMY FILMS,",UNITED
,,SERVICE,,KINGDOM,London *,KINGDOM
,DEUTSCHER,ANTI-ANIMAL,"GREY WORLDWIDE,",,PAPA LÖWE
A PEACE OF MIND,,TIERSCHUTZBUND TESTING APPEAL  Düsseldorf *,,GERMANY,"FILMPRODUKTION,",GERMANY
,,,,,München
GOING WEST,NEW ZEALAND,READING,"COLENSO BBDO,",NEW ZEALAND,ANDERSON M,UNITED
,BOOK COUNCIL,CAMPAIGN,Auckland *,,"STUDIO, London",KINGDOM
THE GIFT,PHILIPS,CINEMA TV,"DDB UK, London",UNITED,"RSA FILMS, London *",UNITED
,,,,KINGDOM,,KINGDOM
,SOS ATLANTIC,WATER,F/NAZCA SAATCHI &,,"PRODIGO FILMS, São"
INVOCATION,FOREST,CONSERVATION,"SAATCHI, São Paulo *",BRAZIL,Paulo,BRAZIL
,FOUNDATION,AWARENESS
GOING WEST,NEW ZEALAND,READING,"COLENSO BBDO,",NEW ZEALAND,ANDERSON M,UNITED
,BOOK COUNCIL,CAMPAIGN,Auckland *,,"STUDIO, London",KINGDOM
,,OLYMPICS ON,RAINEY KELLY,UNITED,,UNITED
WINTER OLYMPICS,BBC,THE BBC,CAMPBELL,KINGDOM,"STUDIO AKA, London",KINGDOM
,,,"ROALFE/Y&R, London *"
Silver Lion,
,,,ABBOTT MEAD,UNITED,"KNUCKLEHEAD,",UNITED
BRING IT TO LIFE,DIAGEO,GUINNESS,"VICKERS BBDO,",KINGDOM,London,KINGDOM
,,,London *
,,,"LEO BURNETT USA,",,IMPERIAL
SPEECH,ALLSTATE,INSURANCE,Chicago *,USA,"WOODPECKER, Santa",USA
,,,,,Monica
PIRATE PAPER BOAT,STELLA ARTOIS,STELLA LEGERE,"MOTHER, London",UNITED,"HUNGRY MAN, New",USA
,,BEER,,KINGDOM,York *
ANTI-ROCK STAR,VH1,TV CHANNEL,"Y&R, New York *",USA,"HUNGRY MAN, Los",USA
,,,,,Angeles
,,ABSOLUT
I'M HERE,PERNOD RICARD,VODKA,"TBWA\CHIAT\DAY, New",USA,"MJZ, Los Angeles *",USA
,,BRANDED,York
,,CONTENT
THE MAN YOUR MAN COULD,OLD SPICE,BODY WASH,"WIEDEN+KENNEDY,",USA,"MJZ, Los Angeles *",USA
SMELL LIKE,,,Portland
SWIMMING POOL,INNOCENCE EN,SEXUAL ABUSE,SAATCHI & SAATCHI,FRANCE,"HENRY DE CZAR,",FRANCE
,DANGER,AWARENESS,PARIS,,Clichy *
THE LIFE,MICROSOFT,XBOX HALO 3,"AGENCYTWOFIFTEEN,",USA,"MJZ, Los Angeles *",USA
,,ODST,San Francisco
EVERY TEAM NEEDS THE,ADIDAS,ADIDAS,180 AMSTERDAM,THE,"MJZ, London",UNITED
SPARK,INTERNATIONAL,SPORTSWEAR,(180\TBWA),NETHERLANDS,,KINGDOM
,COMMUNITIES,,RAINEY KELLY,UNITED,"BLINK PRODUCTIONS,",UNITED
BREATHE,AND LOCAL,FIRE SAFETY,CAMPBELL,KINGDOM,London,KINGDOM
,GOVERNMENT,,"ROALFE/Y&R, London *"
BRAVEHEART,MELODY,TV CHANNEL,LEO BURNETT CAIRO *  EGYPT,,"LIGHTHOUSE FILM,",EGYPT
,ENTERTAINMENT,,,,Cairo
,,,"SAATCHI & SAATCHI,",,"STATION FILM, New"
NEW KID,LUVS,DIAPERS,,USA,,USA
,,,New York *,,York
THE MAN WHO WALKED,DIAGEO,JOHNNIE,"BBH, London *",UNITED,"HLA, London",UNITED
AROUND THE WORLD,,WALKER,,KINGDOM,,KINGDOM
NIKE MUSIC SHOE,NIKE JAPAN,NIKE FREE RUN+,WIEDEN+KENNEDY,JAPAN,"TAIYO KIKAKU, Tokyo",JAPAN
,,,TOKYO *
THE ISLAND,LION NATHAN,JAMES BOAG'S,"REVOLVER, Sydney",AUSTRALIA,"REVOLVER, Sydney",AUSTRALIA
,,PURE LAGER
,,,ABBOTT MEAD,UNITED,"KNUCKLEHEAD,",UNITED
BRING IT TO LIFE,DIAGEO,GUINNESS,"VICKERS BBDO,",KINGDOM,London,KINGDOM
,,,London
FOCUS GROUP,NOKIA,NOKIA N900,JACK MORTON,UNITED,JACK MORTON,UNITED
,,PHONE,"WORLDWIDE, London",KINGDOM,"WORLDWIDE, London",KINGDOM
STEEPLECHASE,WEETABIX,WEETABIX,"WCRS, London",UNITED,"RATTLING STICK,",UNITED
,,CEREAL,,KINGDOM,London,KINGDOM
"YES, VIRGINIA",MACY'S,BRANDED,"JWT, New York *",USA,"THE EBELING GROUP,",USA
,,CONTENT,,,New York
,,,,,WANDA
DOG,CITROËN,C3 PICASSO,"H, Suresnes",FRANCE,"PRODUCTIONS,",FRANCE
Saint-Denis La Plaine,
Cedex *,
Silver Lion,
CAT SITTER,LAND ROVER,LAND ROVER,"Y&R, New York *",USA,"O POSITIVE FILMS,",USA
,,,,,New York
SWORD COLLECTOR,LAND ROVER,LAND ROVER,"Y&R, New York *",USA,"O POSITIVE FILMS,",USA
,,,,,New York
Bronze Lion,
,BARCLAYS,,VENABLES BELL &
FAKE,GLOBAL,BANKING,"PARTNERS, San",USA,"MJZ, Los Angeles *",USA
,INVESTORS,,Francisco
CLOSET,CANAL+,TELEVISION,"BETC EURO RSCG,",FRANCE,"SOIXAN7E QUIN5E,",FRANCE
,,CHANNEL,Paris *,,Paris
GO FORTH,LEVI'S,CLOTHING,"WIEDEN+KENNEDY,",USA,ANONYMOUS,USA
,,,Portland,,"CONTENT, Culver City *"
SLAP,NIKE,JORDAN BRAND,"WIEDEN+KENNEDY,",USA,"MJZ, Los Angeles",USA
,,,New York *
CLOSET,CANAL+,TELEVISION,"BETC EURO RSCG,",FRANCE,"SOIXAN7E QUIN5E,",FRANCE
,,CHANNEL,Paris,,Paris
,ABU DHABI,ABU DHABI,"TBWA\RAAD, Abu",UNITED ARAB,BOOMTOWN,UNITED
BE STILL,TOURISM,TOURISM,Dhabi *,EMIRATES,"PRODUCTIONS, Dubai",ARAB
,AUTHORITY,,,,,EMIRATES
HUMAN CHAIN,NIKE,NIKE,"WIEDEN+KENNEDY,",USA,"SMUGGLER, Hollywood",USA
,,,Portland
ECONOMY DRIVE,AUDI,AUTOMOBILES,"BBH, London",UNITED,"STINK, London",UNITED
,,,,KINGDOM,,KINGDOM
DOG,ONE DOT ZERO,DIGITAL ART,"CRAVEROLANIS,",ARGENTINA,"VASCOLO, Buenos",ARGENTINA
,,FESTIVAL,Buenos Aires *,,Aires
