Title,Advertiser/Client,Product/Service,Entrant Company,Country
Grand Prix,
HILLTOP RE-IMAGINED FOR,GOOGLE,DISPLAY ADVERTISING,"GROW INTERACTIVE, Norfolk",USA
COCA-COLA,
Gold Lion,
BACKSEAT DRIVER,TOYOTA MOTOR SALES AND,TOYTOYOTA,"PARTY, Tokyo",JAPAN
,MARKETING
BAND-AID MAGIC VISION,JOHNSON & JOHNSON,BAND-AID,JWT NEW YORK,USA
CHEVY GAME TIME,CHEVROLET,CHEVROLET,"GOODBY SILVERSTEIN & PARTNERS, San",USA
,,,Francisco
VIP FRIDGE MAGNET,RED TOMATO PIZZA,RESTAURANT,"TBWA\RAAD, Dubai",UNITED ARAB
,,,,EMIRATES
PARKING DOUCHE,THE VILLAGE,THE-VILLAGE.RU (ON-LINE CITY GUIDE),"LOOK AT ME, Moscow",RUSSIA
PAIN SQUAD,THE HOSPITAL FOR SICK CHILDREN,MOBILE PAIN APP,"CUNDARI, Toronto",CANADA
FAKE AD,BRADESCO SEGUROS,BRADESCO SEGURO AUTO,"ALMAPBBDO, São Paulo",BRAZIL
BACKSEAT DRIVER,TOYOTA MOTOR SALES AND,TOYTOYOTA,"PARTY, Tokyo",JAPAN
,MARKETING
MYSTERY AD,NOKIA,LUMIA 800,"YOC, Berlin",GERMANY
PENNIES FOR LIFE,THE MICROLOAN FOUNDATION,CHARITY,"DLKW LOWE, London",UNITED KINGDOM
PAIN SQUAD,THE HOSPITAL FOR SICK CHILDREN,MOBILE PAIN APP,"CUNDARI, Toronto",CANADA
Silver Lion,
HIJACK,ALIAS,MEAT PACK,"4 AM SAATCHI & SAATCHI, Guatemala",GUATEMALA
SUNNY SALE,EMART,EMART,"CHEIL WORLDWIDE, Seoul",SOUTH KOREA
NIKE+ FUELBAND,NIKE,NIKE+ FUELBAND,"R/GA, New York",USA
CNN IREPORT,NOKIA,CNN WINDOWS APP - IREPORT,"TURNER BROADCASTING SYSTEM, Atlanta",USA
KID RESCUE,TELEFÓNICA/TELEFÓNICA TELECOM,CHARITY APP,"Y&R COLOMBIA, Bogotá",COLOMBIA
BEATING FACTS,FRAUEN GEGEN GEWALT,BUNDESVERBAND FRAUENBERATUNGSSTELLEN UND,"PLAN.NET, Munich",GERMANY
,,FRAUENNOTRUFE
TORI 500,LEXUS,LEXUS GS,"TEAM ONE, El Segundo",USA
THE ESCAPE IAD,INTEL,2ND GENERATION INTEL CORE PROCESSORS,"ANSIBLE MOBILE, New York",USA
CHOK! CHOK! CHOK!,COCA-COLA CHINA,COCA-COLA,"McCANN WORLDGROUP, Hong Kong",HONG KONG
BE THE COACH,SOUTH AFRICAN BREWERIES,CARLING BLACK LABEL,OGILVY CAPE TOWN,SOUTH AFRICA
THE 360º NS ROYAL WAITING,NS (DUTCH RAILWAY),THE ROYAL WAITING ROOMS,"XS2THEWORLD, Amsterdam",THE NETHERLANDS
ROOMS,
GAGOSIAN,GAGOSIAN GALLERY,GAGOSIAN,"@radical.media, New York",USA
STING 25,KSM,STING 25,"@radical.media, New York",USA
VIP FRIDGE MAGNET,RED TOMATO PIZZA,RESTAURANT,"TBWA\RAAD, Dubai",UNITED ARAB
,,,,EMIRATES
Bronze Lion,
KID RESCUE,TELEFÓNICA/TELEFÓNICA TELECOM,CHARITY APP,"Y&R COLOMBIA, Bogotá",COLOMBIA
LIFE OF GEORGE,LEGO,LIFE OF GEORGE,"HELLO MONDAY, Copenhagen",DENMARK
WALKERS KILL COUNT,FOX INTERNATIONAL CHANNELS,THE WALKING DEAD,"RED BEE MEDIA, London",UNITED KINGDOM
PICK N PLAY,McDONALD'S SWEDEN,"PIES, ICE CREAM AND MILKSHAKES",DDB STOCKHOLM,SWEDEN
THE SOUND OF FOOTBALL,PEPSICO/CARLSBERG,PEPSI,"ÅKESTAM HOLST, Stockholm",SWEDEN
HAPPINESS REFILL,THE COCA-COLA COMPANY,COCA-COLA,"OGILVY BRASIL, São Paulo",BRAZIL
AKB48 on Google+,AKB48,AKB48,"GROUND, Tokyo",JAPAN
VOLVO ON CALL,VOLVO CARS CORPORATION,VOLVO ON CALL,"MOBIENTO, Stockholm",SWEDEN
HIJACK,ALIAS,MEAT PACK,"4 AM SAATCHI & SAATCHI, Guatemala",GUATEMALA
AUTODANCE,UBISOFT,VIDEO GAME,"CP+B, Gothenburg",SWEDEN
STREET TAG,CHANNEL 4,STREET SUMMER,"BROTHERS AND SISTERS, London",UNITED KINGDOM
MEDIDA CERTA,TV GLOBO,FANTÁSTICO - MEDIDA CERTA,GLOBO COMUNICAÇÃO E,BRAZIL
,,,"PARTICIPAÇÕES, Rio de Janeiro"
MTV UNDER THE THUMB,VIACOM MTV INTERNATIONAL MEDIA,MOBILE APPLICATION,"AKQA, London",UNITED KINGDOM
,NETWORKS
POINT AND FLY,SCANDINAVIAN AIRLINES,TRAVEL,"CP+B, Gothenburg",SWEDEN
DRIVE IT LIKE YOU HATE IT,GOOGLE,DISPLAY ADVERTISING,"GROW INTERACTIVE, Norfolk",USA
RE-IMAGINED,
PICK N PLAY,McDONALD'S SWEDEN,"PIES, ICE CREAM AND MILKSHAKES",DDB STOCKHOLM,SWEDEN
LIFE OF GEORGE,LEGO,LIFE OF GEORGE,"HELLO MONDAY, Copenhagen",DENMARK
HILLTOP RE-IMAGINED FOR,
,GOOGLE,DISPLAY ADVERTISING,"GROW INTERACTIVE, Norfolk",USA
COCA-COLA,
REAL LIFE WITH VIRTUAL,PNC BANK,VIRTUAL WALLET,"DEUTSCH INC., New York",USA
WALLET,
BEATING FACTS,FRAUEN GEGEN GEWALT,BUNDESVERBAND FRAUENBERATUNGSSTELLEN UND,"PLAN.NET, Munich",GERMANY
,,FRAUENNOTRUFE
SMS IS KING!,SITUATION STOCKHOLM,MAGAZINE,"MOBIENTO, Stockholm",SWEDEN
McDONALD'S COIN HUNTERS,McDONALD'S,COINOFFERS,DDB COPENHAGEN,DENMARK
MOVE TO THE BEAT,COCA-COLA,COCA-COLA,"MOVEMENT, London",UNITED KINGDOM
CHOOSE YOUR FLIGHT,"JORDAN BRAND, A DIVISION OF NIKE",AJ2012,"BLAST RADIUS, Vancouver",CANADA
CAPTAINS CONQUEST,DIAGEO,CAPTAIN MORGAN ORIGINAL SPICED RUM,"ANOMALY, New York",USA
RECOLLECTIONS,SIEMENS,IPAD APPLICATION,"CONRAD CAINE, Munich",GERMANY
VOLVO ON CALL,VOLVO CARS CORPORATION,VOLVO ON CALL,"MOBIENTO, Stockholm",SWEDEN
TRAM SIGHTSEEING APP,VÄSTTRAFIK,TRAM SIGHTSEEING APP,"FORSMAN & BODENFORS, Gothenburg",SWEDEN
