Title,Advertiser/Client,Product/Service,Entrant Company,Country,Media Agency,Country
A01 Best Use of Television,
COMMERCIAL BLOCK,DAIMLER AG/SMART,SMART FORTWO,"BBDO GERMANY, Düsseldorf *",GERMANY
PARKING,
12 CHIMES OF THE BELL,MASTERCARD,MASTERCARD,,,"UNIVERSAL McCANN, Madrid *",SPAIN
,,MOBILE,"CONILL SAATCHI & SAATCHI,"
COACH YOUR TEAM,T-MOBILE USA,TELECOMMUNICATIONS,Torrance *,USA
,,PROVIDER
1 SECOND ADS,MILLER BREWING COMPANY/,BEER,"SAATCHI & SAATCHI, New",USA
,MILLER HIGH LIFE,,York *
AN APPRENTICE'S HEART,UNILEVER,BECEL,"NEW CONTENT, Sao Paolo *",BRAZIL
CHANGED OPENING,,RADIO STATION STUDIO BRUSSELS MUSIC FOR LIFE,"MORTIERBRIGADE, Brussels *",BELGIUM
CREDITS & EPISODES,
20 MILLION EXPERIENCES IN,TATA SKY,SATELLITE TELEVISION,,,"MAXUS, Mumbai *",INDIA
10 SECONDS,,PROVIDER
DYNAMIC OVERLAYS,LA SIRENA,DEPARTMENT STORES,"PAGES BBDO, Santo Domingo",DOMINICAN,"OMD DOMINICANA, Santo Domingo",DOMINICAN
,,,*,REPUBLIC,,REPUBLIC
A02 Best Use of Cinema,
CEILING CINEMA,NISSAN CENTER EUROPE GmbH,NISSAN MICRA C+C CABRIO,"TBWA\GERMANY, Düsseldorf *",GERMANY
BOTELYA,JOHNSON & JOHNSON,JOHNSON'S BABY OIL,,,"UNIVERSAL McCANN, Makati City *",THE
,,,,,,PHILIPPINES
CINEMESSENGER,MK2,VIDEO-ON-DEMAND WEBSITE,GREY PARIS *,FRANCE
THE FIRST,IKEA AUSTRIA,IKEA FURNITURE,DDB GERMANY BERLIN *,GERMANY,"MEDIACOM AUSTRIA, Vienna",AUSTRIA
IKEA-CINEMA-CATALOGUE,
A03 Best Use of Radio,
MIDAS TOUCH,NOKIA INDIA,NOKIA 5800 XPRESSMUSIC,,,"MAXUS INDIA, Gurgaon *",INDIA
,,,SHALMOR AVNON
DOUBT,THE AIDS TASK FORCE,INTERNATIONAL AIDS DAY,AMICHAY/Y&R INTERACTIVE,ISRAEL
,,,TEL AVIV *
WORLD’S FIRST BRAND,TITAN INDUSTRIES,FAST TRACK,,,"MAXUS, Bangalore *",INDIA
COUP,
A04 Best Use of Magazines,
LUMP,DUBAI HEALTHCARE CITY,BREAST CANCER SELF,"IMPACT PLUS (BBDO), Dubai *",UNITED ARAB,"OMD, Dubai",UNITED ARAB
,,EXAMINATION,,EMIRATES,,EMIRATES
IT´S UNSTOPPABLE,BOSCH,UNEO POWER TOOL,,,"OMD SPAIN, Madrid *",SPAIN
THE BULLETPROOF AD,BMW AG,BMW SECURITY X5,"MAB, Berlin",GERMANY,MEDIAPLUS AGENTURGRUPPE,GERMANY
,,,,,"FÜR INNOVATIVE MEDIA, Munich"
REINVENTING THE,LEXUS USA,2010 LEXUS RX,"TEAM ONE, El Segundo *",USA
MAGAZINE,
GRAZIA INSIDE,WESTFIELD,SHOPPING CENTRE,,,"ARENA BLM, London *",UNITED
,,,,,,KINGDOM
SPINES,DISTELL,NEDERGURG/INGENUITY,NET#WORK BBDO CAPE,SOUTH AFRICA,"OMD MEDIA DIRECTION, Cape",SOUTH
,,WINES,TOWN *,,Town,AFRICA
GIVE ME A THIRD CHANCE,,BANGKOK SCHOOL FOR THE BLIND SCHOOL FOR THE BLIND,"PUBLICIS THAILAND, Bangkok",THAILAND
,,,*
A05 Best Use of Newspapers,
BE THE NEWS,NISSAN,NISSAN,"LEW'LARA\TBWA, Sao Paulo *",BRAZIL
SCRIBBLE,VW,72 HOUR SALE,ACW GREY TEL AVIV *,ISRAEL,"MEDIACOM ISRAEL, Ramat Gan",ISRAEL
GUTTER CHILD,HOMELESS TALK ORGANISATION,HOMELESS TALK,TBWA\HUNT\LASCARIS,SOUTH AFRICA
,,ORGANISATION,JOHANNESBURG *
EDIBLE AD,MTV,ENVIRONMENTAL,"LODUCCA, Sao Paulo *",BRAZIL
,,SUSTAINABILITY AWARENESS
THE NAKED TRUTH,IINET,INTERNET SERVICE,,,"MEERKATS, Perth *",AUSTRALIA
,,PROVIDER
A06 Best Use of Outdoor,
NAPKIN ART,CEREBOS GREGGS NZ,ROBERT HARRIS FRESH,"DRAFTFCB NEW ZEALAND,",NEW ZEALAND
,,COFFEE,Auckland *
REVOLVING POSTER,SONNTAGSZEITUNG,NEWSPAPER,"ADVICO Y&R, Zürich *",SWITZERLAND
HILLARY,
PUZZLED,ALLAN GRAY,INVESTMENT,"KING JAMES, Cape Town *",SOUTH AFRICA,"DARE MEDIA, Cape Town",SOUTH
,,,,,,AFRICA
TRUE EVIDENCE OF WAR,UNA SWEDEN (UNITED NATIONS),SUPPORT WAR VICTIMS OF,OGILVY STOCKHOLM *,SWEDEN
,,GEORGIA
THE WORLD IS NOISY,AEG ELECTROLUX,WASHING MACHINES,"BBH, London",UNITED,ZENITHOPTIMEDIA,UNITED
ENOUGH,,,,KINGDOM,"INTERNATIONAL, London *",KINGDOM
WARM UP,KRAFT,STOVE TOP STUFFING,,,"MEDIAVEST USA, New York *",USA
WILD TRAPPED ANIMALS,PRESERVEPLANET.ORG,CONSERVATIONIST,"DDB COSTA RICA, San José *",COSTA RICA,"OMD, San Jose",COSTA RICA
,,FOUNDATION
THE SENSORY LIGHT BOX,NIKON,CAMERA,"CHEIL WORLDWIDE, Seoul *",KOREA
THE LONGER THEY'RE HERE,
,YOUTH OFF THE STREETS,HOMELESSNESS CHARITY,"LAVENDER*, Sydney *",AUSTRALIA
WHAT GOES AROUND,GLOBAL COALITION FOR PEACE,PEACE CAMPAIGN,"BIG ANT INTERNATIONAL,",USA
COMES AROUND,,,New York *
LONDONOPOLY,EUROSTAR,HIGH SPEED TRAIN,TBWA\BRUSSELS *,BELGIUM
,,BRUSSELS TO LONDON
COP CHASE,CHRYSLER,DODGE CHALLENGER,BBDO DETROIT *,USA,"PHD, Detroit",USA
LIVE TEXT INTERACTIVE,VIRGIN TRAINS,VIRGIN TRAINS,"ELVIS COMMUNICATIONS,",UNITED,"MANNING GOTTLIEB OMD, London",UNITED
POSTER,,,London *,KINGDOM,,KINGDOM
TRILLION DOLLAR,THE ZIMBABWEAN,THE ZIMBABWEAN,TBWA\HUNT\LASCARIS,SOUTH AFRICA
BILLBOARD,,NEWSPAPER,JOHANNESBURG *
VELCRO POSTER,COCA-COLA,COCA-COLA GRIP BOTTLE,MARCEL PARIS *,FRANCE
PLAY-BY-PLAY,AM 640,RADIO STATION,,"SAATCHI & SAATCHI, Toronto * CANADA"
,A07 Best Use of Ambient Media: Small Scale
NATURE ITEM,BON MAISON,LIFESTYLE SHOPS,"DENTSU, Tokyo *",JAPAN
,ONE BREASTED MANNEQUIN  BARE ESSENTIALS,BREAST CANCER,,"MEMAC OGILVY & MATHER,   UNITED ARAB",STARCOM MEDIAVEST GROUP,UNITED ARAB
,,AWARENESS,Dubai *,EMIRATES,DUBAI,EMIRATES
WATER TO SAVE A CHILD,UNICEF,UNICEF,,"CHEIL WORLDWIDE, Seoul *   KOREA"
CHECK THEM,VERITAS SPIRITI,TESTICULAR CANCER,,McCANN ERICKSON SKOPJE * MACEDONIA
,,AWARENESS
KIT KAT MAIL 2009,NESTLÉ CONFECTIONERY,KIT KAT,"JWT JAPAN, Tokyo *",JAPAN
GUERILLA GARBAGE,IKEA,2009 IKEA CATALOGUE,"303 ADVERTISING, Perth *",AUSTRALIA
SINK,EMPRESAS PÚBLICAS DE,WATER PRESERVATION,"DDB COLOMBIA, Medellin *",COLOMBIA,"OMD COLOMBIA, Medellin",COLOMBIA
,MEDELLIN,AWARENESS
THE DRIVING FORCE,BRIDGESTONE NEW ZEALAND,FIRESTONE TYRES,,,"OMD NEW ZEALAND, Auckland *",NEW ZEALAND
DONATIONS ON SALE,AACD,PHILANTHROPIC,"WUNDERMAN BRAZIL, Sao",BRAZIL
,,ORGANIZATION,Paulo *
TAGS,ARS HUMANO,HEALTHCARE INSURANCE,"PAGES BBDO, Santo Domingo",DOMINICAN,"OMD DOMINICANA, Santo Domingo",DOMINICAN
,,,*,REPUBLIC,,REPUBLIC
,,,SHALMOR AVNON
STICKERS,THE AIDS TASK FORCE,AIDS AWARENESS,AMICHAY/Y&R INTERACTIVE,ISRAEL
,,,TEL AVIV *
KHEDE KASRA,HARIRI FOUNDATION,WOMEN EMPOWERMENT,LEO BURNETT BEIRUT *,LEBANON,"STARCOM MEDIAVEST GROUP,",LEBANON
,,PROGRAMME,,,Beirut
THE ELUSIVE COASTER,SAB MILLER INDIA,DON'T DRINK & DRIVE BY,"OGILVY & MATHER,",INDIA
,,FOSTER'S,Bangalore *
TRILLION DOLLAR FLYER,THE ZIMBABWEAN,THE ZIMBABWEAN,TBWA\HUNT\LASCARIS,SOUTH AFRICA
,,NEWSPAPER,JOHANNESBURG *
CURRENCY,IN GANDHI'S SHOES,NON-PROFIT ORGANISATION,"PUBLICIS INDIA, Gurgaon *",INDIA,"ZENITHOPTIMEDIA, Gurgaon",INDIA
,A08 Best Use of Ambient Media: Large Scale
,,,KRIEG SCHLUPP
SALTO FOR BEGINNERS,MOUNTAIN ADVENTURES,LAAX SNOWBOARD SCHOOL,BÜRGE/SPRINGER &,SWITZERLAND
,,,"JACOBY, Zürich *"
ILLUMINA LA CITTÀ DI,COCA-COLA ITALY,COCA-COLA,,,"STARCOM ITALIA, Milan *",ITALY
MILANO,
IMPOSSIBLE GOALKEEPER,adidas AG,adidas FOOTBALL,"TBWA\GERMANY (180\TBWA),",GERMANY,"CARAT, Hamburg",GERMANY
,,,Berlin
BIRTH CANAL,MIDWIFE ORGANISATION,MIDWIFE ORGANISATION,"BBDO GERMANY, Berlin *",GERMANY,"OMD, Düsseldorf",GERMANY
,HAMBURG
,REVERSE GRAFFITI PROJECT THE CLOROX COMPANY,GREEN WORKS NATURAL,"DDB WEST, San Francisco *",USA
,,CLEANER
GIANT,NORMA,COLOR PENCILS,"DDB COLOMBIA, Bogotá *",COLOMBIA
HALF PRICE,DAIMLER,SMART,"PONTO DE CRIAÇÃO, São",BRAZIL
,,,Paulo *
BRING YOUR A LUCKY,CASINO MADRID,SLOT MACHINES,"BUNGALOW 25, Madrid *",SPAIN
CASINO,
THE CORAL CEMETERY,THE GREEN PARTY,RED CORAL REEF,SHIMONI FINKELSTEIN,ISRAEL
,,,"DRAFTFCB, Tel Aviv *"
,,,,,STARCOM - A DIVISION OF
VOTE EARTH TREE SHIRT,WORLD WIDE FUND FOR NATURE,EARTH HOUR,LEO BURNETT SYDNEY *,AUSTRALIA,STARCOM MEDIAVEST GROUP,AUSTRALIA
,,,,,"(AUSTRALIA), Sydney"
SANDPIT,HASBRO SINGAPORE,TONKA,"Y&R, Singapore *",SINGAPORE
POWERBRUSH,COLGATE-PALMOLIVE,COLGATE ELECTRIC,"Y&R, Singapore *",SINGAPORE
,,TOOTHBRUSH
FORK,TIBITS VEGETARIAN RESTAURANT,VEGETARIAN RESTAURANT,"WIRZ WERBUNG, Zurich *",SWITZERLAND
,A09 Best Use of Special Events and Stunt/Live Advertising
TENNIS BALLS ACTION,FUNDAÇÃO TÊNIS,CHILDREN'S CHARITY,"ESCALA, Porto Alegre *",BRAZIL
HEADLESS MAGICIAN,HAPPY VALLEY,HAPPY VALLEY,OGILVY SHANGHAI *,CHINA
THE DINOSAUR EXHIBITION,THE GRIGORE ANTIPA NATURAL,THE GRIGORE ANTIPA,"LEO BURNETT & TARGET,",ROMANIA
,HISTORY MUSEUM,NATURAL HISTORY MUSEUM,Bucharest *
HONDA LIVE AD,HONDA,HONDA ACCORD,"4CREATIVE, London",UNITED,"STARCOM MEDIAVEST GROUP,",UNITED
,,,,KINGDOM,London *,KINGDOM
THE CONTAINER,RUSTHOLLI,RUSTHOLLI RENOVATIONS,"HASAN & PARTNERS, Helsinki",FINLAND,"KONTAKTOINTITOIMISTO TOINEN,",FINLAND
,,,*,,Helsinki
FOOTBALL FEDERATION,
THE MISSING 'H',,INTERNATIONAL FOOTBALL,LOWE SYDNEY *,AUSTRALIA
,AUSTRALIA
SHOUT LOUDER,RIVER PLATE BARCELONA FILIAL,FOOTBALL CLUB,"DRAFTFCB SPAIN, Madrid *",SPAIN
INTERCOM,SOS CHILDREN'S VILLAGES,SOS CHILDREN'S VILLAGES,"10 ADVERTISING, Antwerp *",BELGIUM
SOUND CANNON PROJECT,CORUS ENTERTAINMENT,SCREAM TV,"zig, Toronto *",CANADA
PLASTIC CUP,FOSTER'S GROUP: CARLTON,CARLTON DRAUGHT BEER,CLEMENGER BBDO,AUSTRALIA,"MEDIACOM, Melbourne",AUSTRALIA
,DRAUGHT,,MELBOURNE *
PIRACY,FOMPI/C. A. CINEMAS,ANTI-PIRACY CAMPAIGN,"LEO BURNETT GUATEMALA,",GUATEMALA,"STARCOM, Guatemala City",GUATEMALA
,,,Guatemala City *
THE LONGEST FOOTBALL,PANASONIC SIEW SALES,VIERA TV,"PUBLICIS THAILAND, Bangkok",THAILAND,"MEDIA PALETTE, Bangkok",THAILAND
MATCH,,,*
AXE RUNNING,UNILEVER,AXE,"UNCLE GREY, Århus *",DENMARK
THE HOUSE OF IMAGINATION HORNBACH,,HOME IMPROVEMENT,"HEIMAT, Berlin *",GERMANY,"CROSSMEDIA, Düsseldorf",GERMANY
,,SUPERSTORES
NIKE+ HUMAN RACE,NIKE,NIKE+ HUMAN RACE,"R/GA, New York *",USA
CLIMATE CHANGE,VATTENFALL,ENERGY CONSUMPTION,"LOWE BRINDFORS,",SWEDEN,"STARCOM SWEDEN, Stockholm",SWEDEN
SIGNATURE,,AWARENESS,Stockholm *
,,,,,STARCOM - A DIVISION OF
VOTE EARTH MONUMENTS,WORLD WIDE FUND FOR NATURE,EARTH HOUR,LEO BURNETT SYDNEY *,AUSTRALIA,STARCOM MEDIAVEST GROUP,AUSTRALIA
,,,,,"(AUSTRALIA), Sydney"
DANCE,T-MOBILE,T-MOBILE,"SAATCHI & SAATCHI, London *",UNITED,"MEDIACOM, London",UNITED
,,,,KINGDOM,,KINGDOM
A10 Best Use of Internet,
DISTRACTED DRIVERS,NEW ZEALAND TRANSPORT,DISTRACTED DRIVERS,"CLEMENGER BBDO,",NEW ZEALAND,"OMD, Wellington",NEW ZEALAND
,AGENCY,,Wellington *
BANNER CONCERTS,AXION,YOUTH BANKING,"BOONDOGGLE, Leuven *",BELGIUM,"FASTBRIDGE, Brussels",BELGIUM
WHOPPER SACRIFICE,BURGER KING,BURGER KING,CRISPIN PORTER +,USA,"VML, New York",USA
,,,"BOGUSKY, Boulder *"
EBAY ATTACK,AMNESTY INTERNATIONAL,HUMAN RIGHTS,"walker, Zürich *",SWITZERLAND
MAN'S BEST FRIEND,CIELO VERDE DOG'S SHELTER,DOG'S SHELTER,"JWT COSTA RICA, San José *",COSTA RICA,"CAMEDIA, San José",COSTA RICA
POP-UP WINDOW CRAZY,BECHTOLD,NOISE PROTECTION,PUBLICIS FRANKFURT *,GERMANY
CHONG,,WINDOWS
IT'S UP TO YOU,SKOL BEER,SKOL BEATS FESTIVAL,GARAGE INTERACTIVE,BRAZIL
,,,"MARKETING, Sao Paulo *"
KIT KAT JESUS,NESTLÉ NEDERLAND,KIT KAT,"UBACHSWISBRUN/JWT,",THE
,,,Amsterdam *,NETHERLANDS
,"RED DWARF LANDS ON DAVE DAVE, PART OF UKTV",TELEVISION PROGRAMME,"RED BEE MEDIA, London *",UNITED
,,,,KINGDOM
BALLERS NETWORK,NIKE,NIKE BASKETBALL,"R/GA, New York *",USA
RUSTY SCROLLBAR,SONAX GmbH & Co. KG,SONAX SX 90 PLUS,PLAN.NET HAMBURG *,GERMANY,"MEDIAPLUS, Hamburg",GERMANY
,,ISRAELI BUSINESS,SHALMOR AVNON
THE LARGEST MEETING,GLOBES,CONVENTION,AMICHAY/Y&R INTERACTIVE,ISRAEL
,,,TEL AVIV *
,,,SHALMOR AVNON
WHEN THE LIGHTS ARE OFF,ORANGE,ORANGE TIME,AMICHAY/Y&R INTERACTIVE,ISRAEL
,,,TEL AVIV *
,,COLGATE PROFESSIONAL,SHALMOR AVNON
CLEAN THE COMMENTS,SCHESTOWITZ,CLEAN,AMICHAY/Y&R INTERACTIVE,ISRAEL
,,,TEL AVIV *
WARIOLAND: SHAKE IT!,NINTENDO,VIDEO GAME,GOODBY SILVERSTEIN &,USA,"STARCOM USA, Chicago",USA
,,,"PARTNERS, San Francisco *"
VOLUMEMAX,YAMAHA MOTOR FRANCE,A NEW MOTORBIKE (The New,"BUZZMAN, Paris *",FRANCE
,,V-Max)
,A11 Best Use of Other Digital Media including mobile devices
COTO-TAMA,"NHK ENTERPRISES, INC.",DIGITAL ART FESTIVAL,"HAKUHODO, Tokyo *",JAPAN
,,TOKYO 2008
STEALTH SOUND,FANTA/COCA-COLA,FANTA,OGILVY LONDON *,UNITED,"VIZEUM UK, London",UNITED
,,,,KINGDOM,,KINGDOM
THE CHIRIMOYA COLADA!,COMPAÑÍA PISQUERA DE CHILE,COCKTAIL,,,"OMD CHILE, Santiago *",CHILE
WIFI HEADLINES,COFFEECOMPANY,CHAIN OF CAFES,"THEY, Amsterdam *",THE
,,,,NETHERLANDS
GOSSIP GIRL,THE CW NETWORK,TELEVISION PROGRAMME,"RINGLEADER DIGITAL, New",USA,"OMD, New York *",USA
,,,York
,"DAIMLER AG, MERCEDES-BENZ,",,LUKAS LINDEMANN
FOLDER MAILING,VERTRIEBSORGANISATION,MERCEDES-BENZ SPRINTER,"ROSINSKI, Hamburg *",GERMANY
,DEUTSCHLAND
FIRST IN-EAR COMMERCIAL   NEUROTH,,HEARING AID CHECK,"JUNG von MATT, Vienna *",AUSTRIA
WISH I COULD BE TRUE TO,,SONY MUSIC ENTERTAINMENT INC. JUJU FEAT. SPONTANIA,"DENTSU, Tokyo *",JAPAN
MYSELF,
LONDON MARATHON,ADIDAS,ADIDAS,,,"CARAT UK, London *",UNITED
,,,,,,KINGDOM
LET IT RING,OVK/PARENTS OF CHILD ROAD,ROAD SAFETY MESSAGE,HAPPINESS BRUSSELS *,BELGIUM
,VICTIMS
VIRTUAL TAP,STELLA / AB INBEV,BEER,"FAMOUS, Brussels *",BELGIUM
IIDA CALLING,KDDI CORPORATION,IIDA,"GROUND, Tokyo *",JAPAN
A12 Best Use of Sponsorship,
BEIJING OLYMPICS,CHINA MOBILE,TELECOMMUNICATIONS,,,"ZENITH MEDIA, Beijing *",CHINA
SPONSORSHIP,,PROVIDER
AUSTRALIA'S MOST LOVED,McDONALD'S,AUSTRALIAN IDOL,,,"OMD, Sydney *",AUSTRALIA
SONGS,
XBOX LIVE,SPRINT,TELECOMMUNICATIONS,,,"MINDSHARE, New York *",USA
,,PROVIDER
GOOD-BYE CELLULITE,NIVEA,HEALTH/BEAUTY PRODUCT,GREEN ROOM,USA,"OMD, New York *",USA
,,,"ENTERTAINMENT, New York"
AN INTERACTIVE,VOLVO CAR CORPORATION,VOLVO OCEAN RACE,EURO RSCG 4D AMSTERDAM THE,,"MINDSHARE WORLDWIDE, London",UNITED
ADVENTURE,,EDITIONS,*,NETHERLANDS,,KINGDOM
LET'S GROW,MORRISONS,SUPERMARKETS,,,"MEC ACCESS, London",UNITED
,,,,,,KINGDOM
STRAUCHANIE,MARS,MARS CHOCOLATE BAR,,,STARCOM MELBOURNE *,AUSTRALIA
SPONSORSHIP,
GORDON'S AND GORDON,DIAGEO,GORDON'S GIN,,,"CARAT UK, London *",UNITED
,,,,,,KINGDOM
B01 Use of Mixed Media,
TED 696 PROJECT,LION NATHAN AUSTRALIA,BEER,,,"ZENITHOPTIMEDIA AUSTRALIA,",AUSTRALIA
,,,,,Sydney *
THIS IS NOT A JERSEY,ADIDAS NEW ZEALAND / NEW,ALL BLACKS RANGE,"TBWA\WHYBIN (180\TBWA),",NEW ZEALAND,"CARAT NEW ZEALAND, Auckland",NEW ZEALAND
,ZEALAND RUGBY UNION,,Auckland
FROM GIOVANNI TO,NESTLÉ,BACI PERUGINA CHOCOLATE,"ARMANDO TESTA, Turin *",ITALY,"MAXUS, Milan",ITALY
DONGIOVANNI,
,THE HOUSE OF IMAGINATION HORNBACH,HOME IMPROVEMENT,"HEIMAT, Berlin *",GERMANY,"CROSSMEDIA, Düsseldorf",GERMANY
,,SUPERSTORES
TO SHAVE OR NOT,GILLETTE PROCTER & GAMBLE,GILLETTE MACH 3,,,"MEDIACOM INDIA, Mumbai *",INDIA
WATCH YOUR OWN HEART,BRITISH HEART FOUNDATION,HEART & CIRCULATORY,"GREY, London *",UNITED,"PHD MEDIA, London",UNITED
ATTACK,,DISEASE CHARITY,KINGDOM,,,KINGDOM
COMPUTERTAN,SKCIN,SKIN CANCER AWARENESS,McCANN ERICKSON LONDON  UNITED,,"UNIVERSAL McCANN, London",UNITED
,,,*,KINGDOM,,KINGDOM
ONOVALOV'S STATUE,JELFA SA,ANTI-HANGOVER REMEDY,"CHANGE INTEGRATED,",POLAND
,,,Warsaw *
"SAY CONDOM, ALOUD",BBC WORLD SERVICE TRUST,SOCIAL AWARENESS,,,"MADISON MEDIA, Mumbai *",INDIA
GORDON'S AND GORDON,DIAGEO,GORDON'S GIN,,,"CARAT UK, London *",UNITED
,,,,,,KINGDOM
AYGO CAR DANCE PARTY,TOYOTA,TOYOTA AYGO,HAPPINESS BRUSSELS *,BELGIUM
OBAMcCAIN,VOTE AMERICA,VOTE AMERICA,GREY NEW YORK *,USA
STOP THE SUFFERING,PROCTER & GAMBLE,PERT PLUS,LEO BURNETT BEIRUT *,LEBANON,"STARCOM MEDIAVEST GROUP,",LEBANON
,,,,Beirut
DANCE,T-MOBILE,T-MOBILE,"SAATCHI & SAATCHI, London",UNITED,"MEDIACOM, London *",UNITED
,,,KINGDOM,,,KINGDOM
A PARTY WHEREVER YOU,CERVEJARIAS KAISER,HEINEKEN,"FISCHER AMERICA, São",BRAZIL
GO,,,Paulo *
,,THEZIMBABWEAN,TBWA\HUNT\LASCARIS
,TRILLION DOLLAR CAMPAIGN THE ZIMBABWEAN,"NEWSPAPER,",JOHANNESBURG *,SOUTH AFRICA
,,THEZIMBABWEAN.CO.UK
THE POWER OF NANO,TATA MOTORS,TATA NANO CAR,,,"LODESTAR UNIVERSAL, Mumbai *",INDIA
INNOVATIONS,
C01 Fast Moving Consumer Goods,
PIMP MY KETTLE,SAN REMO,FANTASTIC NOODLE CUPS,,,"OMD, Sydney *",AUSTRALIA
“ROOTS” CANNED COFFEE,JAPAN TOBACCO,CANNED COFFEE,"DENTSU, Tokyo *",JAPAN
BOOK,
IT'S DEAD FRUITY!,VITASOY INTERNATIONAL,VITA JUICE,"DDB WORLDWIDE, Hong Kong HONG KONG",,PHD HONG KONG *,HONG KONG
,HOLDINGS
DESTAPADOS COPA,COCA-COLA,COCA-COLA,,,HAVAS SPORTS &,ARGENTINA
,,,,,"ENTERTAINMENT, Buenos Aires *"
CHARLIE'S ROOM,KRAFT,ROYAL GELATIN,"JWT COSTA RICA, San José *  COSTA RICA",,"STARCOM COSTA RICA, San José",COSTA RICA
KIT KAT MAIL 2009,NESTLÉ CONFECTIONERY,KIT KAT,"JWT JAPAN, Tokyo *",JAPAN
EARN YOUR STRIPES,KELLOGG'S,FROSTED FLAKES,"LEO BURNETT USA, Chicago   USA",,"STARCOM USA, Chicago *",USA
TO SHAVE OR NOT,GILLETTE & PROCTER & GAMBLE,GILLETTE MACH 3,,,"MEDIACOM INDIA, Mumbai *",INDIA
GORDON'S AND GORDON,DIAGEO,GORDON'S GIN,,,"CARAT UK, London *",UNITED
,,,,,,KINGDOM
FALLING IN LOVE AGAIN,MARS,CONFECTIONERY,,,STARCOM MEDIAVEST GROUP,UNITED ARAB
,,,,DUBAI *,,EMIRATES
PEDIGREE ADOPTION DRIVE  MARS,,PEDIGREE,,,"MEDIACOM GERMANY, Düsseldorf * GERMANY"
HAPPY CAT MOMENTS,MARS PETCARE GERMANY,WHISKAS®,,,"MEDIACOM GERMANY, Düsseldorf * GERMANY"
,,COLGATE TOTAL,SHALMOR AVNON
CLEAN THE COMMENTS,SCHESTOWITZ,PROFESSIONAL CLEAN,AMICHAY/Y&R INTERACTIVE   ISRAEL
,,,TEL AVIV *
WORLD'S FIRST EPHEMERAL,DIAGEO PORTUGAL,PAMPERO RUM,LEO BURNETT LISBOA *,PORTUGAL
MUSEUM,
C02 Cars & Automotive Services,
HONDA LIVE AD,HONDA,HONDA ACCORD,"4CREATIVE, London",UNITED,"STARCOM MEDIAVEST GROUP,",UNITED
,,,KINGDOM,,London *,KINGDOM
UNITED,
YOU CREATE THE CAR,PEUGEOT MOTORS COMPANY,PEUGEOT,,,"OMD UK, London *"
,,,,,,KINGDOM
CEILING CINEMA,NISSAN CENTRE EUROPE GmbH,NISSAN MICRA C+C CABRIO,"TBWA\GERMANY, Düsseldorf *",GERMANY
REINVENTING THE,LEXUS USA,2010 LEXUS RX,"TEAM ONE, El Segundo *",USA
MAGAZINE,
,TAXI ROCKOLA CHEVROLET   GENERAL MOTORS COLMOTORES  TAXI 7:24 CHEVROLET,,"SANCHO BBDO COLOMBIA,",COLOMBIA,"OMD COLOMBIA, Bogotá",COLOMBIA
,,,Bogotá *
AYGO CAR DANCE PARTY,TOYOTA,TOYOTA AYGO,HAPPINESS BRUSSELS *,BELGIUM
WE LIVE TO TELL STORIES,LAND ROVER,LAND ROVER,"WUNDERMAN BRAZIL, Sao",BRAZIL
,,,Paulo *
"C03 Clothing, Footwear & Accessories",
TOKYO FASHION MAP,UNIQLO CO.,VARIATED PARKA SERIES,"DENTSU, Tokyo *",JAPAN
,C04 Other Consumer Products (including Durable Goods)
,MIDEA HOME APPLIANCE &,,FIRSTELL
POWERFUL FAN,ELECTRONICS,ELECTRIC FAN,COMMUNICATIONS,CHINA
,,,SHANGHAI *
POP-UP WINDOW CRAZY,BECHTOLD,NOISE PROTECTION,PUBLICIS FRANKFURT *,GERMANY
CHONG,,WINDOWS
SANTEC SCREENGUARD,SANYO VIDEO VERTRIEB,VIDEO SURVEILLANCE,PLAN.NET HAMBURG *,GERMANY,"MEDIAPLUS, Hamburg",GERMANY
,,SYSTEMS
USB OUTDOOR,KINGSTON TECHNOLOGY,MEMORY USB,"GARWICHBBDO, Lima *",PERU,"OMD PERU, Lima",PERU
,COMPANY
CHILD-SAFE POSTERS,SANSUI ELECTRONICS,SANSUI TVS,"PUBLICIS AMBIENCE, Mumbai",INDIA
,,,*
C05 Financial Products & Services,
VEJA 40 YEARS,ITAÚ BANK,BANK,"AFRICA, Sao Paulo *",BRAZIL
ING AUTO.BE,ING,CAR INSURANCE,EURO RSCG BRUSSELS *,BELGIUM,"CARAT, Brussels",BELGIUM
WISHING WELL,DEUTSCHER SPARKASSEN- UND,SPARKASSE INVESTMENT,"JUNG von MATT, Hamburg *",GERMANY
,GIROVERBAND,BANKING
C06 Commercial Public Services,
HUGE YELLOW DARTS,YELLOW PAGES GROUP,YELLOW PAGES DIRECTORIES,,,"COSSETTE MEDIA, Toronto *",CANADA
SENDING REAL GREETING,"JAPAN POST SERVICE CO.,LTD.",MIXI NEW YEAR'S GREETING,,,HAKUHODO DY MEDIA,JAPAN
CARDS,,CARD,,,"PARTNERS, Tokyo *"
TREEHOUSE RESTAURANT,YELLOW,YELLOW PAGES,"COLENSO BBDO, Auckland *",NEW ZEALAND,"STARCOM NEW ZEALAND,",NEW ZEALAND
,,,,,Auckland
DANCE,T-MOBILE,T-MOBILE,"SAATCHI & SAATCHI, London",UNITED,"MEDIACOM, London *",UNITED
,,,,KINGDOM,,KINGDOM
"C07 Travel, Entertainment & Leisure",
VIRTUAL STORYTELLER,DISNEY DESTINATIONS,DISNEY PARKS,"THE VANKSEN GROUP, New",USA
,,,York *
THE DINOSAUR EXHIBITION,THE GRIGORE ANTIPA NATURAL,THE GRIGORE ANTIPA,"LEO BURNETT & TARGET,",ROMANIA
,HISTORY MUSEUM,NATURAL HISTORY MUSEUM,Bucharest *
GOOD STUFF,LASTMINUTE,EXPERIENCE/LIFESTYLE,,,"MANNING GOTTLIEB OMD, London",UNITED
,,FACILITATOR,,,*,KINGDOM
THE BEST JOB IN THE,TOURISM QUEENSLAND,GREAT BARRIER REEF,"CUMMINSNITRO, Brisbane *",AUSTRALIA,"MITCHELL & PARTNERS, Fortitude",AUSTRALIA
WORLD,,,,,Valley
MAD IN SINGAPORE,SINGAPORE TOURISM BOARD,SINGAPORE TOURISM,,,"STARCOM MEDIAVEST GROUP,",INDIA
,,,,,Mumbai *
POKER ISLAND,BWIN,ONLINE POKER,"ARNOLD WORLDWIDE ITALY,",ITALY,"MPG ITALIA, Milan *",ITALY
,,,Milan
THE DAWN OF TWILIGHT,HOYTS DISTRIBUTION,TWILIGHT MOTION PICTURE,,,"MEDIA CONTACTS, Sydney *",AUSTRALIA
SEE MORE IN THE DARK,CHICAGO INTERNATIONAL FILM,CHICAGO INTERNATIONAL,"DDB, Chicago *",USA
,FESTIVAL,FILM FESTIVAL
MYTHIC CREATURES,THE FIELD MUSEUM,THE FIELD MUSEUM,"DDB, Chicago *",USA
,"C08 Retail And E-Commerce, including Restaurants"
SUSTAINABILITY,WALMART,RETAIL STORE,,,"MEDIAVEST USA, New York *",USA
THE LEGO CODES,MYTOYS.DE,ONLINE TOY STORE,LUKAS LINDEMANN,GERMANY
,,,"ROSINSKI, Hamburg *"
BACK TO SCHOOL,SEARS,RETAIL STORE,"MPG, Boston",USA,"MEDIA CONTACTS, Boston *",USA
THE LIVING POSTER,FISCH FRANKE,FISH RESTAURANT,PUBLICIS FRANKFURT *,GERMANY
THE FIRST,IKEA AUSTRIA,IKEA FURNITURE,DDB GERMANY BERLIN *,GERMANY,"MEDIACOM AUSTRIA, Vienna",AUSTRIA
IKEA-CINEMA-CATALOGUE,
C09 Healthcare & Medical,
THE WORLD´S FIRST IN-EAR,NEUROTH,HEARING AID CHECK,"JUNG von MATT, Vienna *",AUSTRIA
COMMERCIAL,
C10 Publications & Media,
HIDDEN PHONES,AVRO,THE PHONE TELEVISION,"NEW MESSAGE, Amsterdam *",THE
,,PROGRAMME,,NETHERLANDS
GOSSIP GIRL,THE CW NETWORK,TELEVISION PROGRAMME,"RINGLEADER DIGITAL, New",USA,"OMD, New York *",USA
,,,York
13 REASONS WHY,PENGUIN BOOKS,THIRTEEN REASONS WHY,GREY NEW YORK *,USA
,TRILLION DOLLAR CAMPAIGN THE ZIMBABWEAN,THE ZIMBABWEAN,TBWA\HUNT\LASCARIS,SOUTH AFRICA
,,NEWSPAPER,JOHANNESBURG *
,THE ECONOMIST US LAUNCH THE ECONOMIST,THE ECONOMIST,BBDO NEW YORK *,USA,"PHD, New York",USA
,C11 Business Products & Services
THE KRYPTON FACTOR,SAGE,BUSINESS SOFTWARE AND,"DRUM PHD, London *",UNITED,"PHD MEDIA, London",UNITED
,,SERVICES,,KINGDOM,,KINGDOM
,,MOBILE
OUTSIDE OFFICE,PROXIMUS,TELECOMMUNICATIONS,"FAMOUS, Brussels *",BELGIUM
,,PROVIDER
C12 Corporate Information,
EVERY IMAGE HAS A,SAXSOFUNNY,SOUND PRODUCTION,"DDB BRASIL, São Paulo *",BRAZIL
SOUND. EVEN ON PAPER.,,COMPANY
WANTED,VELOCITY FILMS,RECRUITMENT,JWT CAPE TOWN *,SOUTH AFRICA
HOME READING SELECTION   OGI,,PUBLISHING HOUSE,LEO BURNETT MOSCOW *,RUSSIA,"MEDIAVEST, Moscow",RUSSIA
,"C13 Charities, Public Health & Safety, Public Awareness Messages"
SEYFI SOLUKAL,GREENPEACE MEDITERRANEAN,CLIMATE CAMPAIGN,GREY ISTANBUL *,TURKEY
EBAY ATTACK,AMNESTY INTERNATIONAL,HUMAN RIGHTS,"walker, Zürich *",SWITZERLAND
CONTEMPORARY BEAUTY,ANAD (NATIONAL ASSOCIATION OF,EATING DISORDER
IDEAL,ANOREXIA NERVOSA AND,AWARENESS,OGILVY FRANKFURT *,GERMANY
,ASSOCIATED)
LABELS,PAMPLONA TOWN HALL,,"ANTI-VANDALISM CAMPAIGN   GAP'S, Pamplona *",SPAIN
COMPUTERTAN,SKCIN,SKIN CANCER AWARENESS,,McCANN ERICKSON LONDON  UNITED,"UNIVERSAL McCANN, London",UNITED
,,,*,KINGDOM,,KINGDOM
MYSTERY PACKAGE,ROYAL NATIONAL LIFEBOAT,RNLI YOUTH CAMPAIGN,PROXIMITY LONDON *,UNITED
,ASSOCIATION,,,KINGDOM
THE LONGER THEY'RE HERE,YOUTH OFF THE STREETS,HOMELESSNESS CHARITY,"LAVENDER*, Sydney *",AUSTRALIA,"MEDIA TREE, Sydney",AUSTRALIA
DRIPPING MONUMENT,BELGIAN ASSOCIATION OF,BELGIAN ASSOCIATION OF,"FAMOUS, Brussels *",BELGIUM
,UROLOGISTS,UROLOGISTS
REFUGEE GAME SHOW,REFUGEE AID BELGIUM,REFUGEE AID BELGIUM,"FAMOUS, Brussels *",BELGIUM
COINS ARE NOT IN DANGER,WWF BRASIL,WWF,"DDB BRASIL, São Paulo *",BRAZIL
OF EXTINCTION,
