TITLE,ADVERTISER,PRODUCT,ENTRANT COMPANY,COUNTRY
B01 Savoury Foods,
BIRTHDAY GIRL,BC DAIRY FOUNDATION,MILK,DDB CANADA,CANADA
SKYDIVER,BC DAIRY FOUNDATION,MILK,DDB CANADA,CANADA
TATTOO,BC DAIRY FOUNDATION,MILK,DDB CANADA,CANADA
3 HOURS,HEINZ INDIA,KETCHUP,LEO BURNETT INDIA,INDIA
BROKEN FRIES,HEINZ INDIA,KETCHUP,LEO BURNETT INDIA,INDIA
POTATO,GREEN HOUSE ORGANIC,ORGANIC FOOD,Y&R SHANGHAI,CHINA
TOMATO,GREEN HOUSE ORGANIC,ORGANIC FOOD,Y&R SHANGHAI,CHINA
B02 Sweet Foods,
BURGER,NAKAYAMA'S JAM,JAM,OGILVY & MATHER JAPAN,JAPAN
JAW STRENGTH,ALTOIDS GUM,CHEWING GUM,LEO BURNETT,USA
LIFT,TIGER BRANDS,BLACK CAT PEANUT BUTTER,TBWA\HUNT\LASCARIS,SOUTH AFRICA
BODIES,NESTLÉ,ENERGY SNACK BAR,PUBLICIS SALLES NORTON,BRAZIL
KNOTS,CPW NESTLÉ,FIBRE 1 CEREAL,F/NAZCA SAATCHI & SAATCHI,BRAZIL
BOTTOM,KELLOGG'S,ALL BRAN CEREAL,LEO BURNETT,UNITED KINGDOM
COP,BLUEBIRD FOODS,MINI BURGER RINGS CRISPS,PUBLICIS MOJO,NEW ZEALAND
SKIER,BLUEBIRD FOODS,MINI BURGER RINGS CRISPS,PUBLICIS MOJO,NEW ZEALAND
TRUCKER,BLUEBIRD FOODS,MINI BURGER RINGS CRISPS,PUBLICIS MOJO,NEW ZEALAND
B03 Alcoholic Drinks,
SAPPHIRE,BACARDI DEUTSCHLAND,BOMBAY SAPPHIRE GIN,SCHOLZ & FRIENDS,GERMANY
ABSOLUT VOYEUR,MAXXIUM AUSTRALIA,ABSOLUT VODKA,WHYBIN TBWA,AUSTRALIA
SHEPHARD,DIAGEO,,JOHNNIE WALKER WHISKY & COCA- LEO BURNETT,AUSTRALIA
,,COLA
THE END,HANSA BORG BRYGGERIER,HEINEKEN,KITCHEN (LEO BURNETT),NORWAY
DRUMMER,CERVEJARIAS KAISER DO BRASIL,XINGU DARK BEER,PUBLICIS SALLES NORTON,BRAZIL
SOCCER PLAYER,CERVEJARIAS KAISER DO BRASIL,XINGU DARK BEER,PUBLICIS SALLES NORTON,BRAZIL
LADDER,DIAGEO,JOHNNIE WALKER WHISKY,BARTLE BOGLE HEGARTY,UNITED KINGDOM
POLITICIAN,DIAGEO,JOHNNIE WALKER WHISKY,BARTLE BOGLE HEGARTY,USA
BOTTLE ILLUSION,GUINNESS,DRAUGHT IN A BOTTLE,BBDO NEW YORK,USA
B04 Non-Alcoholic Drinks,
DOLL,GLAXOSMITHKLINE,HORLICKS MALT DRINK,GREY WORLDWIDE,MALAYSIA
FOOSBALL,GLAXOSMITHKLINE,HORLICKS MALT DRINK,GREY WORLDWIDE,MALAYSIA
VIDEO GAME,GLAXOSMITHKLINE,HORLICKS MALT DRINK,GREY WORLDWIDE,MALAYSIA
MAN/BABY,EVIAN,STILL WATER,BETC EURO RSCG,FRANCE
WOMEN/BABY,EVIAN,STILL WATER,BETC EURO RSCG,FRANCE
MINI STRAW,PEPSI-QTG CANADA,PEPSI MINI CANS,BBDO CANADA,CANADA
B05 Household,
LEAN ON ME,PROCTER & GAMBLE,PERLA DETERGENT WITH FABRIC,LEO BURNETT MANILA,THE PHILIPPINES
,,SOFTENER
EXAM CHEAT NOTE,RECKITT BENCKISER,NUGGET SHOE POLISH,THE JUPITER DRAWING ROOM,SOUTH AFRICA
POLICE OFFICER,RECKITT BENCKISER,NUGGET SHOE POLISH,THE JUPITER DRAWING ROOM,SOUTH AFRICA
BEWARE THE SHINE,RECKITT BENCKISER,NUGGET SHOE POLISH,THE JUPITER DRAWING ROOM,SOUTH AFRICA
COPYRIGHT,PROCTER & GAMBLE,TIDE DETERGENTS,LEO BURNETT INDIA,INDIA
PENLIGHT,DURACELL,DURACELL BATTERIES,OGILVY SOUTH AFRICA,SOUTH AFRICA
PORK,KIMBERLY CLARK,SCOTT TOWEL ROLL,JWT BANGKOK,THAILAND
TARGET,HENKEL,SUPERGLUE,DDB PARIS,FRANCE
DARTS,HENKEL,SUPERGLUE,DDB PARIS,FRANCE
AROUND THE WORLD,ENERGIZER CANADA,ENERGIZER MAX BATTERIES,DDB CANADA,CANADA
WELL,SPONTEX,SPONGES,TBWA\PARIS,FRANCE
,B06 Home Appliances/Furnishings/Electronics & Audio-Visual
BEET ROOT,WMF,KNIVES,KNSK WERBEAGENTUR,GERMANY
CARROT,WMF,KNIVES,KNSK WERBEAGENTUR,GERMANY
PEAR,WMF,KNIVES,KNSK WERBEAGENTUR,GERMANY
TRIM LINE-TRANSIT,TRIM LINE,SECURITY GLASS,RETHINK,CANADA
HANDS,SIEMENS (MALAYSIA),MOBILE PHONES,McCANN ERICKSON,MALAYSIA
NOISY NEIGHBOURS,YAMAHA ELEKTRONIK EUROPA,LOUDSPEAKER SYSTEMS,SCHOLZ & FRIENDS,GERMANY
DOGS,WERU,SOUNDPROOF WINDOWS,SCHOLZ & FRIENDS,GERMANY
GARBAGE,WERU,SOUNDPROOF WINDOWS,SCHOLZ & FRIENDS,GERMANY
ROCKER,WERU,SOUNDPROOF WINDOWS,SCHOLZ & FRIENDS,GERMANY
DRILL BITS,INTERTOOL BIEL,TOOLS,OGILVY & MATHER FRANKFURT,GERMANY
SAW BLADES,INTERTOOL BIEL,TOOLS,OGILVY & MATHER FRANKFURT,GERMANY
CUT-OFF-WHEELS,INTERTOOL BIEL,TOOLS,OGILVY & MATHER FRANKFURT,GERMANY
ABBEY ROAD,ADORAMA CAMERA,CAMERA LENSES,BOZELL NEW YORK,USA
PRESIDENT KENNEDY,ADORAMA CAMERA,CAMERA LENSES,BOZELL NEW YORK,USA
VULTURE,ADORAMA CAMERA,CAMERA LENSES,BOZELL NEW YORK,USA
FLY,ZEISS,BINOCULARS,TBWA\PARIS,FRANCE
TEETH,ZEISS,BINOCULARS,TBWA\PARIS,FRANCE
BOOGER,ZEISS,BINOCULARS,TBWA\PARIS,FRANCE
TAMPON,ZEISS,BINOCULARS,TBWA\PARIS,FRANCE
B07 Cosmetics & Beauty,
SHADOW,DOUGLAS PHARMACEUTICALS,SUNSENSE SUNSCREEN,CLEMENGER BBDO,NEW ZEALAND
HANDS,PROCTER & GAMBLE PHILIPPINES,SAFEGUARD SOAP,ACE SAATCHI & SAATCHI,THE PHILIPPINES
WRINKLED? WONDERFUL?,UNILEVER,DOVE SKINCARE PRODUCTS,OGILVY & MATHER,UNITED KINGDOM
100 SEXIEST MEN,UNILEVER SA HOME & PERSONAL CARE,AXE DEODORANT,LOWE BULL,SOUTH AFRICA
ROBBERY,COLGATE-PALMOLIVE,SPEED STICK DEODERANT,Y&R,MALAYSIA
B08 Toiletries & OTC Pharmacy,
HEAVY METAL,PAYER GERMANY,GRUNDIG BEARD TRIMMER,SCHOLZ & FRIENDS,GERMANY
MOM'S DARLING,PAYER GERMANY,GRUNDIG BEARD TRIMMER,SCHOLZ & FRIENDS,GERMANY
OLD MAN,PAYER GERMANY,GRUNDIG BEARD TRIMMER,SCHOLZ & FRIENDS,GERMANY
TOUGH BOY,PAYER GERMANY,GRUNDIG BEARD TRIMMER,SCHOLZ & FRIENDS,GERMANY
CHICKEN,PERLODENT DENTAL FLOSS,DENTAL FLOSS,JUNG von MATT GERMANY,GERMANY
FISH,PERLODENT DENTAL FLOSS,DENTAL FLOSS,JUNG von MATT GERMANY,GERMANY
COFFEE,PFIZER,VIAGRA,DDB,BELGIUM
OFFICE,PFIZER,VIAGRA,DDB,BELGIUM
VACUUM CLEANER,PFIZER,VIAGRA,DDB,BELGIUM
FUR COAT,CREST,TOOTHPASTE,SAATCHI & SAATCHI,UNITED KINGDOM
FUCHSIA,CREST,TOOTHPASTE,SAATCHI & SAATCHI,UNITED KINGDOM
MAN,WYETH CONSUMER HEALTHCARE,ADVIL PAIN KILLER,,TBWA\SANTIAGO MANGADA PUNO THE PHILIPPINES
POOL,SCA HYGIENE,DOUBLE VELVET TOILET PAPER,FALLON LONDON,UNITED KINGDOM
"B09 Clothing, Footwear & Accessories",
BERNARD CRASHING,NIKE,SPEED TRAINERS,TAXI CANADA,CANADA
BERNARD WALL,NIKE,SPEED TRAINERS,TAXI CANADA,CANADA
WHITEBOARD,EUT FASHION,WONDERBRA,NAGA DDB MALAYSIA,MALAYSIA
DOG,TEXWOOD & APPLE,SLIMFIT JEANS,OGILVY & MATHER ADVERTISING,HONG KONG
CRASH,VICTORINOX TRAVEL CASES,TRAVEL CASES,LEO BURNETT,SINGAPORE
JAPANESE,SAO PAULO ALPARGATAS,HAVAIANAS SLICK FOOTWARE,ALMAPBBDO,BRAZIL
POVERTY,CHAMPION,SPORTS WEAR,PUBLICIS,USA
FLIP,NIKE,SHOX SHOES,DDB PARIS,FRANCE
BACK,NIKE,SHOX SHOES,DDB PARIS,FRANCE
BOX,NIKE,BASKETBALL SHOES,DDB PARIS,FRANCE
CAR,LEVI’S EUROPE,501 JEANS WITH ANTI-FIT,BARTLE BOGLE HEGARTY,UNITED KINGDOM
CHAIR,LEVI’S EUROPE,501 JEANS WITH ANTI-FIT,BARTLE BOGLE HEGARTY,UNITED KINGDOM
DOOR,LEVI’S EUROPE,501 JEANS WITH ANTI-FIT,BARTLE BOGLE HEGARTY,UNITED KINGDOM
BIG WOMAN,MISSING LINK,SKI WEAR,SHNEL & MELNYCHUCK,NORWAY
B10 Miscellaneous,
FOREST,PEDIGREE,DOG BISCUITS,TBWA\PARIS,FRANCE
LADY,PEDIGREE,DOG BISCUITS,TBWA\PARIS,FRANCE
BAD HABITS,SYDNEY DOG TRAINING CENTRE,DOG TRAINING,DDB SYDNEY,AUSTRALIA
B11 Cars & Automotive Services,
VALET,BMW,BMW VEHICLES,PUBLICIS MID AMERICA,USA
STAMPS,GENERAL MOTORS SOUTH AFRICA,SUZUKI CARS,NET#WORK BBDO,SOUTH AFRICA
ICE,D'IETEREN,AUDI QUATTRO,DDB,BELGIUM
SKI,D'IETEREN,AUDI QUATTRO,DDB,BELGIUM
ZEBRA,D'IETEREN,VW GOLF TDI,DDB,BELGIUM
BIKE THEFT,DAIMLERCHRYSLER,SMART POLICE VEHICLE,SCHOLZ & FRIENDS,GERMANY
BOBBY CAR,VOLKSWAGEN,GOLF GTI,DDB GERMANY,GERMANY
CHILDREN´S DRAWING,VOLKSWAGEN,GOLF GTI,DDB GERMANY,GERMANY
ELBOW,VOLKSWAGEN,GOLF GTI,DDB GERMANY,GERMANY
ROCK STAR,VOLKSWAGEN,GOLF GTI,DDB GERMANY,GERMANY
WEE,VOLKSWAGEN,GOLF GTI,DDB GERMANY,GERMANY
TURBO,VOLKSWAGEN,NEW BEETLE,DDB GERMANY,GERMANY
CARDGAME,VOLKSWAGEN,VW POLO,DDB GERMANY,GERMANY
EUROPEAN CHAMPIONSHIP,VOLKSWAGEN,VW POLO,DDB GERMANY,GERMANY
WADING DEPTH,VOLKSWAGEN,TOUAREG,GRABARZ & PARTNER,GERMANY
,,,WERBEAGENTUR
SEATS,V.A.E.S.A.,VW TOURAN,DDB ESPANA,SPAIN
SPAIN,FIAT,STILO,VITRUVIO LEO BURNETT,SPAIN
UK,FIAT,STILO,VITRUVIO LEO BURNETT,SPAIN
USA,FIAT,STILO,VITRUVIO LEO BURNETT,SPAIN
FOREST,DAIMLERCHRYSLER CANADA,JEEP,BBDO MONTREAL,CANADA
TOUCAN,FORD MOTOR,FORD ECOSPORT SUV,JWT COLOMBIA,COLOMBIA
TAXI-MAP,MERCEDES-BENZ,TAXI,SPRINGER & JACOBY WERBUNG,GERMANY
TABLE FOOTBALL,NISSAN,NISSAN MICRA,TBWA\G1,FRANCE
TREE,NISSAN,NISSAN PICKUP,TBWA\G1,FRANCE
INSECT,AUDI,AUDI A8,DDB PARIS,FRANCE
PLUMBER,VOLKSWAGEN COMMERCIAL VEHICLES,COMMERCIAL VEHICLES,DDB PARIS,FRANCE
ELECTRICIAN,VOLKSWAGEN COMMERCIAL VEHICLES,COMMERCIAL VEHICLES,DDB PARIS,FRANCE
SCRUBBER,VOLKSWAGEN COMMERCIAL VEHICLES,COMMERCIAL VEHICLES,DDB PARIS,FRANCE
DIVER,VOLKSWAGEN COMMERCIAL VEHICLES,COMMERCIAL VEHICLES,DDB PARIS,FRANCE
100 PT CHECK,BMW,USED BMW VEHICLES,COLENSO BBDO,NEW ZEALAND
SCHOOL BUS,MERCEDES-BENZ,SMART FOR TWO,CONTRAPUNTO,SPAIN
FIRE BRIGADE,MERCEDES-BENZ,SMART FOR TWO,CONTRAPUNTO,SPAIN
BURRITO,MINI CANADA,MINI CONVERTIBLE,TAXI CANADA,CANADA
RIGID BODY,MINI CANADA,MINI,TAXI CANADA,CANADA
WELCOME,VOLKSWAGEN,VW TOUAREG,ARNOLD WORLDWIDE,USA
RIPPED OFF,YAMAHA,MOTORCYCLES,SAATCHI & SAATCHI SINGAPORE,SINGAPORE
B12 Retail Stores,
BABYCALL,SUPERMERCADOS NORTE,SUPERMARKET,LEO BURNETT ARGENTINA,ARGENTINA
SOFA,IKEA,FURNITURE STORE,LDV RED CELL,BELGIUM
BOOKCASE,IKEA,FURNITURE STORE,LDV RED CELL,BELGIUM
CRAB,TESCO LOTUS,SUPERMARKET,BBDO BANGKOK,THAILAND
FISH,TESCO LOTUS,SUPERMARKET,BBDO BANGKOK,THAILAND
PRAWN,TESCO LOTUS,SUPERMARKET,BBDO BANGKOK,THAILAND
FROG,SIAM TAMIYA,MODEL KITS SHOP,CREATIVE JUICE\G1 (TBWA),THAILAND
LIGHT BULB,SIAM TAMIYA,MODEL KITS SHOP,CREATIVE JUICE\G1 (TBWA),THAILAND
WATER MELON,SIAM TAMIYA,MODEL KITS SHOP,CREATIVE JUICE\G1 (TBWA),THAILAND
BEAUTY HALL,HARVEY NICHOLS,DEPARTMENT STORE,DDB LONDON,UNITED KINGDOM
MENSWEAR,HARVEY NICHOLS,DEPARTMENT STORE,DDB LONDON,UNITED KINGDOM
WOMENSWEAR,HARVEY NICHOLS,DEPARTMENT STORE,DDB LONDON,UNITED KINGDOM
BEANS,HARVEY NICHOLS,DEPARTMENT STORE,DDB LONDON,UNITED KINGDOM
CAT,HARVEY NICHOLS,DEPARTMENT STORE,DDB LONDON,UNITED KINGDOM
JIGSAW,HARVEY NICHOLS,DEPARTMENT STORE,DDB LONDON,UNITED KINGDOM
TOILET PAPER,HARVEY NICHOLS,DEPARTMENT STORE,DDB LONDON,UNITED KINGDOM
20000.00000000,CASA DE LIVROS,BOOKSTORE,LEO BURNETT BRASIL,BRAZIL
FAIRYTALES,CASA DE LIVROS,BOOKSTORE,LEO BURNETT BRASIL,BRAZIL
SECRET GARDEN,CASA DE LIVROS,BOOKSTORE,LEO BURNETT BRASIL,BRAZIL
KAMA SUTRA WITH POST IT NOTES,INTERFLORA DENMARK,FLORISTS,ROBERT/BOISEN & LIKE-MINDED,DENMARK
RESERVED SEAT,INTERFLORA DENMARK,FLORISTS,ROBERT/BOISEN & LIKE-MINDED,DENMARK
B13 Restaurants & Fast Food Outlets,
MOUSETRAP,PIZZA HUT,PIZZA HUT,JWT,INDIA
TRIPLE THICK,McDONALD'S,McDONALD'S MILK SHAKES,LEO BURNETT,USA
HOLE,McDONALD'S,McDONALD'S HOME DELIVERY,LEO BURNETT INDIA,INDIA
HAMBURGER,EDO SUSHI RESTAURANTE,,SUSHI RESTAURANT AND DELIVERY GIOVANNI FCB,BRAZIL
HOT DOG,EDO SUSHI RESTAURANTE,,SUSHI RESTAURANT AND DELIVERY GIOVANNI FCB,BRAZIL
PSYCHO,PIZZA HUT SINGAPORE,PIZZA DELIVERY,BBDO SINGAPORE,SINGAPORE
SINGING IN THE RAIN,PIZZA HUT SINGAPORE,PIZZA DELIVERY,BBDO SINGAPORE,SINGAPORE
THE GRADUATE,PIZZA HUT SINGAPORE,PIZZA HUT,BBDO SINGAPORE,SINGAPORE
"B14 Travel, Transport & Tourism",
TOBIAS,METRO,COPENHAGEN METRO,GREY COPENHAGEN,DENMARK
WATERFALL,GOL LINHAS AEREAS,AIRLINE,ALMAPBBDO,BRAZIL
CROWD,AIR TAHITI NUI,AIRLINE,SAATCHI & SAATCHI,USA
LIBERTY,AIR TAHITI NUI,AIRLINE,SAATCHI & SAATCHI,USA
SKYLINE,AIR TAHITI NUI,AIRLINE,SAATCHI & SAATCHI,USA
CLIFFS,CLUB MED,HOLIDAYS,PUBLICIS CONSEIL,FRANCE
DESERT,CLUB MED,HOLIDAYS,PUBLICIS CONSEIL,FRANCE
DIVERS,CLUB MED,HOLIDAYS,PUBLICIS CONSEIL,FRANCE
GOLF COURSE,CLUB MED,HOLIDAYS,PUBLICIS CONSEIL,FRANCE
RAINFOREST,CLUB MED,HOLIDAYS,PUBLICIS CONSEIL,FRANCE
B15 Entertainment & Leisure,
WELCOME,SONY COMPUTER ENTERTAINMENT,SONY PLAYSTATION,TBWA\ESPANA,SPAIN
GIRLY,XTREME MARTIAL ARTS-KICKBOXING,KICKBOXING CLASSES,SAATCHI & SAATCHI,MALAYSIA
RASTA,XTREME MARTIAL ARTS-KICKBOXING,KICKBOXING CLASSES,SAATCHI & SAATCHI,MALAYSIA
URNS,FUTURE SPORTS,GYM,GREY WORLDWIDE,GERMANY
FIRE,SINGAPORE POOLS,4 DIGIT LOTTERY,McCANN ERICKSON SINGAPORE,SINGAPORE
HANDS,SINGAPORE POOLS,4 DIGIT LOTTERY,McCANN ERICKSON SINGAPORE,SINGAPORE
PROSTITUTE,SINGAPORE POOLS,4 DIGIT LOTTERY,McCANN ERICKSON SINGAPORE,SINGAPORE
FOOTBALL,MICROSOFT SINGAPORE,XBOX LIVE ONLINE GAMING,McCANN ERICKSON SINGAPORE,SINGAPORE
PARACHUTE,MICROSOFT SINGAPORE,XBOX LIVE ONLINE GAMING,McCANN ERICKSON SINGAPORE,SINGAPORE
WRESTLING,MICROSOFT SINGAPORE,XBOX LIVE ONLINE GAMING,McCANN ERICKSON SINGAPORE,SINGAPORE
JACUZZI,MONACO CORPORATION,,PLAYBOY THE MANSION PS2 GAMES COLENSO BBDO,NEW ZEALAND
POOL,MONACO CORPORATION,,PLAYBOY THE MANSION PS2 GAMES COLENSO BBDO,NEW ZEALAND
SOFA,MONACO CORPORATION,,PLAYBOY THE MANSION PS2 GAMES COLENSO BBDO,NEW ZEALAND
STREAKER,WHYSALLS,CPC BINOCULARS,TBWA\HUNT\LASCARIS,SOUTH AFRICA
DRAG,NOKIA SINGAPORE,N-GAGE QD GAME DECK,BATES SINGAPORE,SINGAPORE
LIFT,NOKIA SINGAPORE,N-GAGE QD GAME DECK,BATES SINGAPORE,SINGAPORE
LUCKY CHAP,CHANGI MUSEUM,MUSEUM,OGILVY & MATHER,SINGAPORE
RAILWAY,CHANGI MUSEUM,MUSEUM,OGILVY & MATHER,SINGAPORE
MIRROR,MONACO CORPORATION,PLAYBOY VIDEO GAME,COLENSO BBDO,NEW ZEALAND
PUBLIC GOLF,PUBLIC GOLF,GOLF COURSE,BASSAT OGILVY BARCELONA,SPAIN
BIRDS,A:DOOR,ART CENTRE,OGILVY & MATHER,INDIA
BANANA,SONY PLAYSTATION,PS2 GAMES,TBWA\PARIS,FRANCE
OCTOPUS,SONY PLAYSTATION,PS2 GAMES,TBWA\PARIS,FRANCE
ADULTERY,SONY PLAYSTATION,PLAYSTATION 2,TBWA\PARIS,FRANCE
BABY,SONY PLAYSTATION,PLAYSTATION 2,TBWA\PARIS,FRANCE
DEATH,SONY PLAYSTATION,PLAYSTATION 2,TBWA\PARIS,FRANCE
MOULDS,SONY PLAYSTATION,PLAYSTATION 2,TBWA\PARIS,FRANCE
PLUGS,SONY PLAYSTATION,PLAYSTATION 2,TBWA\PARIS,FRANCE
SCARS,SONY PLAYSTATION,PLAYSTATION 2,TBWA\PARIS,FRANCE
SLEEPING BEAUTY,SONY PLAYSTATION,PLAYSTATION 2,TBWA\PARIS,FRANCE
GROUNDHOG,SONY PLAYSTATION,SSX3 SNOWBOARDING GAME,TBWA\PARIS,FRANCE
BREAD,ROYAL ONTARIO MUSEUM,MUSEUM EXHIBITION,DDB CANADA,CANADA
POINT CAR,ROYAL ONTARIO MUSEUM,MUSEUM EXHIBITION,DDB CANADA,CANADA
WIRE,ROYAL ONTARIO MUSEUM,MUSEUM EXHIBITION,DDB CANADA,CANADA
STATUE,BODY CONSCIOUS GYM,GYM,LOWE BULL,SOUTH AFRICA
BUFFY,VIDEO SPOT,PROMOTION FOR VIDEO,LOWE BULL,SOUTH AFRICA
MODEL PLANE,WAR MUSEUM,MUSEUM,LOWE BULL,SOUTH AFRICA
QUEEN,HASBRO,RISK BOARD GAME,SAATCHI & SAATCHI SINGAPORE,SINGAPORE
WHITE HOUSE,HASBRO,RISK BOARD GAME,SAATCHI & SAATCHI SINGAPORE,SINGAPORE
COCKROACH,ABC COOKING STUDIO,COOKING SCHOOL,OGILVYONE WORLDWIDE,THAILAND
DOG,ABC COOKING STUDIO,COOKING SCHOOL,OGILVYONE WORLDWIDE,THAILAND
RAT,ABC COOKING STUDIO,COOKING SCHOOL,OGILVYONE WORLDWIDE,THAILAND
B16 Publications & Media,
GOOGLE,THE ECONOMIST,MAGAZINE,NET#WORK BBDO,SOUTH AFRICA
FIGHTING BATTLE,TIME MAGAZINE,TIME MAGAZINE,FALLON NEW YORK,USA
NEW YORK,TIME MAGAZINE,TIME MAGAZINE,FALLON NEW YORK,USA
CHICAGO,TIME MAGAZINE,TIME MAGAZINE,FALLON NEW YORK,USA
PENDULUM,TIME MAGAZINE,TIME MAGAZINE,FALLON NEW YORK,USA
GL,N24 GESELLSCHAFT FUER,NEWS & DOCUMENTARY CHANNEL,SCHOLZ & FRIENDS,GERMANY
,NACHRICHTEN UND ZEITGESCHEHEN
ORGANISATION CHART,FORBES,MAGAZINE,JWT,BRAZIL
BOMBIE,NICKELODEON,KIDS TV CHANNEL,TBWA\SINGAPORE,SINGAPORE
BUBBLEBATH,NICKELODEON,KIDS TV CHANNEL,TBWA\SINGAPORE,SINGAPORE
MAGNIFYING GLASS,NICKELODEON,KIDS TV CHANNEL,TBWA\SINGAPORE,SINGAPORE
FRIDGE,MULTICHOICE,BBC FOOD CHANNEL,OGILVY SOUTH AFRICA,SOUTH AFRICA
BIG WORDS,OXFORD UNIVERSITY PRESS,THESAURUS,TBWA\HUNT\LASCARIS,SOUTH AFRICA
NICE,OXFORD UNIVERSITY PRESS,THESAURUS,TBWA\HUNT\LASCARIS,SOUTH AFRICA
CUBE,THE ECONOMIST,MAGAZINE,OGILVY & MATHER,SINGAPORE
BRAINS,THE ECONOMIST,MAGAZINE,ABBOTT MEAD VICKERS.BBDO,UNITED KINGDOM
REMIND PEOPLE,THE ECONOMIST,MAGAZINE,ABBOTT MEAD VICKERS.BBDO,UNITED KINGDOM
"B17 Banking, Investment & Insurance",
HOUSE,HSBC,INSURANCE,JWT,BRAZIL
AUSTRALIA,WESTERN UNION,MONEY TRANSFER SERVICES,PUBLICIS THAILAND,THAILAND
ENGLAND,WESTERN UNION,MONEY TRANSFER SERVICES,PUBLICIS THAILAND,THAILAND
UNITED STATES,WESTERN UNION,MONEY TRANSFER SERVICES,PUBLICIS THAILAND,THAILAND
B18 Business Equipment & Services,
POPCORN,ILLUSION,PRODUCTION COMPANY,LEO BURNETT,THAILAND
BACKWARDS,IBM INDIA,PERSONAL LAPTOP COMPUTERS,OGILVY & MATHER,INDIA
NON-SMOKING,BISLEY OFFICE FUNITURE,OFFICE FUNITURE,KOLLE REBBE WERBEAGENTUR,GERMANY
RED GREEN,BISLEY OFFICE FUNITURE,OFFICE FUNITURE,KOLLE REBBE WERBEAGENTUR,GERMANY
ALFRED,COMMERCIAL FILM PRODUCERS OF,,CFP-E & SHOTS/YOUNG DIRECTOR TBWA\PHS HELSINKI,FINLAND
,EUROPE & SHOTS,AWARD
BEFORE SHE WAS FAMOUS,FALLON SAO PAULO,EMPLOYMENT,FALLON SAO PAULO,BRAZIL
FART,STUDIO FUNK,RECORDING STUDIO,GRABARZ & PARTNER,GERMANY
,,,WERBEAGENTUR
RUSTLE,STUDIO FUNK,RECORDING STUDIO,GRABARZ & PARTNER,GERMANY
,,,WERBEAGENTUR
SLOBBER,STUDIO FUNK,RECORDING STUDIO,GRABARZ & PARTNER,GERMANY
,,,WERBEAGENTUR
CORRIDOR,AQUENT,BUSINESS SERVICES,LEO BURNETT,SINGAPORE
VIDEO,AQUENT,BUSINESS SERVICES,LEO BURNETT,SINGAPORE
PORTFOLIO,CLUBE DE CRIAÇÃO DE SÃO PAULO,,SÃO PAULO CREATIVE DESIGN CLUB F/NAZCA SAATCHI & SAATCHI,BRAZIL
CREATIVE DEPARTMENT,CLUBE DE CRIAÇÃO DE SÃO PAULO,,SÃO PAULO CREATIVE DESIGN CLUB F/NAZCA SAATCHI & SAATCHI,BRAZIL
CLOCKWORK,HUDSON REPRO,PRINT PRODUCTION,SAATCHI & SAATCHI,USA
B19 Commercial Public Services,
THE PRINCESS,LET'S TALK,SCHOOL FOR ENGLISH,ALMAPBBDO,BRAZIL
A STAR,LET'S TALK,SCHOOL FOR ENGLISH,ALMAPBBDO,BRAZIL
THE GUITAR,LET'S TALK,SCHOOL FOR ENGLISH,ALMAPBBDO,BRAZIL
449.00000000,DHL,COURIER SERVICE,OGILVY & MATHER MEXICO,MEXICO
NO,DHL,COURIER SERVICE,OGILVY & MATHER MEXICO,MEXICO
STORE,DHL,COURIER SERVICE,OGILVY & MATHER MEXICO,MEXICO
BELLY,MIAMI AD SCHOOL / ESPM,ADVERTISING SCHOOL,LEO BURNETT BRASIL,BRAZIL
BRAIN,MIAMI AD SCHOOL / ESPM,ADVERTISING SCHOOL,LEO BURNETT BRASIL,BRAZIL
B20 Corporate Image,
CHAIR,VOLKSWAGEN,VOLKSWAGEN,ALMAPBBDO,BRAZIL
SHOES,VOLKSWAGEN,VOLKSWAGEN,ALMAPBBDO,BRAZIL
BROKEN,VOLKSWAGEN,VOLKSWAGEN,ALMAPBBDO,BRAZIL
COUPLES,VOLKSWAGEN,VOLKSWAGEN,ALMAPBBDO,BRAZIL
HAIR,VOLKSWAGEN,VOLKSWAGEN,ALMAPBBDO,BRAZIL
STREET BUILDING,SILFA,LEGO,OGILVY & MATHER SANTIAGO,CHILE
B21 Public Health & Safety,
INNOCENT VICTIMS,DFT,ANTI-DRINK DRIVING MESSAGE,LEO BURNETT,UNITED KINGDOM
JUDGES HEAVY,DFT,ANTI-DRINK DRIVING MESSAGE,LEO BURNETT,UNITED KINGDOM
BRICK WALL,DSCR -FRENCH ROAD SAFETY,ROAD SAFETY MESSAGE,LOWE PARIS,FRANCE
MILLION DOLLAR SMILE,CANCER SOCIETY OF FINLAND,ANTI-SMOKING,BOB HELSINKI,FINLAND
NASTY SUICIDE,CANCER SOCIETY OF FINLAND,ANTI-SMOKING,BOB HELSINKI,FINLAND
PERU,FOUNDATION RAMON RUBIAL,ANTI-DRUGS,JWT,SPAIN
THAILAND,FOUNDATION RAMON RUBIAL,ANTI-DRUGS,JWT,SPAIN
VIETNAM,FOUNDATION RAMON RUBIAL,ANTI-DRUG AWARENESS,JWT,SPAIN
FRAGRANCE OF SMOKERS,AZUR - QUIT SMOKING,ANTI-SMOKING CAMPAIGN,DEMNER MERLICEK & BERGMANN,AUSTRIA
POOL,MUENCHNER AIDS-HILFE,AIDS AWARENESS,.START,GERMANY
ROOM,MUENCHNER AIDS-HILFE,AIDS AWARENESS,.START,GERMANY
VERNISSAGE,MUENCHNER AIDS-HILFE,AIDS AWARENESS,.START,GERMANY
READING,RADIOLOGY MALAYSIA,ANTI-SMOKING,PUBLICIS MALAYSIA,MALAYSIA
MOUTH,YLAT (YOUNG LUNGS AGAINST,ANTI-SMOKING,TBWA\PARIS,FRANCE
,TOBACCO)
NO ARMS,YLAT (YOUNG LUNGS AGAINST,ANTI-SMOKING,TBWA\PARIS,FRANCE
,TOBACCO)
SPIDER,AIDES,AIDS AWARENESS,TBWA\PARIS,FRANCE
POOL,AAD,SKIN CANCER AWARENESS,PUBLICIS,USA
B22 Public Awareness Messages,
CRIME AND PUNISHMENT,NATIONAL LIBRARY,LIBRARY PROMOTION,LEO BURNETT ADVERTISING,CZECH REPUBLIC
JANE EYRE,NATIONAL LIBRARY,LIBRARY PROMOTION,LEO BURNETT ADVERTISING,CZECH REPUBLIC
THE OLD MAN AND THE SEA,NATIONAL LIBRARY,LIBRARY PROMOTION,LEO BURNETT ADVERTISING,CZECH REPUBLIC
BONEHEAD,LEAVE NO TRACE,WILDLIFE PRESERVATION,McCANN ERICKSON,USA
TREE,WILDLIFE CONSERVATION SOCIETY,ANTI-HUNTING MESSAGE,OGILVY & MATHER THAILAND,THAILAND
SEALS,WILDLIFE CONSERVATION SOCIETY,ANTI-HUNTING MESSAGE,OGILVY & MATHER THAILAND,THAILAND
DROWNING,WWF,GLOBAL WARMING AWARENESS,OGILVY & MATHER THAILAND,THAILAND
RESCUE,WWF,GLOBAL WARMING AWARENESS,OGILVY & MATHER THAILAND,THAILAND
HIDE,WWF,GLOBAL WARMING AWARENESS,OGILVY & MATHER THAILAND,THAILAND
CHURCHILL,ANGLICAN WELFARE COUNCIL,MENTAL HEALTH AWARENESS,OGILVY & MATHER,SINGAPORE
NEWTON,ANGLICAN WELFARE COUNCIL,MENTAL HEALTH AWARENESS,OGILVY & MATHER,SINGAPORE
CHAPLIN,ANGLICAN WELFARE COUNCIL,MENTAL HEALTH AWARENESS,OGILVY & MATHER,SINGAPORE
ALVARADO,NATIONAL CORPORATION AGAINST,CHILD ABUSE AWARENESS,OGILVY & MATHER SANTIAGO,CHILE
,CHILD ABUSE
HERNANDEZ,NATIONAL CORPORATION AGAINST,ANTI-CHILD ABUSE AWARENESS,OGILVY & MATHER SANTIAGO,CHILE
,CHILD ABUSE
MARTINEZ,NATIONAL CORPORATION AGAINST,ANTI-ABUSE AWARENESS,OGILVY & MATHER SANTIAGO,CHILE
,CHILD ABUSE
FINGERS,EMI,MUSIC PIRACY AWARENESS,TBWA\PARIS,FRANCE
SUPPORTERS,EMI,MUSIC PIRACY AWARENESS,TBWA\PARIS,FRANCE
SWEAT,EMI,MUSIC PIRACY AWARENESS,TBWA\PARIS,FRANCE
VOCAL CORDS,EMI,MUSIC PIRACY AWARENESS,TBWA\PARIS,FRANCE
HEART,EMI,MUSIC PIRACY AWARENESS,TBWA\PARIS,FRANCE
B23 Fundraising & Appeals,
CLEANER,NOE ANIMAL HOME FOUNDATION,ANIMAL SHELTER/FOUNDATION,LEO BURNETT BUDAPEST,HUNGARY
GAMBLER,NOE ANIMAL HOME FOUNDATION,ANIMAL SHELTER/FOUNDATION,LEO BURNETT BUDAPEST,HUNGARY
WAR,SAVE THE CHILDREN,CHILDREN'S CHARITY APPEAL,SHACKLETON AD,SPAIN
SAMI,SAVE THE CHILDREN,CHILDREN'S CHARITY APPEAL,SHACKLETON AD,SPAIN
TERESA & AMINA,SAVE THE CHILDREN,CHILDREN'S CHARITY APPEAL,SHACKLETON AD,SPAIN
FOXES,ANIMAL PEACE,ANIMAL PROTECTION,DDB GERMANY,GERMANY
APE CASUALTIES,OROVERDE RAIN FOREST FOUNDATION,RAINFOREST CONSERVATION,OGILVY & MATHER FRANKFURT,GERMANY
,,APPEAL
SMOKING ORANG UTAN,OROVERDE RAIN FOREST FOUNDATION,RAINFOREST CONSERVATION,OGILVY & MATHER FRANKFURT,GERMANY
,,APPEAL
LIZARD RETREATING,OROVERDE RAIN FOREST FOUNDATION,RAINFOREST CONSERVATION,OGILVY & MATHER FRANKFURT,GERMANY
APPEAL,
LEOPARD OFFICER,OROVERDE RAIN FOREST FOUNDATION,RAINFOREST CONSERVATION,OGILVY & MATHER FRANKFURT,GERMANY
,,APPEAL
CAUSE OF BLINDNESS,FUNDAÇÃO EYE CARE,CORNEAS DONATION,ALMAPBBDO,BRAZIL
BACKYARD,ZOOLOGICO PARQUE DE LAS LEYENDAS,ADOPT AN ANIMAL PROGRAMME,QUORUM/NAZCA SAATCHI &,PERU
,,,SAATCHI
BATHROOM,ZOOLOGICO PARQUE DE LAS LEYENDAS,ADOPT AN ANIMAL PROGRAMME,QUORUM/NAZCA SAATCHI &,PERU
,,,SAATCHI
ESTER SHENK,JOHANNESBURG ZOO,ZOO APPEAL,GREY WORLDWIDE SA,SOUTH AFRICA
JAMES & MILDRED,JOHANNESBURG ZOO,ZOO APPEAL,GREY WORLDWIDE SA,SOUTH AFRICA
CROSSES,CRUZ ROJA,RED CROSS APPEAL,EL LABORATORIO SPRINGER &,SPAIN
,,,JACOBY
SOMETIMES MONEY,DOCTORS WITHOUT BORDERS,HUMANITARIAN ASSOCIATION,SAATCHI & SAATCHI,ITALY
,,APPEAL
B24 Billboard - Large Format,
IMPOSSIBLE SPRINT,ADIDAS,OLYMPIC SPONSORSHIP,TBWA\JAPAN,JAPAN
NEON XXS,MINI,MINI,CRISPIN PORTER + BOGUSKY,USA
REAL BEAUTY,DOVE,DOVE,OGILVYONE WORLDWIDE,USA
B25 Street Furniture,
TRAM SHELTER,AMNESTY INTERNATIONAL,ANTI-VIOLENCE AGAINST WOMEN,TBWA\PHS HELSINKI,FINLAND
X-RAY,DIGITAL+,NFL SUPERBOWL PROGRAMME,CONTRAPUNTO,SPAIN
ADHESIVE STICK,HENKEL ADHESIVOS Y TECNOLOGIAS,PRITT ADHESIVES,DDB ESPANA,SPAIN
B26 Transit,
WASH ME,DELIVERY CAR WASH,CAR WASH SERVICE,JWT,PUERTO RICO
BODY BAG,REPORTERS WITHOUT BORDERS,FREEDOM OF THE PRESS,DDB,BELGIUM
WHEEL CLAMP,FORD MALAYSIA,RANGER FORD,JWT MALAYSIA,MALAYSIA
IMPOSSIBLE BUS PULL,ADIDAS,OLYMPIC SPONSORSHIP,TBWA\JAPAN,JAPAN
FRESCO AIRPORT,LIECHTENSTEIN MUSEUM,MUSEUM RE-OPENING,WIEN NORD PILZ,AUSTRIA
FRESCO TAXI,LIECHTENSTEIN MUSEUM,MUSEUM RE-OPENING,WIEN NORD PILZ,AUSTRIA
RUNNING GIRL,SIEMENS,MOBILE PHONES,LINK McCANN ERICKSON,TURKEY
A LITTLE FABRIC,IKEA SWEDEN,FURNITURE STORE,FORSMAN & BODENFORS,SWEDEN
B27 Ambient,
PRISON,CHECKSTOP,DRINK DRIVING PREVENTION,MacLAREN McCANN,CANADA
PEEP HOLE,UNILEVER ARABIA,AXE DEODORANT,LOWE & PARTNERS DUBAI,UNITED ARAB EMIRATES
BOOMGATE,PROCTER & GAMBLE,IAMS DOG FOOD,SAATCHI & SAATCHI,AUSTRALIA
WHEELCHAIR,NATIONAL COALITION FOR GUN,GUN CONTROL,SAATCHI & SAATCHI,AUSTRALIA
,CONTROL
TOILET PAPER,MUSEUM OF TORTURE,TORTURE MUSEUM,LEO BURNETT ADVERTISING,CZECH REPUBLIC
TEAR OFF A PIANO KEY,H. VAN HAEGEN,PIANO TEACHER,LEO BURNETT BELGIUM,BELGIUM
BALLERINA,JOFFREY BALLET SCHOOL,BALLET SCHOOL,SAATCHI & SAATCHI,USA
POTATO,REYNOLDS,HEAVY DUTY FOIL,SAATCHI & SAATCHI,USA
SHADY PALM TREE,TUI DEUTSCHALND,TUI TOUR OPERATOR,JUNG von MATT GERMANY,GERMANY
RUA ASSUNCAO,GOL LINHAS AEREAS,AIRLINE,ALMAPBBDO,BRAZIL
LITTER BINS,CITY MISSION,HELP THE HOMELESS MESSAGE,OGILVY SOUTH AFRICA,SOUTH AFRICA
WATER BOTTLES,CITY OF CAPE TOWN,WATER RESOURCE PRESERVATION,OGILVY SOUTH AFRICA,SOUTH AFRICA
SNIFF,PURINO ALPO,DOG FOOD,OGILVY SOUTH AFRICA,SOUTH AFRICA
MOUTH,BITS SIN FRONTERAS,THIRD WORLD AWARENESS,ZAPPING,SPAIN
RED CARPET,SITGES SCI-FI & FILM FESTIVAL,FILM FESTIVAL,VITRUVIO LEO BURNETT,SPAIN
BOTTOMLESS ELEVATOR,SONY COMPUTER ENTERTAINMENT,PLAYSTATION2,TBWA\GERMANY,GERMANY
,DEUTSCHLAND
FOUNTAIN,KIMBERLY-CLARK TRADING (MALAYSIA),SCOTT KITCHEN TOWELS,JWT MALAYSIA,MALAYSIA
RUN,VIP GYM,GYM,PUBLICIS SALLES NORTON,BRAZIL
SANDWICH MAN (HAIR),VOLKSWAGEN,VW PARTICLE FILTER,AGENCE .V.,FRANCE
SANDWICH MAN (BALD),VOLKSWAGEN,VW PARTICLE FILTER,AGENCE .V.,FRANCE
WHEEL THEFT,SLW INSURANCE BROKER,CAR INSURANCE,VENIVIDI,GERMANY
LOO,FAME ADLABS,SPIDERMAN FILM SCREENING,CONTRACT ADVERTISING (INDIA),INDIA
LIGHTBULB,THE ECONOMIST,MAGAZINE,ABBOTT MEAD VICKERS.BBDO,UNITED KINGDOM
STIFF NECK,ACHÉ,BIOFENAC PAIN RELIEF,OGILVY BRASIL,BRAZIL
SHOES,NAGAYAMA JAPANESE RESTAURANT,JAPANESE RESTAURANT,OGILVY BRASIL,BRAZIL
YELLOW WALL CLIMBER,CASA DE PEDRA,CLIMBING GYM,OGILVY BRASIL,BRAZIL
SAND WALL CLIMBER,CASA DE PEDRA,CLIMBING GYM,OGILVY BRASIL,BRAZIL
ICE CAR,VOLKSWAGEN,VW POLO,DDB LONDON,UNITED KINGDOM
TREES,AUCKLAND REGIONAL COUNCIL,SAVE A TREE CAMPAIGN,COLENSO BBDO,NEW ZEALAND
LAMP TREE,AUCKLAND REGIONAL CAMPAIGN,SAVE A TREE CAMPAIGN,COLENSO BBDO,NEW ZEALAND
CARGO 2,FIAT AUTOMOTIVE,FIAT DUCATO,LEO BURNETT BRASIL,BRAZIL
CARGO 3,FIAT AUTOMOTIVE,FIAT DUCATO,LEO BURNETT BRASIL,BRAZIL
IBIZA,ABSOLUT,VODKA,TBWA\PARIS,FRANCE
TEMPTATION,ABSOLUT,VODKA,TBWA\PARIS,FRANCE
ONE PICTURE,CANON,POWERSHOT CAMERA,TBWA\PARIS,FRANCE
IVORY BUILDING AUCKLAND,PATON,FERTILISER,PUBLICIS MOJO,NEW ZEALAND
IVORY BUILDING MELBOURNE,PATON,FERTILISER,PUBLICIS MOJO,NEW ZEALAND
SPEED,NIKE,NIKE SPORTS APPAREL,OGILVY & MATHER,SINGAPORE
BENT LAMPOST,NIKE,NIKE SPORTS APPAREL,OGILVY & MATHER,SINGAPORE
PAPER CUP,ALL BLACK IRISH PUB,BAR,PUBLICIS SALLES NORTON,BRAZIL
DRAIN,SAMU SOCIAL,HOMELESS AWARENESS,TBWA\PARIS,FRANCE
SIDE-IMPACT,MERCEDES-BENZ,A-CLASS,SPRINGER & JACOBY WERBUNG,GERMANY
