MEDIA LIONS WINNERS 2013,
Title,Advertiser/Client,Product/Service,Entrant Company,Country,Media Agency,Country
Grand Prix,,,,,,* indicates Entrant Company
WHY WAIT UNTIL IT'S TOO,FUNERAL INSURANCE COMPANY,DELA BRAND,OGILVY & MATHER,THE,"MEDIAVALUE, Eindhoven",THE
LATE?,DELA,,AMSTERDAM *,NETHERLANDS,,NETHERLANDS
Gold Lion,,,,,,* indicates Entrant Company
BACK TO VINYL - THE,KONTOR RECORDS,KONTOR RECORDS,"OGILVY GERMANY,",GERMANY
OFFICE TURNTABLE,,,Düsseldorf *
POTABLE WATER,THE UNIVERSITY OF ENGINEERING,ADMISSIONS 2013,"MEDIA CONNECTION BPN,",PERU
GENERATOR,AND TECHNOLOGY,,Lima *
MAKE THE POLITICIANS,URA.RU CITY WEBSITE,URA.RU CITY WEBSITE,"VOSKHOD, Yekaterinburg *",RUSSIA
WORK,
IBM OUTDOOR AS UTILITY,IBM,SMARTER CITIES,"OGILVY FRANCE, Paris *",FRANCE
SMALL WORLD MACHINES,COCA-COLA,COCA-COLA,LEO BURNETT SYDNEY *,AUSTRALIA
DUMB WAYS TO DIE,METRO TRAINS,METRO TRAINS,McCANN MELBOURNE *,AUSTRALIA
KLEENEX CATCHES COLDS,KIMBERLY CLARK,KLEENEX,,,"MINDSHARE WW,",UNITED
,,,,,London *,KINGDOM
FACEBOOK 1914,MUSÉE DE LA GRANDE GUERRE,MUSÉE DE LA GRANDE GUERRE DU,DDB PARIS *,FRANCE
,DU PAYS DE MEAUX,PAYS DE MEAUX
REAL BEAUTY SKETCHES,UNILEVER,DOVE MASTERBRAND,"OGILVY BRASIL, São Paulo *",BRAZIL,"PHD, London",UNITED
,,,,,,KINGDOM
TRACK MY MACCA'S,McDONALD'S AUSTRAILA,CORE MENU,"DDB, Sydney *",AUSTRALIA,"OMD AUSTRALIA,",AUSTRALIA
,,,,,Pyrmont
A MILLION REASONS TO,COCA-COLA,COKE,,,"INITIATIVE, Bangkok *",THAILAND
BELIEVE IN THAILAND,
THANK YOU MOM,P&G,OLYMPICS CAMPAIGN; CORPORATE,,,"CARAT, New York *",USA
,,IMAGE AND REPUTATION
A MILLION REASONS TO,COCA-COLA,COKE,,,"INITIATIVE, Bangkok *",THAILAND
BELIEVE IN THAILAND,
AQUA SOCIAL FES!!,TOYOTA MARKETING JAPAN,AQUA,"DENTSU, Tokyo *",JAPAN
,CORPORATION
SAVE 11,ALLSTATE,INSURANCE,LEO BURNETT CHICAGO,USA,STARCOM MEDIAVEST,USA
"GROUP, Chicago *",
POTABLE WATER,THE UNIVERSITY OF ENGINEERING,,"MEDIA CONNECTION BPN,"
,,ADMISSIONS 2013,,PERU
GENERATOR,AND TECHNOLOGY,,Lima *
McDONALD'S BECOMES,McDONALD'S AUSTRAILA,AUSSIE TASTES MENU,"DDB, Sydney *",AUSTRALIA,"OMD AUSTRALIA,",AUSTRALIA
MACCA'S,,,,,Pyrmont
IBM OUTDOOR AS UTILITY,IBM,SMARTER CITIES,"OGILVY FRANCE, Paris *",FRANCE
Silver Lion,,,,,,* indicates Entrant Company
CONVERSATIONS START,AOL HUFFINGTON POST MEDIA,HUFFINGTON POST UK,"GRAVITY ROAD, London *",UNITED
HERE,GROUP UK,,,KINGDOM
MARIACHI CHRISTMAS,PEPSICO,DORITOS,ABBOTT MEAD VICKERS,UNITED,"OMD UK, London *",UNITED
,,,"BBDO, London",KINGDOM,,KINGDOM
MOBILIZING THE 12TH MAN,C. S. HAMMAM-LIF,FOOTBALL CLUB,MEMAC OGILVY LABEL,TUNISIA
,,,"TUNISIA, Tunis *"
NIVEA - SOLAR CHARGER,NIVEA,NIVEA SUN,"GIOVANNI+DRAFTFCB, São",BRAZIL
,,,Paulo *
,,SITUATION STOCKHOLM IS A,,,"CLEAR CHANNEL,"
CV CAMPAIGN,SITUATION STOCKHOLM,MAGAZINE SOLD BY HOMELESS,"INGO, Stockholm *",SWEDEN,Stockholm,SWEDEN
,,PEOPLE IN STOCKHOLM
SHED LIGHT ON RAPE,JHHESA,BROTHERS FOR LIFE,"JOE PUBLIC, Johannesburg *",SOUTH AFRICA
LIBERATION WRAPPER,FRESHNESS BURGER,CLASSIC BURGER,"DENTSU, Tokyo *",JAPAN
DENGUE BOTTLE,MAYNILAD WATER SERVICES,ANTI-DENGUE FEVER CAMPAIGN,"Y&R PHILIPPINES, Manila *",THE
,,,,PHILIPPINES
THE GERM STAMP,PROCTER & GAMBLE,SAFEGUARD SOAP,"SAATCHI & SAATCHI,",SINGAPORE
,,,Singapore *
DIGITAL PUBLIC LIBRARY,VODAFONE ROMANIA,MOBILE INTERNET,"McCANN ERICKSON,",ROMANIA,"UM ROMANIA, Bucharest",ROMANIA
,,,Bucharest *
McDONALD'S BECOMES,McDONALD'S AUSTRAILA,AUSSIE TASTES MENU,"DDB, Sydney *",AUSTRALIA,"OMD AUSTRALIA,",AUSTRALIA
MACCA'S,,,,,Pyrmont
PAR-KING,SMART VERTRIEBS,SMART FORTWO,"BBDO GERMANY, Berlin *",GERMANY
MAKE IT TO MUSE,STUDIO BRUSSELS,MUSIC FOR LIFE,"MORTIERBRIGADE,",BELGIUM,"VRT, Brussels",BELGIUM
,,,Brussels *
MEANAMORPHOSIS,PROCTER & GAMBLE,SECRET DEODORANT,LEO BURNETT CHICAGO *,USA,STARCOM MEDIAVEST,USA
,,,,,"GROUP, Chicago"
DIGITAL EARTH HOUR,WWF CHINA,EARTH HOUR,"BBH CHINA, Shanghai *",CHINA
COINOFFERS COINS FOR,McDONALD’S,COINOFFERS,"DDB COPENHAGEN,",DENMARK,"OMD DENMARK,",DENMARK
CLICKS,,,Copenhagen *,,Copenhagen
THE TRAIN SWITCH,SWEBUS,LONG DISTANCE BUS COMPANY,"ÅKESTAM HOLST,",SWEDEN
,,,Stockholm *
SCREEN-AGE LOVE STORY,PLDT,MYDSL,"ACE SAATCHI & SAATCHI,",THE
,,,Manila *,PHILIPPINES
OREO DAILY TWIST,MONDELEZ INTERNATIONAL,OREO,"DRAFTFCB, New York *",USA,"MEDIAVEST, New York",USA
DUMB WAYS TO DIE,METRO TRAINS,METRO TRAINS,McCANN MELBOURNE *,AUSTRALIA
#DAMMIPIÙVOCE - TURN,COORDOWN ONLUS,WORLD DOWN SYNDROME DAY,"SAATCHI & SAATCHI, Milan *",ITALY
UP MY VOICE,
PAR-KING,SMART VERTRIEBS,SMART FORTWO,"BBDO GERMANY, Berlin *",GERMANY
,,,,,ROBOT
THE HIGHEST GOAL,ADIDAS JAPAN K.K.,FOOTBALL,"TBWA\HAKUHODO, Tokyo *",JAPAN,"COMMUNICATIONS,",JAPAN
,,,,,Tokyo
1000 STORES,YIHAODIAN,E-GROCERY,OGILVY & MATHER,CHINA
,,,SHANGHAI *
WHAT DOES ABSOLUTE,PERNOD RICARD,ABSOLUT VODKA,"SANCHO BBDO, Bogotá",COLOMBIA,,"PHD COLOMBIA, Bogotá *  COLOMBIA"
SOUND LIKE?,
LONGER MERRY,HEINEKEN,HEINEKEN,JWT SAN JUAN *,PUERTO RICO,"MINDSHARE WW, San",PUERTO RICO
CHRISTMAS,,,,,Juan
THE GERM STAMP,PROCTER & GAMBLE,SAFEGUARD SOAP,"SAATCHI & SAATCHI,",SINGAPORE
,,,Singapore *
#YOUDRIVE,MERCEDES-BENZ,A-CLASS,ABBOTT MEAD VICKERS,UNITED,MAXUS GLOBAL *,UNITED
,,,"BBDO, London",KINGDOM,,KINGDOM
THE GAP IN THE MARKET,KBC,KBC ENTREPRENEURS,"TBWA\BELGIUM, Brussels *",BELGIUM
GOLD MEDAL WINNER,ROYAL MAIL,ROYAL MAIL STAMPS,,,"UM, London *",UNITED
STAMPS,,,,,,KINGDOM
#BESTNIGHTEVER,ASOS,WOMENSWEAR,"ASOS, London",UNITED,"CARAT, London *",UNITED
,,,,KINGDOM,,KINGDOM
I'M AMAZING,McDONALD’S RESTAURANTS,RESTAURANTS,DDB GROUP HONG KONG *,HONG KONG,OMD HONG KONG,HONG KONG
SHARE THE NEWSPAPER,THE TOKYO SHIMBUN,THE TOKYO SHIMBUN,"DENTSU, Tokyo *",JAPAN
WITH CHILDREN,
THE POWER OF,NEWSPAPERWORK,MARKETINGPLATFORM OF ALL,DUVAL GUILLAUME,BELGIUM
NEWSPAPER,,BELGIAN NEWSPAPERS,"MODEM, Antwerp *"
WHY WAIT UNTIL IT'S TOO,FUNERAL INSURANCE COMPANY,DELA BRAND,OGILVY & MATHER,THE,"MEDIAVALUE, Eindhoven",THE
LATE?,DELA,,AMSTERDAM *,NETHERLANDS,,NETHERLANDS
WHITE FLAG,MISSING CHILDREN,MISSING CHILDREN´S WHITE FLAG,"ALMACEN, Olivos *",ARGENTINA,"ALMACEN, Olivos",ARGENTINA
MISSING CHILDREN,MAES DA SE,MAES DA SE,"AFRICA, Sao Paulo *",BRAZIL
GREEN SIN,SAMBITO,RECYCLING CAMPAIGN,"MARURI GREY, Guayaquil *",ECUADOR
Bronze Lion,,,,,,* indicates Entrant Company
BRING HAPPINESS HOME,PEPSICO,"PEPSI, LAY'S, TROPICANA","BBDO CHINA, Shanghai",CHINA,"OMD CHINA, Shanghai *   CHINA"
LONGER MERRY,HEINEKEN,HEINEKEN,JWT SAN JUAN *,PUERTO RICO,"MINDSHARE WW, San",PUERTO RICO
CHRISTMAS,,,,,Juan
RADIO AMBULANCE,AER (ECUADORIAN RADIO,CORPORATE IMAGE CAMPAIGN,"MARURI GREY, Guayaquil *",ECUADOR
,ASSOCIATION)
YOU READ THEY LEARN,HINDUSTAN TIMES,NEWSPAPER,"LOWE + PARTNERS,",UNITED
,,,London *,KINGDOM
THE LIGHTEST AD EVER,ALPARGARTAS,MIZUNO MORELIA NEO,"TALENT, São Paulo *",BRAZIL
UNITY PAPER,WIJEYA NEWSPAPERS LIMITED &,ADA NEWSPAPER,"LEO BURNETT SOLUTIONS,",SRI LANKA,"STARCOM, Colombo",SRI LANKA
,ADA NEWSPAPER,,Colombo *
AMPLIFIER,COCA-COLA,COCA-COLA FM,"JWT BRAZIL, São Paulo *",BRAZIL
WINDOW PINTS,DIAGEO,GUINNESS,"GREY GROUP CANADA,",CANADA
,,,Toronto *
A LOJA VAZIA,SHOPPING VILLALOBOS,SHOPPING VILLALOBOS,"LODUCCA, São Paulo *",BRAZIL
MOVING THE STORE,IKEA,IKEA,"SMFB, Oslo *",NORWAY,"MEDIACOM, Oslo",NORWAY
GOOGLE+ DIGITAL,GOOGLE,GOOGLE+,"GOOGLE UK, London *",UNITED
SIGNINGS,,,,KINGDOM
THE PROFITEERS,FIORUCCI FOOD,COLD CUTS,"McCANN WORLDGROUP,",ITALY
,,,Milan *
FASTLINE,FASTWEB,INTERNET - OPTICAL FIBER,"M&C SAATCHI, Milan *",ITALY
,,,,,IKON
ROAD TO RECOVERY,DIAGEO AUSTRALIA,BUNDABERG RUM,LEO BURNETT SYDNEY *,AUSTRALIA,"COMMUNICATIONS,",AUSTRALIA
,,,,,Sydney
POKER,CARLSBERG,CARLSBERG,DUVAL GUILLAUME,BELGIUM
,,,"MODEM, Antwerp *"
JOURNEY OF HOPE,KFC,KFC ADD HOPE,OGILVY & MATHER,SOUTH AFRICA,"MEC ACCESS,",SOUTH AFRICA
,,,JOHANNESBURG *,,Johannesburg
THE ALCOHOL BARRIER,RESPONSIBLE YOUNG DRIVERS,NGO,PUBLICIS BRUSSELS *,BELGIUM,"BEPARK, Gent",BELGIUM
,(RYD)
THE LAST MEAL:,AMNESTY INTERNATIONAL,AMNESTY INTERNATIONAL,"DDB LATINA PUERTO RICO,",PUERTO RICO
RESTAURANT,,,San Juan *
,DIAKONIE FRANKFURT &,"DIAKONIE FRANKFURT & PARTNERS,"
DAYS OF HOPE,"PARTNERS, SAMUSOCIAL,","SAMUSOCIAL, SPRAVEDLIVAYA",,"SAATCHI & SAATCHI, Berlin * GERMANY"
,"SPRAVEDLIVAYA POMOSCH,","POMOSCH, SHELTER, SOZIA"
,"SHELTER, SOZIA"
SERIOUS PLAY,HSBC,HSBC,JWT LONDON *,UNITED,"MINDSHARE WW,",UNITED
,,,,KINGDOM,London,KINGDOM
GEOX AMPHIBIOX,GEOX,AMPHIBIOX URBAN WATERPROOF,"SMFB, Oslo *",NORWAY,"MEC NORWAY, Oslo",NORWAY
,,SHOES
WINDOW SHOPPING,ADIDAS,ADIDAS NEO,TBWA\HELSINKI *,FINLAND
FREE WI-FI,McDONALD'S SISTEMAS DE,McDONALD'S,"TBWA\ESPAÑA, Madrid *",SPAIN,"OMD SPAIN, Madrid",SPAIN
,ESPAÑA
NAWRAS PIGGYBACKING,NAWRAS,WIFI,LEO BURNETT DUBAI *,UNITED ARAB
,,,,EMIRATES
THE FUTURE OF THE,,,,UNITED,,UNITED
FASHION SHOW BY,IN HOUSE (TOPSHOP),TOPSHOP UNIQUE FASHION SHOW,"TOPSHOP, London *",KINGDOM,"TOPSHOP, London",KINGDOM
TOPSHOP,
SHE RUNS THE NIGHT,NIKE,WOMEN'S RUNNING,"JOY., Sydney *",AUSTRALIA,"RAZOR, East Redfern",AUSTRALIA
,,,,UNITED,,UNITED
TORCHVIEW,LLOYDS BANKING GROUP,LLOYDS TSB,"MEC, London *",,"MEC, London"
,,,,KINGDOM,,KINGDOM
NIKE GREATNESS,NIKE,NIKE,"WIEDEN+KENNEDY,",CHINA,"MINDSHARE WW,",CHINA
,,,Shanghai *,,Shanghai
WELCOME TO SMALL,AMERICAN EXPRESS,AMERICAN EXPRESS,"DIGITAS, New York *",USA,"MINDSHARE WW, New",USA
BUSINESS SATURDAY,,,,,York
WINDOW SHOPPING,ADIDAS,ADIDAS NEO,TBWA\HELSINKI *,FINLAND
LEND AN EYE,EUREKA CALL CENTRE SYSTEM (S),AWARENESS,GREY GROUP SINGAPORE * SINGAPORE
,THE WORD ON THE STREET THE ECONOMIST GROUP,MAGAZINE,"FHV BBDO, Amsterdam *",THE,"PHD GERMANY,",GERMANY
,,,,NETHERLANDS,Frankfurt
OLYMPIC SHIRT FLAG,PROCTER & GAMBLE PHILIPPINES,LAUNDRY DETERGENT,"ACE SAATCHI & SAATCHI,",THE
,,,Manila *,PHILIPPINES
,,,,,IKON
ROAD TO RECOVERY,DIAGEO AUSTRALIA,BUNDABERG RUM,LEO BURNETT SYDNEY *,AUSTRALIA,"COMMUNICATIONS,",AUSTRALIA
,,,,,Sydney
REAL BEAUTY SKETCHES,UNILEVER,DOVE MASTERBRAND,"OGILVY BRASIL, São Paulo *",BRAZIL,"PHD, London",UNITED
,,,,,,KINGDOM
BEDTIME STORIES,CALIFORNIA MILK PROCESSING,MILK,"GRUPO GALLEGOS,",USA
,BOARD,,HUNTINGTON BEACH *
MEAT SNACKING HELMET,KERRY FOODS,MATTESSONS FRIDGE RAIDERS,"SAATCHI & SAATCHI,",UNITED,"VIZEUM, London",UNITED
,,,London *,KINGDOM,,KINGDOM
SMALL WORLD MACHINES,COCA-COLA,COCA-COLA,LEO BURNETT SYDNEY *,AUSTRALIA
THE BEETLE SHARK CAGE,VOLKSWAGEN,VW BEETLE,"DISCOVERY CHANNEL,",USA,"MEDIACOM, New York *",USA
,,,Silver Spring
LAUNCH SITE ON EBAY,VOLVO GROUP SWEDEN,THE NEW VOLVO FH,"FORSMAN & BODENFORS,",SWEDEN
,,,Gothenburg *
THE GAME OF YOUR LIFE,OZYEGIN UNIVERSITY,SOCIAL MEDIA,"41?29!, Istanbul *",TURKEY
SCREEN-AGE LOVE STORY,PLDT,MYDSL,"ACE SAATCHI & SAATCHI,",THE
,,,Manila *,PHILIPPINES
NAWRAS PIGGYBACKING,NAWRAS,WIFI,LEO BURNETT DUBAI *,UNITED ARAB
,,,,EMIRATES
YOUR BETTER STARTS,FGL SPORT,SPORT CHEK,,,"TOUCHE! PHD, Montréal *",CANADA
HERE,
WATERDROP AD,DOMINO'S PIZZA,PIZZA,"INNOCEAN WORLDWIDE,",SOUTH KOREA
,,,Seoul *
A RING TO BRING THEM,McDONALD’S,RONALD McDONALD FOUNDATION,LEO BURNETT MOSCOW *,RUSSIA,"OPTIMUM MEDIA OMD,",RUSSIA
CLOSER,,,,,Moscow
MY-NNEQUIN,APSA CENTROS COMERCIALES,DOT BAIRES SHOPPING,"DAVID, Buenos Aires *",ARGENTINA
MAKE THE POLITICIANS,URA.RU CITY WEBSITE,URA.RU CITY WEBSITE,"VOSKHOD, Yekaterinburg *",RUSSIA
WORK,
"MINDSHARE WW,",
SKY LIVESPOTS,SKY,SKY,"SERVICEPLAN, Munich *",GERMANY,,GERMANY
,,,,,Frankfurt
REAL BEAUTY SKETCHES,UNILEVER,DOVE MASTERBRAND,"OGILVY BRASIL, São Paulo *",BRAZIL,"PHD, London",UNITED
,,,,,,KINGDOM
,,,BINDER VISAO
TINY HOLE,HEMORIO,BLOOD BANK,"ESTRATEGICA, Rio De",BRAZIL
,,,Janeiro *
FLASH DRIVING GAME,NEW ZEALAND TRANSPORT,SLOW DOWN - YOUNG MALES,"CLEMENGER BBDO,",NEW ZEALAND,"OMD, Wellington *",NEW ZEALAND
,AGENCY,,Wellington
BRIDGE OF LIFE,SAMSUNG LIFE INSURANCE,SAMSUNG LIFE INSURANCE,"CHEIL WORLDWIDE, Seoul *",SOUTH KOREA
FRAME OF SPEECH,AMNESTY INTERNATIONAL,AMNESTY INTERNATIONAL,GREY ISTANBUL *,TURKEY
SAVE 11,ALLSTATE,INSURANCE,LEO BURNETT CHICAGO,USA,STARCOM MEDIAVEST,USA
,,,,,"GROUP, Chicago *"
FOLLOW2UNFOLLOW-,PUERTO RICO GOVERNMENT,CORRECTIONAL AND REHABILITATION,,,STARCOM MEDIAVEST,PUERTO RICO
,,DEPARTMENT,,,"GROUP, San Juan *"
FREE THE FORCED!,UNITED NATIONS ASSOCIATION OF,UNITED NATIONS CAMPAIGN AGAINST,"CHEIL GERMANY,",GERMANY
,GERMANY,FORCED MARRIAGE,Schwalbach *
RADIO AMBULANCE,AER (ECUADORIAN RADIO,CORPORATE IMAGE CAMPAIGN,"MARURI GREY, Guayaquil *",ECUADOR
ASSOCIATION),
